[Event "Copenhagen Chess Challenge 2014"]
[Site "?"]
[Date "2014.05.17"]
[Round "6.1"]
[White "Fries-Nielsen, Jens Ove"]
[Black "Mikkelsen, Nikolaj"]
[Result "*"]
[LiveChessVersion "1.4.2"]
[BlackElo "2430"]
[WhiteElo "2384"]
[ECO "A45"]

1. d4 {[%clk 1:29:40]} Nf6 {[%clk 1:30:51]} 2. Bf4 {[%clk 1:29:53]} g6
{[%clk 1:25:13]} 3. Nc3 {[%clk 1:29:43]} d5 {[%clk 1:24:48]} 4. Nb5
{[%clk 1:28:22]} Na6 {[%clk 1:24:47]} 5. e3 {[%clk 1:28:43]} Bg7 {[%clk 1:19:01]}
6. Nf3 {[%clk 1:26:08]} O-O {[%clk 1:18:11]} 7. Be2 {[%clk 1:25:43]} c6
{[%clk 1:06:53]} 8. Nc3 {[%clk 1:25:56]} Nb8 {[%clk 1:01:08]} 9. O-O
{[%clk 1:25:08]} Nbd7 {[%clk 1:00:52]} 10. h3 {[%clk 1:24:44]} Re8
{[%clk 0:57:00]} 11. Bh2 {[%clk 1:23:38]} b6 {[%clk 0:46:19]} *

[Event "Copenhagen Chess Challenge 2014"]
[Site "?"]
[Date "2014.05.17"]
[Round "6.2"]
[White "Semcesen, Daniel"]
[Black "Hoi, Carsten"]
[Result "*"]
[LiveChessVersion "1.4.2"]
[BlackElo "2397"]
[WhiteElo "2513"]
[ECO "E71"]

1. d4 {[%clk 1:30:09]} Nf6 {[%clk 1:29:34]} 2. c4 {[%clk 1:30:19]} g6
{[%clk 1:29:11]} 3. Nc3 {[%clk 1:30:20]} Bg7 {[%clk 1:29:34]} 4. e4
{[%clk 1:30:37]} d6 {[%clk 1:29:58]} 5. h3 {[%clk 1:31:00]} c5 {[%clk 1:25:48]}
6. d5 {[%clk 1:30:34]} O-O {[%clk 1:24:55]} 7. Nf3 {[%clk 1:30:50]} a6
{[%clk 1:23:34]} 8. a4 {[%clk 1:27:49]} e5 {[%clk 1:18:19]} 9. g4
{[%clk 1:26:10]} Nbd7 {[%clk 1:10:58]} 10. Be3 {[%clk 1:23:53]} Rb8
{[%clk 1:04:50]} 11. Nd2 {[%clk 1:17:41]} Qe7 {[%clk 1:00:50]} 12. Be2
{[%clk 1:15:50]} Ne8 {[%clk 0:56:19]} *

[Event "Copenhagen Chess Challenge 2014"]
[Site "?"]
[Date "2014.05.17"]
[Round "6.3"]
[White "Ziska, Helgi Dam"]
[Black "Hansen, Mads"]
[Result "*"]
[LiveChessVersion "1.4.2"]
[BlackElo "2358"]
[WhiteElo "2491"]
[ECO "C50"]

1. e4 {[%clk 1:28:53]} e5 {[%clk 1:30:50]} 2. Nf3 {[%clk 1:28:48]} Nc6
{[%clk 1:31:11]} 3. Bc4 {[%clk 1:28:49]} Bc5 {[%clk 1:31:24]} 4. d3
{[%clk 1:28:45]} Nf6 {[%clk 1:31:39]} 5. Bb3 {[%clk 1:27:20]} a6 {[%clk 1:31:45]}
6. h3 {[%clk 1:26:20]} Ba7 {[%clk 1:32:02]} 7. c3 {[%clk 1:24:38]} h6
{[%clk 1:27:16]} 8. Nbd2 {[%clk 1:21:35]} O-O {[%clk 1:27:14]} 9. Nh2
{[%clk 0:43:33]} *

[Event "Copenhagen Chess Challenge 2014"]
[Site "?"]
[Date "2014.05.17"]
[Round "6.4"]
[White "Danielsen, Henrik"]
[Black "Korley, Kassa"]
[Result "*"]
[LiveChessVersion "1.4.2"]
[BlackElo "2390"]
[WhiteElo "2483"]
[ECO "C44"]

1. e4 {[%clk 1:24:33]} e5 {[%clk 1:30:39]} 2. Nf3 {[%clk 1:24:12]} Nc6
{[%clk 1:31:00]} 3. d3 {[%clk 1:23:43]} Nf6 {[%clk 1:31:24]} 4. c3
{[%clk 1:23:42]} d5 {[%clk 1:26:16]} 5. Nbd2 {[%clk 1:24:01]} a5 {[%clk 1:26:17]}
6. Be2 {[%clk 1:24:21]} Be7 {[%clk 1:22:59]} 7. O-O {[%clk 1:24:37]} O-O 8. a4
{[%clk 1:16:18]} Re8 {[%clk 1:23:09]} 9. Re1 {[%clk 1:15:49]} Bf8
{[%clk 1:20:29]} 10. h3 {[%clk 1:13:48]} g6 {[%clk 1:20:00]} 11. exd5
{[%clk 1:11:31]} Nxd5 {[%clk 1:18:37]} 12. Nc4 {[%clk 1:11:33]} Bg7
{[%clk 1:17:41]} 13. Qb3 {[%clk 1:06:32]} h6 {[%clk 1:14:43]} 14. Qb5
{[%clk 1:05:05]} Na7 {[%clk 1:12:43]} 15. Qb3 {[%clk 1:04:12]} Nc6
{[%clk 1:11:00]} 16. Bd2 {[%clk 1:03:29]} b6 {[%clk 1:10:23]} 17. Rad1
{[%clk 1:02:41]} Bb7 {[%clk 1:10:18]} *

[Event "Copenhagen Chess Challenge 2014"]
[Site "?"]
[Date "2014.05.17"]
[Round "6.5"]
[White "Pedersen, Daniel Vesterbaek"]
[Black "Stefansson, Hannes"]
[Result "*"]
[LiveChessVersion "1.4.2"]
[BlackElo "2548"]
[WhiteElo "2244"]
[ECO "B22"]

1. e4 {[%clk 1:30:52]} c5 {[%clk 1:30:37]} 2. c3 {[%clk 1:31:09]} Nf6
{[%clk 1:29:22]} 3. e5 {[%clk 1:31:34]} Nd5 {[%clk 1:29:46]} 4. d4
{[%clk 1:32:01]} cxd4 {[%clk 1:29:47]} 5. Nf3 {[%clk 1:32:20]} e6
{[%clk 1:29:56]} 6. cxd4 {[%clk 1:32:45]} d6 {[%clk 1:30:06]} 7. Bc4
{[%clk 1:33:07]} Nb6 {[%clk 1:28:12]} 8. Bd3 {[%clk 1:33:07]} Nc6
{[%clk 1:26:12]} 9. O-O {[%clk 1:33:23]} dxe5 {[%clk 1:24:40]} 10. dxe5
{[%clk 1:33:28]} Nb4 {[%clk 1:24:13]} 11. Be4 {[%clk 1:33:41]} Qxd1
{[%clk 1:22:34]} 12. Rxd1 {[%clk 1:34:06]} N4d5 {[%clk 1:11:31]} 13. a4
{[%clk 1:18:01]} a5 {[%clk 1:11:34]} 14. Nc3 {[%clk 1:07:05]} Nxc3
{[%clk 1:11:23]} 15. bxc3 {[%clk 1:07:32]} Be7 {[%clk 1:07:06]} *

[Event "Copenhagen Chess Challenge 2014"]
[Site "?"]
[Date "2014.05.17"]
[Round "6.6"]
[White "Ochsner, Bjorn Moller"]
[Black "Hector, Jonny"]
[Result "*"]
[LiveChessVersion "1.4.2"]
[BlackElo "2511"]
[WhiteElo "2307"]
[ECO "D12"]

1. d4 {[%clk 1:30:57]} d5 {[%clk 1:30:54]} 2. c4 {[%clk 1:31:17]} c6
{[%clk 1:31:19]} 3. Nf3 {[%clk 1:31:32]} Nf6 {[%clk 1:31:44]} 4. e3
{[%clk 1:31:57]} Bf5 {[%clk 1:31:39]} 5. Nc3 {[%clk 1:32:00]} e6 {[%clk 1:31:48]}
6. Nh4 {[%clk 1:32:04]} Be4 {[%clk 1:31:06]} 7. f3 {[%clk 1:32:12]} Bg6
{[%clk 1:31:32]} 8. Qb3 {[%clk 1:32:14]} Qb6 {[%clk 1:31:44]} 9. Nxg6
{[%clk 1:32:27]} hxg6 {[%clk 1:32:03]} 10. Bd2 {[%clk 1:32:31]} Nbd7
{[%clk 1:32:13]} 11. g3 {[%clk 1:31:33]} Be7 {[%clk 1:31:39]} 12. O-O-O
{[%clk 1:31:27]} g5 {[%clk 1:28:51]} 13. Be2 {[%clk 1:06:46]} O-O-O
{[%clk 1:25:21]} 14. Kb1 {[%clk 1:01:36]} Qxb3 {[%clk 1:24:12]} 15. axb3
{[%clk 1:02:04]} Rh7 {[%clk 1:20:23]} 16. e4 {[%clk 0:52:34]} *

[Event "Copenhagen Chess Challenge 2014"]
[Site "?"]
[Date "2014.05.17"]
[Round "6.7"]
[White "Sylvan, Jacob"]
[Black "Westerinen, Heikki M.J."]
[Result "*"]
[LiveChessVersion "1.4.2"]
[BlackElo "2299"]
[WhiteElo "2348"]
[ECO "D27"]

1. d4 {[%clk 1:30:54]} d5 {[%clk 1:30:03]} 2. Nf3 {[%clk 1:30:48]} Nf6
{[%clk 1:28:34]} 3. c4 {[%clk 1:30:20]} dxc4 {[%clk 1:28:04]} 4. e3
{[%clk 1:30:14]} e6 {[%clk 1:27:04]} 5. Bxc4 {[%clk 1:30:13]} c5 {[%clk 1:26:57]}
6. O-O {[%clk 1:30:07]} a6 {[%clk 1:25:55]} 7. Bb3 {[%clk 1:29:57]} Nc6
{[%clk 1:09:45]} 8. Qe2 {[%clk 1:28:17]} Be7 {[%clk 1:06:27]} 9. dxc5
{[%clk 1:23:03]} Bxc5 {[%clk 1:00:56]} 10. e4 {[%clk 1:21:33]} Qc7
{[%clk 0:57:57]} 11. e5 {[%clk 1:19:45]} Nd5 {[%clk 0:47:50]} *

[Event "Copenhagen Chess Challenge 2014"]
[Site "?"]
[Date "2014.05.17"]
[Round "6.8"]
[White "Thorhallsson, Throstur"]
[Black "Haub, Thorsten Michael"]
[Result "*"]
[LiveChessVersion "1.4.2"]
[BlackElo "2441"]
[WhiteElo "2437"]
[ECO "C15"]

1. e4 {[%clk 1:30:56]} e6 {[%clk 1:30:38]} 2. d4 {[%clk 1:31:14]} d5
{[%clk 1:31:02]} 3. Nc3 {[%clk 1:31:17]} Bb4 {[%clk 1:31:27]} 4. exd5
{[%clk 1:25:10]} exd5 {[%clk 1:31:48]} 5. Bd3 {[%clk 1:25:35]} Nf6
{[%clk 1:29:46]} 6. Nge2 {[%clk 1:22:50]} O-O {[%clk 1:27:32]} 7. Bg5
{[%clk 1:21:51]} Re8 {[%clk 1:24:16]} 8. O-O {[%clk 1:17:24]} c6 {[%clk 1:23:34]}
9. f3 {[%clk 1:12:21]} Nbd7 {[%clk 1:19:56]} 10. Qd2 {[%clk 1:11:29]} Nf8
{[%clk 1:17:28]} 11. Ng3 {[%clk 1:04:35]} Ne6 {[%clk 1:14:18]} 12. Be3
{[%clk 1:04:01]} c5 {[%clk 1:12:48]} 13. Nge2 {[%clk 0:57:32]} *

[Event "Copenhagen Chess Challenge 2014"]
[Site "?"]
[Date "2014.05.17"]
[Round "6.9"]
[White "Thorfinnsson, Bragi"]
[Black "Pedersen, Nicolai Kvist Brondt"]
[Result "*"]
[LiveChessVersion "1.4.2"]
[BlackElo "2200"]
[WhiteElo "2459"]
[ECO "B12"]

1. e4 {[%clk 1:30:30]} c6 {[%clk 1:29:18]} 2. d4 {[%clk 1:30:58]} d5
{[%clk 1:29:36]} 3. e5 {[%clk 1:31:24]} c5 {[%clk 1:30:03]} 4. dxc5
{[%clk 1:23:29]} Nc6 {[%clk 1:27:31]} 5. Bb5 {[%clk 1:23:10]} Qc7
{[%clk 1:17:52]} 6. Qd4 {[%clk 1:01:39]} Bf5 {[%clk 1:14:32]} 7. Nc3
{[%clk 0:57:02]} e6 {[%clk 1:08:32]} *

[Event "Copenhagen Chess Challenge 2014"]
[Site "?"]
[Date "2014.05.17"]
[Round "6.10"]
[White "Larsen, Tor Ketil"]
[Black "Christensen, Tobias"]
[Result "*"]
[LiveChessVersion "1.4.2"]
[BlackElo "2368"]
[WhiteElo "2004"]
[ECO "B23"]

1. e4 {[%clk 1:30:57]} c5 {[%clk 1:30:57]} 2. Nc3 {[%clk 1:31:19]} d6
{[%clk 1:31:24]} 3. f4 {[%clk 1:30:04]} g6 {[%clk 1:31:22]} 4. Nf3
{[%clk 1:30:11]} Bg7 {[%clk 1:31:46]} 5. d3 {[%clk 1:29:50]} Nc6 {[%clk 1:32:02]}
6. Be3 {[%clk 1:29:26]} e6 {[%clk 1:30:59]} 7. g3 {[%clk 1:29:38]} Qb6
{[%clk 1:28:40]} 8. Rb1 {[%clk 1:26:56]} Nge7 {[%clk 1:27:48]} 9. Bg2
{[%clk 1:26:40]} d5 {[%clk 1:27:15]} 10. Bf2 {[%clk 1:24:43]} d4 {[%clk 1:21:38]}
11. Ne2 {[%clk 1:25:06]} e5 {[%clk 1:18:25]} 12. O-O {[%clk 1:24:37]} Be6
{[%clk 1:17:17]} 13. b3 {[%clk 1:24:16]} Qc7 {[%clk 1:13:56]} 14. Ng5
{[%clk 1:19:11]} Bg4 {[%clk 1:12:34]} 15. fxe5 {[%clk 1:11:04]} Nxe5
{[%clk 1:11:38]} 16. h3 {[%clk 1:11:04]} h6 {[%clk 1:08:34]} 17. hxg4
{[%clk 1:05:47]} hxg5 {[%clk 1:08:43]} *

[Event "Copenhagen Chess Challenge 2014"]
[Site "?"]
[Date "2014.05.17"]
[Round "6.11"]
[White "Sahl, Bjarke"]
[Black "De Blecourt, Sandra"]
[Result "*"]
[LiveChessVersion "1.4.2"]
[BlackElo "2121"]
[WhiteElo "2368"]
[ECO "C02"]

1. e4 {[%clk 1:27:00]} e6 {[%clk 1:30:51]} 2. d4 {[%clk 1:27:26]} d5
{[%clk 1:31:16]} 3. e5 {[%clk 1:27:53]} c5 {[%clk 1:31:34]} 4. c3
{[%clk 1:28:20]} Nc6 {[%clk 1:31:52]} 5. Nf3 {[%clk 1:28:46]} Bd7
{[%clk 1:32:02]} 6. a3 {[%clk 1:29:12]} f6 {[%clk 1:28:14]} 7. Bb5
{[%clk 1:28:49]} Nxe5 {[%clk 1:14:38]} 8. Bxd7+ {[%clk 1:29:07]} Nxd7
{[%clk 1:14:52]} 9. O-O {[%clk 1:29:34]} Qb6 {[%clk 1:06:40]} 10. dxc5
{[%clk 1:29:56]} Bxc5 {[%clk 1:04:29]} 11. b4 {[%clk 1:30:18]} Bd6
{[%clk 1:04:50]} 12. Be3 {[%clk 1:29:58]} Qc7 {[%clk 1:05:00]} 13. Nd4
{[%clk 1:30:23]} Kf7 {[%clk 0:58:19]} 14. f4 {[%clk 1:28:48]} a6 {[%clk 0:57:53]}
15. Nd2 {[%clk 1:14:27]} *

[Event "Copenhagen Chess Challenge 2014"]
[Site "?"]
[Date "2014.05.17"]
[Round "6.12"]
[White "Mueller, Reinhold"]
[Black "Vesterli, Michael E."]
[Result "*"]
[LiveChessVersion "1.4.2"]
[BlackElo "2107"]
[WhiteElo "2282"]
[ECO "E77"]

1. d4 {[%clk 1:30:58]} Nf6 {[%clk 1:30:55]} 2. c4 {[%clk 1:31:18]} g6
{[%clk 1:31:17]} 3. Nc3 {[%clk 1:31:27]} Bg7 {[%clk 1:31:41]} 4. e4
{[%clk 1:31:47]} d6 {[%clk 1:32:07]} 5. f4 {[%clk 1:32:08]} O-O {[%clk 1:32:29]}
6. Nf3 {[%clk 1:32:33]} c5 {[%clk 1:32:51]} 7. d5 {[%clk 1:32:57]} e6
{[%clk 1:33:15]} 8. Be2 {[%clk 1:33:15]} exd5 {[%clk 1:33:37]} 9. cxd5
{[%clk 1:33:29]} Bg4 {[%clk 1:33:53]} 10. O-O {[%clk 1:32:18]} Nbd7
{[%clk 1:34:13]} 11. h3 {[%clk 1:31:54]} Bxf3 {[%clk 1:34:37]} 12. Bxf3
{[%clk 1:32:18]} Re8 {[%clk 1:34:58]} 13. Re1 {[%clk 1:32:11]} a6
{[%clk 1:34:30]} 14. a4 {[%clk 1:25:06]} Qa5 {[%clk 1:34:16]} 15. Bd2
{[%clk 1:22:55]} c4 {[%clk 1:29:58]} *

[Event "Copenhagen Chess Challenge 2014"]
[Site "?"]
[Date "2014.05.17"]
[Round "6.13"]
[White "Sorensen, Per Settergren"]
[Black "Englert, Fabian"]
[Result "*"]
[LiveChessVersion "1.4.2"]
[BlackElo "2310"]
[WhiteElo "2021"]
[ECO "B03"]

1. e4 {[%clk 1:30:55]} Nf6 {[%clk 1:30:53]} 2. e5 {[%clk 1:30:26]} Nd5
{[%clk 1:31:17]} 3. d4 {[%clk 1:30:48]} d6 {[%clk 1:31:41]} 4. c4
{[%clk 1:31:07]} Nb6 {[%clk 1:32:04]} 5. exd6 {[%clk 1:31:31]} cxd6
{[%clk 1:32:15]} 6. Nc3 {[%clk 1:30:17]} g6 {[%clk 1:32:20]} 7. Be3
{[%clk 1:29:59]} Bg7 {[%clk 1:32:38]} 8. b3 {[%clk 1:29:01]} O-O {[%clk 1:31:41]}
9. Nf3 {[%clk 1:25:09]} Bg4 {[%clk 1:26:21]} 10. Be2 {[%clk 1:24:30]} Nc6
{[%clk 1:25:48]} 11. Rc1 {[%clk 1:23:07]} d5 {[%clk 1:25:21]} 12. c5
{[%clk 1:20:57]} Nc8 {[%clk 1:25:42]} 13. Qd2 {[%clk 1:08:13]} e6
{[%clk 1:23:57]} 14. h3 {[%clk 1:03:03]} Bxf3 {[%clk 1:23:51]} 15. Bxf3
{[%clk 1:03:30]} N8e7 {[%clk 1:23:48]} 16. g4 {[%clk 0:58:51]} f5
{[%clk 1:18:53]} 17. Ne2 {[%clk 0:54:45]} *

[Event "Copenhagen Chess Challenge 2014"]
[Site "?"]
[Date "2014.05.17"]
[Round "6.14"]
[White "Thuesen, Mogens"]
[Black "Nyland, Thomas"]
[Result "*"]
[LiveChessVersion "1.4.2"]
[BlackElo "2043"]
[WhiteElo "2235"]
[ECO "E46"]

1. d4 {[%clk 1:30:58]} Nf6 {[%clk 1:27:07]} 2. c4 {[%clk 1:30:33]} e6
{[%clk 1:27:15]} 3. Nc3 {[%clk 1:30:55]} Bb4 {[%clk 1:27:30]} 4. e3
{[%clk 1:31:17]} O-O {[%clk 1:27:07]} 5. Nge2 {[%clk 1:31:40]} d5
{[%clk 1:26:32]} 6. a3 {[%clk 1:32:01]} Be7 {[%clk 1:26:37]} 7. Ng3
{[%clk 1:30:35]} b6 {[%clk 1:26:21]} 8. Bd3 {[%clk 1:28:12]} Bb7 {[%clk 1:24:18]}
9. cxd5 {[%clk 1:26:41]} exd5 {[%clk 1:23:56]} 10. Nf5 {[%clk 1:26:11]} Re8
{[%clk 1:20:32]} 11. Nxe7+ {[%clk 1:18:22]} Qxe7 {[%clk 1:19:01]} 12. b4
{[%clk 1:11:46]} Nbd7 {[%clk 1:16:20]} 13. O-O {[%clk 1:10:45]} Ne4
{[%clk 1:13:39]} 14. Qb3 {[%clk 1:04:09]} Ndf6 {[%clk 1:11:44]} *

[Event "Copenhagen Chess Challenge 2014"]
[Site "?"]
[Date "2014.05.17"]
[Round "6.15"]
[White "Karlsson, Ulf"]
[Black "Jorgensen, Dennis"]
[Result "*"]
[LiveChessVersion "1.4.2"]
[BlackElo "2231"]
[WhiteElo "1959"]
[ECO "B19"]

1. e4 {[%clk 1:30:57]} c6 {[%clk 1:30:48]} 2. d4 {[%clk 1:31:11]} d5
{[%clk 1:31:11]} 3. Nc3 {[%clk 1:31:23]} dxe4 {[%clk 1:31:32]} 4. Nxe4
{[%clk 1:31:46]} Bf5 {[%clk 1:31:37]} 5. Ng3 {[%clk 1:32:07]} Bg6
{[%clk 1:32:02]} 6. h4 {[%clk 1:32:12]} h6 {[%clk 1:32:26]} 7. Nf3
{[%clk 1:32:35]} Nd7 {[%clk 1:32:51]} 8. h5 {[%clk 1:32:28]} Bh7 {[%clk 1:33:17]}
9. Bd3 {[%clk 1:32:53]} Bxd3 {[%clk 1:33:43]} 10. Qxd3 {[%clk 1:33:14]} e6
{[%clk 1:34:04]} 11. Bf4 {[%clk 1:32:07]} Qa5+ {[%clk 1:32:40]} 12. Nd2
{[%clk 1:31:54]} Ngf6 {[%clk 1:29:29]} 13. c4 {[%clk 1:31:48]} Be7
{[%clk 1:27:20]} 14. Qe2 {[%clk 1:32:06]} O-O {[%clk 1:24:40]} 15. O-O
{[%clk 1:32:27]} Rad8 {[%clk 1:22:22]} 16. Rfd1 {[%clk 1:22:49]} Rfe8
{[%clk 1:17:50]} 17. a3 {[%clk 1:23:06]} Bf8 {[%clk 1:16:01]} 18. Nde4
{[%clk 1:14:05]} Nxe4 {[%clk 1:12:41]} 19. Nxe4 {[%clk 1:12:41]} Qf5
{[%clk 1:12:41]} 20. Bc7 {[%clk 1:11:20]} Rc8 {[%clk 1:12:02]} 21. g4
{[%clk 1:04:36]} *

[Event "Copenhagen Chess Challenge 2014"]
[Site "?"]
[Date "2014.05.17"]
[Round "6.16"]
[White "Rydstrom, Tom"]
[Black "Pallesen, Jacob"]
[Result "*"]
[LiveChessVersion "1.4.2"]
[BlackElo "2029"]
[WhiteElo "2190"]
[ECO "B06"]

1. e4 {[%clk 1:30:00]} g6 {[%clk 1:30:44]} 2. d4 {[%clk 1:30:09]} Bg7
{[%clk 1:31:07]} 3. Nc3 {[%clk 1:30:32]} c6 {[%clk 1:31:04]} 4. h4
{[%clk 1:30:06]} d5 {[%clk 1:29:31]} 5. Be3 {[%clk 1:29:27]} Nf6 {[%clk 1:26:56]}
6. e5 {[%clk 1:29:18]} Ng4 {[%clk 1:26:55]} 7. Bf4 {[%clk 1:28:11]} h5
{[%clk 1:21:17]} 8. Nf3 {[%clk 1:26:19]} Bf5 {[%clk 1:18:42]} 9. Ng5
{[%clk 1:21:06]} f6 {[%clk 1:13:14]} 10. exf6 {[%clk 1:21:32]} exf6
{[%clk 1:13:23]} 11. Nf3 {[%clk 1:21:41]} Nd7 {[%clk 1:05:06]} 12. Bd3
{[%clk 1:19:40]} Bxd3 {[%clk 0:56:39]} 13. Qxd3 {[%clk 1:20:06]} Kf7
{[%clk 0:56:33]} 14. O-O {[%clk 1:16:22]} Re8 {[%clk 0:54:01]} *

