[Event "Copenhagen Chess Challenge 2014"]
[Site "?"]
[Date "2014.05.17"]
[Round "6.1"]
[White "Fries-Nielsen, Jens Ove"]
[Black "Mikkelsen, Nikolaj"]
[Result "1/2-1/2"]
[LiveChessVersion "1.4.2"]
[BlackElo "2430"]
[WhiteElo "2384"]
[ECO "A45"]

1. d4 {[%clk 1:29:40]} Nf6 {[%clk 1:30:51]} 2. Bf4 {[%clk 1:29:53]} g6
{[%clk 1:25:13]} 3. Nc3 {[%clk 1:29:43]} d5 {[%clk 1:24:48]} 4. Nb5
{[%clk 1:28:22]} Na6 {[%clk 1:24:47]} 5. e3 {[%clk 1:28:43]} Bg7 {[%clk 1:19:01]}
6. Nf3 {[%clk 1:26:08]} O-O {[%clk 1:18:11]} 7. Be2 {[%clk 1:25:43]} c6
{[%clk 1:06:53]} 8. Nc3 {[%clk 1:25:56]} Nb8 {[%clk 1:01:08]} 9. O-O
{[%clk 1:25:08]} Nbd7 {[%clk 1:00:52]} 10. h3 {[%clk 1:24:44]} Re8
{[%clk 0:57:00]} 11. Bh2 {[%clk 1:23:38]} b6 {[%clk 0:46:19]} 12. b4
{[%clk 1:20:09]} Bb7 {[%clk 0:45:06]} 13. Rb1 {[%clk 1:18:39]} a5
{[%clk 0:42:05]} 14. b5 {[%clk 1:16:35]} c5 {[%clk 0:42:29]} 15. Na4
{[%clk 1:08:15]} Rc8 {[%clk 0:41:43]} 16. c4 {[%clk 1:02:40]} Ne4
{[%clk 0:41:03]} 17. Rc1 {[%clk 0:58:33]} cxd4 {[%clk 0:35:54]} 18. Nxd4
{[%clk 0:55:50]} Ndc5 {[%clk 0:36:19]} 19. Nc6 {[%clk 0:46:54]} Bxc6
{[%clk 0:35:39]} 20. bxc6 {[%clk 0:47:15]} Rxc6 {[%clk 0:24:43]} 21. cxd5
{[%clk 0:47:03]} Rc8 {[%clk 0:25:01]} 22. Bb5 {[%clk 0:44:55]} Nxa4
{[%clk 0:22:08]} 23. Qxa4 {[%clk 0:31:49]} Nc3 {[%clk 0:22:25]} 24. Rxc3
{[%clk 0:30:47]} Bxc3 {[%clk 0:22:49]} 25. Bxe8 {[%clk 0:29:32]} Qxe8
{[%clk 0:23:14]} 26. Qxe8+ {[%clk 0:29:55]} Rxe8 {[%clk 0:23:39]} 27. Rc1
{[%clk 0:29:36]} Bb4 {[%clk 0:23:53]} 28. a4 {[%clk 0:25:40]} Bc5
{[%clk 0:21:35]} 29. Bc7 {[%clk 0:22:50]} Ra8 {[%clk 0:20:27]} 30. Kf1
{[%clk 0:20:59]} Kf8 {[%clk 0:16:16]} 31. Ke2 {[%clk 0:16:35]} Ra7
{[%clk 0:15:44]} 32. Bg3 {[%clk 0:16:34]} Rd7 {[%clk 0:14:43]} 33. e4
{[%clk 0:16:02]} e6 {[%clk 0:14:06]} 34. Rd1 {[%clk 0:15:18]} Ke7
{[%clk 0:14:34]} 35. Rd3 {[%clk 0:14:57]} Rb7 {[%clk 0:14:28]} 36. Rb3
{[%clk 0:13:28]} Bb4 {[%clk 0:14:44]} 37. Kd3 {[%clk 0:12:30]} 1/2-1/2

[Event "Copenhagen Chess Challenge 2014"]
[Site "?"]
[Date "2014.05.17"]
[Round "6.2"]
[White "Semcesen, Daniel"]
[Black "Hoi, Carsten"]
[Result "1/2-1/2"]
[LiveChessVersion "1.4.2"]
[BlackElo "2397"]
[WhiteElo "2513"]
[ECO "E71"]

1. d4 {[%clk 1:30:09]} Nf6 {[%clk 1:29:34]} 2. c4 {[%clk 1:30:19]} g6
{[%clk 1:29:11]} 3. Nc3 {[%clk 1:30:20]} Bg7 {[%clk 1:29:34]} 4. e4
{[%clk 1:30:37]} d6 {[%clk 1:29:58]} 5. h3 {[%clk 1:31:00]} c5 {[%clk 1:25:48]}
6. d5 {[%clk 1:30:34]} O-O {[%clk 1:24:55]} 7. Nf3 {[%clk 1:30:50]} a6
{[%clk 1:23:34]} 8. a4 {[%clk 1:27:49]} e5 {[%clk 1:18:19]} 9. g4
{[%clk 1:26:10]} Nbd7 {[%clk 1:10:58]} 10. Be3 {[%clk 1:23:53]} Rb8
{[%clk 1:04:50]} 11. Nd2 {[%clk 1:17:41]} Qe7 {[%clk 1:00:50]} 12. Be2
{[%clk 1:15:50]} Ne8 {[%clk 0:56:19]} 13. Rg1 {[%clk 1:10:54]} Kh8
{[%clk 0:54:34]} 14. Qc2 {[%clk 1:07:07]} Bf6 {[%clk 0:45:59]} 15. Nf3
{[%clk 0:58:18]} Bg7 {[%clk 0:45:08]} 16. h4 {[%clk 0:54:04]} Ndf6
{[%clk 0:41:04]} 17. Nd2 {[%clk 0:53:33]} Ng8 {[%clk 0:37:55]} 18. h5
{[%clk 0:41:27]} f5 {[%clk 0:31:01]} 19. gxf5 {[%clk 0:40:36]} gxf5
{[%clk 0:31:07]} 20. exf5 {[%clk 0:39:46]} Bxf5 {[%clk 0:27:47]} 21. Bd3
{[%clk 0:39:48]} Bxd3 {[%clk 0:27:44]} 22. Qxd3 {[%clk 0:40:13]} Nef6
{[%clk 0:27:26]} 23. Nde4 {[%clk 0:36:11]} Bh6 {[%clk 0:19:33]} 24. O-O-O
{[%clk 0:31:21]} Nxe4 {[%clk 0:17:30]} 25. Nxe4 {[%clk 0:27:51]} Bxe3+
{[%clk 0:16:49]} 26. fxe3 {[%clk 0:27:19]} Nf6 {[%clk 0:11:08]} 27. Rg2
{[%clk 0:21:09]} b5 {[%clk 0:09:35]} 28. cxb5 {[%clk 0:13:31]} axb5
{[%clk 0:09:19]} 29. h6 {[%clk 0:13:40]} c4 {[%clk 0:03:27]} 30. Qc2
{[%clk 0:13:11]} Rg8 {[%clk 0:02:26]} 31. Rdg1 {[%clk 0:07:23]} Rxg2
{[%clk 0:02:39]} 32. Rxg2 {[%clk 0:07:38]} Nxe4 {[%clk 0:01:56]} 33. Qxe4
{[%clk 0:08:05]} Qf6 {[%clk 0:01:54]} 34. axb5 {[%clk 0:05:13]} Qxh6
{[%clk 0:01:31]} 1/2-1/2

[Event "Copenhagen Chess Challenge 2014"]
[Site "?"]
[Date "2014.05.17"]
[Round "6.3"]
[White "Ziska, Helgi Dam"]
[Black "Hansen, Mads"]
[Result "1-0"]
[LiveChessVersion "1.4.2"]
[BlackElo "2358"]
[WhiteElo "2491"]
[ECO "C50"]

1. e4 {[%clk 1:28:53]} e5 {[%clk 1:30:50]} 2. Nf3 {[%clk 1:28:48]} Nc6
{[%clk 1:31:11]} 3. Bc4 {[%clk 1:28:49]} Bc5 {[%clk 1:31:24]} 4. d3
{[%clk 1:28:45]} Nf6 {[%clk 1:31:39]} 5. Bb3 {[%clk 1:27:20]} a6 {[%clk 1:31:45]}
6. h3 {[%clk 1:26:20]} Ba7 {[%clk 1:32:02]} 7. c3 {[%clk 1:24:38]} h6
{[%clk 1:27:16]} 8. Nbd2 {[%clk 1:21:35]} O-O {[%clk 1:27:14]} 9. Nh2
{[%clk 0:43:33]} d5 {[%clk 1:19:27]} 10. Qf3 {[%clk 0:43:27]} Be6
{[%clk 1:08:03]} 11. Ng4 {[%clk 0:38:17]} dxe4 {[%clk 0:58:17]} 12. Nxe4
{[%clk 0:35:53]} Nxe4 {[%clk 0:57:12]} 13. dxe4 {[%clk 0:35:35]} Bxb3
{[%clk 0:56:40]} 14. axb3 {[%clk 0:34:52]} Qd6 {[%clk 0:54:15]} 15. O-O
{[%clk 0:31:33]} Rad8 {[%clk 0:53:16]} 16. b4 {[%clk 0:31:05]} Qe6
{[%clk 0:41:54]} 17. Qe2 {[%clk 0:28:22]} Rd7 {[%clk 0:29:03]} 18. b5
{[%clk 0:23:22]} axb5 {[%clk 0:29:21]} 19. Qxb5 {[%clk 0:23:40]} Bb6
{[%clk 0:29:01]} 20. Ne3 {[%clk 0:22:19]} Nd8 {[%clk 0:21:53]} 21. Nc4
{[%clk 0:14:21]} c6 {[%clk 0:22:09]} 22. Qb4 {[%clk 0:14:31]} Bc7
{[%clk 0:22:05]} 23. Be3 {[%clk 0:14:15]} Qg6 {[%clk 0:20:25]} 24. Rfe1
{[%clk 0:12:39]} b5 {[%clk 0:18:07]} 25. Nd2 {[%clk 0:10:47]} Ne6
{[%clk 0:17:14]} 26. Nf3 {[%clk 0:09:34]} Rfd8 {[%clk 0:16:04]} 27. Qb3
{[%clk 0:07:55]} Kh7 {[%clk 0:16:12]} 28. Ra6 {[%clk 0:07:23]} Qxe4
{[%clk 0:11:38]} 29. Bg5 {[%clk 0:06:06]} Qd3 {[%clk 0:08:56]} 30. Bxd8
{[%clk 0:05:49]} Nc5 {[%clk 0:07:50]} 31. Qa2 {[%clk 0:05:41]} Nxa6
{[%clk 0:02:47]} 32. Bxc7 {[%clk 0:05:58]} Nxc7 {[%clk 0:02:45]} 33. Nxe5
{[%clk 0:06:19]} Qd2 {[%clk 0:02:05]} 34. Qb1+ {[%clk 0:06:40]} g6
{[%clk 0:02:05]} 35. Nxd7 {[%clk 0:06:35]} Qxd7 {[%clk 0:02:33]} 36. Qd1
{[%clk 0:05:50]} Nd5 {[%clk 0:01:55]} 37. Qd4 {[%clk 0:05:04]} Qf5
{[%clk 0:01:29]} 38. Re8 {[%clk 0:03:07]} Nf6 {[%clk 0:01:43]} 39. Rd8
{[%clk 0:02:51]} c5 {[%clk 0:01:31]} 40. Qd3 {[%clk 0:02:44]} Qf4
{[%clk 0:01:17]} 41. Qd6 {[%clk 0:02:36]} Qf5 {[%clk 0:00:32]} 1-0

[Event "Copenhagen Chess Challenge 2014"]
[Site "?"]
[Date "2014.05.17"]
[Round "6.4"]
[White "Danielsen, Henrik"]
[Black "Korley, Kassa"]
[Result "1-0"]
[LiveChessVersion "1.4.2"]
[BlackElo "2390"]
[WhiteElo "2483"]
[ECO "C44"]

1. e4 {[%clk 1:24:33]} e5 {[%clk 1:30:39]} 2. Nf3 {[%clk 1:24:12]} Nc6
{[%clk 1:31:00]} 3. d3 {[%clk 1:23:43]} Nf6 {[%clk 1:31:24]} 4. c3
{[%clk 1:23:42]} d5 {[%clk 1:26:16]} 5. Nbd2 {[%clk 1:24:01]} a5 {[%clk 1:26:17]}
6. Be2 {[%clk 1:24:21]} Be7 {[%clk 1:22:59]} 7. O-O {[%clk 1:24:37]} O-O 8. a4
{[%clk 1:16:18]} Re8 {[%clk 1:23:09]} 9. Re1 {[%clk 1:15:49]} Bf8
{[%clk 1:20:29]} 10. h3 {[%clk 1:13:48]} g6 {[%clk 1:20:00]} 11. exd5
{[%clk 1:11:31]} Nxd5 {[%clk 1:18:37]} 12. Nc4 {[%clk 1:11:33]} Bg7
{[%clk 1:17:41]} 13. Qb3 {[%clk 1:06:32]} h6 {[%clk 1:14:43]} 14. Qb5
{[%clk 1:05:05]} Na7 {[%clk 1:12:43]} 15. Qb3 {[%clk 1:04:12]} Nc6
{[%clk 1:11:00]} 16. Bd2 {[%clk 1:03:29]} b6 {[%clk 1:10:23]} 17. Rad1
{[%clk 1:02:41]} Bb7 {[%clk 1:10:18]} 18. Bc1 {[%clk 1:01:44]} Qd7
{[%clk 1:06:41]} 19. Bf1 {[%clk 1:00:39]} Rad8 {[%clk 1:01:56]} 20. g3
{[%clk 1:00:03]} Qc8 {[%clk 1:00:38]} 21. Bg2 {[%clk 0:57:31]} Re7
{[%clk 0:54:07]} 22. Nh4 {[%clk 0:54:19]} Red7 {[%clk 0:48:47]} 23. Nf3
{[%clk 0:49:30]} Re7 {[%clk 0:48:44]} 24. Nh2 {[%clk 0:49:18]} Nf6
{[%clk 0:43:53]} 25. Ne3 {[%clk 0:42:07]} h5 {[%clk 0:41:45]} 26. Nc4
{[%clk 0:42:06]} Red7 {[%clk 0:35:12]} 27. Nf3 {[%clk 0:40:57]} Rxd3
{[%clk 0:26:27]} 28. Rxd3 {[%clk 0:28:07]} Rxd3 {[%clk 0:26:52]} 29. Nfxe5
{[%clk 0:24:12]} Nd4 {[%clk 0:23:35]} 30. Qa2 {[%clk 0:22:32]} Bxg2
{[%clk 0:21:29]} 31. Kxg2 {[%clk 0:17:22]} Qa8+ {[%clk 0:21:44]} 32. Kg1
{[%clk 0:17:03]} Ne2+ {[%clk 0:21:27]} 33. Kh2 {[%clk 0:17:18]} Nxc1
{[%clk 0:20:38]} 34. Rxc1 {[%clk 0:15:15]} Rd5 {[%clk 0:21:02]} 35. Re1
{[%clk 0:15:18]} h4 {[%clk 0:19:18]} 36. g4 {[%clk 0:13:57]} Bh6 {[%clk 0:17:28]}
37. Qb1 {[%clk 0:13:47]} Bf4+ {[%clk 0:17:15]} 38. Kg1 {[%clk 0:14:12]} Kg7
{[%clk 0:17:33]} 39. Qc2 {[%clk 0:13:59]} Qd8 {[%clk 0:14:15]} 40. Qe2
{[%clk 0:13:11]} Bxe5 {[%clk 0:13:43]} 41. Nxe5 {[%clk 0:13:32]} Rd2
{[%clk 0:14:09]} 42. Qc4 {[%clk 0:11:20]} Rd5 {[%clk 0:08:18]} 43. Nf3
{[%clk 0:09:37]} Rd1 {[%clk 0:07:45]} 44. Rxd1 {[%clk 0:09:37]} Qxd1+
{[%clk 0:08:13]} 45. Kg2 {[%clk 0:10:00]} Nd5 {[%clk 0:07:15]} 46. Nxh4
{[%clk 0:09:22]} Qd2 {[%clk 0:05:22]} 47. Kg3 {[%clk 0:09:20]} c5
{[%clk 0:04:52]} 48. Nf3 {[%clk 0:09:02]} Qd1 {[%clk 0:05:18]} 49. Qe4
{[%clk 0:09:09]} Kg8 {[%clk 0:04:37]} 50. h4 {[%clk 0:08:38]} Nf6
{[%clk 0:04:42]} 51. Qe5 {[%clk 0:08:00]} Nd7 {[%clk 0:04:24]} 52. Qf4
{[%clk 0:07:33]} Nf8 {[%clk 0:04:19]} 53. h5 {[%clk 0:07:23]} Ne6
{[%clk 0:04:12]} 54. Qb8+ {[%clk 0:07:36]} Kh7 {[%clk 0:04:10]} 55. hxg6+
{[%clk 0:07:50]} Kxg6 {[%clk 0:04:16]} 56. Qh8 {[%clk 0:05:38]} f6
{[%clk 0:02:14]} 57. Qg8+ {[%clk 0:05:56]} Ng7 {[%clk 0:02:39]} 58. Nh4+
{[%clk 0:06:14]} 1-0

[Event "Copenhagen Chess Challenge 2014"]
[Site "?"]
[Date "2014.05.17"]
[Round "6.5"]
[White "Pedersen, Daniel Vesterbaek"]
[Black "Stefansson, Hannes"]
[Result "1-0"]
[LiveChessVersion "1.4.2"]
[BlackElo "2548"]
[WhiteElo "2244"]
[ECO "B22"]

1. e4 {[%clk 1:30:52]} c5 {[%clk 1:30:37]} 2. c3 {[%clk 1:31:09]} Nf6
{[%clk 1:29:22]} 3. e5 {[%clk 1:31:34]} Nd5 {[%clk 1:29:46]} 4. d4
{[%clk 1:32:01]} cxd4 {[%clk 1:29:47]} 5. Nf3 {[%clk 1:32:20]} e6
{[%clk 1:29:56]} 6. cxd4 {[%clk 1:32:45]} d6 {[%clk 1:30:06]} 7. Bc4
{[%clk 1:33:07]} Nb6 {[%clk 1:28:12]} 8. Bd3 {[%clk 1:33:07]} Nc6
{[%clk 1:26:12]} 9. O-O {[%clk 1:33:23]} dxe5 {[%clk 1:24:40]} 10. dxe5
{[%clk 1:33:28]} Nb4 {[%clk 1:24:13]} 11. Be4 {[%clk 1:33:41]} Qxd1
{[%clk 1:22:34]} 12. Rxd1 {[%clk 1:34:06]} N4d5 {[%clk 1:11:31]} 13. a4
{[%clk 1:18:01]} a5 {[%clk 1:11:34]} 14. Nc3 {[%clk 1:07:05]} Nxc3
{[%clk 1:11:23]} 15. bxc3 {[%clk 1:07:32]} Be7 {[%clk 1:07:06]} 16. Be3
{[%clk 0:56:21]} Nc4 {[%clk 1:01:31]} 17. Bd4 {[%clk 0:55:27]} f5
{[%clk 1:00:09]} 18. Bd3 {[%clk 0:52:43]} 1-0

[Event "Copenhagen Chess Challenge 2014"]
[Site "?"]
[Date "2014.05.17"]
[Round "6.6"]
[White "Ochsner, Bjorn Moller"]
[Black "Hector, Jonny"]
[Result "1-0"]
[LiveChessVersion "1.4.2"]
[BlackElo "2511"]
[WhiteElo "2307"]
[ECO "D12"]

1. d4 {[%clk 1:30:57]} d5 {[%clk 1:30:54]} 2. c4 {[%clk 1:31:17]} c6
{[%clk 1:31:19]} 3. Nf3 {[%clk 1:31:32]} Nf6 {[%clk 1:31:44]} 4. e3
{[%clk 1:31:57]} Bf5 {[%clk 1:31:39]} 5. Nc3 {[%clk 1:32:00]} e6 {[%clk 1:31:48]}
6. Nh4 {[%clk 1:32:04]} Be4 {[%clk 1:31:06]} 7. f3 {[%clk 1:32:12]} Bg6
{[%clk 1:31:32]} 8. Qb3 {[%clk 1:32:14]} Qb6 {[%clk 1:31:44]} 9. Nxg6
{[%clk 1:32:27]} hxg6 {[%clk 1:32:03]} 10. Bd2 {[%clk 1:32:31]} Nbd7
{[%clk 1:32:13]} 11. g3 {[%clk 1:31:33]} Be7 {[%clk 1:31:39]} 12. O-O-O
{[%clk 1:31:27]} g5 {[%clk 1:28:51]} 13. Be2 {[%clk 1:06:46]} O-O-O
{[%clk 1:25:21]} 14. Kb1 {[%clk 1:01:36]} Qxb3 {[%clk 1:24:12]} 15. axb3
{[%clk 1:02:04]} Rh7 {[%clk 1:20:23]} 16. e4 {[%clk 0:52:34]} dxe4
{[%clk 1:10:54]} 17. Bxg5 {[%clk 0:50:39]} Rdh8 {[%clk 0:59:09]} 18. h4
{[%clk 0:49:31]} exf3 {[%clk 0:57:39]} 19. Bxf3 {[%clk 0:49:50]} Bd6
{[%clk 0:57:02]} 20. Rhg1 {[%clk 0:47:54]} Re8 {[%clk 0:52:06]} 21. d5
{[%clk 0:43:33]} Ne5 {[%clk 0:46:48]} 22. Bg2 {[%clk 0:37:56]} Bb4
{[%clk 0:31:49]} 23. Rge1 {[%clk 0:28:48]} exd5 {[%clk 0:24:57]} 24. Bh3+
{[%clk 0:27:27]} Kc7 {[%clk 0:20:26]} 25. Bf4 {[%clk 0:27:00]} Rh5
{[%clk 0:18:25]} 26. cxd5 {[%clk 0:17:56]} Bd6 {[%clk 0:14:48]} 27. dxc6
{[%clk 0:17:44]} bxc6 {[%clk 0:14:40]} 28. Re2 {[%clk 0:16:17]} Rhh8
{[%clk 0:13:11]} 29. Nb5+ {[%clk 0:14:05]} cxb5 {[%clk 0:13:32]} 30. Rc2+
{[%clk 0:14:32]} Kb7 {[%clk 0:08:52]} 31. Rxd6 {[%clk 0:13:33]} Re7
{[%clk 0:07:39]} 32. Rc5 {[%clk 0:12:20]} Rhe8 {[%clk 0:05:45]} 33. Bg2+
{[%clk 0:11:07]} Kb8 {[%clk 0:06:02]} 34. Rxb5+ {[%clk 0:10:40]} Kc7
{[%clk 0:05:06]} 35. Ra6 {[%clk 0:09:49]} Kd8 {[%clk 0:04:07]} 36. Rb8+
{[%clk 0:09:27]} Kc7 {[%clk 0:04:05]} 37. Rxe8 {[%clk 0:08:57]} Rxe8
{[%clk 0:04:27]} 38. Rxa7+ {[%clk 0:09:11]} Kd6 {[%clk 0:04:18]} 39. Rxf7
{[%clk 0:06:59]} Ke6 {[%clk 0:04:14]} 40. Rxg7 {[%clk 0:06:42]} Nd3
{[%clk 0:04:37]} 41. Bd2 {[%clk 0:06:21]} 1-0

[Event "Copenhagen Chess Challenge 2014"]
[Site "?"]
[Date "2014.05.17"]
[Round "6.7"]
[White "Sylvan, Jacob"]
[Black "Westerinen, Heikki M.J."]
[Result "1/2-1/2"]
[LiveChessVersion "1.4.2"]
[BlackElo "2299"]
[WhiteElo "2348"]
[ECO "D27"]

1. d4 {[%clk 1:30:54]} d5 {[%clk 1:30:03]} 2. Nf3 {[%clk 1:30:48]} Nf6
{[%clk 1:28:34]} 3. c4 {[%clk 1:30:20]} dxc4 {[%clk 1:28:04]} 4. e3
{[%clk 1:30:14]} e6 {[%clk 1:27:04]} 5. Bxc4 {[%clk 1:30:13]} c5 {[%clk 1:26:57]}
6. O-O {[%clk 1:30:07]} a6 {[%clk 1:25:55]} 7. Bb3 {[%clk 1:29:57]} Nc6
{[%clk 1:09:45]} 8. Qe2 {[%clk 1:28:17]} Be7 {[%clk 1:06:27]} 9. dxc5
{[%clk 1:23:03]} Bxc5 {[%clk 1:00:56]} 10. e4 {[%clk 1:21:33]} Qc7
{[%clk 0:57:57]} 11. e5 {[%clk 1:19:45]} Nd5 {[%clk 0:47:50]} 12. Rd1
{[%clk 1:09:44]} O-O {[%clk 0:36:30]} 13. Bg5 {[%clk 1:02:23]} Nce7
{[%clk 0:29:34]} 14. Nbd2 {[%clk 0:50:40]} Ng6 {[%clk 0:28:43]} 15. Rac1
{[%clk 0:48:39]} Qa5 {[%clk 0:26:04]} 16. Nc4 {[%clk 0:42:05]} Qb5
{[%clk 0:25:56]} 17. Nd4 {[%clk 0:41:56]} Bxd4 {[%clk 0:21:52]} 18. Rxd4
{[%clk 0:42:04]} Bd7 {[%clk 0:18:50]} 19. h4 {[%clk 0:35:38]} h6 {[%clk 0:18:22]}
20. Bd2 {[%clk 0:30:58]} Nge7 {[%clk 0:14:18]} 21. Qh5 {[%clk 0:26:50]} Nf5
{[%clk 0:11:23]} 22. Nd6 {[%clk 0:22:07]} Nxd6 {[%clk 0:10:38]} 23. exd6
{[%clk 0:22:21]} Nf6 {[%clk 0:09:31]} 24. Qxb5 {[%clk 0:21:43]} Bxb5
{[%clk 0:09:34]} 25. Rc7 {[%clk 0:21:15]} Bc6 {[%clk 0:09:54]} 26. Ba5
{[%clk 0:17:54]} Rfd8 {[%clk 0:08:25]} 27. Rxc6 {[%clk 0:14:41]} bxc6
{[%clk 0:08:53]} 28. Bxd8 {[%clk 0:13:05]} Rxd8 {[%clk 0:09:21]} 29. Ba4
{[%clk 0:13:24]} c5 {[%clk 0:07:22]} 30. Rd1 {[%clk 0:07:15]} 1/2-1/2

[Event "Copenhagen Chess Challenge 2014"]
[Site "?"]
[Date "2014.05.17"]
[Round "6.8"]
[White "Thorhallsson, Throstur"]
[Black "Haub, Thorsten Michael"]
[Result "0-1"]
[LiveChessVersion "1.4.2"]
[BlackElo "2441"]
[WhiteElo "2437"]
[ECO "C15"]

1. e4 {[%clk 1:30:56]} e6 {[%clk 1:30:38]} 2. d4 {[%clk 1:31:14]} d5
{[%clk 1:31:02]} 3. Nc3 {[%clk 1:31:17]} Bb4 {[%clk 1:31:27]} 4. exd5
{[%clk 1:25:10]} exd5 {[%clk 1:31:48]} 5. Bd3 {[%clk 1:25:35]} Nf6
{[%clk 1:29:46]} 6. Nge2 {[%clk 1:22:50]} O-O {[%clk 1:27:32]} 7. Bg5
{[%clk 1:21:51]} Re8 {[%clk 1:24:16]} 8. O-O {[%clk 1:17:24]} c6 {[%clk 1:23:34]}
9. f3 {[%clk 1:12:21]} Nbd7 {[%clk 1:19:56]} 10. Qd2 {[%clk 1:11:29]} Nf8
{[%clk 1:17:28]} 11. Ng3 {[%clk 1:04:35]} Ne6 {[%clk 1:14:18]} 12. Be3
{[%clk 1:04:01]} c5 {[%clk 1:12:48]} 13. Nge2 {[%clk 0:57:32]} c4
{[%clk 1:02:32]} 14. Bf5 {[%clk 0:57:44]} Nc7 {[%clk 1:02:55]} 15. Ng3
{[%clk 0:53:02]} Nb5 {[%clk 0:57:09]} 16. a3 {[%clk 0:49:30]} Ba5
{[%clk 0:54:03]} 17. a4 {[%clk 0:43:24]} Nxc3 {[%clk 0:42:00]} 18. bxc3
{[%clk 0:43:44]} g6 {[%clk 0:41:25]} 19. Bxc8 {[%clk 0:43:01]} Qxc8
{[%clk 0:41:46]} 20. Bg5 {[%clk 0:41:09]} Nd7 {[%clk 0:41:57]} 21. h4
{[%clk 0:38:30]} Qc7 {[%clk 0:41:08]} 22. Kf2 {[%clk 0:30:03]} h5
{[%clk 0:37:02]} 23. Ne2 {[%clk 0:28:11]} Qc6 {[%clk 0:36:35]} 24. Rab1
{[%clk 0:22:45]} a6 {[%clk 0:29:18]} 25. Bf4 {[%clk 0:17:52]} Re6
{[%clk 0:27:11]} 26. Bg3 {[%clk 0:15:53]} Rae8 {[%clk 0:24:32]} 27. Nf4
{[%clk 0:15:18]} R6e7 {[%clk 0:18:51]} 28. Rfe1 {[%clk 0:13:28]} Nb6
{[%clk 0:18:47]} 29. Rxe7 {[%clk 0:13:36]} Rxe7 {[%clk 0:19:11]} 30. Ra1
{[%clk 0:12:16]} Nxa4 {[%clk 0:13:04]} 31. Nxd5 {[%clk 0:08:46]} Qxd5
{[%clk 0:13:10]} 32. Rxa4 {[%clk 0:09:14]} Bd8 {[%clk 0:09:55]} 33. Ra1
{[%clk 0:07:12]} a5 {[%clk 0:09:57]} 34. Qh6 {[%clk 0:05:37]} Re6
{[%clk 0:08:40]} 35. Kg1 {[%clk 0:05:03]} Bf6 {[%clk 0:08:04]} 36. Qf4
{[%clk 0:04:56]} Kg7 {[%clk 0:08:05]} 37. Kh2 {[%clk 0:03:08]} Re2
{[%clk 0:07:45]} 38. Rb1 {[%clk 0:02:56]} b5 {[%clk 0:07:14]} 39. Kh1
{[%clk 0:02:49]} Rxc2 {[%clk 0:06:18]} 40. Re1 {[%clk 0:00:35]} Qd8
{[%clk 0:04:58]} 41. Qe4 {[%clk 0:00:40]} Rxc3 {[%clk 0:04:58]} 42. d5
{[%clk 0:00:44]} Rd3 {[%clk 0:04:17]} 43. d6 {[%clk 0:01:07]} Qc8
{[%clk 0:01:32]} 44. Be5 {[%clk 0:00:44]} Qf5 {[%clk 0:01:24]} 45. Bxf6+
{[%clk 0:00:47]} Qxf6 {[%clk 0:01:47]} 46. Rb1 {[%clk 0:01:10]} Rd4
{[%clk 0:02:01]} 0-1

[Event "Copenhagen Chess Challenge 2014"]
[Site "?"]
[Date "2014.05.17"]
[Round "6.9"]
[White "Thorfinnsson, Bragi"]
[Black "Pedersen, Nicolai Kvist Brondt"]
[Result "*"]
[LiveChessVersion "1.4.2"]
[BlackElo "2200"]
[WhiteElo "2459"]
[ECO "B12"]

1. e4 {[%clk 1:30:30]} c6 {[%clk 1:29:18]} 2. d4 {[%clk 1:30:58]} d5
{[%clk 1:29:36]} 3. e5 {[%clk 1:31:24]} c5 {[%clk 1:30:03]} 4. dxc5
{[%clk 1:23:29]} Nc6 {[%clk 1:27:31]} 5. Bb5 {[%clk 1:23:10]} Qc7
{[%clk 1:17:52]} 6. Qd4 {[%clk 1:01:39]} Bf5 {[%clk 1:14:32]} 7. Nc3
{[%clk 0:57:02]} e6 {[%clk 1:08:32]} 8. Nf3 {[%clk 0:52:32]} Nge7
{[%clk 1:05:54]} 9. O-O {[%clk 0:49:37]} Bxc2 {[%clk 0:55:49]} 10. Bf4
{[%clk 0:43:56]} Bg6 {[%clk 0:47:30]} 11. Qa4 {[%clk 0:35:49]} a6
{[%clk 0:35:34]} 12. b4 {[%clk 0:34:07]} Rd8 {[%clk 0:28:22]} 13. Nd4
{[%clk 0:28:01]} Qd7 {[%clk 0:25:24]} 14. Bg5 {[%clk 0:16:49]} axb5
{[%clk 0:17:46]} 15. Ndxb5 {[%clk 0:15:33]} Nc8 {[%clk 0:12:04]} 16. Bxd8
{[%clk 0:15:43]} Kxd8 {[%clk 0:10:30]} 17. f4 {[%clk 0:14:05]} N6a7
{[%clk 0:07:15]} 18. Qa5+ {[%clk 0:14:00]} b6 {[%clk 0:06:06]} 19. cxb6
{[%clk 0:14:19]} Nc6 {[%clk 0:05:31]} 20. b7+ {[%clk 0:12:43]} Nxa5
{[%clk 0:05:56]} 21. b8=Q {[%clk 0:12:57]} Bxb4 {[%clk 0:05:58]} 22. Rac1
{[%clk 0:11:45]} Nc4 {[%clk 0:03:31]} 23. f5 {[%clk 0:09:47]} Bxf5
{[%clk 0:02:13]} 24. Rxf5 {[%clk 0:10:14]} Bxc3 {[%clk 0:02:32]} 25. Rxf7
{[%clk 0:04:55]} Qxf7 {[%clk 0:02:53]} 26. Rxc3 {[%clk 0:05:24]} Rf8
{[%clk 0:02:22]} 27. Rf3 {[%clk 0:05:39]} Qe7 {[%clk 0:01:44]} 28. Rxf8+
{[%clk 0:06:04]} Qxf8 {[%clk 0:02:12]} 29. Qc7+ {[%clk 0:06:24]} Ke8
{[%clk 0:02:40]} 30. Qxc8+ {[%clk 0:06:30]} Kf7 {[%clk 0:02:55]} 31. Nd6+
{[%clk 0:06:00]} Nxd6 {[%clk 0:02:07]} 32. Qc7+ {[%clk 0:06:25]} Kg6
{[%clk 0:02:19]} 33. exd6 {[%clk 0:06:40]} Qf4 {[%clk 0:02:33]} 34. Qc2+
{[%clk 0:05:23]} Kf6 {[%clk 0:02:07]} 35. Qc5 {[%clk 0:02:09]} d4
{[%clk 0:01:40]} 36. d7 {[%clk 0:02:07]} Qe3+ {[%clk 0:01:57]} 37. Kf1
{[%clk 0:02:35]} Qd3+ {[%clk 0:00:50]} 38. Ke1 {[%clk 0:01:48]} Qe3+
{[%clk 0:00:44]} 39. Kf1 {[%clk 0:01:31]} Qd3+ {[%clk 0:01:05]} 40. Ke1
{[%clk 0:01:58]} Qe3+ {[%clk 0:01:31]} 41. Kd1 {[%clk 0:01:31]} Qg1+
{[%clk 0:01:09]} 42. Kd2 {[%clk 0:01:13]} Qe3+ {[%clk 0:01:13]} 43. Kd1
{[%clk 0:01:40]} Qg1+ {[%clk 0:01:23]} 44. Kc2 {[%clk 0:02:01]} d3+
{[%clk 0:01:52]} 45. Kxd3 {[%clk 0:02:25]} Qxc5 {[%clk 0:02:18]} 46. d8=Q+
{[%clk 0:02:51]} Kf7 {[%clk 0:02:24]} 47. Qd7+ {[%clk 0:03:11]} Kf8
{[%clk 0:02:33]} 48. Qxe6 {[%clk 0:03:35]} Qb5+ {[%clk 0:02:00]} 49. Qc4
{[%clk 0:02:41]} Qf5+ {[%clk 0:01:42]} 50. Ke3 {[%clk 0:03:06]} Qe5+
{[%clk 0:01:34]} 51. Kf3 {[%clk 0:03:28]} Qh5+ {[%clk 0:01:11]} 52. Kg3
{[%clk 0:03:11]} Qg5+ {[%clk 0:00:54]} 53. Qg4 {[%clk 0:03:37]} Qa5
{[%clk 0:01:10]} 54. a4 {[%clk 0:03:06]} h5 {[%clk 0:01:01]} 55. Qf4+
{[%clk 0:02:34]} Kg8 {[%clk 0:01:19]} 56. h4 {[%clk 0:02:56]} Kh7
{[%clk 0:00:46]} 57. Kh2 {[%clk 0:02:50]} g6 {[%clk 0:00:50]} 58. Qf7+
{[%clk 0:02:41]} Kh6 {[%clk 0:01:02]} 59. Qf8+ {[%clk 0:02:16]} Kh7
{[%clk 0:01:30]} 60. Qf7+ {[%clk 0:02:17]} Kh6 {[%clk 0:01:58]} 61. Qf4+
{[%clk 0:02:43]} Kh7 {[%clk 0:02:20]} 62. Qe4 {[%clk 0:01:43]} Qc7+
{[%clk 0:02:20]} 63. g3 {[%clk 0:01:52]} Qa5 {[%clk 0:01:47]} 64. Qe7+
{[%clk 0:01:05]} Kg8 {[%clk 0:01:43]} 65. Qg5 {[%clk 0:01:10]} Qa6
{[%clk 0:01:00]} 66. Qd5+ {[%clk 0:01:18]} Kh7 {[%clk 0:01:11]} 67. a5
{[%clk 0:01:32]} Qe2+ {[%clk 0:01:11]} 68. Qg2 {[%clk 0:02:00]} Qa6
{[%clk 0:01:08]} 69. Qa2 {[%clk 0:02:00]} Kh6 {[%clk 0:00:53]} 70. Qb2
{[%clk 0:01:58]} Kh7 {[%clk 0:01:09]} 71. Qe5 {[%clk 0:01:41]} Qf1
{[%clk 0:00:57]} 72. Qc7+ {[%clk 0:01:30]} Kg8 {[%clk 0:01:07]} 73. Qc2
{[%clk 0:01:21]} Qa6 {[%clk 0:01:22]} 74. Qd2 {[%clk 0:00:55]} Kh7
{[%clk 0:01:25]} 75. Kg1 {[%clk 0:00:53]} Qa7+ {[%clk 0:01:03]} 76. Kh2
{[%clk 0:01:19]} Qa6 {[%clk 0:01:21]} 77. Qa2 {[%clk 0:01:47]} Kg7
{[%clk 0:01:31]} 78. Qa1+ {[%clk 0:01:27]} Kh7 {[%clk 0:01:51]} 79. Qe5
{[%clk 0:01:54]} Qf1 {[%clk 0:01:46]} 80. Qb2 {[%clk 0:00:45]} Qa6
{[%clk 0:02:05]} 81. Qd2 {[%clk 0:01:13]} Kg7 {[%clk 0:02:05]} 82. Kg2
{[%clk 0:01:26]} Qc6+ {[%clk 0:02:01]} 83. Kg1 {[%clk 0:01:14]} Qc5+
{[%clk 0:02:07]} 84. Kf1 {[%clk 0:01:10]} Qb5+ {[%clk 0:02:30]} 85. Ke1
{[%clk 0:00:35]} Qe5+ {[%clk 0:02:27]} 86. Kf2 {[%clk 0:00:46]} Qc5+
{[%clk 0:02:46]} 87. Kg2 {[%clk 0:01:07]} Qc6+ {[%clk 0:03:08]} 88. Kh2
{[%clk 0:01:25]} Qa6 {[%clk 0:03:27]} 89. Qe1 {[%clk 0:01:45]} Kh7
{[%clk 0:03:10]} 90. Qe7+ {[%clk 0:01:00]} Kh6 {[%clk 0:02:51]} 91. Qe5
{[%clk 0:01:14]} Kh7 {[%clk 0:03:08]} 92. Kg2 {[%clk 0:01:17]} Qb7+
{[%clk 0:02:56]} 93. Kf2 {[%clk 0:01:42]} Qa7+ {[%clk 0:02:05]} 94. Kf3
{[%clk 0:01:17]} Qf7+ {[%clk 0:01:06]} 95. Ke3 {[%clk 0:01:07]} Qa7+
{[%clk 0:00:52]} 96. Kf4 {[%clk 0:01:09]} Qd7 {[%clk 0:00:37]} 97. Ke3
{[%clk 0:00:41]} Qa7+ {[%clk 0:00:53]} 98. Ke4 {[%clk 0:00:51]} Qb7+
{[%clk 0:00:47]} 99. Qd5 {[%clk 0:01:06]} Qe7+ {[%clk 0:00:41]} 100. Kd4
{[%clk 0:01:10]} Qa7+ {[%clk 0:00:39]} 101. Qc5 {[%clk 0:00:43]} Qd7+
{[%clk 0:00:39]} 102. Kc4 {[%clk 0:00:52]} Qa4+ {[%clk 0:00:45]} 103. Kd5
{[%clk 0:00:59]} Qd7+ {[%clk 0:00:57]} 104. Ke5 {[%clk 0:01:12]} Qf5+
{[%clk 0:00:48]} 105. Kd6 {[%clk 0:01:30]} Qd3+ {[%clk 0:00:43]} 106. Kc6
{[%clk 0:01:36]} Qe4+ {[%clk 0:00:33]} 107. Kc7 {[%clk 0:01:46]} Qa8
{[%clk 0:00:34]} 108. Qe7+ {[%clk 0:01:12]} Kh6 {[%clk 0:00:48]} 109. Qe3+
{[%clk 0:01:37]} Kh7 {[%clk 0:01:08]} 110. Qb6 {[%clk 0:01:57]} Qf3
{[%clk 0:00:52]} 111. a6 {[%clk 0:01:39]} Qxg3+ {[%clk 0:00:43]} 112. Qd6
{[%clk 0:02:03]} Qxh4 {[%clk 0:00:49]} 113. a7 {[%clk 0:02:02]} Qe4
{[%clk 0:00:55]} 114. Qc6 {[%clk 0:01:26]} Qf4+ {[%clk 0:01:24]} 115. Kc8
{[%clk 0:01:30]} Qf8+ {[%clk 0:01:29]} 116. Kb7 {[%clk 0:01:42]} Qb4+
{[%clk 0:01:39]} 117. Qb6 {[%clk 0:01:27]} Qe4+ {[%clk 0:01:50]} 118. Qc6
{[%clk 0:00:52]} Qb4+ {[%clk 0:01:59]} 119. Kc8 {[%clk 0:00:52]} Qf8+
{[%clk 0:02:18]} 120. Kc7 {[%clk 0:01:18]} Qf4+ {[%clk 0:02:27]} 121. Qd6
{[%clk 0:00:50]} *

[Event "Copenhagen Chess Challenge 2014"]
[Site "?"]
[Date "2014.05.17"]
[Round "6.10"]
[White "Larsen, Tor Ketil"]
[Black "Christensen, Tobias"]
[Result "0-1"]
[LiveChessVersion "1.4.2"]
[BlackElo "2368"]
[WhiteElo "2004"]
[ECO "B23"]

1. e4 {[%clk 1:30:57]} c5 {[%clk 1:30:57]} 2. Nc3 {[%clk 1:31:19]} d6
{[%clk 1:31:24]} 3. f4 {[%clk 1:30:04]} g6 {[%clk 1:31:22]} 4. Nf3
{[%clk 1:30:11]} Bg7 {[%clk 1:31:46]} 5. d3 {[%clk 1:29:50]} Nc6 {[%clk 1:32:02]}
6. Be3 {[%clk 1:29:26]} e6 {[%clk 1:30:59]} 7. g3 {[%clk 1:29:38]} Qb6
{[%clk 1:28:40]} 8. Rb1 {[%clk 1:26:56]} Nge7 {[%clk 1:27:48]} 9. Bg2
{[%clk 1:26:40]} d5 {[%clk 1:27:15]} 10. Bf2 {[%clk 1:24:43]} d4 {[%clk 1:21:38]}
11. Ne2 {[%clk 1:25:06]} e5 {[%clk 1:18:25]} 12. O-O {[%clk 1:24:37]} Be6
{[%clk 1:17:17]} 13. b3 {[%clk 1:24:16]} Qc7 {[%clk 1:13:56]} 14. Ng5
{[%clk 1:19:11]} Bg4 {[%clk 1:12:34]} 15. fxe5 {[%clk 1:11:04]} Nxe5
{[%clk 1:11:38]} 16. h3 {[%clk 1:11:04]} h6 {[%clk 1:08:34]} 17. hxg4
{[%clk 1:05:47]} hxg5 {[%clk 1:08:43]} 18. Nc1 {[%clk 1:02:27]} N7c6
{[%clk 1:06:34]} 19. a3 {[%clk 0:57:04]} a5 {[%clk 1:04:59]} 20. Be1
{[%clk 0:56:52]} Qd7 {[%clk 1:02:03]} 21. Bd2 {[%clk 0:53:57]} Nxg4
{[%clk 0:44:42]} 22. Bxg5 {[%clk 0:50:10]} Be5 {[%clk 0:44:27]} 23. Qf3
{[%clk 0:42:53]} Nh2 {[%clk 0:43:06]} 24. Qf2 {[%clk 0:43:17]} Nxf1
{[%clk 0:43:25]} 25. Kxf1 {[%clk 0:43:43]} Qg4 {[%clk 0:43:14]} 26. Bf4
{[%clk 0:42:52]} Qd1+ {[%clk 0:42:20]} 27. Qe1 {[%clk 0:43:16]} Qxc2
{[%clk 0:41:22]} 28. Ra1 {[%clk 0:43:40]} Qc3 {[%clk 0:40:08]} 29. Qxc3
{[%clk 0:36:34]} dxc3 {[%clk 0:40:27]} 30. Bxe5 {[%clk 0:37:00]} Nxe5
{[%clk 0:40:49]} 31. Ne2 {[%clk 0:36:30]} Rd8 {[%clk 0:39:57]} 32. Nxc3
{[%clk 0:36:03]} Rxd3 {[%clk 0:40:17]} 33. Na4 {[%clk 0:33:55]} Rxg3
{[%clk 0:39:46]} 34. Kf2 {[%clk 0:33:26]} Rxb3 {[%clk 0:39:29]} 35. Nxc5
{[%clk 0:33:47]} Rb2+ {[%clk 0:39:24]} 36. Kg3 {[%clk 0:31:42]} b6
{[%clk 0:39:47]} 37. Nb7 {[%clk 0:30:54]} Rb3+ {[%clk 0:40:08]} 38. Kf2
{[%clk 0:30:46]} Ng4+ {[%clk 0:39:55]} 39. Kg1 {[%clk 0:30:55]} O-O
{[%clk 0:40:10]} 40. Nd6 {[%clk 0:30:58]} Rd8 {[%clk 0:40:11]} 41. Nc4
{[%clk 0:31:10]} Rbd3 {[%clk 0:39:52]} 42. Nb2 {[%clk 0:30:15]} Rd2
{[%clk 0:40:07]} 43. Rb1 {[%clk 0:30:37]} Ne3 {[%clk 0:39:51]} 44. Bf3
{[%clk 0:30:02]} R8d4 {[%clk 0:39:10]} 45. a4 {[%clk 0:27:59]} Rb4
{[%clk 0:39:02]} 0-1

[Event "Copenhagen Chess Challenge 2014"]
[Site "?"]
[Date "2014.05.17"]
[Round "6.11"]
[White "Sahl, Bjarke"]
[Black "De Blecourt, Sandra"]
[Result "1-0"]
[LiveChessVersion "1.4.2"]
[BlackElo "2121"]
[WhiteElo "2368"]
[ECO "C02"]

1. e4 {[%clk 1:27:00]} e6 {[%clk 1:30:51]} 2. d4 {[%clk 1:27:26]} d5
{[%clk 1:31:16]} 3. e5 {[%clk 1:27:53]} c5 {[%clk 1:31:34]} 4. c3
{[%clk 1:28:20]} Nc6 {[%clk 1:31:52]} 5. Nf3 {[%clk 1:28:46]} Bd7
{[%clk 1:32:02]} 6. a3 {[%clk 1:29:12]} f6 {[%clk 1:28:14]} 7. Bb5
{[%clk 1:28:49]} Nxe5 {[%clk 1:14:38]} 8. Bxd7+ {[%clk 1:29:07]} Nxd7
{[%clk 1:14:52]} 9. O-O {[%clk 1:29:34]} Qb6 {[%clk 1:06:40]} 10. dxc5
{[%clk 1:29:56]} Bxc5 {[%clk 1:04:29]} 11. b4 {[%clk 1:30:18]} Bd6
{[%clk 1:04:50]} 12. Be3 {[%clk 1:29:58]} Qc7 {[%clk 1:05:00]} 13. Nd4
{[%clk 1:30:23]} Kf7 {[%clk 0:58:19]} 14. f4 {[%clk 1:28:48]} a6 {[%clk 0:57:53]}
15. Nd2 {[%clk 1:14:27]} Ne7 {[%clk 0:53:08]} 16. Rc1 {[%clk 1:13:18]} b5
{[%clk 0:46:13]} 17. a4 {[%clk 1:13:44]} Nc6 {[%clk 0:43:16]} 18. axb5
{[%clk 1:14:06]} Nxd4 {[%clk 0:43:38]} 19. cxd4 {[%clk 1:14:19]} Qb8
{[%clk 0:41:36]} 20. Rc6 axb5 {[%clk 0:38:24]} 21. f5 {[%clk 1:06:56]} Re8
{[%clk 0:32:14]} 22. Qh5+ {[%clk 1:06:29]} Kg8 {[%clk 0:31:47]} 23. fxe6
{[%clk 1:06:55]} Rxe6 {[%clk 0:29:08]} 24. Qxd5 {[%clk 1:07:16]} Nf8
{[%clk 0:29:06]} 25. Ne4 {[%clk 1:06:51]} Bxh2+ {[%clk 0:24:15]} 26. Kh1
{[%clk 1:07:16]} Qb7 {[%clk 0:23:53]} 27. Rfc1 {[%clk 0:52:43]} Ra6
{[%clk 0:16:44]} 28. Kxh2 {[%clk 0:53:05]} Raxc6 {[%clk 0:16:24]} 29. Nd6
{[%clk 0:53:29]} Rcxd6 {[%clk 0:09:39]} 30. Qxb7 {[%clk 0:53:47]} Rxe3
{[%clk 0:10:03]} 31. Rc7 {[%clk 0:51:15]} Ne6 {[%clk 0:09:35]} 32. Rc8+
{[%clk 0:50:50]} Rd8 {[%clk 0:07:02]} 33. Rxd8+ {[%clk 0:51:16]} Nxd8
{[%clk 0:07:27]} 34. Qd7 {[%clk 0:51:43]} Ne6 {[%clk 0:07:50]} 35. Qe8+
{[%clk 0:52:07]} 1-0

[Event "Copenhagen Chess Challenge 2014"]
[Site "?"]
[Date "2014.05.17"]
[Round "6.12"]
[White "Mueller, Reinhold"]
[Black "Vesterli, Michael E."]
[Result "*"]
[LiveChessVersion "1.4.2"]
[BlackElo "2107"]
[WhiteElo "2282"]
[ECO "E77"]

1. d4 {[%clk 1:30:58]} Nf6 {[%clk 1:30:55]} 2. c4 {[%clk 1:31:18]} g6
{[%clk 1:31:17]} 3. Nc3 {[%clk 1:31:27]} Bg7 {[%clk 1:31:41]} 4. e4
{[%clk 1:31:47]} d6 {[%clk 1:32:07]} 5. f4 {[%clk 1:32:08]} O-O {[%clk 1:32:29]}
6. Nf3 {[%clk 1:32:33]} c5 {[%clk 1:32:51]} 7. d5 {[%clk 1:32:57]} e6
{[%clk 1:33:15]} 8. Be2 {[%clk 1:33:15]} exd5 {[%clk 1:33:37]} 9. cxd5
{[%clk 1:33:29]} Bg4 {[%clk 1:33:53]} 10. O-O {[%clk 1:32:18]} Nbd7
{[%clk 1:34:13]} 11. h3 {[%clk 1:31:54]} Bxf3 {[%clk 1:34:37]} 12. Bxf3
{[%clk 1:32:18]} Re8 {[%clk 1:34:58]} 13. Re1 {[%clk 1:32:11]} a6
{[%clk 1:34:30]} 14. a4 {[%clk 1:25:06]} Qa5 {[%clk 1:34:16]} 15. Bd2
{[%clk 1:22:55]} c4 {[%clk 1:29:58]} 16. Nb5 {[%clk 0:34:41]} Qb6+
{[%clk 1:29:51]} 17. Be3 {[%clk 0:35:03]} Nc5 {[%clk 1:30:01]} 18. Nxd6
{[%clk 0:34:52]} Qxd6 {[%clk 1:25:18]} 19. e5 {[%clk 0:35:14]} Qb6
{[%clk 1:25:41]} 20. a5 {[%clk 0:33:36]} Qb5 {[%clk 1:24:35]} 21. exf6
{[%clk 0:27:08]} Bxf6 {[%clk 1:24:43]} 22. Re2 {[%clk 0:24:36]} Nd3
{[%clk 1:23:48]} 23. Bb6 {[%clk 0:23:53]} Bxb2 {[%clk 1:06:20]} 24. Rb1
{[%clk 0:22:30]} Rxe2 {[%clk 1:06:24]} 25. Bxe2 {[%clk 0:13:43]} Nxf4
{[%clk 1:06:13]} 26. Bf3 {[%clk 0:06:56]} c3 {[%clk 1:04:17]} 27. d6
{[%clk 0:07:03]} Qd7 {[%clk 0:50:38]} 28. Bg4 {[%clk 0:06:59]} Qc6
{[%clk 0:48:01]} 29. Bf3 {[%clk 0:01:57]} c2 {[%clk 0:37:51]} 30. Bxc6
{[%clk 0:02:14]} cxd1=Q+ {[%clk 0:38:10]} 31. Rxd1 {[%clk 0:02:41]} bxc6
{[%clk 0:38:28]} 32. d7 {[%clk 0:02:58]} Ne6 {[%clk 0:34:26]} 33. Rd6
{[%clk 0:03:05]} Nd8 {[%clk 0:32:50]} 34. Kf2 {[%clk 0:01:55]} Be5
{[%clk 0:32:46]} 35. Rd1 {[%clk 0:02:04]} f6 {[%clk 0:32:37]} 36. Ke3
{[%clk 0:01:05]} Kf7 {[%clk 0:32:42]} 37. Kd3 {[%clk 0:01:26]} Ke6
{[%clk 0:32:31]} 38. Kc4 {[%clk 0:01:50]} Bd6 {[%clk 0:32:43]} 39. Rd3
{[%clk 0:01:17]} Kxd7 {[%clk 0:32:42]} 40. Bc5 {[%clk 0:01:36]} Nf7
{[%clk 0:33:04]} 41. Bxd6 {[%clk 0:01:59]} Ke6 {[%clk 0:18:20]} 42. Kc5
{[%clk 0:01:07]} Rd8 {[%clk 0:14:39]} 43. Re3+ {[%clk 0:01:32]} Kf5
{[%clk 0:14:45]} 44. g4+ {[%clk 0:01:35]} Kg5 {[%clk 0:15:04]} 45. Be7
{[%clk 0:01:45]} Rb8 {[%clk 0:13:39]} 46. Kxc6 {[%clk 0:00:58]} Rb5
{[%clk 0:13:56]} 47. Re6 {[%clk 0:01:05]} Rxa5 {[%clk 0:10:36]} 48. Kb6
{[%clk 0:00:36]} Rb5+ {[%clk 0:06:13]} 49. Kxa6 {[%clk 0:00:30]} Rb3
{[%clk 0:06:38]} 50. Rxf6 {[%clk 0:00:38]} Rxh3 {[%clk 0:06:47]} 51. Rxf7+
{[%clk 0:01:02]} Kxg4 {[%clk 0:07:08]} 52. Kb5 {[%clk 0:01:21]} h5
{[%clk 0:07:02]} 53. Rf6 {[%clk 0:01:20]} Kg5 {[%clk 0:04:19]} 54. Kc4
{[%clk 0:01:33]} Rh4+ {[%clk 0:02:56]} 55. Kd5 {[%clk 0:01:32]} Rf4
{[%clk 0:02:23]} 56. Ra6+ {[%clk 0:00:59]} Kh6 {[%clk 0:01:27]} 57. Bd6
{[%clk 0:01:09]} Rf5+ {[%clk 0:01:39]} 58. Ke4 {[%clk 0:01:27]} h4
{[%clk 0:01:42]} 59. Ra8 {[%clk 0:00:58]} Kh5 {[%clk 0:01:41]} 60. Rg8
{[%clk 0:01:14]} h3 {[%clk 0:01:32]} 61. Bf4 {[%clk 0:01:17]} Rb5
{[%clk 0:00:35]} 62. Kf3 {[%clk 0:01:30]} g5 {[%clk 0:00:35]} 63. Rh8+
{[%clk 0:01:12]} Kg6 {[%clk 0:01:00]} 64. Be3 {[%clk 0:01:15]} Kf5
{[%clk 0:00:34]} 65. Rh5 {[%clk 0:01:29]} Kf6 {[%clk 0:00:32]} 66. Rxh3
{[%clk 0:01:49]} Rb3 {[%clk 0:00:42]} 67. Rh6+ {[%clk 0:01:51]} Kf5
{[%clk 0:00:58]} 68. Rh5 {[%clk 0:02:16]} Kf6 {[%clk 0:01:24]} 69. Rh8
{[%clk 0:00:44]} Kf5 {[%clk 0:01:16]} 70. Rf8+ {[%clk 0:01:03]} Ke5
{[%clk 0:01:37]} 71. Re8+ {[%clk 0:01:02]} Kf5 {[%clk 0:01:57]} 72. Rf8+
{[%clk 0:00:48]} Ke5 {[%clk 0:02:22]} 73. Rg8 {[%clk 0:01:06]} Kf6
{[%clk 0:02:44]} 74. Ke4 {[%clk 0:01:14]} Rb5 {[%clk 0:02:23]} 75. Bd4+
{[%clk 0:01:20]} Ke6 {[%clk 0:02:44]} 76. Rg6+ {[%clk 0:01:19]} Kf7
{[%clk 0:03:02]} 77. Ra6 {[%clk 0:01:29]} Ke7 {[%clk 0:02:50]} 78. Be5
{[%clk 0:01:48]} Kd7 {[%clk 0:02:31]} 79. Rd6+ {[%clk 0:02:04]} Ke7
{[%clk 0:02:40]} 80. Rg6 {[%clk 0:02:01]} Kf7 {[%clk 0:02:42]} 81. Rxg5
{[%clk 0:02:22]} Ke6 {[%clk 0:03:02]} 82. Rg6+ {[%clk 0:02:46]} Kf7
{[%clk 0:03:23]} 83. Ra6 {[%clk 0:02:55]} Ke7 {[%clk 0:03:39]} 84. Kf5
{[%clk 0:03:04]} Kd7 {[%clk 0:03:59]} 85. Rd6+ {[%clk 0:03:18]} Ke7
{[%clk 0:04:17]} 86. Rc6 {[%clk 0:03:20]} Rd5 {[%clk 0:04:03]} 87. Ke4
{[%clk 0:02:49]} Rb5 {[%clk 0:04:14]} 88. Ra6 {[%clk 0:01:32]} Kd7
{[%clk 0:04:24]} 89. Bd4 {[%clk 0:01:05]} Ke7 {[%clk 0:04:28]} 90. Be5
{[%clk 0:00:48]} Kd7 {[%clk 0:04:52]} 91. Kf5 {[%clk 0:01:03]} Rd5
{[%clk 0:04:55]} 92. Ra7+ {[%clk 0:01:11]} Kc6 {[%clk 0:05:17]} 93. Ke4
{[%clk 0:01:16]} Rd1 {[%clk 0:05:33]} 94. Rc7+ {[%clk 0:01:37]} Kb6
{[%clk 0:05:55]} 95. Rc2 {[%clk 0:02:01]} Kb5 {[%clk 0:06:12]} 96. Bd4
{[%clk 0:02:25]} Kb4 {[%clk 0:05:20]} 97. Kd5 {[%clk 0:02:16]} Rd3
{[%clk 0:05:38]} 98. Rb2+ {[%clk 0:02:15]} Rb3 {[%clk 0:06:00]} 99. Bc5+
{[%clk 0:02:35]} Kc3 {[%clk 0:06:19]} 100. Rh2 {[%clk 0:02:13]} Kd3
{[%clk 0:05:28]} 101. Rh4 {[%clk 0:01:38]} Kd2 {[%clk 0:04:49]} 102. Kc4
{[%clk 0:01:33]} Rc3+ {[%clk 0:04:04]} 103. Kd5 {[%clk 0:01:24]} Rg3
{[%clk 0:03:28]} 104. Bd4 {[%clk 0:01:35]} Kd3 {[%clk 0:03:41]} 105. Be5
{[%clk 0:01:47]} Rf3 {[%clk 0:02:47]} 106. Ra4 {[%clk 0:01:43]} Ke2
{[%clk 0:02:49]} 107. Kc4 {[%clk 0:00:36]} Ke3 {[%clk 0:02:22]} 108. Kd5
{[%clk 0:00:45]} Ke2 {[%clk 0:02:40]} 109. Ke4 {[%clk 0:00:57]} Re3+
{[%clk 0:03:02]} 110. Kf4 {[%clk 0:01:09]} Rf3+ {[%clk 0:03:09]} 111. Kg4
{[%clk 0:01:35]} Rf7 {[%clk 0:02:52]} 112. Ra3 {[%clk 0:01:55]} Rf8
{[%clk 0:02:47]} 113. Bf4 {[%clk 0:02:13]} Rf7 {[%clk 0:02:37]} 114. Re3+
{[%clk 0:02:36]} Kf2 {[%clk 0:02:36]} 115. Rd3 {[%clk 0:02:30]} Rg7+
{[%clk 0:02:26]} 116. Bg5 {[%clk 0:02:41]} Ke1 {[%clk 0:02:15]} 117. Rd5
{[%clk 0:02:45]} Rg8 {[%clk 0:02:04]} 118. Kf3 {[%clk 0:03:09]} Rf8+
{[%clk 0:00:39]} 119. Bf4 {[%clk 0:03:19]} Rf7 {[%clk 0:00:54]} 120. Rc5
{[%clk 0:03:27]} Rd7 {[%clk 0:01:15]} 121. Rc1+ {[%clk 0:03:21]} Rd1
{[%clk 0:01:39]} 122. Rc2 {[%clk 0:03:35]} Rd8 {[%clk 0:01:19]} *

[Event "Copenhagen Chess Challenge 2014"]
[Site "?"]
[Date "2014.05.17"]
[Round "6.13"]
[White "Sorensen, Per Settergren"]
[Black "Englert, Fabian"]
[Result "0-1"]
[LiveChessVersion "1.4.2"]
[BlackElo "2310"]
[WhiteElo "2021"]
[ECO "B03"]

1. e4 {[%clk 1:30:55]} Nf6 {[%clk 1:30:53]} 2. e5 {[%clk 1:30:26]} Nd5
{[%clk 1:31:17]} 3. d4 {[%clk 1:30:48]} d6 {[%clk 1:31:41]} 4. c4
{[%clk 1:31:07]} Nb6 {[%clk 1:32:04]} 5. exd6 {[%clk 1:31:31]} cxd6
{[%clk 1:32:15]} 6. Nc3 {[%clk 1:30:17]} g6 {[%clk 1:32:20]} 7. Be3
{[%clk 1:29:59]} Bg7 {[%clk 1:32:38]} 8. b3 {[%clk 1:29:01]} O-O {[%clk 1:31:41]}
9. Nf3 {[%clk 1:25:09]} Bg4 {[%clk 1:26:21]} 10. Be2 {[%clk 1:24:30]} Nc6
{[%clk 1:25:48]} 11. Rc1 {[%clk 1:23:07]} d5 {[%clk 1:25:21]} 12. c5
{[%clk 1:20:57]} Nc8 {[%clk 1:25:42]} 13. Qd2 {[%clk 1:08:13]} e6
{[%clk 1:23:57]} 14. h3 {[%clk 1:03:03]} Bxf3 {[%clk 1:23:51]} 15. Bxf3
{[%clk 1:03:30]} N8e7 {[%clk 1:23:48]} 16. g4 {[%clk 0:58:51]} f5
{[%clk 1:18:53]} 17. Ne2 {[%clk 0:54:45]} fxg4 {[%clk 1:15:07]} 18. Bxg4
{[%clk 0:54:53]} Nf5 {[%clk 1:15:25]} 19. Bxf5 {[%clk 0:52:33]} Rxf5
{[%clk 1:11:54]} 20. h4 {[%clk 0:51:37]} Qf6 {[%clk 0:54:45]} 21. f4
{[%clk 0:49:09]} Bh6 {[%clk 0:47:54]} 22. b4 {[%clk 0:34:59]} a6 {[%clk 0:41:08]}
23. a4 {[%clk 0:30:06]} Rh5 {[%clk 0:37:26]} 24. b5 {[%clk 0:27:48]} axb5
{[%clk 0:35:57]} 25. axb5 {[%clk 0:28:09]} Rxh4 {[%clk 0:35:34]} 26. Rf1
{[%clk 0:27:40]} Ne7 {[%clk 0:26:58]} 27. c6 {[%clk 0:27:43]} bxc6
{[%clk 0:27:27]} 28. bxc6 {[%clk 0:28:04]} Nc8 {[%clk 0:26:52]} 29. Qb4
{[%clk 0:27:37]} Qf8 {[%clk 0:26:21]} 30. Qb7 Nd6 {[%clk 0:24:12]} 31. Qd7
{[%clk 0:19:59]} Nc4 {[%clk 0:19:47]} 32. Qxe6+ {[%clk 0:18:28]} Qf7
{[%clk 0:19:12]} 33. Qxf7+ {[%clk 0:18:18]} Kxf7 {[%clk 0:19:40]} 34. Bd2
{[%clk 0:17:02]} Rc8 {[%clk 0:16:58]} 35. Rxc4 {[%clk 0:17:03]} dxc4
{[%clk 0:17:28]} 36. d5 {[%clk 0:17:24]} Rh5 {[%clk 0:15:56]} 37. Nc3
{[%clk 0:16:03]} Bg7 {[%clk 0:14:26]} 38. f5 {[%clk 0:14:43]} Rxf5
{[%clk 0:13:34]} 39. Rxf5+ {[%clk 0:13:39]} gxf5 {[%clk 0:14:03]} 40. Nb5
{[%clk 0:14:00]} Be5 {[%clk 0:13:11]} 41. Bb4 {[%clk 0:12:03]} Kf6
{[%clk 0:08:17]} 42. Nd6 {[%clk 0:06:48]} Bxd6 {[%clk 0:06:18]} 43. Bxd6
{[%clk 0:07:16]} Rd8 {[%clk 0:04:31]} 44. c7 {[%clk 0:07:27]} Rc8
{[%clk 0:04:41]} 45. Bf4 {[%clk 0:07:22]} Kf7 {[%clk 0:05:02]} 46. Kd2
{[%clk 0:07:44]} Ke8 {[%clk 0:05:19]} 47. Kc3 {[%clk 0:07:12]} Kd7
{[%clk 0:05:47]} 48. Kxc4 {[%clk 0:07:13]} Re8 {[%clk 0:02:47]} 49. Kc5
{[%clk 0:05:27]} Re4 {[%clk 0:02:27]} 50. Bd6 {[%clk 0:05:54]} Re2
{[%clk 0:01:49]} 51. Bf4 {[%clk 0:04:01]} Re4 {[%clk 0:01:32]} 52. Bd6
{[%clk 0:04:28]} h5 {[%clk 0:01:33]} 53. Kb6 {[%clk 0:04:44]} Rc4
{[%clk 0:01:13]} 54. Bc5 {[%clk 0:03:54]} Rxc5 {[%clk 0:01:25]} 55. Kxc5
{[%clk 0:03:55]} Kxc7 {[%clk 0:01:54]} 56. d6+ {[%clk 0:04:00]} Kd7
{[%clk 0:02:19]} 57. Kd4 {[%clk 0:03:48]} Kxd6 {[%clk 0:02:43]} 58. Ke3
{[%clk 0:04:14]} Ke5 {[%clk 0:03:07]} 0-1

[Event "Copenhagen Chess Challenge 2014"]
[Site "?"]
[Date "2014.05.17"]
[Round "6.14"]
[White "Thuesen, Mogens"]
[Black "Nyland, Thomas"]
[Result "1-0"]
[LiveChessVersion "1.4.2"]
[BlackElo "2043"]
[WhiteElo "2235"]
[ECO "E46"]

1. d4 {[%clk 1:30:58]} Nf6 {[%clk 1:27:07]} 2. c4 {[%clk 1:30:33]} e6
{[%clk 1:27:15]} 3. Nc3 {[%clk 1:30:55]} Bb4 {[%clk 1:27:30]} 4. e3
{[%clk 1:31:17]} O-O {[%clk 1:27:07]} 5. Nge2 {[%clk 1:31:40]} d5
{[%clk 1:26:32]} 6. a3 {[%clk 1:32:01]} Be7 {[%clk 1:26:37]} 7. Ng3
{[%clk 1:30:35]} b6 {[%clk 1:26:21]} 8. Bd3 {[%clk 1:28:12]} Bb7 {[%clk 1:24:18]}
9. cxd5 {[%clk 1:26:41]} exd5 {[%clk 1:23:56]} 10. Nf5 {[%clk 1:26:11]} Re8
{[%clk 1:20:32]} 11. Nxe7+ {[%clk 1:18:22]} Qxe7 {[%clk 1:19:01]} 12. b4
{[%clk 1:11:46]} Nbd7 {[%clk 1:16:20]} 13. O-O {[%clk 1:10:45]} Ne4
{[%clk 1:13:39]} 14. Qb3 {[%clk 1:04:09]} Ndf6 {[%clk 1:11:44]} 15. a4
{[%clk 0:53:58]} Nxc3 {[%clk 1:07:32]} 16. Qxc3 {[%clk 0:53:59]} Ne4
{[%clk 1:07:31]} 17. Qc2 {[%clk 0:54:09]} Rac8 {[%clk 1:00:47]} 18. a5
{[%clk 0:47:46]} Ra8 {[%clk 0:51:16]} 19. Ba3 {[%clk 0:44:32]} a6
{[%clk 0:45:54]} 20. Rfc1 {[%clk 0:41:58]} Rec8 {[%clk 0:45:54]} 21. b5
{[%clk 0:38:29]} Qd7 {[%clk 0:45:15]} 22. f3 {[%clk 0:35:47]} Nf6
{[%clk 0:45:15]} 23. bxa6 {[%clk 0:34:43]} Bxa6 {[%clk 0:45:32]} 24. Bf5
{[%clk 0:34:32]} Qe8 {[%clk 0:45:41]} 25. Bxc8 {[%clk 0:33:11]} Qxe3+
{[%clk 0:45:56]} 26. Qf2 {[%clk 0:33:30]} Qxf2+ {[%clk 0:45:54]} 27. Kxf2
{[%clk 0:33:53]} Rxc8 {[%clk 0:43:26]} 28. axb6 {[%clk 0:33:44]} cxb6
{[%clk 0:43:47]} 29. Rxc8+ {[%clk 0:33:47]} Bxc8 {[%clk 0:44:12]} 30. Be7
{[%clk 0:33:58]} 1-0

[Event "Copenhagen Chess Challenge 2014"]
[Site "?"]
[Date "2014.05.17"]
[Round "6.15"]
[White "Karlsson, Ulf"]
[Black "Jorgensen, Dennis"]
[Result "1/2-1/2"]
[LiveChessVersion "1.4.2"]
[BlackElo "2231"]
[WhiteElo "1959"]
[ECO "B19"]

1. e4 {[%clk 1:30:57]} c6 {[%clk 1:30:48]} 2. d4 {[%clk 1:31:11]} d5
{[%clk 1:31:11]} 3. Nc3 {[%clk 1:31:23]} dxe4 {[%clk 1:31:32]} 4. Nxe4
{[%clk 1:31:46]} Bf5 {[%clk 1:31:37]} 5. Ng3 {[%clk 1:32:07]} Bg6
{[%clk 1:32:02]} 6. h4 {[%clk 1:32:12]} h6 {[%clk 1:32:26]} 7. Nf3
{[%clk 1:32:35]} Nd7 {[%clk 1:32:51]} 8. h5 {[%clk 1:32:28]} Bh7 {[%clk 1:33:17]}
9. Bd3 {[%clk 1:32:53]} Bxd3 {[%clk 1:33:43]} 10. Qxd3 {[%clk 1:33:14]} e6
{[%clk 1:34:04]} 11. Bf4 {[%clk 1:32:07]} Qa5+ {[%clk 1:32:40]} 12. Nd2
{[%clk 1:31:54]} Ngf6 {[%clk 1:29:29]} 13. c4 {[%clk 1:31:48]} Be7
{[%clk 1:27:20]} 14. Qe2 {[%clk 1:32:06]} O-O {[%clk 1:24:40]} 15. O-O
{[%clk 1:32:27]} Rad8 {[%clk 1:22:22]} 16. Rfd1 {[%clk 1:22:49]} Rfe8
{[%clk 1:17:50]} 17. a3 {[%clk 1:23:06]} Bf8 {[%clk 1:16:01]} 18. Nde4
{[%clk 1:14:05]} Nxe4 {[%clk 1:12:41]} 19. Nxe4 {[%clk 1:12:41]} Qf5
{[%clk 1:12:41]} 20. Bc7 {[%clk 1:11:20]} Rc8 {[%clk 1:12:02]} 21. g4
{[%clk 1:04:36]} Qh7 {[%clk 1:11:56]} 22. Bg3 {[%clk 1:04:19]} f5
{[%clk 1:07:39]} 23. Nd6 {[%clk 0:58:13]} Bxd6 {[%clk 1:07:53]} 24. Bxd6
{[%clk 0:58:41]} fxg4 {[%clk 1:03:51]} 25. Qxg4 {[%clk 0:57:09]} Nf6
{[%clk 0:58:05]} 26. Qg6 {[%clk 0:55:19]} Rcd8 {[%clk 0:53:19]} 27. c5
{[%clk 0:50:12]} Ne4 {[%clk 0:44:31]} 28. Be5 {[%clk 0:46:32]} Ng5
{[%clk 0:39:31]} 29. Kg2 {[%clk 0:39:34]} Nf7 {[%clk 0:39:12]} 30. Qxh7+
{[%clk 0:28:19]} Kxh7 {[%clk 0:39:37]} 31. f4 {[%clk 0:28:42]} Rf8
{[%clk 0:38:32]} 32. Kg3 {[%clk 0:28:19]} Rd5 {[%clk 0:34:57]} 33. b4
{[%clk 0:22:17]} Rfd8 {[%clk 0:33:02]} 34. Rf1 {[%clk 0:22:32]} R8d7
{[%clk 0:31:01]} 35. Rf3 {[%clk 0:22:04]} Nxe5 {[%clk 0:25:28]} 36. dxe5
{[%clk 0:22:20]} g6 {[%clk 0:24:56]} 37. hxg6+ {[%clk 0:19:18]} Kxg6
{[%clk 0:25:20]} 38. Kg4 {[%clk 0:15:50]} Rd3 {[%clk 0:24:44]} 39. Raf1
{[%clk 0:15:36]} R7d4 {[%clk 0:23:46]} 40. R1f2 {[%clk 0:10:20]} Rd7
{[%clk 0:20:15]} 41. f5+ {[%clk 0:09:45]} exf5+ {[%clk 0:20:38]} 42. Rxf5
{[%clk 0:10:08]} h5+ {[%clk 0:16:44]} 43. Kh4 {[%clk 0:10:01]} R7d4+
{[%clk 0:16:34]} 44. R2f4 {[%clk 0:09:41]} Rxf4+ {[%clk 0:16:52]} 45. Rxf4
{[%clk 0:10:10]} Rxa3 {[%clk 0:15:50]} 46. Rf6+ {[%clk 0:10:23]} Kg7
{[%clk 0:14:50]} 47. Rf4 {[%clk 0:09:58]} Re3 {[%clk 0:14:36]} 48. Rf5
{[%clk 0:10:08]} Re4+ {[%clk 0:14:48]} 49. Kxh5 {[%clk 0:10:37]} Rxb4
{[%clk 0:13:36]} 50. e6 {[%clk 0:10:59]} Re4 {[%clk 0:11:14]} 1/2-1/2

[Event "Copenhagen Chess Challenge 2014"]
[Site "?"]
[Date "2014.05.17"]
[Round "6.16"]
[White "Rydstrom, Tom"]
[Black "Pallesen, Jacob"]
[Result "1-0"]
[LiveChessVersion "1.4.2"]
[BlackElo "2029"]
[WhiteElo "2190"]
[ECO "B06"]

1. e4 {[%clk 1:30:00]} g6 {[%clk 1:30:44]} 2. d4 {[%clk 1:30:09]} Bg7
{[%clk 1:31:07]} 3. Nc3 {[%clk 1:30:32]} c6 {[%clk 1:31:04]} 4. h4
{[%clk 1:30:06]} d5 {[%clk 1:29:31]} 5. Be3 {[%clk 1:29:27]} Nf6 {[%clk 1:26:56]}
6. e5 {[%clk 1:29:18]} Ng4 {[%clk 1:26:55]} 7. Bf4 {[%clk 1:28:11]} h5
{[%clk 1:21:17]} 8. Nf3 {[%clk 1:26:19]} Bf5 {[%clk 1:18:42]} 9. Ng5
{[%clk 1:21:06]} f6 {[%clk 1:13:14]} 10. exf6 {[%clk 1:21:32]} exf6
{[%clk 1:13:23]} 11. Nf3 {[%clk 1:21:41]} Nd7 {[%clk 1:05:06]} 12. Bd3
{[%clk 1:19:40]} Bxd3 {[%clk 0:56:39]} 13. Qxd3 {[%clk 1:20:06]} Kf7
{[%clk 0:56:33]} 14. O-O {[%clk 1:16:22]} Re8 {[%clk 0:54:01]} 15. Rfe1
{[%clk 1:16:25]} Rxe1+ {[%clk 0:50:04]} 16. Rxe1 {[%clk 1:16:53]} Qf8
{[%clk 0:50:05]} 17. Ne2 {[%clk 1:15:22]} Re8 {[%clk 0:41:58]} 18. c4
{[%clk 1:15:37]} Bh6 {[%clk 0:22:35]} 19. cxd5 {[%clk 1:13:53]} cxd5
{[%clk 0:20:04]} 20. Qb5 {[%clk 1:12:24]} Nb6 {[%clk 0:19:42]} 21. Bc7
{[%clk 1:01:11]} Kg7 {[%clk 0:16:18]} 22. Bxb6 {[%clk 0:55:50]} axb6
{[%clk 0:16:46]} 23. Qxd5 {[%clk 0:54:10]} Qb4 {[%clk 0:15:34]} 24. Qb3
{[%clk 0:46:39]} Qd6 {[%clk 0:12:14]} 25. Qd3 {[%clk 0:32:10]} Re7
{[%clk 0:11:33]} 26. Rd1 {[%clk 0:30:13]} Kh7 {[%clk 0:08:41]} 27. Nc3
{[%clk 0:27:04]} Bf4 {[%clk 0:05:39]} 28. Ne4 {[%clk 0:18:57]} Bh2+
{[%clk 0:04:59]} 29. Kf1 {[%clk 0:19:24]} Qf4 {[%clk 0:05:16]} 30. Re1
{[%clk 0:19:48]} Kg7 {[%clk 0:04:16]} 31. g3 {[%clk 0:15:52]} Qc7
{[%clk 0:03:06]} 32. d5 {[%clk 0:16:05]} f5 {[%clk 0:01:27]} 33. d6
{[%clk 0:15:49]} Qd7 {[%clk 0:00:44]} 34. Qd4+ {[%clk 0:14:45]} Re5
{[%clk 0:00:35]} 35. Nxe5 {[%clk 0:15:05]} Qb5+ {[%clk 0:00:37]} 36. Nd3+
{[%clk 0:15:27]} 1-0

