[Event "No Logo Norway Chess 2014"]
[Site "?"]
[Date "2014.06.12"]
[Round "8.1"]
[White "Agdestein, Simen"]
[Black "Topalov, Veselin"]
[Result "0-1"]
[LiveChessVersion "1.4.2"]
[BlackElo "2772"]
[WhiteElo "2628"]
[ECO "A29"]

1. c4 {[%clk 1:59:53]} e5 {[%clk 1:59:34]} 2. Nc3 {[%clk 1:59:48]} Nf6
{[%clk 1:59:26]} 3. Nf3 {[%clk 1:59:43]} Nc6 {[%clk 1:59:20]} 4. g3
{[%clk 1:59:40]} Bb4 {[%clk 1:59:13]} 5. Nd5 {[%clk 1:59:34]} Bc5
{[%clk 1:57:06]} 6. Bg2 {[%clk 1:59:29]} O-O {[%clk 1:55:09]} 7. O-O
{[%clk 1:59:17]} d6 {[%clk 1:53:11]} 8. e3 {[%clk 1:58:46]} a6 {[%clk 1:51:26]}
9. b3 {[%clk 1:56:49]} Ba7 {[%clk 1:50:06]} 10. Bb2 {[%clk 1:54:52]} Nxd5
{[%clk 1:47:59]} 11. cxd5 {[%clk 1:53:32]} Ne7 {[%clk 1:38:53]} 12. Nh4
{[%clk 1:52:58]} f5 {[%clk 1:28:48]} 13. f4 {[%clk 1:30:40]} e4 {[%clk 1:28:17]}
14. g4 {[%clk 1:30:21]} Nxd5 {[%clk 1:19:53]} 15. Nxf5 {[%clk 1:29:22]} Bxf5
{[%clk 1:19:46]} 16. gxf5 {[%clk 1:29:19]} Qe7 {[%clk 1:19:04]} 17. Kh1
{[%clk 1:21:03]} Nf6 {[%clk 1:18:54]} 18. d3 {[%clk 1:15:34]} c6 {[%clk 1:08:19]}
19. dxe4 {[%clk 1:02:04]} Nxe4 {[%clk 1:07:05]} 20. Qc2 {[%clk 0:59:56]} Rae8
{[%clk 1:05:07]} 21. Rg1 {[%clk 0:53:08]} Nf6 {[%clk 1:03:56]} 22. Rae1
{[%clk 0:42:40]} Qf7 {[%clk 1:03:14]} 23. e4 {[%clk 0:24:45]} d5 {[%clk 0:45:53]}
24. Bxf6 {[%clk 0:16:48]} Bxg1 {[%clk 0:45:26]} 25. Be5 {[%clk 0:13:45]} Ba7
{[%clk 0:45:12]} 26. exd5 {[%clk 0:12:20]} cxd5 {[%clk 0:44:19]} 27. Qd3
{[%clk 0:09:47]} Rd8 {[%clk 0:38:47]} 28. Rc1 {[%clk 0:08:22]} Rd7
{[%clk 0:32:56]} 29. Bh3 {[%clk 0:07:33]} Re7 {[%clk 0:28:50]} 30. Qg3
{[%clk 0:05:45]} Kh8 {[%clk 0:26:52]} 31. Rc2 {[%clk 0:04:58]} Bb8
{[%clk 0:24:11]} 32. Bg4 {[%clk 0:03:40]} d4 {[%clk 0:18:55]} 33. Kg1
{[%clk 0:02:56]} d3 {[%clk 0:13:39]} 34. Rd2 {[%clk 0:02:30]} Qd5
{[%clk 0:10:24]} 35. Rxd3 {[%clk 0:01:28]} Ba7+ {[%clk 0:08:33]} 36. Kf1
{[%clk 0:01:27]} Qh1+ {[%clk 0:07:59]} 37. Ke2 {[%clk 0:01:26]} Qe4+
{[%clk 0:04:59]} 38. Kd1 {[%clk 0:01:14]} Bb8 {[%clk 0:03:52]} 39. Qf3
{[%clk 0:00:29]} Qxf3+ {[%clk 0:03:35]} 40. Bxf3 {[%clk 1:00:25]} Bxe5
{[%clk 1:03:21]} 41. fxe5 {[%clk 1:00:24]} Rxe5 {[%clk 1:03:08]} 42. Bxb7
{[%clk 1:00:04]} Rexf5 {[%clk 1:02:50]} 43. a4 {[%clk 0:56:56]} a5
{[%clk 1:02:30]} 44. h3 {[%clk 0:56:47]} Rf2 {[%clk 1:00:47]} 45. Ba6
{[%clk 0:53:40]} g5 0-1

[Event "No Logo Norway Chess 2014"]
[Site "?"]
[Date "2014.06.12"]
[Round "8.2"]
[White "Aronian, Levon"]
[Black "Caruana, Fabiano"]
[Result "1/2-1/2"]
[LiveChessVersion "1.4.2"]
[BlackElo "2791"]
[WhiteElo "2815"]
[ECO "A04"]

1. Nf3 {[%clk 1:59:59]} c5 {[%clk 1:59:44]} 2. c4 {[%clk 1:59:54]} Nc6
{[%clk 1:59:39]} 3. Nc3 {[%clk 1:59:21]} e5 {[%clk 1:59:13]} 4. e3
{[%clk 1:59:15]} Nf6 {[%clk 1:58:56]} 5. d4 {[%clk 1:59:08]} e4 {[%clk 1:58:26]}
6. d5 {[%clk 1:59:03]} exf3 {[%clk 1:57:12]} 7. dxc6 {[%clk 1:58:57]} bxc6
{[%clk 1:38:26]} 8. e4 {[%clk 1:58:53]} Qc7 {[%clk 1:28:46]} 9. gxf3
{[%clk 1:58:17]} g6 {[%clk 1:23:37]} 10. Be3 {[%clk 1:54:47]} d6 {[%clk 1:18:42]}
11. Qd2 {[%clk 1:53:51]} Be6 {[%clk 1:18:35]} 12. O-O-O {[%clk 1:50:49]} Nd7
{[%clk 1:16:48]} 13. f4 {[%clk 1:43:21]} O-O-O {[%clk 1:09:45]} 14. Rg1
{[%clk 1:36:28]} f5 {[%clk 1:04:47]} 15. exf5 {[%clk 1:30:15]} gxf5
{[%clk 1:01:28]} 16. Qe2 {[%clk 1:26:58]} Rg8 {[%clk 0:44:43]} 17. Rxg8
{[%clk 1:22:18]} Bxg8 {[%clk 0:44:38]} 18. Qd3 {[%clk 1:21:08]} Nb6
{[%clk 0:41:28]} 19. Qxf5+ {[%clk 1:20:24]} Kb7 {[%clk 0:32:44]} 20. b3
{[%clk 1:18:01]} d5 {[%clk 0:31:18]} 21. Qd3 {[%clk 1:07:05]} Qg7
{[%clk 0:28:59]} 22. cxd5 {[%clk 0:53:30]} Nxd5 {[%clk 0:24:22]} 23. Qa6+
{[%clk 0:45:14]} Kb8 {[%clk 0:24:15]} 24. Qa5 {[%clk 0:44:45]} Be7
{[%clk 0:09:28]} 25. Bc4 {[%clk 0:44:06]} Nxe3 {[%clk 0:04:29]} 26. fxe3
{[%clk 0:43:02]} Rxd1+ {[%clk 0:04:23]} 27. Nxd1 {[%clk 0:42:48]} Bd5
{[%clk 0:04:08]} 28. Bxd5 {[%clk 0:39:41]} cxd5 {[%clk 0:04:04]} 29. Nc3
{[%clk 0:35:03]} Qg1+ {[%clk 0:03:10]} 30. Kb2 {[%clk 0:34:52]} Qf2+
{[%clk 0:02:11]} 31. Ka3 {[%clk 0:34:40]} Qd2 {[%clk 0:01:45]} 32. f5
{[%clk 0:25:03]} Kb7 {[%clk 0:00:46]} 33. Qb5+ {[%clk 0:04:54]} Kc7
{[%clk 0:00:44]} 34. Qe8 {[%clk 0:04:43]} Bd6 {[%clk 0:00:42]} 35. Qf7+
{[%clk 0:01:52]} Kc6 {[%clk 0:00:38]} 36. Qe8+ {[%clk 0:01:41]} Kc7
{[%clk 0:00:37]} 37. Qf7+ {[%clk 0:00:32]} Kc6 {[%clk 0:00:34]} 38. Qe8+
{[%clk 0:00:27]} 1/2-1/2

[Event "No Logo Norway Chess 2014"]
[Site "?"]
[Date "2014.06.12"]
[Round "8.3"]
[White "Grischuk, Alexander"]
[Black "Giri, Anish"]
[Result "1/2-1/2"]
[LiveChessVersion "1.4.2"]
[BlackElo "2752"]
[WhiteElo "2792"]
[ECO "A34"]

1. c4 {[%clk 1:59:58]} c5 {[%clk 1:58:38]} 2. Nc3 {[%clk 1:59:28]} g6
{[%clk 1:58:19]} 3. e3 {[%clk 1:59:02]} Nf6 {[%clk 1:57:47]} 4. d4
{[%clk 1:58:47]} Bg7 {[%clk 1:47:15]} 5. d5 {[%clk 1:58:23]} O-O {[%clk 1:47:00]}
6. Nf3 {[%clk 1:57:26]} d6 {[%clk 1:46:49]} 7. h3 {[%clk 1:54:30]} e6
{[%clk 1:45:05]} 8. Bd3 {[%clk 1:54:02]} exd5 {[%clk 1:43:01]} 9. cxd5
{[%clk 1:53:06]} Re8 {[%clk 1:41:44]} 10. O-O {[%clk 1:51:19]} Nbd7
{[%clk 1:41:38]} 11. Re1 {[%clk 1:45:38]} a6 {[%clk 1:39:47]} 12. a4
{[%clk 1:36:49]} Nh5 {[%clk 1:37:22]} 13. Be2 {[%clk 1:28:28]} f5
{[%clk 1:09:07]} 14. Rb1 {[%clk 1:23:55]} h6 {[%clk 0:59:08]} 15. Nd2
{[%clk 1:10:09]} Ne5 {[%clk 0:50:21]} 16. f4 {[%clk 0:53:55]} Nf7
{[%clk 0:46:34]} 17. Bxh5 {[%clk 0:51:58]} gxh5 {[%clk 0:46:25]} 18. Qxh5
{[%clk 0:47:36]} b5 {[%clk 0:43:32]} 19. Nf3 {[%clk 0:46:03]} Bd7
{[%clk 0:38:25]} 20. Ne2 {[%clk 0:41:50]} Nh8 {[%clk 0:37:48]} 21. axb5
{[%clk 0:36:56]} axb5 {[%clk 0:37:30]} 22. b4 {[%clk 0:36:38]} cxb4
{[%clk 0:28:36]} 23. Ng3 {[%clk 0:20:41]} Rf8 {[%clk 0:24:03]} 24. Nd4
{[%clk 0:18:20]} Bxd4 {[%clk 0:22:39]} 25. exd4 {[%clk 0:18:13]} Qf6
{[%clk 0:22:14]} 26. Rxb4 {[%clk 0:14:33]} Rfe8 {[%clk 0:20:30]} 27. Rxe8+
{[%clk 0:13:01]} Rxe8 {[%clk 0:20:30]} 28. Kh2 {[%clk 0:13:01]} Kh7
{[%clk 0:20:30]} 29. Rb3 {[%clk 0:13:01]} Rc8 {[%clk 0:20:30]} 30. Ra3
{[%clk 0:13:01]} Rxc1 {[%clk 0:20:30]} 31. Ra7 {[%clk 0:13:01]} Qf7
{[%clk 0:20:30]} 32. Qxf7+ {[%clk 0:13:01]} Nxf7 {[%clk 0:20:30]} 33. Rxd7
{[%clk 0:13:01]} Kg6 {[%clk 0:20:30]} 34. Re7 {[%clk 0:13:01]} b4
{[%clk 0:20:30]} 35. Re6+ {[%clk 0:13:01]} Kh7 {[%clk 0:20:30]} 36. Re7
{[%clk 0:13:01]} Kg6 {[%clk 0:20:30]} 37. Re6+ {[%clk 0:13:01]} Kh7
{[%clk 0:20:30]} 38. Nxf5 {[%clk 0:13:01]} b3 {[%clk 0:20:30]} 39. Re2
{[%clk 0:13:01]} h5 {[%clk 0:20:30]} 40. Rb2 {[%clk 0:13:01]} Rc3
{[%clk 0:20:30]} 41. Ng3 {[%clk 0:13:01]} Kg6 {[%clk 0:20:30]} 42. f5+
{[%clk 0:13:01]} Kh6 {[%clk 0:20:30]} 43. Ne2 {[%clk 0:10:22]} Rc2
{[%clk 0:43:20]} 44. Rxc2 {[%clk 0:09:45]} bxc2 {[%clk 0:43:19]} 45. Kg3
{[%clk 0:09:21]} Kg5 {[%clk 0:42:12]} 46. Kf3 {[%clk 0:08:57]} Nh6
{[%clk 0:40:28]} 47. f6 {[%clk 0:05:20]} Kxf6 {[%clk 0:38:46]} 48. Ke3
{[%clk 0:05:14]} Nf5+ {[%clk 0:38:05]} 49. Kd2 {[%clk 0:05:07]} Kg5
{[%clk 0:35:52]} 50. g3 {[%clk 0:02:47]} h4 {[%clk 0:25:01]} 51. g4
{[%clk 0:02:45]} Nh6 {[%clk 0:24:37]} 52. Kxc2 {[%clk 0:02:31]} Nxg4
{[%clk 0:24:33]} 53. hxg4 {[%clk 0:02:26]} Kxg4 {[%clk 0:24:30]} 54. Ng1
{[%clk 0:02:09]} Kg3 {[%clk 0:24:18]} 55. Kd2 {[%clk 0:01:40]} Kf2
{[%clk 0:23:00]} 56. Nh3+ {[%clk 0:01:38]} Kg3 {[%clk 0:22:45]} 57. Ng1
{[%clk 0:01:24]} Kf2 {[%clk 0:22:18]} 58. Nh3+ {[%clk 0:01:22]} Kg3
{[%clk 0:22:17]} 59. Ng5 {[%clk 0:01:07]} Kf4 {[%clk 0:21:59]} 60. Ne6+
{[%clk 0:15:54]} Ke4 {[%clk 0:37:17]} 61. Ng5+ {[%clk 0:12:13]} Kxd4
{[%clk 0:37:40]} 62. Nf3+ {[%clk 0:12:32]} Ke4 {[%clk 0:38:07]} 63. Nxh4
{[%clk 0:12:57]} Ke5 {[%clk 0:38:34]} 64. Kd3 {[%clk 0:13:18]} Kxd5
{[%clk 0:39:02]} 65. Nf5 {[%clk 0:13:43]} Kc5 {[%clk 0:39:29]} 66. Nxd6
{[%clk 0:14:09]} 1/2-1/2

[Event "No Logo Norway Chess 2014"]
[Site "?"]
[Date "2014.06.12"]
[Round "8.4"]
[White "Svidler, Peter"]
[Black "Carlsen, Magnus"]
[Result "1/2-1/2"]
[LiveChessVersion "1.4.2"]
[BlackElo "2881"]
[WhiteElo "2753"]
[ECO "A27"]

1. c4 {[%clk 1:59:58]} e5 {[%clk 1:59:54]} 2. Nc3 {[%clk 1:58:54]} Nc6
{[%clk 1:59:24]} 3. Nf3 {[%clk 1:56:48]} f5 {[%clk 1:59:02]} 4. d3
{[%clk 1:46:00]} Nf6 {[%clk 1:58:28]} 5. g3 {[%clk 1:44:20]} Bb4 {[%clk 1:56:15]}
6. Bg2 {[%clk 1:41:09]} Bxc3+ {[%clk 1:55:00]} 7. bxc3 {[%clk 1:40:41]} d6
{[%clk 1:54:45]} 8. O-O {[%clk 1:40:13]} O-O {[%clk 1:54:10]} 9. Rb1
{[%clk 1:36:50]} Qe8 {[%clk 1:49:42]} 10. Qb3 {[%clk 1:31:07]} b6
{[%clk 1:46:17]} 11. Nh4 {[%clk 1:09:26]} Na5 {[%clk 1:42:14]} 12. Qa3
{[%clk 0:58:18]} Rb8 {[%clk 1:35:35]} 13. Be3 {[%clk 0:54:41]} f4
{[%clk 1:18:53]} 14. gxf4 {[%clk 0:41:43]} Qh5 {[%clk 1:18:13]} 15. Nf3
{[%clk 0:41:16]} Bh3 {[%clk 1:13:39]} 16. Bxh3 {[%clk 0:39:12]} Qxh3
{[%clk 1:13:32]} 17. Kh1 {[%clk 0:39:07]} Rbe8 {[%clk 1:07:05]} 18. Qb2
{[%clk 0:32:11]} e4 {[%clk 1:00:01]} 19. Ng5 {[%clk 0:25:41]} Qh5
{[%clk 0:57:14]} 20. dxe4 {[%clk 0:23:35]} Ng4 {[%clk 0:56:06]} 21. Nf3
{[%clk 0:23:13]} Nxc4 {[%clk 0:54:24]} 22. Qb3 {[%clk 0:20:50]} Rxe4
{[%clk 0:54:16]} 23. Rg1 {[%clk 0:20:42]} d5 {[%clk 0:52:07]} 24. Qb5
{[%clk 0:20:09]} Rfxf4 {[%clk 0:38:20]} 25. Bxf4 {[%clk 0:18:00]} Nxf2+
{[%clk 0:38:13]} 26. Kg2 {[%clk 0:17:56]} Rxe2 {[%clk 0:37:57]} 27. Kf1
{[%clk 0:17:31]} Ne4 {[%clk 0:26:15]} 28. Rxg7+ {[%clk 0:12:15]} Kf8
{[%clk 0:21:36]} 29. Kxe2 {[%clk 0:12:06]} Nxc3+ {[%clk 0:21:27]} 30. Kf2
{[%clk 0:12:05]} Nxb5 {[%clk 0:21:11]} 31. Rbg1 {[%clk 0:11:28]} Nc3
{[%clk 0:13:11]} 32. Rxc7 {[%clk 0:08:44]} Ne4+ {[%clk 0:12:00]} 33. Ke1
{[%clk 0:06:29]} Nc5 {[%clk 0:04:15]} 34. Rc8+ {[%clk 0:04:51]} Kf7
{[%clk 0:03:52]} 35. Rc7+ {[%clk 0:04:39]} Kf8 {[%clk 0:03:48]} 36. Rc8+
{[%clk 0:04:17]} Kf7 {[%clk 0:03:18]} 37. Rc7+ {[%clk 0:04:13]} Kf8
{[%clk 0:01:34]} 1/2-1/2

[Event "No Logo Norway Chess 2014"]
[Site "?"]
[Date "2014.06.12"]
[Round "8.5"]
[White "Karjakin, Sergey"]
[Black "Kramnik, Vladimir"]
[Result "*"]
[LiveChessVersion "1.4.2"]
[BlackElo "2783"]
[WhiteElo "2771"]
[ECO "D35"]

1. c4 {[%clk 1:59:59]} e6 {[%clk 1:59:46]} 2. Nc3 {[%clk 1:58:59]} d5
{[%clk 1:59:35]} 3. d4 {[%clk 1:58:52]} Nf6 {[%clk 1:59:16]} 4. cxd5
{[%clk 1:57:20]} exd5 {[%clk 1:59:14]} 5. Bg5 {[%clk 1:56:36]} c6
{[%clk 1:59:08]} 6. e3 {[%clk 1:54:29]} h6 {[%clk 1:57:58]} 7. Bh4
{[%clk 1:49:39]} Be7 {[%clk 1:57:43]} 8. Bd3 {[%clk 1:48:43]} O-O
{[%clk 1:57:33]} 9. Qc2 {[%clk 1:32:24]} Nh5 {[%clk 1:56:44]} 10. Bxe7
{[%clk 1:31:56]} Qxe7 {[%clk 1:56:42]} 11. Nf3 {[%clk 1:25:25]} Nf4
{[%clk 1:54:12]} 12. Bf1 {[%clk 1:24:09]} Nd7 {[%clk 1:43:53]} 13. O-O-O
{[%clk 1:21:06]} Ng6 {[%clk 1:39:03]} 14. h4 {[%clk 1:18:42]} Qf6
{[%clk 1:38:02]} 15. Bd3 {[%clk 1:08:27]} Nb6 {[%clk 1:35:46]} 16. h5
{[%clk 1:07:24]} Ne7 {[%clk 1:35:19]} 17. Rh4 {[%clk 0:54:34]} Bf5
{[%clk 1:24:51]} 18. Bxf5 {[%clk 0:53:09]} Qxf5 {[%clk 1:23:55]} 19. Qxf5
{[%clk 0:53:03]} Nxf5 {[%clk 1:23:53]} 20. Rf4 {[%clk 0:52:54]} Nd6
{[%clk 1:23:01]} 21. Ne5 {[%clk 0:52:09]} Rae8 {[%clk 1:16:53]} 22. Rh1
{[%clk 0:48:58]} Re7 {[%clk 1:10:48]} 23. Kc2 {[%clk 0:42:42]} Rfe8
{[%clk 1:06:56]} 24. b3 {[%clk 0:41:04]} a5 {[%clk 1:01:03]} 25. a4
{[%clk 0:38:15]} Na8 {[%clk 0:58:26]} 26. Nd3 {[%clk 0:32:21]} Nc7
{[%clk 0:57:47]} 27. Rg4 {[%clk 0:31:59]} Na6 {[%clk 0:53:31]} 28. Rf4
{[%clk 0:30:46]} Ne4 {[%clk 0:45:45]} 29. Kb2 {[%clk 0:25:23]} Kh7
{[%clk 0:40:58]} 30. Nxe4 {[%clk 0:14:52]} dxe4 {[%clk 0:40:32]} 31. Ne5
{[%clk 0:14:51]} Nb4 {[%clk 0:38:34]} 32. Rf5 {[%clk 0:14:46]} c5
{[%clk 0:33:08]} 33. Rd1 {[%clk 0:14:19]} cxd4 {[%clk 0:23:20]} 34. exd4
{[%clk 0:14:17]} Rd8 {[%clk 0:22:04]} 35. Nc4 {[%clk 0:13:20]} Nd3+
{[%clk 0:16:58]} 36. Kc3 {[%clk 0:13:03]} g6 {[%clk 0:16:05]} 37. Rxa5
{[%clk 0:11:35]} Nxf2 {[%clk 0:14:12]} 38. Re1 {[%clk 0:09:42]} gxh5
{[%clk 0:12:08]} 39. d5 {[%clk 0:08:07]} e3 {[%clk 0:07:52]} 40. Kc2
{[%clk 1:02:49]} Ng4 {[%clk 1:01:16]} 41. d6 {[%clk 1:00:59]} Re6
{[%clk 0:58:12]} 42. Ra7 {[%clk 0:58:54]} Rf6 {[%clk 0:39:06]} 43. Re2
{[%clk 0:53:06]} b6 {[%clk 0:28:13]} 44. Rb7 {[%clk 0:52:11]} Rdxd6
{[%clk 0:26:18]} 45. Nxd6 {[%clk 0:51:17]} Rxd6 {[%clk 0:26:17]} 46. Rxf7+
{[%clk 0:50:06]} Kg6 {[%clk 0:26:16]} 47. Rf1 {[%clk 0:45:03]} Kg5
{[%clk 0:22:45]} 48. b4 {[%clk 0:43:56]} h4 {[%clk 0:21:43]} 49. Kc3
{[%clk 0:40:06]} Nf2 {[%clk 0:19:52]} 50. Rxe3 {[%clk 0:28:06]} Nd1+
{[%clk 0:19:07]} 51. Rxd1 {[%clk 0:28:04]} Rxd1 {[%clk 0:19:05]} 52. Re5+
{[%clk 0:26:36]} Kg4 {[%clk 0:18:10]} 53. Re6 {[%clk 0:25:28]} Rc1+
{[%clk 0:17:53]} 54. Kb3 {[%clk 0:24:40]} Kh5 {[%clk 0:16:25]} 55. Rxb6
{[%clk 0:20:34]} Rg1 {[%clk 0:15:00]} 56. a5 {[%clk 0:16:25]} Rxg2
{[%clk 0:14:14]} 57. a6 {[%clk 0:16:19]} Rg3+ {[%clk 0:08:51]} 58. Kc4
{[%clk 0:14:46]} Rg4+ {[%clk 0:06:15]} 59. Kd3 {[%clk 0:13:01]} Rg8
{[%clk 0:05:47]} 60. Rb5+ {[%clk 0:21:17]} Kg4 {[%clk 0:21:05]} 61. Ra5
{[%clk 0:21:26]} h3 {[%clk 0:18:44]} 62. Ra2 {[%clk 0:15:24]} Ra8
{[%clk 0:15:16]} 63. b5 {[%clk 0:15:15]} h5 {[%clk 0:13:55]} 64. Ke3
{[%clk 0:12:21]} Kg3 {[%clk 0:08:52]} 65. a7 {[%clk 0:11:53]} h2 {[%clk 0:06:25]}
66. Rxh2 {[%clk 0:12:17]} Kxh2 {[%clk 0:05:55]} *

