[Event "No Logo Norway Chess 2014"]
[Site "?"]
[Date "2014.06.12"]
[Round "8.1"]
[White "Agdestein, Simen"]
[Black "Topalov, Veselin"]
[Result "*"]
[LiveChessVersion "1.4.2"]
[BlackElo "2772"]
[WhiteElo "2628"]
[ECO "A29"]

1. c4 {[%clk 1:59:53]} e5 {[%clk 1:59:34]} 2. Nc3 {[%clk 1:59:48]} Nf6
{[%clk 1:59:26]} 3. Nf3 {[%clk 1:59:43]} Nc6 {[%clk 1:59:20]} 4. g3
{[%clk 1:59:40]} Bb4 {[%clk 1:59:13]} 5. Nd5 {[%clk 1:59:34]} Bc5
{[%clk 1:57:06]} 6. Bg2 {[%clk 1:59:29]} O-O {[%clk 1:55:09]} 7. O-O
{[%clk 1:59:17]} d6 {[%clk 1:53:11]} 8. e3 {[%clk 1:58:46]} a6 {[%clk 1:51:26]}
9. b3 {[%clk 1:56:49]} Ba7 {[%clk 1:50:06]} 10. Bb2 {[%clk 1:54:52]} Nxd5
{[%clk 1:47:59]} 11. cxd5 {[%clk 1:53:32]} Ne7 {[%clk 1:38:53]} 12. Nh4
{[%clk 1:52:58]} f5 {[%clk 1:28:48]} *

[Event "No Logo Norway Chess 2014"]
[Site "?"]
[Date "2014.06.12"]
[Round "8.2"]
[White "Aronian, Levon"]
[Black "Caruana, Fabiano"]
[Result "*"]
[LiveChessVersion "1.4.2"]
[BlackElo "2791"]
[WhiteElo "2815"]
[ECO "A04"]

1. Nf3 {[%clk 1:59:59]} c5 {[%clk 1:59:44]} 2. c4 {[%clk 1:59:54]} Nc6
{[%clk 1:59:39]} 3. Nc3 {[%clk 1:59:21]} e5 {[%clk 1:59:13]} 4. e3
{[%clk 1:59:15]} Nf6 {[%clk 1:58:56]} 5. d4 {[%clk 1:59:08]} e4 {[%clk 1:58:26]}
6. d5 {[%clk 1:59:03]} exf3 {[%clk 1:57:12]} 7. dxc6 {[%clk 1:58:57]} bxc6
{[%clk 1:38:26]} 8. e4 {[%clk 1:58:53]} Qc7 {[%clk 1:28:46]} 9. gxf3
{[%clk 1:58:17]} g6 {[%clk 1:23:37]} 10. Be3 {[%clk 1:54:47]} d6 {[%clk 1:18:42]}
11. Qd2 {[%clk 1:53:51]} Be6 {[%clk 1:18:35]} 12. O-O-O {[%clk 1:50:49]} Nd7
{[%clk 1:16:48]} *

[Event "No Logo Norway Chess 2014"]
[Site "?"]
[Date "2014.06.12"]
[Round "8.3"]
[White "Grischuk, Alexander"]
[Black "Giri, Anish"]
[Result "*"]
[LiveChessVersion "1.4.2"]
[BlackElo "2752"]
[WhiteElo "2792"]
[ECO "A34"]

1. c4 {[%clk 1:59:58]} c5 {[%clk 1:58:38]} 2. Nc3 {[%clk 1:59:28]} g6
{[%clk 1:58:19]} 3. e3 {[%clk 1:59:02]} Nf6 {[%clk 1:57:47]} 4. d4
{[%clk 1:58:47]} Bg7 {[%clk 1:47:15]} 5. d5 {[%clk 1:58:23]} O-O {[%clk 1:47:00]}
6. Nf3 {[%clk 1:57:26]} d6 {[%clk 1:46:49]} 7. h3 {[%clk 1:54:30]} e6
{[%clk 1:45:05]} 8. Bd3 {[%clk 1:54:02]} exd5 {[%clk 1:43:01]} 9. cxd5
{[%clk 1:53:06]} Re8 {[%clk 1:41:44]} 10. O-O {[%clk 1:51:19]} Nbd7
{[%clk 1:41:38]} 11. Re1 {[%clk 1:45:38]} a6 {[%clk 1:39:47]} 12. a4
{[%clk 1:36:49]} Nh5 {[%clk 1:37:22]} 13. Be2 {[%clk 1:28:28]} *

[Event "No Logo Norway Chess 2014"]
[Site "?"]
[Date "2014.06.12"]
[Round "8.4"]
[White "Svidler, Peter"]
[Black "Carlsen, Magnus"]
[Result "*"]
[LiveChessVersion "1.4.2"]
[BlackElo "2881"]
[WhiteElo "2753"]
[ECO "A27"]

1. c4 {[%clk 1:59:58]} e5 {[%clk 1:59:54]} 2. Nc3 {[%clk 1:58:54]} Nc6
{[%clk 1:59:24]} 3. Nf3 {[%clk 1:56:48]} f5 {[%clk 1:59:02]} 4. d3
{[%clk 1:46:00]} Nf6 {[%clk 1:58:28]} 5. g3 {[%clk 1:44:20]} Bb4 {[%clk 1:56:15]}
6. Bg2 {[%clk 1:41:09]} Bxc3+ {[%clk 1:55:00]} 7. bxc3 {[%clk 1:40:41]} d6
{[%clk 1:54:45]} 8. O-O {[%clk 1:40:13]} O-O {[%clk 1:54:10]} 9. Rb1
{[%clk 1:36:50]} Qe8 {[%clk 1:49:42]} 10. Qb3 {[%clk 1:31:07]} b6
{[%clk 1:46:17]} *

[Event "No Logo Norway Chess 2014"]
[Site "?"]
[Date "2014.06.12"]
[Round "8.5"]
[White "Karjakin, Sergey"]
[Black "Kramnik, Vladimir"]
[Result "*"]
[LiveChessVersion "1.4.2"]
[BlackElo "2783"]
[WhiteElo "2771"]
[ECO "D35"]

1. c4 {[%clk 1:59:59]} e6 {[%clk 1:59:46]} 2. Nc3 {[%clk 1:58:59]} d5
{[%clk 1:59:35]} 3. d4 {[%clk 1:58:52]} Nf6 {[%clk 1:59:16]} 4. cxd5
{[%clk 1:57:20]} exd5 {[%clk 1:59:14]} 5. Bg5 {[%clk 1:56:36]} c6
{[%clk 1:59:08]} 6. e3 {[%clk 1:54:29]} h6 {[%clk 1:57:58]} 7. Bh4
{[%clk 1:49:39]} Be7 {[%clk 1:57:43]} 8. Bd3 {[%clk 1:48:43]} O-O
{[%clk 1:57:33]} 9. Qc2 {[%clk 1:32:24]} Nh5 {[%clk 1:56:44]} 10. Bxe7
{[%clk 1:31:56]} Qxe7 {[%clk 1:56:42]} 11. Nf3 {[%clk 1:25:25]} Nf4
{[%clk 1:54:12]} 12. Bf1 {[%clk 1:24:09]} Nd7 {[%clk 1:43:53]} 13. O-O-O
{[%clk 1:21:06]} *

