[Event "Copenhagen Chess Challenge 2014"]
[Site "?"]
[Date "2014.05.18"]
[Round "9.1"]
[White "Haub, Thorsten Michael"]
[Black "Fries-Nielsen, Jens Ove"]
[Result "1/2-1/2"]
[LiveChessVersion "1.4.2"]
[BlackElo "2384"]
[WhiteElo "2441"]
[ECO "A00"]

1. g3 {[%clk 1:30:58]} d5 {[%clk 1:30:41]} 2. Bg2 {[%clk 1:31:21]} g6
{[%clk 1:30:50]} 3. d3 {[%clk 1:31:44]} Bg7 {[%clk 1:31:11]} 4. Nd2
{[%clk 1:32:07]} Nf6 {[%clk 1:31:32]} 5. e4 {[%clk 1:32:17]} dxe4
{[%clk 1:31:53]} 1/2-1/2

[Event "Copenhagen Chess Challenge 2014"]
[Site "?"]
[Date "2014.05.18"]
[Round "9.2"]
[White "Stefansson, Hannes"]
[Black "Ziska, Helgi Dam"]
[Result "*"]
[LiveChessVersion "1.4.2"]
[BlackElo "2491"]
[WhiteElo "2548"]
[ECO "E62"]

1. d4 {[%clk 1:30:50]} Nf6 {[%clk 1:30:22]} 2. c4 {[%clk 1:31:07]} g6
{[%clk 1:30:26]} 3. Nf3 {[%clk 1:31:24]} Bg7 {[%clk 1:30:37]} 4. g3
{[%clk 1:31:47]} O-O {[%clk 1:30:58]} 5. Bg2 {[%clk 1:32:13]} d6 {[%clk 1:31:10]}
6. O-O {[%clk 1:32:36]} Nc6 {[%clk 1:25:34]} 7. Nc3 {[%clk 1:32:52]} Bg4
{[%clk 1:25:53]} 8. h3 {[%clk 1:30:53]} Bxf3 {[%clk 1:26:13]} 9. Bxf3
{[%clk 1:31:18]} Nd7 {[%clk 1:26:19]} 10. e3 {[%clk 1:28:06]} e5 {[%clk 1:25:14]}
11. Ne2 {[%clk 1:26:22]} Qf6 {[%clk 1:22:58]} 12. Bg2 {[%clk 1:24:58]} exd4
{[%clk 1:21:24]} 13. Bxc6 {[%clk 1:22:41]} bxc6 {[%clk 1:21:44]} 14. Nxd4
{[%clk 1:22:17]} c5 {[%clk 1:03:24]} 15. Nb5 {[%clk 1:22:15]} Rfc8
{[%clk 1:03:21]} 16. Kg2 {[%clk 1:19:37]} Qe6 {[%clk 0:59:00]} 17. Qc2
{[%clk 1:18:55]} c6 {[%clk 0:56:01]} 18. Na3 {[%clk 1:19:03]} d5 {[%clk 0:55:21]}
19. Bd2 {[%clk 1:17:43]} Rab8 {[%clk 0:50:01]} 20. Rab1 {[%clk 1:17:58]} Rb6
{[%clk 0:47:40]} 21. Rfe1 {[%clk 1:14:23]} Qe4+ {[%clk 0:45:09]} 22. Qxe4
{[%clk 1:14:29]} dxe4 {[%clk 0:45:35]} 23. b4 {[%clk 1:13:43]} Ra6
{[%clk 0:43:42]} 24. Rb3 {[%clk 1:13:58]} cxb4 {[%clk 0:33:07]} 25. Bxb4
{[%clk 1:14:18]} Bf8 {[%clk 0:31:05]} 26. Bxf8 {[%clk 1:12:48]} Kxf8
{[%clk 0:31:23]} 27. Reb1 {[%clk 1:07:26]} Nc5 {[%clk 0:30:26]} 28. Rb8
{[%clk 1:07:07]} Rxb8 {[%clk 0:30:34]} 29. Rxb8+ {[%clk 1:07:32]} Kg7
{[%clk 0:30:55]} 30. Nc2 {[%clk 1:07:39]} Rxa2 {[%clk 0:28:28]} 31. Nb4
{[%clk 1:08:02]} Rb2 {[%clk 0:25:09]} 32. Nxc6 {[%clk 1:08:27]} Rxb8
{[%clk 0:25:29]} 33. Nxb8 {[%clk 1:08:54]} a5 {[%clk 0:25:47]} 34. Nc6
{[%clk 1:09:20]} a4 {[%clk 0:26:11]} 35. Nb4 {[%clk 1:09:26]} a3 {[%clk 0:22:19]}
36. Kf1 {[%clk 1:09:13]} h5 {[%clk 0:18:26]} 37. Ke2 {[%clk 1:09:24]} h4
{[%clk 0:18:38]} 38. Na2 {[%clk 1:09:10]} g5 {[%clk 0:11:56]} 39. gxh4
{[%clk 1:09:31]} gxh4 {[%clk 0:12:24]} 40. Kd2 {[%clk 1:07:39]} Kf6 *

[Event "Copenhagen Chess Challenge 2014"]
[Site "?"]
[Date "2014.05.18"]
[Round "9.3"]
[White "Danielsen, Henrik"]
[Black "Hansen, Mads"]
[Result "*"]
[LiveChessVersion "1.4.2"]
[BlackElo "2358"]
[WhiteElo "2483"]
[ECO "C44"]

1. e4 {[%clk 1:30:16]} e5 {[%clk 1:30:35]} 2. Nf3 {[%clk 1:30:33]} Nc6
{[%clk 1:30:58]} 3. c3 {[%clk 1:30:21]} d5 {[%clk 1:30:01]} 4. d3
{[%clk 1:30:42]} Nf6 {[%clk 1:30:09]} 5. Nbd2 {[%clk 1:31:02]} a5
{[%clk 1:30:33]} 6. Be2 {[%clk 1:31:25]} Be7 {[%clk 1:29:27]} 7. O-O
{[%clk 1:31:44]} O-O {[%clk 1:29:33]} 8. b3 {[%clk 1:29:25]} Re8 {[%clk 1:24:57]}
9. a3 {[%clk 1:25:25]} Bf8 {[%clk 1:20:00]} 10. Rb1 {[%clk 1:23:02]} b6
{[%clk 1:15:44]} 11. Re1 {[%clk 1:22:55]} Bb7 {[%clk 1:14:07]} 12. Bf1
{[%clk 1:22:38]} g6 {[%clk 1:12:02]} 13. Qc2 {[%clk 1:21:32]} Bg7
{[%clk 1:09:01]} 14. Bb2 {[%clk 1:18:19]} d4 {[%clk 1:01:00]} 15. Rec1
{[%clk 1:12:19]} Nd7 {[%clk 0:59:03]} 16. cxd4 {[%clk 1:10:30]} exd4
{[%clk 0:59:21]} 17. b4 {[%clk 1:10:35]} axb4 {[%clk 0:57:47]} 18. axb4
{[%clk 1:11:00]} Nxb4 {[%clk 0:42:43]} 19. Qxc7 {[%clk 1:10:20]} Ba6
{[%clk 0:40:30]} 20. Bxd4 {[%clk 1:03:52]} Nxd3 {[%clk 0:33:48]} 21. Qxd8
{[%clk 0:57:39]} Raxd8 {[%clk 0:26:43]} 22. Rc7 {[%clk 0:47:11]} N3c5
{[%clk 0:23:40]} *

[Event "Copenhagen Chess Challenge 2014"]
[Site "?"]
[Date "2014.05.18"]
[Round "9.4"]
[White "Hector, Jonny"]
[Black "Pedersen, Daniel Vesterbaek"]
[Result "1-0"]
[LiveChessVersion "1.4.2"]
[BlackElo "2244"]
[WhiteElo "2511"]
[ECO "C50"]

1. e4 {[%clk 1:30:54]} e5 {[%clk 1:30:58]} 2. Nf3 {[%clk 1:31:16]} Nc6
{[%clk 1:31:24]} 3. Bc4 {[%clk 1:31:39]} Nf6 {[%clk 1:31:47]} 4. d3
{[%clk 1:32:02]} Bc5 {[%clk 1:32:03]} 5. c3 {[%clk 1:32:26]} a6 {[%clk 1:31:53]}
6. Bb3 {[%clk 1:32:42]} d6 {[%clk 1:32:09]} 7. O-O {[%clk 1:32:27]} h6
{[%clk 1:31:33]} 8. Be3 {[%clk 1:31:42]} Bxe3 {[%clk 1:24:51]} 9. fxe3
{[%clk 1:31:47]} O-O {[%clk 1:19:13]} 10. Nbd2 {[%clk 1:31:22]} Nh7
{[%clk 1:03:30]} 11. d4 {[%clk 1:25:24]} Qe7 {[%clk 1:00:42]} 12. Qe1
{[%clk 1:24:49]} Na5 {[%clk 0:50:44]} 13. Bc2 {[%clk 1:23:17]} c5
{[%clk 0:51:06]} 14. b4 {[%clk 1:20:50]} cxb4 {[%clk 0:51:10]} 15. cxb4
{[%clk 1:20:22]} Nc6 {[%clk 0:51:34]} 16. Nc4 {[%clk 1:18:02]} Qc7
{[%clk 0:38:50]} 17. Rc1 {[%clk 1:11:08]} Bg4 {[%clk 0:37:59]} 18. Bb3
{[%clk 0:58:53]} Bxf3 {[%clk 0:36:56]} 19. gxf3 {[%clk 0:58:48]} exd4
{[%clk 0:36:40]} 20. Kh1 {[%clk 0:57:48]} Rac8 {[%clk 0:34:38]} 21. Rg1
{[%clk 0:55:07]} dxe3 {[%clk 0:30:48]} 22. Qg3 {[%clk 0:53:07]} Ng5
{[%clk 0:28:04]} 23. Nxd6 {[%clk 0:52:04]} Rcd8 {[%clk 0:27:30]} 24. Nxf7
{[%clk 0:51:50]} Qxg3 {[%clk 0:27:04]} 25. Nxg5+ {[%clk 0:51:30]} Kh8
{[%clk 0:27:10]} 26. Rxg3 {[%clk 0:51:45]} Nd4 {[%clk 0:26:23]} 27. Nf7+
{[%clk 0:50:39]} Rxf7 {[%clk 0:24:51]} 28. Bxf7 {[%clk 0:50:48]} Ne2
{[%clk 0:25:18]} 29. Re1 {[%clk 0:50:55]} 1-0

[Event "Copenhagen Chess Challenge 2014"]
[Site "?"]
[Date "2014.05.18"]
[Round "9.5"]
[White "Christensen, Tobias"]
[Black "Ochsner, Bjorn Moller"]
[Result "*"]
[LiveChessVersion "1.4.2"]
[BlackElo "2307"]
[WhiteElo "2368"]
[ECO "A37"]

1. c4 {[%clk 1:30:58]} g6 {[%clk 1:29:44]} 2. Nc3 {[%clk 1:30:47]} Bg7
{[%clk 1:29:19]} 3. Nf3 {[%clk 1:30:38]} c5 {[%clk 1:26:23]} 4. g3
{[%clk 1:27:35]} Nc6 {[%clk 1:26:34]} 5. Bg2 {[%clk 1:27:54]} e6 {[%clk 1:26:48]}
6. e4 {[%clk 1:16:01]} Nge7 {[%clk 1:26:09]} 7. O-O {[%clk 1:15:37]} O-O
{[%clk 1:26:11]} 8. d3 {[%clk 1:15:47]} a6 {[%clk 1:17:32]} 9. Bg5
{[%clk 1:04:34]} h6 {[%clk 1:14:11]} 10. Bd2 {[%clk 1:04:54]} Rb8
{[%clk 1:13:01]} 11. Qc1 {[%clk 0:58:20]} Kh7 {[%clk 1:11:50]} 12. e5
{[%clk 0:51:21]} d5 {[%clk 1:05:54]} 13. exd6 {[%clk 0:50:41]} Nf5
{[%clk 1:04:50]} 14. Ne4 {[%clk 0:33:39]} b6 {[%clk 1:04:04]} 15. Bc3
{[%clk 0:27:25]} e5 {[%clk 0:58:36]} 16. Re1 {[%clk 0:22:23]} Nxd6
{[%clk 0:57:36]} 17. Nfg5+ {[%clk 0:16:31]} Kg8 {[%clk 0:56:30]} 18. Nxd6
{[%clk 0:16:48]} Qxd6 {[%clk 0:55:16]} 19. Ne4 {[%clk 0:17:15]} Qc7
{[%clk 0:53:32]} 20. Bd2 {[%clk 0:16:29]} Kh7 {[%clk 0:51:13]} 21. Nc3
{[%clk 0:16:54]} Nb4 {[%clk 0:48:58]} *

[Event "Copenhagen Chess Challenge 2014"]
[Site "?"]
[Date "2014.05.18"]
[Round "9.6"]
[White "Mikkelsen, Nikolaj"]
[Black "Thorfinnsson, Bragi"]
[Result "1/2-1/2"]
[LiveChessVersion "1.4.2"]
[BlackElo "2459"]
[WhiteElo "2430"]
[ECO "C45"]

1. e4 {[%clk 1:30:58]} e5 {[%clk 1:27:51]} 2. Nf3 {[%clk 1:30:38]} Nc6
{[%clk 1:27:49]} 3. d4 {[%clk 1:30:51]} exd4 {[%clk 1:28:07]} 4. Nxd4
{[%clk 1:31:15]} Nf6 {[%clk 1:27:30]} 5. Nxc6 {[%clk 1:31:18]} bxc6
{[%clk 1:27:54]} 6. e5 {[%clk 1:31:30]} Qe7 {[%clk 1:28:17]} 7. Qe2
{[%clk 1:31:55]} Nd5 {[%clk 1:28:43]} 8. c4 {[%clk 1:32:19]} Nb6 {[%clk 1:28:29]}
9. Nc3 {[%clk 1:32:14]} Bb7 {[%clk 1:25:10]} 10. Bd2 {[%clk 1:30:51]} 1/2-1/2

[Event "Copenhagen Chess Challenge 2014"]
[Site "?"]
[Date "2014.05.18"]
[Round "9.7"]
[White "Hoi, Carsten"]
[Black "Sylvan, Jacob"]
[Result "1/2-1/2"]
[LiveChessVersion "1.4.2"]
[BlackElo "2348"]
[WhiteElo "2397"]
[ECO "E81"]

1. d4 {[%clk 1:30:46]} Nf6 {[%clk 1:30:30]} 2. c4 {[%clk 1:30:42]} g6
{[%clk 1:30:46]} 3. Nc3 {[%clk 1:31:07]} Bg7 {[%clk 1:31:12]} 4. e4
{[%clk 1:31:27]} d6 {[%clk 1:31:38]} 5. f3 {[%clk 1:28:10]} O-O {[%clk 1:31:42]}
6. Be3 {[%clk 1:28:34]} c5 {[%clk 1:29:13]} 7. Nge2 {[%clk 1:27:36]} 1/2-1/2

[Event "Copenhagen Chess Challenge 2014"]
[Site "?"]
[Date "2014.05.18"]
[Round "9.8"]
[White "Englert, Fabian"]
[Black "Westerinen, Heikki M.J."]
[Result "1/2-1/2"]
[LiveChessVersion "1.4.2"]
[BlackElo "2299"]
[WhiteElo "2310"]
[ECO "A48"]

1. d4 {[%clk 1:30:58]} Nf6 {[%clk 1:28:41]} 2. Nf3 {[%clk 1:31:19]} g6
{[%clk 1:28:23]} 3. c4 {[%clk 1:31:33]} Bg7 {[%clk 1:28:33]} 4. Nc3
{[%clk 1:31:55]} O-O {[%clk 1:26:48]} 5. Bg5 {[%clk 1:32:09]} d6 {[%clk 1:25:03]}
6. e3 {[%clk 1:32:25]} h6 {[%clk 1:23:13]} 7. Bh4 {[%clk 1:32:40]} Bf5
{[%clk 1:19:50]} 8. Be2 {[%clk 1:29:19]} Ne4 {[%clk 1:18:04]} 9. Nxe4
{[%clk 1:21:38]} Bxe4 {[%clk 1:18:29]} 10. O-O {[%clk 1:21:34]} 1/2-1/2

[Event "Copenhagen Chess Challenge 2014"]
[Site "?"]
[Date "2014.05.18"]
[Round "9.9"]
[White "Thorhallsson, Throstur"]
[Black "Semcesen, Daniel"]
[Resu