[Event "Copenhagen Chess Challenge 2014"]
[Site "?"]
[Date "2014.05.18"]
[Round "9.1"]
[White "Haub, Thorsten Michael"]
[Black "Fries-Nielsen, Jens Ove"]
[Result "1/2-1/2"]
[LiveChessVersion "1.4.2"]
[BlackElo "2384"]
[WhiteElo "2441"]
[ECO "A00"]

1. g3 {[%clk 1:30:58]} d5 {[%clk 1:30:41]} 2. Bg2 {[%clk 1:31:21]} g6
{[%clk 1:30:50]} 3. d3 {[%clk 1:31:44]} Bg7 {[%clk 1:31:11]} 4. Nd2
{[%clk 1:32:07]} Nf6 {[%clk 1:31:32]} 5. e4 {[%clk 1:32:17]} dxe4
{[%clk 1:31:53]} 1/2-1/2

[Event "Copenhagen Chess Challenge 2014"]
[Site "?"]
[Date "2014.05.18"]
[Round "9.2"]
[White "Stefansson, Hannes"]
[Black "Ziska, Helgi Dam"]
[Result "*"]
[LiveChessVersion "1.4.2"]
[BlackElo "2491"]
[WhiteElo "2548"]
[ECO "E62"]

1. d4 {[%clk 1:30:50]} Nf6 {[%clk 1:30:22]} 2. c4 {[%clk 1:31:07]} g6
{[%clk 1:30:26]} 3. Nf3 {[%clk 1:31:24]} Bg7 {[%clk 1:30:37]} 4. g3
{[%clk 1:31:47]} O-O {[%clk 1:30:58]} 5. Bg2 {[%clk 1:32:13]} d6 {[%clk 1:31:10]}
6. O-O {[%clk 1:32:36]} Nc6 {[%clk 1:25:34]} 7. Nc3 {[%clk 1:32:52]} Bg4
{[%clk 1:25:53]} 8. h3 {[%clk 1:30:53]} Bxf3 {[%clk 1:26:13]} 9. Bxf3
{[%clk 1:31:18]} Nd7 {[%clk 1:26:19]} 10. e3 {[%clk 1:28:06]} e5 {[%clk 1:25:14]}
11. Ne2 {[%clk 1:26:22]} Qf6 {[%clk 1:22:58]} 12. Bg2 {[%clk 1:24:58]} exd4
{[%clk 1:21:24]} 13. Bxc6 {[%clk 1:22:41]} bxc6 {[%clk 1:21:44]} 14. Nxd4
{[%clk 1:22:17]} c5 {[%clk 1:03:24]} 15. Nb5 {[%clk 1:22:15]} Rfc8
{[%clk 1:03:21]} 16. Kg2 {[%clk 1:19:37]} Qe6 {[%clk 0:59:00]} 17. Qc2
{[%clk 1:18:55]} c6 {[%clk 0:56:01]} 18. Na3 {[%clk 1:19:03]} d5 {[%clk 0:55:21]}
19. Bd2 {[%clk 1:17:43]} Rab8 {[%clk 0:50:01]} 20. Rab1 {[%clk 1:17:58]} Rb6
{[%clk 0:47:40]} 21. Rfe1 {[%clk 1:14:23]} Qe4+ {[%clk 0:45:09]} 22. Qxe4
{[%clk 1:14:29]} dxe4 {[%clk 0:45:35]} 23. b4 {[%clk 1:13:43]} Ra6
{[%clk 0:43:42]} 24. Rb3 {[%clk 1:13:58]} cxb4 {[%clk 0:33:07]} 25. Bxb4
{[%clk 1:14:18]} Bf8 {[%clk 0:31:05]} 26. Bxf8 {[%clk 1:12:48]} Kxf8
{[%clk 0:31:23]} 27. Reb1 {[%clk 1:07:26]} Nc5 {[%clk 0:30:26]} 28. Rb8
{[%clk 1:07:07]} Rxb8 {[%clk 0:30:34]} 29. Rxb8+ {[%clk 1:07:32]} Kg7
{[%clk 0:30:55]} 30. Nc2 {[%clk 1:07:39]} Rxa2 {[%clk 0:28:28]} 31. Nb4
{[%clk 1:08:02]} Rb2 {[%clk 0:25:09]} 32. Nxc6 {[%clk 1:08:27]} Rxb8
{[%clk 0:25:29]} 33. Nxb8 {[%clk 1:08:54]} a5 {[%clk 0:25:47]} 34. Nc6
{[%clk 1:09:20]} a4 {[%clk 0:26:11]} 35. Nb4 {[%clk 1:09:26]} a3 {[%clk 0:22:19]}
36. Kf1 {[%clk 1:09:13]} h5 {[%clk 0:18:26]} 37. Ke2 {[%clk 1:09:24]} h4
{[%clk 0:18:38]} 38. Na2 {[%clk 1:09:10]} g5 {[%clk 0:11:56]} 39. gxh4
{[%clk 1:09:31]} gxh4 {[%clk 0:12:24]} *

[Event "Copenhagen Chess Challenge 2014"]
[Site "?"]
[Date "2014.05.18"]
[Round "9.3"]
[White "Danielsen, Henrik"]
[Black "Hansen, Mads"]
[Result "*"]
[LiveChessVersion "1.4.2"]
[BlackElo "2358"]
[WhiteElo "2483"]
[ECO "C44"]

1. e4 {[%clk 1:30:16]} e5 {[%clk 1:30:35]} 2. Nf3 {[%clk 1:30:33]} Nc6
{[%clk 1:30:58]} 3. c3 {[%clk 1:30:21]} d5 {[%