[Event "Copenhagen Chess Challenge 2014"]
[Site "?"]
[Date "2014.05.18"]
[Round "9.1"]
[White "Haub, Thorsten Michael"]
[Black "Fries-Nielsen, Jens Ove"]
[Result "1/2-1/2"]
[LiveChessVersion "1.4.2"]
[BlackElo "2384"]
[WhiteElo "2441"]
[ECO "A00"]

1. g3 {[%clk 1:30:58]} d5 {[%clk 1:30:41]} 2. Bg2 {[%clk 1:31:21]} g6
{[%clk 1:30:50]} 3. d3 {[%clk 1:31:44]} Bg7 {[%clk 1:31:11]} 4. Nd2
{[%clk 1:32:07]} Nf6 {[%clk 1:31:32]} 5. e4 {[%clk 1:32:17]} dxe4
{[%clk 1:31:53]} 1/2-1/2

[Event "Copenhagen Chess Challenge 2014"]
[Site "?"]
[Date "2014.05.18"]
[Round "9.2"]
[White "Stefansson, Hannes"]
[Black "Ziska, Helgi Dam"]
[Result "*"]
[LiveChessVersion "1.4.2"]
[BlackElo "2491"]
[WhiteElo "2548"]
[ECO "E62"]

1. d4 {[%clk 1:30:50]} Nf6 {[%clk 1:30:22]} 2. c4 {[%clk 1:31:07]} g6
{[%clk 1:30:26]} 3. Nf3 {[%clk 1:31:24]} Bg7 {[%clk 1:30:37]} 4. g3
{[%clk 1:31:47]} O-O {[%clk 1:30:58]} 5. Bg2 {[%clk 1:32:13]} d6 {[%clk 1:31:10]}
6. O-O {[%clk 1:32:36]} Nc6 {[%clk 1:25:34]} 7. Nc3 {[%clk 1:32:52]} Bg4
{[%clk 1:25:53]} 8. h3 {[%clk 1:30:53]} Bxf3 {[%clk 1:26:13]} 9. Bxf3
{[%clk 1:31:18]} Nd7 {[%clk 1:26:19]} 10. e3 {[%clk 1:28:06]} e5 {[%clk 1:25:14]}
11. Ne2 {[%clk 1:26:22]} Qf6 {[%clk 1:22:58]} 12. Bg2 {[%clk 1:24:58]} exd4
{[%clk 1:21:24]} 13. Bxc6 {[%clk 1:22:41]} bxc6 {[%clk 1:21:44]} 14. Nxd4
{[%clk 1:22:17]} *

[Event "Copenhagen Chess Challenge 2014"]
[Site "?"]
[Date "2014.05.18"]
[Round "9.3"]
[White "Danielsen, Henrik"]
[Black "Hansen, Mads"]
[Result "*"]
[LiveChessVersion "1.4.2"]
[BlackElo "2358"]
[WhiteElo "2483"]
[ECO "C44"]

1. e4 {[%clk 1:30:16]} e5 {[%clk 1:30:35]} 2. Nf3 {[%clk 1:30:33]} Nc6
{[%clk 1:30:58]} 3. c3 {[%clk 1:30:21]} d5 {[%clk 1:30:01]} 4. d3
{[%clk 1:30:42]} Nf6 {[%clk 1:30:09]} 5. Nbd2 {[%clk 1:31:02]} a5
{[%clk 1:30:33]} 6. Be2 {[%clk 1:31:25]} Be7 {[%clk 1:29:27]} 7. O-O
{[%clk 1:31:44]} O-O {[%clk 1:29:33]} 8. b3 {[%clk 1:29:25]} Re8 {[%clk 1:24:57]}
9. a3 {[%clk 1:25:25]} Bf8 {[%clk 1:20:00]} 10. Rb1 {[%clk 1:23:02]} b6
{[%clk 1:15:44]} 11. Re1 {[%clk 1:22:55]} Bb7 {[%clk 1:14:07]} 12. Bf1
{[%clk 1:22:38]} g6 {[%clk 1:12:02]} *

[Event "Copenhagen Chess Challenge 2014"]
[Site "?"]
[Date "2014.05.18"]
[Round "9.4"]
[White "Hector, Jonny"]
[Black "Pedersen, Daniel Vesterbaek"]
[Result "*"]
[LiveChessVersion "1.4.2"]
[BlackElo "2244"]
[WhiteElo "2511"]
[ECO "C50"]

1. e4 {[%clk 1:30:54]} e5 {[%clk 1:30:58]} 2. Nf3 {[%clk 1:31:16]} Nc6
{[%clk 1:31:24]} 3. Bc4 {[%clk 1:31:39]} Nf6 {[%clk 1:31:47]} 4. d3
{[%clk 1:32:02]} Bc5 {[%clk 1:32:03]} 5. c3 {[%clk 1:32:26]} a6 {[%clk 1:31:53]}
6. Bb3 {[%clk 1:32:42]} d6 {[%clk 1:32:09]} 7. O-O {[%clk 1:32:27]} h6
{[%clk 1:31:33]} 8. Be3 {[%clk 1:31:42]} Bxe3 {[%clk 1:24:51]} 9. fxe3
{[%clk 1:31:47]} O-O {[%clk 1:19:13]} 10. Nbd2 {[%clk 1:31:22]} Nh7
{[%clk 1:03:30]} *

[Event "Copenhagen Chess Challenge 2014"]
[Site "?"]
[Date "2014.05.18"]
[Round "9.5"]
[White "Christensen, Tobias"]
[Black "Ochsner, Bjorn Moller"]
[Result "*"]
[LiveChessVersion "1.4.2"]
[BlackElo "2307"]
[WhiteElo "2368"]
[ECO "A37"]

1. c4 {[%clk 1:30:58]} g6 {[%clk 1:29:44]} 2. Nc3 {[%clk 1:30:47]} Bg7
{[%clk 1:29:19]} 3. Nf3 {[%clk 1:30:38]} c5 {[%clk 1:26:23]} 4. g3
{[%clk 1:27:35]} Nc6 {[%clk 1:26:34]} 5. Bg2 {[%clk 1:27:54]} e6 {[%clk 1:26:48]}
6. e4 {[%clk 1:16:01]} Nge7 {[%clk 1:26:09]} 7. O-O {[%clk 1:15:37]} O-O
{[%clk 1:26:11]} 8. d3 {[%clk 1:15:47]} a6 {[%clk 1:17:32]} *

[Event "Copenhagen Chess Challenge 2014"]
[Site "?"]
[Date "2014.05.18"]
[Round "9.6"]
[White "Mikkelsen, Nikolaj"]
[Black "Thorfinnsson, Bragi"]
[Result "1/2-1/2"]
[LiveChessVersion "1.4.2"]
[BlackElo "2459"]
[WhiteElo "2430"]
[ECO "C45"]

1. e4 {[%clk 1:30:58]} e5 {[%clk 1:27:51]} 2. Nf3 {[%clk 1:30:38]} Nc6
{[%clk 1:27:49]} 3. d4 {[%clk 1:30:51]} exd4 {[%clk 1:28:07]} 4. Nxd4
{[%clk 1:31:15]} Nf6 {[%clk 1:27:30]} 5. Nxc6 {[%clk 1:31:18]} bxc6
{[%clk 1:27:54]} 6. e5 {[%clk 1:31:30]} Qe7 {[%clk 1:28:17]} 7. Qe2
{[%clk 1:31:55]} Nd5 {[%clk 1:28:43]} 8. c4 {[%clk 1:32:19]} Nb6 {[%clk 1:28:29]}
9. Nc3 {[%clk 1:32:14]} Bb7 {[%clk 1:25:10]} 10. Bd2 {[%clk 1:30:51]} 1/2-1/2

[Event "Copenhagen Chess Challenge 2014"]
[Site "?"]
[Date "2014.05.18"]
[Round "9.7"]
[White "Hoi, Carsten"]
[Black "Sylvan, Jacob"]
[Result "1/2-1/2"]
[LiveChessVersion "1.4.2"]
[BlackElo "2348"]
[WhiteElo "2397"]
[ECO "E81"]

1. d4 {[%clk 1:30:46]} Nf6 {[%clk 1:30:30]} 2. c4 {[%clk 1:30:42]} g6
{[%clk 1:30:46]} 3. Nc3 {[%clk 1:31:07]} Bg7 {[%clk 1:31:12]} 4. e4
{[%clk 1:31:27]} d6 {[%clk 1:31:38]} 5. f3 {[%clk 1:28:10]} O-O {[%clk 1:31:42]}
6. Be3 {[%clk 1:28:34]} c5 {[%clk 1:29:13]} 7. Nge2 {[%clk 1:27:36]} 1/2-1/2

[Event "Copenhagen Chess Challenge 2014"]
[Site "?"]
[Date "2014.05.18"]
[Round "9.8"]
[White "Englert, Fabian"]
[Black "Westerinen, Heikki M.J."]
[Result "1/2-1/2"]
[LiveChessVersion "1.4.2"]
[BlackElo "2299"]
[WhiteElo "2310"]
[ECO "A48"]

1. d4 {[%clk 1:30:58]} Nf6 {[%clk 1:28:41]} 2. Nf3 {[%clk 1:31:19]} g6
{[%clk 1:28:23]} 3. c4 {[%clk 1:31:33]} Bg7 {[%clk 1:28:33]} 4. Nc3
{[%clk 1:31:55]} O-O {[%clk 1:26:48]} 5. Bg5 {[%clk 1:32:09]} d6 {[%clk 1:25:03]}
6. e3 {[%clk 1:32:25]} h6 {[%clk 1:23:13]} 7. Bh4 {[%clk 1:32:40]} Bf5
{[%clk 1:19:50]} 8. Be2 {[%clk 1:29:19]} Ne4 {[%clk 1:18:04]} 9. Nxe4
{[%clk 1:21:38]} Bxe4 {[%clk 1:18:29]} 10. O-O {[%clk 1:21:34]} 1/2-1/2

[Event "Copenhagen Chess Challenge 2014"]
[Site "?"]
[Date "2014.05.18"]
[Round "9.9"]
[White "Thorhallsson, Throstur"]
[Black "Semcesen, Daniel"]
[Result "1/2-1/2"]
[LiveChessVersion "1.4.2"]
[BlackElo "2513"]
[WhiteElo "2437"]
[ECO "C44"]

1. e4 {[%clk 1:30:57]} e5 {[%clk 1:30:49]} 2. Nf3 {[%clk 1:31:22]} Nc6
{[%clk 1:31:12]} 3. d4 {[%clk 1:31:23]} exd4 {[%clk 1:31:31]} 4. Nxd4
{[%clk 1:31:47]} g6 {[%clk 1:31:55]} 5. Nxc6 {[%clk 1:25:22]} bxc6
{[%clk 1:32:03]} 6. Bc4 {[%clk 1:25:18]} Bg7 {[%clk 1:31:44]} 7. O-O
{[%clk 1:24:06]} Ne7 {[%clk 1:30:05]} 8. Re1 {[%clk 1:23:10]} O-O
{[%clk 1:30:07]} 9. c3 {[%clk 1:21:12]} 1/2-1/2

[Event "Copenhagen Chess Challenge 2014"]
[Site "?"]
[Date "2014.05.18"]
[Round "9.10"]
[White "Pedersen, Nicolai Kvist Brondt"]
[Black "Korley, Kassa"]
[Result "*"]
[LiveChessVersion "1.4.2"]
[BlackElo "2390"]
[WhiteElo "2200"]
[ECO "A46"]

1. d4 {[%clk 1:30:55]} Nf6 {[%clk 1:30:57]} 2. Nf3 {[%clk 1:28:57]} e6
{[%clk 1:31:25]} 3. g3 {[%clk 1:27:55]} d5 {[%clk 1:31:49]} 4. Bg2
{[%clk 1:28:18]} Be7 {[%clk 1:32:15]} 5. O-O {[%clk 1:28:32]} O-O
{[%clk 1:32:40]} 6. c4 {[%clk 1:27:55]} dxc4 {[%clk 1:32:59]} 7. Ne5
{[%clk 1:26:12]} c5 {[%clk 1:33:17]} 8. dxc5 {[%clk 1:26:06]} Qc7
{[%clk 1:33:43]} 9. Nxc4 {[%clk 1:24:15]} Qxc5 {[%clk 1:34:09]} 10. Qb3
{[%clk 1:23:10]} Nc6 {[%clk 1:32:33]} 11. Be3 {[%clk 1:19:48]} Qh5
{[%clk 1:32:25]} 12. Nc3 {[%clk 1:10:04]} Ng4 {[%clk 1:30:42]} 13. h3
{[%clk 1:09:30]} Nxe3 {[%clk 1:31:02]} 14. Nxe3 {[%clk 1:09:54]} *

[Event "Copenhagen Chess Challenge 2014"]
[Site "?"]
[Date "2014.05.18"]
[Round "9.11"]
[White "Rydstrom, Tom"]
[Black "Sahl, Bjarke"]
[Result "*"]
[LiveChessVersion "1.4.2"]
[BlackElo "2368"]
[WhiteElo "2190"]
[ECO "B95"]

1. e4 {[%clk 1:30:30]} c5 {[%clk 1:28:24]} 2. Nf3 {[%clk 1:30:54]} d6
{[%clk 1:28:19]} 3. d4 {[%clk 1:31:19]} cxd4 {[%clk 1:28:46]} 4. Nxd4
{[%clk 1:31:44]} Nf6 {[%clk 1:29:13]} 5. Nc3 {[%clk 1:32:08]} a6 {[%clk 1:29:36]}
6. Bg5 {[%clk 1:32:34]} e6 {[%clk 1:28:49]} 7. Be2 {[%clk 1:30:48]} Be7
{[%clk 1:27:25]} 8. Qd2 {[%clk 1:31:14]} b5 {[%clk 1:24:30]} 9. a4
{[%clk 1:15:12]} b4 {[%clk 1:17:00]} *

[Event "Copenhagen Chess Challenge 2014"]
[Site "?"]
[Date "2014.05.18"]
[Round "9.12"]
[White "Mueller, Reinhold"]
[Black "Murtuzov, Rauf Mubariz"]
[Result "*"]
[LiveChessVersion "1.4.2"]
[BlackElo "2079"]
[WhiteElo "2282"]
[ECO "E77"]

1. d4 {[%clk 1:30:57]} Nf6 {[%clk 1:30:59]} 2. c4 {[%clk 1:31:19]} g6
{[%clk 1:31:27]} 3. Nc3 {[%clk 1:31:24]} Bg7 {[%clk 1:31:57]} 4. e4
{[%clk 1:31:45]} d6 {[%clk 1:31:55]} 5. f4 {[%clk 1:32:07]} O-O {[%clk 1:32:50]}
6. Nf3 {[%clk 1:32:28]} c5 {[%clk 1:33:16]} 7. d5 {[%clk 1:32:51]} e6
{[%clk 1:33:44]} 8. Be2 {[%clk 1:33:12]} exd5 {[%clk 1:34:11]} 9. cxd5
{[%clk 1:33:35]} Bg4 {[%clk 1:34:15]} 10. O-O {[%clk 1:33:42]} Nbd7
{[%clk 1:34:41]} 11. Nd2 {[%clk 1:32:45]} Bxe2 {[%clk 1:35:02]} 12. Qxe2
{[%clk 1:33:08]} Qe7 {[%clk 1:31:35]} 13. Qf3 {[%clk 1:30:10]} a6
{[%clk 1:30:22]} 14. a4 {[%clk 1:30:26]} Rfe8 {[%clk 1:27:55]} 15. Re1
{[%clk 1:28:20]} *

[Event "Copenhagen Chess Challenge 2014"]
[Site "?"]
[Date "2014.05.18"]
[Round "9.13"]
[White "Bjerre, Tavs"]
[Black "Stojanovski, Sandi"]
[Result "1/2-1/2"]
[LiveChessVersion "1.4.2"]
[BlackElo "2265"]
[WhiteElo "2067"]
[ECO "D11"]

1. d4 {[%clk 1:29:56]} Nf6 {[%clk 1:30:44]} 2. c4 {[%clk 1:30:02]} c6
{[%clk 1:29:44]} 3. Nf3 {[%clk 1:29:17]} d5 {[%clk 1:29:38]} 4. e3
{[%clk 1:29:11]} e6 {[%clk 1:29:04]} 5. b3 {[%clk 1:28:31]} Bd6 {[%clk 1:27:45]}
6. Bb2 {[%clk 1:26:13]} Nbd7 {[%clk 1:25:36]} 7. Nbd2 {[%clk 1:25:24]} b6
{[%clk 1:25:28]} 8. Bd3 {[%clk 1:23:29]} Bb7 {[%clk 1:25:04]} 9. O-O
{[%clk 1:22:17]} O-O {[%clk 1:25:23]} 1/2-1/2

[Event "Copenhagen Chess Challenge 2014"]
[Site "?"]
[Date "2014.05.18"]
[Round "9.14"]
[White "Nordenbaek, Jan"]
[Black "Karlsson, Robin"]
[Result "*"]
[LiveChessVersion "1.4.2"]
[BlackElo "2008"]
[WhiteElo "2248"]
[ECO "B31"]

1. e4 {[%clk 1:30:57]} c5 {[%clk 1:30:57]} 2. Nf3 {[%clk 1:31:20]} Nc6
{[%clk 1:31:09]} 3. Bb5 {[%clk 1:31:43]} g6 {[%clk 1:31:26]} 4. Bxc6
{[%clk 1:31:59]} dxc6 {[%clk 1:31:51]} 5. h3 {[%clk 1:32:06]} Bg7
{[%clk 1:32:02]} 6. O-O {[%clk 1:32:20]} Nf6 {[%clk 1:32:15]} 7. d3
{[%clk 1:31:44]} Qc7 {[%clk 1:31:22]} 8. a4 {[%clk 1:30:33]} a5 {[%clk 1:30:00]}
9. Na3 {[%clk 1:28:59]} O-O {[%clk 1:29:53]} 10. Be3 {[%clk 1:27:55]} b6
{[%clk 1:29:21]} 11. c3 {[%clk 1:25:48]} Rd8 {[%clk 1:26:47]} 12. Qc2
{[%clk 1:26:10]} Ba6 {[%clk 1:25:52]} 13. Rfd1 {[%clk 1:25:06]} e5
{[%clk 1:20:11]} *

[Event "Copenhagen Chess Challenge 2014"]
[Site "?"]
[Date "2014.05.18"]
[Round "9.15"]
[White "Bjerre, Jonas"]
[Black "Jorgensen, Dennis"]
[Result "*"]
[LiveChessVersion "1.4.2"]
[BlackElo "2231"]
[WhiteElo "1961"]
[ECO "B18"]

1. e4 {[%clk 1:30:56]} c6 {[%clk 1:30:49]} 2. d4 {[%clk 1:31:13]} d5
{[%clk 1:31:13]} 3. Nc3 {[%clk 1:31:36]} dxe4 {[%clk 1:31:32]} 4. Nxe4
{[%clk 1:31:58]} Bf5 {[%clk 1:31:37]} 5. Ng3 {[%clk 1:32:22]} Bg6
{[%clk 1:32:00]} 6. h4 {[%clk 1:32:42]} h6 {[%clk 1:32:27]} 7. h5
{[%clk 1:32:55]} Bh7 {[%clk 1:32:51]} 8. Nf3 {[%clk 1:33:18]} Nd7
{[%clk 1:33:12]} 9. Bd3 {[%clk 1:33:35]} Bxd3 {[%clk 1:33:37]} 10. Qxd3
{[%clk 1:33:58]} e6 {[%clk 1:34:00]} 11. Bf4 {[%clk 1:34:20]} Qa5+
{[%clk 1:34:24]} 12. Bd2 {[%clk 1:34:38]} Bb4 {[%clk 1:34:47]} 13. c3
{[%clk 1:34:57]} Be7 {[%clk 1:35:14]} 14. c4 {[%clk 1:35:18]} Qc7
{[%clk 1:35:37]} 15. O-O-O {[%clk 1:35:39]} Ngf6 {[%clk 1:35:41]} 16. Ne4
{[%clk 1:35:49]} b5 {[%clk 1:33:35]} 17. Nxf6+ {[%clk 1:32:04]} Nxf6
{[%clk 1:33:20]} 18. Kb1 {[%clk 1:31:56]} O-O {[%clk 1:29:30]} 19. Ne5
{[%clk 1:30:45]} Qb7 {[%clk 1:21:49]} 20. Qf3 {[%clk 1:29:41]} Rac8
{[%clk 1:16:24]} 21. Rc1 {[%clk 1:28:28]} *

[Event "Copenhagen Chess Challenge 2014"]
[Site "?"]
[Date "2014.05.18"]
[Round "9.16"]
[White "Subramanian, Aditya"]
[Black "Jacobsen, Mikkel Manosri"]
[Result "*"]
[LiveChessVersion "1.4.2"]
[BlackElo "2113"]
[WhiteElo "1845"]
[ECO "D04"]

1. d4 {[%clk 1:30:31]} Nf6 {[%clk 1:30:51]} 2. Nf3 {[%clk 1:30:54]} d5
{[%clk 1:31:15]} 3. e3 {[%clk 1:30:59]} Bf5 {[%clk 1:31:36]} 4. c4
{[%clk 1:31:00]} e6 {[%clk 1:32:00]} 5. Nc3 {[%clk 1:30:55]} c6 {[%clk 1:32:24]}
6. Bd3 {[%clk 1:31:03]} Bg6 {[%clk 1:32:27]} 7. Ne5 {[%clk 1:28:20]} Nbd7
{[%clk 1:30:54]} 8. Bxg6 {[%clk 1:25:43]} hxg6 {[%clk 1:31:17]} 9. Nxd7
{[%clk 1:25:46]} Qxd7 {[%clk 1:30:37]} 10. cxd5 {[%clk 1:24:02]} exd5
{[%clk 1:30:47]} 11. Qf3 {[%clk 1:24:00]} Qf5 {[%clk 1:29:35]} 12. Qxf5
{[%clk 1:17:19]} gxf5 {[%clk 1:30:02]} 13. O-O {[%clk 1:17:13]} Bd6
{[%clk 1:29:56]} 14. g3 {[%clk 1:15:44]} Ng4 {[%clk 1:26:29]} 15. h4
{[%clk 1:14:48]} Kd7 {[%clk 1:23:16]} *

