[Event "Copenhagen Chess Challenge 2014"]
[Site "?"]
[Date "2014.05.18"]
[Round "9.1"]
[White "Haub, Thorsten Michael"]
[Black "Fries-Nielsen, Jens Ove"]
[Result "*"]
[LiveChessVersion "1.4.2"]
[BlackElo "2384"]
[WhiteElo "2441"]
[ECO "A00"]

1. g3 {[%clk 1:30:58]} d5 {[%clk 1:30:41]} 2. Bg2 {[%clk 1:31:21]} g6
{[%clk 1:30:50]} *

[Event "Copenhagen Chess Challenge 2014"]
[Site "?"]
[Date "2014.05.18"]
[Round "9.2"]
[White "Stefansson, Hannes"]
[Black "Ziska, Helgi Dam"]
[Result "*"]
[LiveChessVersion "1.4.2"]
[BlackElo "2491"]
[WhiteElo "2548"]
[ECO "A45"]

1. d4 {[%clk 1:30:50]} Nf6 {[%clk 1:30:22]} *

[Event "Copenhagen Chess Challenge 2014"]
[Site "?"]
[Date "2014.05.18"]
[Round "9.3"]
[White "Danielsen, Henrik"]
[Black "Hansen, Mads"]
[Result "*"]
[LiveChessVersion "1.4.2"]
[BlackElo "2358"]
[WhiteElo "2483"]
[ECO "B00"]

1. e4 {[%clk 1:30:16]} *

[Event "Copenhagen Chess Challenge 2014"]
[Site "?"]
[Date "2014.05.18"]
[Round "9.4"]
[White "Hector, Jonny"]
[Black "Pedersen, Daniel Vesterbaek"]
[Result "*"]
[LiveChessVersion "1.4.2"]
[BlackElo "2244"]
[WhiteElo "2511"]
[ECO "C50"]

1. e4 {[%clk 1:30:54]} e5 {[%clk 1:30:58]} 2. Nf3 {[%clk 1:31:16]} Nc6
{[%clk 1:31:24]} 3. Bc4 {[%clk 1:31:39]} Nf6 {[%clk 1:31:47]} 4. d3
{[%clk 1:32:02]} Bc5 *

[Event "Copenhagen Chess Challenge 2014"]
[Site "?"]
[Date "2014.05.18"]
[Round "9.5"]
[White "Christensen, Tobias"]
[Black "Ochsner, Bjorn Moller"]
[Result "*"]
[LiveChessVersion "1.4.2"]
[BlackElo "2307"]
[WhiteElo "2368"]
[ECO "A10"]

1. c4 {[%clk 1:30:58]} *

[Event "Copenhagen Chess Challenge 2014"]
[Site "?"]
[Date "2014.05.18"]
[Round "9.6"]
[White "Mikkelsen, Nikolaj"]
[Black "Thorfinnsson, Bragi"]
[Result "*"]
[LiveChessVersion "1.4.2"]
[BlackElo "2459"]
[WhiteElo "2430"]
[ECO "B00"]

1. e4 {[%clk 1:30:58]} *

[Event "Copenhagen Chess Challenge 2014"]
[Site "?"]
[Date "2014.05.18"]
[Round "9.7"]
[White "Hoi, Carsten"]
[Black "Sylvan, Jacob"]
[Result "*"]
[LiveChessVersion "1.4.2"]
[BlackElo "2348"]
[WhiteElo "2397"]
[ECO "A45"]

1. d4 {[%clk 1:30:46]} Nf6 {[%clk 1:30:30]} *

[Event "Copenhagen Chess Challenge 2014"]
[Site "?"]
[Date "2014.05.18"]
[Round "9.8"]
[White "Englert, Fabian"]
[Black "Westerinen, Heikki M.J."]
[Result "*"]
[LiveChessVersion "1.4.2"]
[BlackElo "2299"]
[WhiteElo "2310"]
[ECO "A40"]

1. d4 {[%clk 1:30:58]} *

[Event "Copenhagen Chess Challenge 2014"]
[Site "?"]
[Date "2014.05.18"]
[Round "9.9"]
[White "Thorhallsson, Throstur"]
[Black "Semcesen, Daniel"]
[Result "*"]
[LiveChessVersion "1.4.2"]
[BlackElo "2513"]
[WhiteElo "2437"]
[ECO "C44"]

1. e4 {[%clk 1:30:57]} e5 {[%clk 1:30:49]} 2. Nf3 {[%clk 1:31:22]} Nc6
{[%clk 1:31:12]} 3. d4 *

[Event "Copenhagen Chess Challenge 2014"]
[Site "?"]
[Date "2014.05.18"]
[Round "9.10"]
[White "Pedersen, Nicolai Kvist Brondt"]
[Black "Korley, Kassa"]
[Result "*"]
[LiveChessVersion "1.4.2"]
[BlackElo "2390"]
[WhiteElo "2200"]
[ECO "A45"]

1. d4 {[%clk 1:30:55]} Nf6 {[%clk 1:30:57]} *

[Event "Copenhagen Chess Challenge 2014"]
[Site "?"]
[Date "2014.05.18"]
[Round "9.11"]
[White "Rydstrom, Tom"]
[Black "Sahl, Bjarke"]
[Result "*"]
[LiveChessVersion "1.4.2"]
[BlackElo "2368"]
[WhiteElo "2190"]
[ECO "B00"]

1. e4 {[%clk 1:30:30]} *

[Event "Copenhagen Chess Challenge 2014"]
[Site "?"]
[Date "2014.05.18"]
[Round "9.12"]
[White "Mueller, Reinhold"]
[Black "Murtuzov, Rauf Mubariz"]
[Result "*"]
[LiveChessVersion "1.4.2"]
[BlackElo "2079"]
[WhiteElo "2282"]
[ECO "E70"]

1. d4 {[%clk 1:30:57]} Nf6 {[%clk 1:30:59]} 2. c4 {[%clk 1:31:19]} g6
{[%clk 1:31:27]} 3. Nc3 {[%clk 1:31:24]} Bg7 {[%clk 1:31:57]} 4. e4
{[%clk 1:31:45]} d6 {[%clk 1:31:55]} *

[Event "Copenhagen Chess Challenge 2014"]
[Site "?"]
[Date "2014.05.18"]
[Round "9.13"]
[White "Bjerre, Tavs"]
[Black "Stojanovski, Sandi"]
[Result "*"]
[LiveChessVersion "1.4.2"]
[BlackElo "2265"]
[WhiteElo "2067"]

*

[Event "Copenhagen Chess Challenge 2014"]
[Site "?"]
[Date "2014.05.18"]
[Round "9.14"]
[White "Nordenbaek, Jan"]
[Black "Karlsson, Robin"]
[Result "*"]
[LiveChessVersion "1.4.2"]
[BlackElo "2008"]
[WhiteElo "2248"]
[ECO "B31"]

1. e4 {[%clk 1:30:57]} c5 {[%clk 1:30:57]} 2. Nf3 {[%clk 1:31:20]} Nc6
{[%clk 1:31:09]} 3. Bb5 {[%clk 1:31:43]} g6 {[%clk 1:31:26]} *

[Event "Copenhagen Chess Challenge 2014"]
[Site "?"]
[Date "2014.05.18"]
[Round "9.15"]
[White "Bjerre, Jonas"]
[Black "Jorgensen, Dennis"]
[Result "*"]
[LiveChessVersion "1.4.2"]
[BlackElo "2231"]
[WhiteElo "1961"]
[ECO "B15"]

1. e4 {[%clk 1:30:56]} c6 {[%clk 1:30:49]} 2. d4 {[%clk 1:31:13]} d5
{[%clk 1:31:13]} 3. Nc3 {[%clk 1:31:36]} dxe4 {[%clk 1:31:32]} *

[Event "Copenhagen Chess Challenge 2014"]
[Site "?"]
[Date "2014.05.18"]
[Round "9.16"]
[White "Subramanian, Aditya"]
[Black "Jacobsen, Mikkel Manosri"]
[Result "*"]
[LiveChessVersion "1.4.2"]
[BlackElo "2113"]
[WhiteElo "1845"]
[ECO "A46"]

1. d4 {[%clk 1:30:31]} Nf6 {[%clk 1:30:51]} 2. Nf3 {[%clk 1:30:54]} d5
{[%clk 1:31:15]} *

