[Event "Copenhagen Chess Challenge 2014"]
[Site "?"]
[Date "2014.05.18"]
[Round "9.1"]
[White "Haub, Thorsten Michael"]
[Black "Fries-Nielsen, Jens Ove"]
[Result "1/2-1/2"]
[LiveChessVersion "1.4.2"]
[BlackElo "2384"]
[WhiteElo "2441"]
[ECO "A00"]

1. g3 {[%clk 1:30:58]} d5 {[%clk 1:30:41]} 2. Bg2 {[%clk 1:31:21]} g6
{[%clk 1:30:50]} 3. d3 {[%clk 1:31:44]} Bg7 {[%clk 1:31:11]} 4. Nd2
{[%clk 1:32:07]} Nf6 {[%clk 1:31:32]} 5. e4 {[%clk 1:32:17]} dxe4
{[%clk 1:31:53]} 1/2-1/2

[Event "Copenhagen Chess Challenge 2014"]
[Site "?"]
[Date "2014.05.18"]
[Round "9.2"]
[White "Stefansson, Hannes"]
[Black "Ziska, Helgi Dam"]
[Result "*"]
[LiveChessVersion "1.4.2"]
[BlackElo "2491"]
[WhiteElo "2548"]
[ECO "E62"]

1. d4 {[%clk 1:30:50]} Nf6 {[%clk 1:30:22]} 2. c4 {[%clk 1:31:07]} g6
{[%clk 1:30:26]} 3. Nf3 {[%clk 1:31:24]} Bg7 {[%clk 1:30:37]} 4. g3
{[%clk 1:31:47]} O-O {[%clk 1:30:58]} 5. Bg2 {[%clk 1:32:13]} d6 {[%clk 1:31:10]}
6. O-O {[%clk 1:32:36]} Nc6 {[%clk 1:25:34]} 7. Nc3 {[%clk 1:32:52]} Bg4
{[%clk 1:25:53]} 8. h3 {[%clk 1:30:53]} Bxf3 {[%clk 1:26:13]} 9. Bxf3
{[%clk 1:31:18]} Nd7 {[%clk 1:26:19]} 10. e3 {[%clk 1:28:06]} e5 {[%clk 1:25:14]}
11. Ne2 {[%clk 1:26:22]} Qf6 {[%clk 1:22:58]} 12. Bg2 {[%clk 1:24:58]} exd4
{[%clk 1:21:24]} 13. Bxc6 {[%clk 1:22:41]} bxc6 {[%clk 1:21:44]} 14. Nxd4
{[%clk 1:22:17]} c5 {[%clk 1:03:24]} 15. Nb5 {[%clk 1:22:15]} Rfc8
{[%clk 1:03:21]} 16. Kg2 {[%clk 1:19:37]} Qe6 {[%clk 0:59:00]} 17. Qc2
{[%clk 1:18:55]} c6 {[%clk 0:56:01]} 18. Na3 {[%clk 1:19:03]} d5 {[%clk 0:55:21]}
19. Bd2 {[%clk 1:17:43]} Rab8 {[%clk 0:50:01]} 20. Rab1 {[%clk 1:17:58]} Rb6
{[%clk 0:47:40]} 21. Rfe1 {[%clk 1:14:23]} Qe4+ {[%clk 0:45:09]} 22. Qxe4
{[%clk 1:14:29]} dxe4 {[%clk 0:45:35]} 23. b4 {[%clk 1:13:43]} Ra6
{[%clk 0:43:42]} 24. Rb3 {[%clk 1:13:58]} *

[Event "Copenhagen Chess Challenge 2014"]
[Site "?"]
[Date "2014.05.18"]
[Round "9.3"]
[White "Danielsen, Henrik"]
[Black "Hansen, Mads"]
[Result "*"]
[LiveChessVersion "1.4.2"]
[BlackElo "2358"]
[WhiteElo "2483"]
[ECO "C44"]

1. e4 {[%clk 1:30:16]} e5 {[%clk 1:30:35]} 2. Nf3 {[%clk 1:30:33]} Nc6
{[%clk 1:30:58]} 3. c3 {[%clk 1:30:21]} d5 {[%clk 1:30:01]} 4. d3
{[%clk 1:30:42]} Nf6 {[%clk 1:30:09]} 5. Nbd2 {[%clk 1:31:02]} a5
{[%clk 1:30:33]} 6. Be2 {[%clk 1:31:25]} Be7 {[%clk 1:29:27]} 7. O-O
{[%clk 1:31:44]} O-O {[%clk 1:29:33]} 8. b3 {[%clk 1:29:25]} Re8 {[%clk 1:24:57]}
9. a3 {[%clk 1:25:25]} Bf8 {[%clk 1:20:00]} 10. Rb1 {[%clk 1:23:02]} b6
{[%clk 1:15:44]} 11. Re1 {[%clk 1:22:55]} Bb7 {[%clk 1:14:07]} 12. Bf1
{[%clk 1:22:38]} g6 {[%clk 1:12:02]} 13. Qc2 {[%clk 1:21:32]} Bg7
{[%clk 1:09:01]} 14. Bb2 {[%clk 1:18:19]} d4 {[%clk 1:01:00]} 15. Rec1
{[%clk 1:12:19]} Nd7 {[%clk 0:59:03]} 16. cxd4 {[%clk 1:10:30]} exd4
{[%clk 0:59:21]} 17. b4 {[%clk 1:10:35]} axb4 {[%clk 0:57:47]} 18. axb4
{[%clk 1:11:00]} Nxb4 {[%clk 0:42:43]} 19. Qxc7 {[%clk 1:10:2