[Event "Copenhagen Chess Challenge 2014"]
[Site "?"]
[Date "2014.05.18"]
[Round "9.1"]
[White "Haub, Thorsten Michael"]
[Black "Fries-Nielsen, Jens Ove"]
[Result "1/2-1/2"]
[LiveChessVersion "1.4.2"]
[BlackElo "2384"]
[WhiteElo "2441"]
[ECO "A00"]

1. g3 {[%clk 1:30:58]} d5 {[%clk 1:30:41]} 2. Bg2 {[%clk 1:31:21]} g6
{[%clk 1:30:50]} 3. d3 {[%clk 1:31:44]} Bg7 {[%clk 1:31:11]} 4. Nd2
{[%clk 1:32:07]} Nf6 {[%clk 1:31:32]} 5. e4 {[%clk 1:32:17]} dxe4
{[%clk 1:31:53]} 1/2-1/2

[Event "Copenhagen Chess Challenge 2014"]
[Site "?"]
[Date "2014.05.18"]
[Round "9.2"]
[White "Stefansson, Hannes"]
[Black "Ziska, Helgi Dam"]
[Result "1/2-1/2"]
[LiveChessVersion "1.4.2"]
[BlackElo "2491"]
[WhiteElo "2548"]
[ECO "E62"]

1. d4 {[%clk 1:30:50]} Nf6 {[%clk 1:30:22]} 2. c4 {[%clk 1:31:07]} g6
{[%clk 1:30:26]} 3. Nf3 {[%clk 1:31:24]} Bg7 {[%clk 1:30:37]} 4. g3
{[%clk 1:31:47]} O-O {[%clk 1:30:58]} 5. Bg2 {[%clk 1:32:13]} d6 {[%clk 1:31:10]}
6. O-O {[%clk 1:32:36]} Nc6 {[%clk 1:25:34]} 7. Nc3 {[%clk 1:32:52]} Bg4
{[%clk 1:25:53]} 8. h3 {[%clk 1:30:53]} Bxf3 {[%clk 1:26:13]} 9. Bxf3
{[%clk 1:31:18]} Nd7 {[%clk 1:26:19]} 10. e3 {[%clk 1:28:06]} e5 {[%clk 1:25:14]}
11. Ne2 {[%clk 1:26:22]} Qf6 {[%clk 1:22:58]} 12. Bg2 {[%clk 1:24:58]} exd4
{[%clk 1:21:24]} 13. Bxc6 {[%clk 1:22:41]} bxc6 {[%clk 1:21:44]} 14. Nxd4
{[%clk 1:22:17]} c5 {[%clk 1:03:24]} 15. Nb5 {[%clk 1:22:15]} Rfc8
{[%clk 1:03:21]} 16. Kg2 {[%clk 1:19:37]} Qe6 {[%clk 0:59:00]} 17. Qc2
{[%clk 1:18:55]} c6 {[%clk 0:56:01]} 18. Na3 {[%clk 1:19:03]} d5 {[%clk 0:55:21]}
19. Bd2 {[%clk 1:17:43]} Rab8 {[%clk 0:50:01]} 20. Rab1 {[%clk 1:17:58]} Rb6
{[%clk 0:47:40]} 21. Rfe1 {[%clk 1:14:23]} Qe4+ {[%clk 0:45:09]} 22. Qxe4
{[%clk 1:14:29]} dxe4 {[%clk 0:45:35]} 23. b4 {[%clk 1:13:43]} Ra6
{[%clk 0:43:42]} 24. Rb3 {[%clk 1:13:58]} cxb4 {[%clk 0:33:07]} 25. Bxb4
{[%clk 1:14:18]} Bf8 {[%clk 0:31:05]} 26. Bxf8 {[%clk 1:12:48]} Kxf8
{[%clk 0:31:23]} 27. Reb1 {[%clk 1:07:26]} Nc5 {[%clk 0:30:26]} 28. Rb8
{[%clk 1:07:07]} Rxb8 {[%clk 0:30:34]} 29. Rxb8+ {[%clk 1:07:32]} Kg7
{[%clk 0:30:55]} 30. Nc2 {[%clk 1:07:39]} Rxa2 {[%clk 0:28:28]} 31. Nb4
{[%clk 1:08:02]} Rb2 {[%clk 0:25:09]} 32. Nxc6 {[%clk 1:08:27]} Rxb8
{[%clk 0:25:29]} 33. Nxb8 {[%clk 1:08:54]} a5 {[%clk 0:25:47]} 34. Nc6
{[%clk 1:09:20]} a4 {[%clk 0:26:11]} 35. Nb4 {[%clk 1:09:26]} a3 {[%clk 0:22:19]}
36. Kf1 {[%clk 1:09:13]} h5 {[%clk 0:18:26]} 37. Ke2 {[%clk 1:09:24]} h4
{[%clk 0:18:38]} 38. Na2 {[%clk 1:09:10]} g5 {[%clk 0:11:56]} 39. gxh4
{[%clk 1:09:31]} gxh4 {[%clk 0:12:24]} 40. Kd2 {[%clk 1:07:39]} Kf6
{[%clk 0:10:02]} 41. Nc3 {[%clk 1:06:37]} Ke5 {[%clk 0:05:15]} 42. Kc2
{[%clk 1:06:59]} f5 {[%clk 0:05:16]} 43. Nd1 {[%clk 1:05:38]} f4 {[%clk 0:04:31]}
44. Kb1 {[%clk 1:05:26]} f3 {[%clk 0:02:47]} 45. Ka2 {[%clk 1:05:13]} Ne6
{[%clk 0:03:10]} 46. Nc3 {[%clk 1:05:02]} Ng5 {[%clk 0:02:30]} 47. c5
{[%clk 1:05:26]} Nxh3 {[%clk 0:02:45]} 48. Nxe4 {[%clk 1:05:47]} Kd5
{[%clk 0:02:59]} 49. Kxa3 {[%clk 1:05:42]} Ng1 {[%clk 0:03:16]} 50. Kb4
{[%clk 1:04:58]} h3 {[%clk 0:02:21]} 51. Ng3 {[%clk 1:04:39]} Ne2
{[%clk 0:02:21]} 52. Nh1 {[%clk 1:04:26]} h2 {[%clk 0:02:08]} 53. e4+
{[%clk 1:04:06]} Kxe4 {[%clk 0:02:04]} 54. c6 {[%clk 1:04:22]} Nd4
{[%clk 0:01:38]} 55. c7 {[%clk 1:04:09]} Nc6+ {[%clk 0:02:03]} 56. Kc4
{[%clk 1:03:37]} Ne7 {[%clk 0:02:12]} 57. Ng3+ {[%clk 1:03:41]} Kf4
{[%clk 0:01:55]} 58. Kd3 {[%clk 1:03:47]} Kg4 {[%clk 0:01:40]} 59. Ke4
{[%clk 1:03:43]} Nc8 {[%clk 0:02:03]} 60. Nh1 {[%clk 1:03:52]} Ne7
{[%clk 0:02:18]} 61. Ng3 {[%clk 1:04:13]} Nc8 {[%clk 0:02:42]} 62. Nh1
{[%clk 1:04:37]} Ne7 {[%clk 0:03:05]} 63. Ng3 {[%clk 1:04:59]} 1/2-1/2

[Event "Copenhagen Chess Challenge 2014"]
[Site "?"]
[Date "2014.05.18"]
[Round "9.3"]
[White "Danielsen, Henrik"]
[Black "Hansen, Mads"]
[Result "1/2-1/2"]
[LiveChessVersion "1.4.2"]
[BlackElo "2358"]
[WhiteElo "2483"]
[ECO "C44"]

1. e4 {[%clk 1:30:16]} e5 {[%clk 1:30:35]} 2. Nf3 {[%clk 1:30:33]} Nc6
{[%clk 1:30:58]} 3. c3 {[%clk 1:30:21]} d5 {[%clk 1:30:01]} 4. d3
{[%clk 1:30:42]} Nf6 {[%clk 1:30:09]} 5. Nbd2 {[%clk 1:31:02]} a5
{[%clk 1:30:33]} 6. Be2 {[%clk 1:31:25]} Be7 {[%clk 1:29:27]} 7. O-O
{[%clk 1:31:44]} O-O {[%clk 1:29:33]} 8. b3 {[%clk 1:29:25]} Re8 {[%clk 1:24:57]}
9. a3 {[%clk 1:25:25]} Bf8 {[%clk 1:20:00]} 10. Rb1 {[%clk 1:23:02]} b6
{[%clk 1:15:44]} 11. Re1 {[%clk 1:22:55]} Bb7 {[%clk 1:14:07]} 12. Bf1
{[%clk 1:22:38]} g6 {[%clk 1:12:02]} 13. Qc2 {[%clk 1:21:32]} Bg7
{[%clk 1:09:01]} 14. Bb2 {[%clk 1:18:19]} d4 {[%clk 1:01:00]} 15. Rec1
{[%clk 1:12:19]} Nd7 {[%clk 0:59:03]} 16. cxd4 {[%clk 1:10:30]} exd4
{[%clk 0:59:21]} 17. b4 {[%clk 1:10:35]} axb4 {[%clk 0:57:47]} 18. axb4
{[%clk 1:11:00]} Nxb4 {[%clk 0:42:43]} 19. Qxc7 {[%clk 1:10:20]} Ba6
{[%clk 0:40:30]} 20. Bxd4 {[%clk 1:03:52]} Nxd3 {[%clk 0:33:48]} 21. Qxd8
{[%clk 0:57:39]} Raxd8 {[%clk 0:26:43]} 22. Rc7 {[%clk 0:47:11]} N3c5
{[%clk 0:23:40]} 23. Bxg7 {[%clk 0:35:46]} 1/2-1/2

[Event "Copenhagen Chess Challenge 2014"]
[Site "?"]
[Date "2014.05.18"]
[Round "9.4"]
[White "Hector, Jonny"]
[Black "Pedersen, Daniel Vesterbaek"]
[Result "1-0"]
[LiveChessVersion "1.4.2"]
[BlackElo "2244"]
[WhiteElo "2511"]
[ECO "C50"]

1. e4 {[%clk 1:30:54]} e5 {[%clk 1:30:58]} 2. Nf3 {[%clk 1:31:16]} Nc6
{[%clk 1:31:24]} 3. Bc4 {[%clk 1:31:39]} Nf6 {[%clk 1:31:47]} 4. d3
{[%clk 1:32:02]} Bc5 {[%clk 1:32:03]} 5. c3 {[%clk 1:32:26]} a6 {[%clk 1:31:53]}
6. Bb3 {[%clk 1:32:42]} d6 {[%clk 1:32:09]} 7. O-O {[%clk 1:32:27]} h6
{[%clk 1:31:33]} 8. Be3 {[%clk 1:31:42]} Bxe3 {[%clk 1:24:51]} 9. fxe3
{[%clk 1:31:47]} O-O {[%clk 1:19:13]} 10. Nbd2 {[%clk 1:31:22]} Nh7
{[%clk 1:03:30]} 11. d4 {[%clk 1:25:24]} Qe7 {[%clk 1:00:42]} 12. Qe1
{[%clk 1:24:49]} Na5 {[%clk 0:50:44]} 13. Bc2 {[%clk 1:23:17]} c5
{[%clk 0:51:06]} 14. b4 {[%clk 1:20:50]} cxb4 {[%clk 0:51:10]} 15. cxb4
{[%clk 1:20:22]} Nc6 {[%clk 0:51:34]} 16. Nc4 {[%clk 1:18:02]} Qc7
{[%clk 0:38:50]} 17. Rc1 {[%clk 1:11:08]} Bg4 {[%clk 0:37:59]} 18. Bb3
{[%clk 0:58:53]} Bxf3 {[%clk 0:36:56]} 19. gxf3 {[%clk 0:58:48]} exd4
{[%clk 0:36:40]} 20. Kh1 {[%clk 0:57:48]} Rac8 {[%clk 0:34:38]} 21. Rg1
{[%clk 0:55:07]} dxe3 {[%clk 0:30:48]} 22. Qg3 {[%clk 0:53:07]} Ng5
{[%clk 0:28:04]} 23. Nxd6 {[%clk 0:52:04]} Rcd8 {[%clk 0:27:30]} 24. Nxf7
{[%clk 0:51:50]} Qxg3 {[%clk 0:27:04]} 25. Nxg5+ {[%clk 0:51:30]} Kh8
{[%clk 0:27:10]} 26. Rxg3 {[%clk 0:51:45]} Nd4 {[%clk 0:26:23]} 27. Nf7+
{[%clk 0:50:39]} Rxf7 {[%clk 0:24:51]} 28. Bxf7 {[%clk 0:50:48]} Ne2
{[%clk 0:25:18]} 29. Re1 {[%clk 0:50:55]} 1-0

[Event "Copenhagen Chess Challenge 2014"]
[Site "?"]
[Date "2014.05.18"]
[Round "9.5"]
[White "Christensen, Tobias"]
[Black "Ochsner, Bjorn Moller"]
[Result "*"]
[LiveChessVersion "1.4.2"]
[BlackElo "2307"]
[WhiteElo "2368"]
[ECO "A37"]

1. c4 {[%clk 1:30:58]} g6 {[%clk 1:29:44]} 2. Nc3 {[%clk 1:30:47]} Bg7
{[%clk 1:29:19]} 3. Nf3 {[%clk 1:30:38]} c5 {[%clk 1:26:23]} 4. g3
{[%clk 1:27:35]} Nc6 {[%clk 1:26:34]} 5. Bg2 {[%clk 1:27:54]} e6 {[%clk 1:26:48]}
6. e4 {[%clk 1:16:01]} Nge7 {[%clk 1:26:09]} 7. O-O {[%clk 1:15:37]} O-O
{[%clk 1:26:11]} 8. d3 {[%clk 1:15:47]} a6 {[%clk 1:17:32]} 9. Bg5
{[%clk 1:04:34]} h6 {[%clk 1:14:11]} 10. Bd2 {[%clk 1:04:54]} Rb8
{[%clk 1:13:01]} 11. Qc1 {[%clk 0:58:20]} Kh7 {[%clk 1:11:50]} 12. e5
{[%clk 0:51:21]} d5 {[%clk 1:05:54]} 13. exd6 {[%clk 0:50:41]} Nf5
{[%clk 1:04:50]} 14. Ne4 {[%clk 0:33:39]} b6 {[%clk 1:04:04]} 15. Bc3
{[%clk 0:27:25]} e5 {[%clk 0:58:36]} 16. Re1 {[%clk 0:22:23]} Nxd6
{[%clk 0:57:36]} 17. Nfg5+ {[%clk 0:16:31]} Kg8 {[%clk 0:56:30]} 18. Nxd6
{[%clk 0:16:48]} Qxd6 {[%clk 0:55:16]} 19. Ne4 {[%clk 0:17:15]} Qc7
{[%clk 0:53:32]} 20. Bd2 {[%clk 0:16:29]} Kh7 {[%clk 0:51:13]} 21. Nc3
{[%clk 0:16:54]} Nb4 {[%clk 0:48:58]} 22. Nd5 {[%clk 0:09:10]} Nxd5
{[%clk 0:49:19]} 23. cxd5 {[%clk 0:09:27]} Bb7 {[%clk 0:46:48]} 24. d4
{[%clk 0:09:20]} exd4 {[%clk 0:31:28]} 25. Bf4 {[%clk 0:09:40]} Qd7
{[%clk 0:31:43]} 26. Bxb8 {[%clk 0:09:47]} Rxb8 {[%clk 0:32:12]} 27. Qc4
{[%clk 0:08:17]} Qd6 {[%clk 0:26:54]} 28. b4 {[%clk 0:01:40]} Rc8
{[%clk 0:19:58]} 29. Rab1 {[%clk 0:01:26]} b5 {[%clk 0:18:52]} 30. bxc5
{[%clk 0:01:52]} Rxc5 {[%clk 0:16:53]} 31. Qb3 {[%clk 0:01:55]} *

[Event "Copenhagen Chess Challenge 2014"]
[Site "?"]
[Date "2014.05.18"]
[Round "9.6"]
[White "Mikkelsen, Nikolaj"]
[Black "Thorfinnsson, Bragi"]
[Result "1/2-1/2"]
[LiveChessVersion "1.4.2"]
[BlackElo "2459"]
[WhiteElo "2430"]
[ECO "C45"]

1. e4 {[%clk 1:30:58]} e5 {[%clk 1:27:51]} 2. Nf3 {[%clk 1:30:38]} Nc6
{[%clk 1:27:49]} 3. d4 {[%clk 1:30:51]} exd4 {[%clk 1:28:07]} 4. Nxd4
{[%clk 1:31:15]} Nf6 {[%clk 1:27:30]} 5. Nxc6 {[%clk 1:31:18]} bxc6
{[%clk 1:27:54]} 6. e5 {[%clk 1:31:30]} Qe7 {[%clk 1:28:17]} 7. Qe2
{[%clk 1:31:55]} Nd5 {[%clk 1:28:43]} 8. c4 {[%clk 1:32:19]} Nb6 {[%clk 1:28:29]}
9. Nc3 {[%clk 1:32:14]} Bb7 {[%clk 1:25:10]} 10. Bd2 {[%clk 1:30:51]} 1/2-1/2

[Event "Copenhagen Chess Challenge 2014"]
[Site "?"]
[Date "2014.05.18"]
[Round "9.7"]
[White "Hoi, Carsten"]
[Black "Sylvan, Jacob"]
[Result "1/2-1/2"]
[LiveChessVersion "1.4.2"]
[BlackElo "2348"]
[WhiteElo "2397"]
[ECO "E81"]

1. d4 {[%clk 1:30:46]} Nf6 {[%clk 1:30:30]} 2. c4 {[%clk 1:30:42]} g6
{[%clk 1:30:46]} 3. Nc3 {[%clk 1:31:07]} Bg7 {[%clk 1:31:12]} 4. e4
{[%clk 1:31:27]} d6 {[%clk 1:31:38]} 5. f3 {[%clk 1:28:10]} O-O {[%clk 1:31:42]}
6. Be3 {[%clk 1:28:34]} c5 {[%clk 1:29:13]} 7. Nge2 {[%clk 1:27:36]} 1/2-1/2

[Event "Copenhagen Chess Challenge 2014"]
[Site "?"]
[Date "2014.05.18"]
[Round "9.8"]
[White "Englert, Fabian"]
[Black "Westerinen, Heikki M.J."]
[Result "1/2-1/2"]
[LiveChessVersion "1.4.2"]
[BlackElo "2299"]
[WhiteElo "2310"]
[ECO "A48"]

1. d4 {[%clk 1:30:58]} Nf6 {[%clk 1:28:41]} 2. Nf3 {[%clk 1:31:19]} g6
{[%clk 1:28:23]} 3. c4 {[%clk 1:31:33]} Bg7 {[%clk 1:28:33]} 4. Nc3
{[%clk 1:31:55]} O-O {[%clk 1:26:48]} 5. Bg5 {[%clk 1:32:09]} d6 {[%clk 1:25:03]}
6. e3 {[%clk 1:32:25]} h6 {[%clk 1:23:13]} 7. Bh4 {[%clk 1:32:40]} Bf5
{[%clk 1:19:50]} 8. Be2 {[%clk 1:29:19]} Ne4 {[%clk 1:18:04]} 9. Nxe4
{[%clk 1:21:38]} Bxe4 {[%clk 1:18:29]} 10. O-O {[%clk 1:21:34]} 1/2-1/2

[Event "Copenhagen Chess Challenge 2014"]
[Site "?"]
[Date "2014.05.18"]
[Round "9.9"]
[White "Thorhallsson, Throstur"]
[Black "Semcesen, Daniel"]
[Result "1/2-1/2"]
[LiveChessVersion "1.4.2"]
[BlackElo "2513"]
[WhiteElo "2437"]
[ECO "C44"]

1. e4 {[%clk 1:30:57]} e5 {[%clk 1:30:49]} 2. Nf3 {[%clk 1:31:22]} Nc6
{[%clk 1:31:12]} 3. d4 {[%clk 1:31:23]} exd4 {[%clk 1:31:31]} 4. Nxd4
{[%clk 1:31:47]} g6 {[%clk 1:31:55]} 5. Nxc6 {[%clk 1:25:22]} bxc6
{[%clk 1:32:03]} 6. Bc4 {[%clk 1:25:18]} Bg7 {[%clk 1:31:44]} 7. O-O
{[%clk 1:24:06]} Ne7 {[%clk 1:30:05]} 8. Re1 {[%clk 1:23:10]} O-O
{[%clk 1:30:07]} 9. c3 {[%clk 1:21:12]} 1/2-1/2

[Event "Copenhagen Chess Challenge 2014"]
[Site "?"]
[Date "2014.05.18"]
[Round "9.10"]
[White "Pedersen, Nicolai Kvist Brondt"]
[Black "Korley, Kassa"]
[Result "*"]
[LiveChessVersion "1.4.2"]
[BlackElo "2390"]
[WhiteElo "2200"]
[ECO "A46"]

1. d4 {[%clk 1:30:55]} Nf6 {[%clk 1:30:57]} 2. Nf3 {[%clk 1:28:57]} e6
{[%clk 1:31:25]} 3. g3 {[%clk 1:27:55]} d5 {[%clk 1:31:49]} 4. Bg2
{[%clk 1:28:18]} Be7 {[%clk 1:32:15]} 5. O-O {[%clk 1:28:32]} O-O
{[%clk 1:32:40]} 6. c4 {[%clk 1:27:55]} dxc4 {[%clk 1:32:59]} 7. Ne5
{[%clk 1:26:12]} c5 {[%clk 1:33:17]} 8. dxc5 {[%clk 1:26:06]} Qc7
{[%clk 1:33:43]} 9. Nxc4 {[%clk 1:24:15]} Qxc5 {[%clk 1:34:09]} 10. Qb3
{[%clk 1:23:10]} Nc6 {[%clk 1:32:33]} 11. Be3 {[%clk 1:19:48]} Qh5
{[%clk 1:32:25]} 12. Nc3 {[%clk 1:10:04]} Ng4 {[%clk 1:30:42]} 13. h3
{[%clk 1:09:30]} Nxe3 {[%clk 1:31:02]} 14. Nxe3 {[%clk 1:09:54]} Bc5
{[%clk 1:09:42]} 15. g4 {[%clk 0:57:46]} Qh6 {[%clk 1:08:21]} 16. Ne4
{[%clk 0:53:44]} Bb6 {[%clk 1:06:12]} 17. Nc4 {[%clk 0:41:28]} Bc7
{[%clk 1:04:43]} 18. Ncd6 {[%clk 0:36:55]} Bb6 {[%clk 0:52:32]} 19. e3
{[%clk 0:35:19]} Rb8 {[%clk 0:43:24]} 20. Rfd1 {[%clk 0:32:33]} Qh4
{[%clk 0:43:20]} 21. Nxc8 {[%clk 0:30:19]} Rfxc8 {[%clk 0:43:11]} 22. Nd6
{[%clk 0:29:13]} Rc7 {[%clk 0:41:24]} 23. Qb5 {[%clk 0:24:45]} h5
{[%clk 0:35:32]} 24. Bxc6 {[%clk 0:17:42]} Rxc6 {[%clk 0:34:49]} 25. Qxh5
{[%clk 0:12:39]} Qxh5 {[%clk 0:35:12]} 26. gxh5 {[%clk 0:13:08]} Rc2
{[%clk 0:35:29]} 27. b3 {[%clk 0:12:34]} Kf8 {[%clk 0:34:08]} 28. Nc4
{[%clk 0:11:41]} Ke7 {[%clk 0:31:28]} 29. Nxb6 {[%clk 0:08:05]} axb6
{[%clk 0:31:56]} 30. Rac1 {[%clk 0:07:22]} Rc6 {[%clk 0:28:58]} 31. Rxc6
{[%clk 0:06:02]} bxc6 {[%clk 0:29:23]} 32. Rd4 {[%clk 0:04:57]} Rh8
{[%clk 0:26:22]} 33. Rb4 {[%clk 0:03:35]} b5 {[%clk 0:26:34]} 34. Rh4
{[%clk 0:03:10]} f5 {[%clk 0:25:28]} 35. Kg2 {[%clk 0:01:49]} g5 {[%clk 0:25:45]}
36. Rb4 {[%clk 0:01:30]} Rxh5 {[%clk 0:26:10]} 37. a4 {[%clk 0:01:10]} bxa4
{[%clk 0:25:34]} 38. bxa4 {[%clk 0:00:53]} *

[Event "Copenhagen Chess Challenge 2014"]
[Site "?"]
[Date "2014.05.18"]
[Round "9.11"]
[White "Rydstrom, Tom"]
[Black "Sahl, Bjarke"]
[Result "*"]
[LiveChessVersion "1.4.2"]
[BlackElo "2368"]
[WhiteElo "2190"]
[ECO "B95"]

1. e4 {[%clk 1:30:30]} c5 {[%clk 1:28:24]} 2. Nf3 {[%clk 1:30:54]} d6
{[%clk 1:28:19]} 3. d4 {[%clk 1:31:19]} cxd4 {[%clk 1:28:46]} 4. Nxd4
{[%clk 1:31:44]} Nf6 {[%clk 1:29:13]} 5. Nc3 {[%clk 1:32:08]} a6 {[%clk 1:29:36]}
6. Bg5 {[%clk 1:32:34]} e6 {[%clk 1:28:49]} 7. Be2 {[%clk 1:30:48]} Be7
{[%clk 1:27:25]} 8. Qd2 {[%clk 1:31:14]} b5 {[%clk 1:24:30]} 9. a4
{[%clk 1:15:12]} b4 {[%clk 1:17:00]} 10. Na2 {[%clk 1:09:48]} Nxe4
{[%clk 1:13:24]} 11. Bxe7 {[%clk 1:07:49]} Qxe7 {[%clk 1:13:48]} 12. Qxb4
{[%clk 1:07:59]} d5 {[%clk 1:14:08]} 13. O-O {[%clk 1:02:47]} Qxb4
{[%clk 1:07:40]} 14. Nxb4 {[%clk 1:03:15]} Bd7 {[%clk 1:07:58]} 15. a5
{[%clk 1:01:53]} Ke7 {[%clk 1:03:43]} 16. c4 {[%clk 0:55:31]} Nd2
{[%clk 1:03:32]} 17. Rfe1 {[%clk 0:55:11]} Nxc4 {[%clk 0:55:57]} 18. Nxd5+
{[%clk 0:50:10]} exd5 {[%clk 0:56:19]} 19. Bxc4+ {[%clk 0:50:36]} Kd6
{[%clk 0:56:32]} 20. Bb3 {[%clk 0:48:48]} Nc6 {[%clk 0:56:23]} 21. Red1
{[%clk 0:48:41]} Rab8 {[%clk 0:52:48]} 22. Bxd5 {[%clk 0:45:08]} Kxd5
{[%clk 0:44:52]} 23. Nxc6+ {[%clk 0:45:31]} Kxc6 {[%clk 0:45:19]} 24. Rac1+
{[%clk 0:45:56]} Kb5 {[%clk 0:45:46]} 25. Rxd7 {[%clk 0:46:18]} Rhf8
{[%clk 0:45:59]} 26. Rd5+ {[%clk 0:18:50]} Ka4 {[%clk 0:42:28]} 27. Rd6
{[%clk 0:18:47]} Rfc8 {[%clk 0:34:24]} 28. Ra1+ {[%clk 0:16:46]} Kb5
{[%clk 0:34:46]} 29. h4 {[%clk 0:16:19]} Rb7 {[%clk 0:33:02]} 30. Re1
{[%clk 0:14:32]} Rc5 {[%clk 0:29:04]} 31. Re3 {[%clk 0:14:06]} Ra7
{[%clk 0:27:53]} 32. Ra3 {[%clk 0:12:52]} Kb4 {[%clk 0:27:52]} 33. Rdd3
{[%clk 0:08:31]} Rb5 {[