[Event "Copenhagen Chess Challenge 2014"]
[Site "?"]
[Date "2014.05.18"]
[Round "9.1"]
[White "Haub, Thorsten Michael"]
[Black "Fries-Nielsen, Jens Ove"]
[Result "*"]
[LiveChessVersion "1.4.2"]
[BlackElo "2384"]
[WhiteElo "2441"]

*

[Event "Copenhagen Chess Challenge 2014"]
[Site "?"]
[Date "2014.05.18"]
[Round "9.2"]
[White "Stefansson, Hannes"]
[Black "Ziska, Helgi Dam"]
[Result "*"]
[LiveChessVersion "1.4.2"]
[BlackElo "2491"]
[WhiteElo "2548"]

*

[Event "Copenhagen Chess Challenge 2014"]
[Site "?"]
[Date "2014.05.18"]
[Round "9.3"]
[White "Danielsen, Henrik"]
[Black "Hansen, Mads"]
[Result "*"]
[LiveChessVersion "1.4.2"]
[BlackElo "2358"]
[WhiteElo "2483"]

*

[Event "Copenhagen Chess Challenge 2014"]
[Site "?"]
[Date "2014.05.18"]
[Round "9.4"]
[White "Hector, Jonny"]
[Black "Pedersen, Daniel Vesterbaek"]
[Result "*"]
[LiveChessVersion "1.4.2"]
[BlackElo "2244"]
[WhiteElo "2511"]

*

[Event "Copenhagen Chess Challenge 2014"]
[Site "?"]
[Date "2014.05.18"]
[Round "9.5"]
[White "Christensen, Tobias"]
[Black "Ochsner, Bjorn Moller"]
[Result "*"]
[LiveChessVersion "1.4.2"]
[BlackElo "2307"]
[WhiteElo "2368"]
[ECO "A10"]

1. c4 *

[Event "Copenhagen Chess Challenge 2014"]
[Site "?"]
[Date "2014.05.18"]
[Round "9.6"]
[White "Mikkelsen, Nikolaj"]
[Black "Thorfinnsson, Bragi"]
[Result "*"]
[LiveChessVersion "1.4.2"]
[BlackElo "2459"]
[WhiteElo "2430"]

*

[Event "Copenhagen Chess Challenge 2014"]
[Site "?"]
[Date "2014.05.18"]
[Round "9.7"]
[White "Hoi, Carsten"]
[Black "Sylvan, Jacob"]
[Result "*"]
[LiveChessVersion "1.4.2"]
[BlackElo "2348"]
[WhiteElo "2397"]

*

[Event "Copenhagen Chess Challenge 2014"]
[Site "?"]
[Date "2014.05.18"]
[Round "9.8"]
[White "Englert, Fabian"]
[Black "Westerinen, Heikki M.J."]
[Result "*"]
[LiveChessVersion "1.4.2"]
[BlackElo "2299"]
[WhiteElo "2310"]

*

[Event "Copenhagen Chess Challenge 2014"]
[Site "?"]
[Date "2014.05.18"]
[Round "9.9"]
[White "Thorhallsson, Throstur"]
[Black "Semcesen, Daniel"]
[Result "*"]
[LiveChessVersion "1.4.2"]
[BlackElo "2513"]
[WhiteElo "2437"]
[ECO "B00"]

1. e4 *

[Event "Copenhagen Chess Challenge 2014"]
[Site "?"]
[Date "2014.05.18"]
[Round "9.10"]
[White "Pedersen, Nicolai Kvist Brondt"]
[Black "Korley, Kassa"]
[Result "*"]
[LiveChessVersion "1.4.2"]
[BlackElo "2390"]
[WhiteElo "2200"]

*

[Event "Copenhagen Chess Challenge 2014"]
[Site "?"]
[Date "2014.05.18"]
[Round "9.11"]
[White "Rydstrom, Tom"]
[Black "Sahl, Bjarke"]
[Result "*"]
[LiveChessVersion "1.4.2"]
[BlackElo "2368"]
[WhiteElo "2190"]

*

[Event "Copenhagen Chess Challenge 2014"]
[Site "?"]
[Date "2014.05.18"]
[Round "9.12"]
[White "Mueller, Reinhold"]
[Black "Murtuzov, Rauf Mubariz"]
[Result "*"]
[LiveChessVersion "1.4.2"]
[BlackElo "2079"]
[WhiteElo "2282"]

*

[Event "Copenhagen Chess Challenge 2014"]
[Site "?"]
[Date "2014.05.18"]
[Round "9.13"]
[White "Bjerre, Tavs"]
[Black "Stojanovski, Sandi"]
[Result "*"]
[LiveChessVersion "1.4.2"]
[BlackElo "2265"]
[WhiteElo "2067"]

*

[Event "Copenhagen Chess Challenge 2014"]
[Site "?"]
[Date "2014.05.18"]
[Round "9.14"]
[White "Nordenbaek, Jan"]
[Black "Karlsson, Robin"]
[Result "*"]
[LiveChessVersion "1.4.2"]
[BlackElo "2008"]
[WhiteElo "2248"]
[ECO "B00"]

1. e4 {[%clk 1:30:57]} *

[Event "Copenhagen Chess Challenge 2014"]
[Site "?"]
[Date "2014.05.18"]
[Round "9.15"]
[White "Bjerre, Jonas"]
[Black "Jorgensen, Dennis"]
[Result "*"]
[LiveChessVersion "1.4.2"]
[BlackElo "2231"]
[WhiteElo "1961"]

*

[Event "Copenhagen Chess Challenge 2014"]
[Site "?"]
[Date "2014.05.18"]
[Round "9.16"]
[White "Subramanian, Aditya"]
[Black "Jacobsen, Mikkel Manosri"]
[Result "*"]
[LiveChessVersion "1.4.2"]
[BlackElo "2113"]
[WhiteElo "1845"]

*

