[Event "No Logo Norway Chess 2014"]
[Site "?"]
[Date "2014.06.10"]
[Round "7.1"]
[White "Giri, Anish"]
[Black "Karjakin, Sergey"]
[Result "*"]
[LiveChessVersion "1.4.2"]
[BlackElo "2771"]
[WhiteElo "2752"]
[ECO "A35"]

1. Nf3 {[%clk 1:59:59]} Nf6 {[%clk 1:59:49]} 2. c4 {[%clk 1:59:50]} c5
{[%clk 1:59:29]} 3. Nc3 {[%clk 1:59:06]} Nc6 {[%clk 1:59:21]} 4. g3
{[%clk 1:58:06]} d5 {[%clk 1:59:13]} 5. cxd5 {[%clk 1:57:23]} Nxd5
{[%clk 1:59:06]} 6. Bg2 {[%clk 1:57:20]} Nc7 {[%clk 1:58:53]} 7. a3
{[%clk 1:56:27]} g6 {[%clk 1:58:38]} 8. h4 {[%clk 1:56:22]} h6 {[%clk 1:58:30]}
9. d3 {[%clk 1:55:51]} Bg7 {[%clk 1:58:07]} 10. Be3 {[%clk 1:55:02]} Ne6
{[%clk 1:56:54]} 11. O-O {[%clk 1:48:03]} O-O {[%clk 1:45:11]} 12. Na4
{[%clk 1:43:11]} Ncd4 {[%clk 1:22:04]} 13. Rc1 {[%clk 1:33:09]} Qd6
{[%clk 1:08:54]} 14. Nd2 {[%clk 1:31:33]} Bd7 {[%clk 1:06:04]} 15. Bxd4
{[%clk 1:26:34]} Qxd4 {[%clk 0:47:19]} 16. Nc3 {[%clk 1:24:56]} Rab8
{[%clk 0:43:50]} 17. Nc4 {[%clk 1:22:36]} Bc6 {[%clk 0:34:21]} 18. Bxc6
{[%clk 1:20:58]} bxc6 {[%clk 0:34:19]} 19. e3 {[%clk 1:17:40]} Qd7
{[%clk 0:33:45]} 20. Qc2 {[%clk 1:11:01]} Rfd8 {[%clk 0:31:59]} 21. Rfd1
{[%clk 1:09:24]} h5 {[%clk 0:31:12]} 22. Qe2 {[%clk 1:01:33]} Rb3
{[%clk 0:28:48]} 23. Na5 {[%clk 0:57:44]} Rb6 {[%clk 0:28:16]} 24. Rc2
{[%clk 0:39:35]} Qc7 {[%clk 0:25:04]} 25. Nc4 {[%clk 0:37:41]} Rb3
{[%clk 0:24:26]} 26. Nd2 {[%clk 0:36:20]} Rb7 {[%clk 0:23:59]} 27. Nc4
{[%clk 0:36:07]} Rb3 {[%clk 0:23:52]} 28. Rdc1 {[%clk 0:33:10]} Rb7
{[%clk 0:20:13]} 29. Rd2 {[%clk 0:32:11]} Rb3 {[%clk 0:19:01]} 30. Qd1
{[%clk 0:27:15]} Rdb8 {[%clk 0:18:51]} 31. Ne4 {[%clk 0:23:40]} Qd8
{[%clk 0:18:13]} 32. Nc3 {[%clk 0:20:27]} Qc7 {[%clk 0:17:42]} 33. Kg2
{[%clk 0:19:59]} Qd8 {[%clk 0:16:39]} 34. Rdc2 {[%clk 0:19:02]} R3b7
{[%clk 0:16:05]} 35. Qe2 {[%clk 0:18:04]} Rd7 {[%clk 0:15:42]} 36. Rd2
{[%clk 0:17:39]} Rb3 {[%clk 0:14:25]} 37. Qd1 {[%clk 0:17:23]} Rdb7
{[%clk 0:12:56]} 38. Qf3 {[%clk 0:13:45]} Qd7 {[%clk 0:12:36]} 39. Rcc2
{[%clk 0:12:59]} Rb8 {[%clk 0:10:29]} 40. Qd1 {[%clk 1:11:37]} Qd8
{[%clk 1:08:03]} 41. Kh2 {[%clk 1:03:59]} Nf8 {[%clk 0:59:20]} 42. Ne4
{[%clk 1:00:28]} Ne6 {[%clk 0:50:18]} 43. Kg1 {[%clk 0:48:50]} R8b7
{[%clk 0:45:03]} 44. Kh2 {[%clk 0:43:10]} Rd7 {[%clk 0:42:30]} 45. Nc3
{[%clk 0:42:57]} Rdb7 {[%clk 0:38:19]} 46. Qf3 {[%clk 0:40:37]} Qc7
{[%clk 0:33:40]} 47. Ne2 {[%clk 0:30:29]} Rb8 {[%clk 0:31:32]} 48. Qe4
{[%clk 0:26:17]} Rd8 {[%clk 0:26:04]} 49. Nc3 {[%clk 0:22:59]} Nf8
{[%clk 0:14:48]} 50. Kg2 {[%clk 0:20:25]} *

[Event "No Logo Norway Chess 2014"]
[Site "?"]
[Date "2014.06.10"]
[Round "7.2"]
[White "Caruana, Fabiano"]
[Black "Topalov, Veselin"]
[Result "*"]
[LiveChessVersion "1.4.2"]
[BlackElo "2772"]
[WhiteElo "2791"]
[ECO "B90"]

1. e4 {[%clk 1:59:58]} c5 {[%clk 1:59:56]} 2. Nf3 {[%clk 1:59:52]} d6
{[%clk 1:59:52]} 3. d4 {[%clk 1:59:47]} cxd4 {[%clk 1:59:47]} 4. Nxd4
{[%clk 1:59:41]} Nf6 {[%clk 1:59:42]} 5. Nc3 {[%clk 1:59:37]} a6 {[%clk 1:59:37]}
6. f3 {[%clk 1:59:26]} e6 {[%clk 1:59:04]} 7. Be3 {[%clk 1:58:45]} b5
{[%clk 1:58:54]} 8. Qd2 {[%clk 1:57:13]} b4 {[%clk 1:57:12]} 9. Na4
{[%clk 1:52:02]} Nbd7 {[%clk 1:56:53]} 10. O-O-O {[%clk 1:51:05]} Qa5
{[%clk 1:56:46]} 11. b3 {[%clk 1:50:59]} Bb7 {[%clk 1:56:42]} 12. a3
{[%clk 1:49:41]} Qc7 {[%clk 1:56:05]} 13. axb4 {[%clk 1:49:29]} d5
{[%clk 1:55:52]} 14. b5 {[%clk 1:47:06]} e5 {[%clk 1:42:54]} 15. bxa6
{[%clk 1:18:25]} Bxa6 {[%clk 1:42:17]} 16. Nb5 {[%clk 1:17:47]} Bxb5
{[%clk 1:36:20]} 17. Bxb5 {[%clk 1:17:14]} d4 {[%clk 1:36:04]} 18. Bxd4
{[%clk 0:52:26]} exd4 {[%clk 1:35:58]} 19. Qxd4 {[%clk 0:52:20]} Ra5
{[%clk 1:22:43]} 20. Qd3 {[%clk 0:30:53]} Ba3+ {[%clk 1:07:40]} 21. Kb1
{[%clk 0:30:48]} Ke7 {[%clk 1:07:10]} 22. Bxd7 {[%clk 0:15:23]} Nxd7
{[%clk 1:06:36]} 23. Nc3 {[%clk 0:12:18]} Ne5 {[%clk 1:05:34]} 24. Nd5+
{[%clk 0:09:44]} Rxd5 {[%clk 1:05:18]} 25. Qxd5 {[%clk 0:09:40]} Rc8
{[%clk 1:04:55]} 26. c4 {[%clk 0:09:11]} Bc5 {[%clk 0:52:45]} 27. f4
{[%clk 0:07:16]} Ng6 {[%clk 0:52:37]} 28. g3 {[%clk 0:06:12]} Ke8
{[%clk 0:31:50]} 29. Rd3 {[%clk 0:04:42]} Ne7 {[%clk 0:26:09]} 30. Qe5
{[%clk 0:03:47]} Qxe5 {[%clk 0:25:59]} 31. fxe5 {[%clk 0:03:44]} Nc6
{[%clk 0:25:42]} 32. Rhd1 {[%clk 0:02:21]} Nxe5 {[%clk 0:19:33]} 33. Rd5
{[%clk 0:02:18]} f6 {[%clk 0:19:27]} 34. Kb2 {[%clk 0:02:00]} Ke7
{[%clk 0:11:59]} 35. Kc3 {[%clk 0:01:47]} Bf2 {[%clk 0:11:38]} 36. Ra1
{[%clk 0:01:15]} Rc7 {[%clk 0:11:27]} 37. Ra2 {[%clk 0:01:01]} Be1+
{[%clk 0:11:17]} 38. Kb2 {[%clk 0:00:42]} Nc6 {[%clk 0:09:16]} 39. Ra1
{[%clk 1:00:36]} Bb4 {[%clk 0:07:55]} 40. Ra8 {[%clk 1:00:09]} Bd6
{[%clk 1:05:53]} 41. Ra6 {[%clk 0:48:36]} Be5+ {[%clk 1:05:32]} 42. Ka3
{[%clk 0:48:28]} Nb8 {[%clk 0:55:50]} 43. Raa5 {[%clk 0:35:06]} Nc6
{[%clk 0:54:21]} 44. Ra4 {[%clk 0:29:40]} Nd4 {[%clk 0:53:25]} 45. Rda5
{[%clk 0:25:19]} Bd6+ {[%clk 0:44:40]} 46. Kb2 {[%clk 0:23:41]} Be5
{[%clk 0:42:45]} 47. Ka3 {[%clk 0:22:50]} Nc2+ {[%clk 0:42:32]} 48. Ka2
{[%clk 0:22:46]} Bd4 {[%clk 0:42:16]} 49. Rd5 {[%clk 0:18:12]} Bc3
{[%clk 0:38:13]} 50. Kb1 {[%clk 0:18:01]} Nb4 {[%clk 0:35:58]} 51. Rb5
{[%clk 0:16:39]} Nc6 {[%clk 0:35:37]} 52. Rc5 {[%clk 0:15:18]} Bd4
{[%clk 0:34:30]} 53. Rd5 {[%clk 0:14:34]} Bg1 {[%clk 0:33:32]} 54. b4
{[%clk 0:12:42]} Ne5 {[%clk 0:28:22]} 55. c5 {[%clk 0:12:38]} Rb7
{[%clk 0:25:52]} 56. Kc2 {[%clk 0:11:45]} Bxh2 {[%clk 0:25:37]} *

[Event "No Logo Norway Chess 2014"]
[Site "?"]
[Date "2014.06.10"]
[Round "7.3"]
[White "Carlsen, Magnus"]
[Black "Grischuk, Alexander"]
[Result "*"]
[LiveChessVersion "1.4.2"]
[BlackElo "2792"]
[WhiteElo "2881"]
[ECO "D91"]

1. d4 {[%clk 1:58:59]} Nf6 {[%clk 1:59:45]} 2. c4 {[%clk 1:58:22]} g6
{[%clk 1:59:37]} 3. Nc3 {[%clk 1:55:28]} d5 {[%clk 1:58:04]} 4. Nf3
{[%clk 1:55:01]} Bg7 {[%clk 1:57:58]} 5. Bg5 {[%clk 1:54:55]} Ne4
{[%clk 1:56:52]} 6. Bf4 {[%clk 1:54:44]} Nxc3 {[%clk 1:50:04]} 7. bxc3
{[%clk 1:53:59]} c5 {[%clk 1:48:54]} 8. cxd5 {[%clk 1:53:32]} cxd4
{[%clk 1:46:32]} 9. cxd4 {[%clk 1:53:22]} Qxd5 {[%clk 1:46:25]} 10. e3
{[%clk 1:53:13]} O-O {[%clk 1:45:18]} 11. Be2 {[%clk 1:52:24]} Nc6
{[%clk 1:42:04]} 12. O-O {[%clk 1:52:16]} Bf5 {[%clk 1:41:56]} 13. Qa4
{[%clk 1:30:49]} Qa5 {[%clk 1:17:34]} 14. Qxa5 {[%clk 1:30:00]} Nxa5
{[%clk 1:17:28]} 15. Rfc1 {[%clk 1:29:47]} Rfc8 {[%clk 1:04:36]} 16. Nd2
{[%clk 1:29:13]} Rxc1+ {[%clk 1:02:18]} 17. Rxc1 {[%clk 1:29:12]} Rc8
{[%clk 1:02:09]} 18. Rxc8+ {[%clk 1:27:18]} Bxc8 {[%clk 1:00:27]} 19. Bf3
{[%clk 1:24:26]} Nc6 {[%clk 0:56:37]} 20. Bc7 {[%clk 1:21:04]} Kf8
{[%clk 0:46:07]} 21. Nb3 {[%clk 1:18:17]} Ke8 {[%clk 0:35:38]} 22. Nc5
{[%clk 1:16:39]} e6 {[%clk 0:30:32]} 23. Bxc6+ {[%clk 1:10:31]} bxc6
{[%clk 0:30:13]} 24. Bb8 {[%clk 1:10:24]} a6 {[%clk 0:26:27]} 25. Bd6
{[%clk 1:10:07]} Bf6 {[%clk 0:19:56]} 26. Kf1 {[%clk 1:09:09]} Bd8
{[%clk 0:16:10]} 27. Ke2 {[%clk 1:07:52]} Bb6 {[%clk 0:12:39]} 28. Na4
{[%clk 1:02:15]} Bd8 {[%clk 0:10:53]} 29. Nc5 {[%clk 0:58:25]} Bb6
{[%clk 0:10:52]} 30. Ne4 {[%clk 0:58:09]} Kd7 {[%clk 0:08:34]} 31. Be5
{[%clk 0:57:11]} Bd8 {[%clk 0:05:03]} 32. Bf6 {[%clk 0:56:24]} Bb6
{[%clk 0:02:11]} 33. Ng5 {[%clk 0:54:12]} c5 {[%clk 0:02:07]} 34. Nxh7
{[%clk 0:48:57]} Bb7 {[%clk 0:01:59]} 35. g4 {[%clk 0:47:43]} Bd5
{[%clk 0:01:32]} 36. a3 {[%clk 0:47:19]} Bc4+ {[%clk 0:00:30]} 37. Kd1
{[%clk 0:42:43]} Bd5 {[%clk 0:00:28]} 38. Ng5 {[%clk 0:40:57]} cxd4
{[%clk 0:00:26]} 39. Bxd4 {[%clk 0:38:37]} Bxd4 {[%clk 0:00:15]} 40. exd4
{[%clk 1:38:31]} f6 {[%clk 1:00:14]} 41. Nh7 {[%clk 1:37:55]} Ke7
{[%clk 0:59:27]} 42. g5 {[%clk 1:34:10]} fxg5 {[%clk 0:55:19]} 43. Kd2
{[%clk 1:32:46]} e5 {[%clk 0:54:20]} 44. Ke3 {[%clk 1:28:03]} Ke6
{[%clk 0:52:37]} 45. Nf8+ {[%clk 1:19:04]} Kf5 {[%clk 0:46:40]} 46. dxe5
{[%clk 1:18:51]} Kxe5 {[%clk 0:46:28]} 47. Nxg6+ {[%clk 1:18:42]} Kf6
{[%clk 0:45:36]} 48. Kd4 {[%clk 1:13:57]} Bg2 {[%clk 0:40:59]} 49. Ne5
{[%clk 1:13:45]} Kf5 {[%clk 0:40:49]} 50. Nd3 {[%clk 1:11:09]} Kg4
{[%clk 0:26:25]} 51. Ke3 {[%clk 1:04:44]} Kh3 {[%clk 0:12:44]} 52. Nc5
{[%clk 1:02:31]} a5 {[%clk 0:12:10]} 53. f3 {[%clk 0:54:55]} g4 {[%clk 0:08:51]}
54. fxg4 {[%clk 0:54:33]} Kxg4 {[%clk 0:08:49]} 55. Nb3 {[%clk 0:52:04]} a4
{[%clk 0:08:42]} 56. Nc5 {[%clk 0:51:51]} Bc6 {[%clk 0:08:33]} 57. Kf2
{[%clk 0:43:24]} Kh3 {[%clk 0:08:15]} 58. Kg1 {[%clk 0:43:19]} Kg4
{[%clk 0:07:04]} 59. Nd3 {[%clk 0:43:14]} Bb5 {[%clk 0:06:22]} 60. Nb4
{[%clk 0:57:08]} Kh3 {[%clk 0:21:16]} 61. Na2 {[%clk 0:55:36]} Be8
{[%clk 0:18:56]} 62. Nc3 {[%clk 0:55:59]} Kg4 {[%clk 0:17:09]} 63. Nd1
{[%clk 0:55:24]} Bb5 {[%clk 0:16:30]} 64. Nf2+ {[%clk 0:55:12]} Kf3
{[%clk 0:16:41]} 65. h4 {[%clk 0:55:28]} Be8 {[%clk 0:16:57]} 66. Nd1
{[%clk 0:55:45]} Kg3 {[%clk 0:17:13]} 67. Nc3 {[%clk 0:56:05]} Kxh4
{[%clk 0:17:36]} 68. Kf2 {[%clk 0:56:27]} Kg4 *

[Event "No Logo Norway Chess 2014"]
[Site "?"]
[Date "2014.06.10"]
[Round "7.4"]
[White "Kramnik, Vladimir"]
[Black "Aronian, Levon"]
[Result "*"]
[LiveChessVersion "1.4.2"]
[BlackElo "2815"]
[WhiteElo "2783"]
[ECO "D38"]

1. d4 {[%clk 1:59:59]} Nf6 {[%clk 1:59:56]} 2. c4 {[%clk 1:59:50]} e6
{[%clk 1:59:52]} 3. Nf3 {[%clk 1:59:47]} d5 {[%clk 1:59:46]} 4. Nc3
{[%clk 1:59:43]} Bb4 {[%clk 1:59:40]} 5. cxd5 {[%clk 1:59:24]} exd5
{[%clk 1:59:35]} 6. Qa4+ {[%clk 1:59:04]} Nc6 {[%clk 1:59:26]} 7. Bg5
{[%clk 1:59:02]} h6 {[%clk 1:59:05]} 8. Bxf6 {[%clk 1:58:57]} Qxf6
{[%clk 1:59:00]} 9. e3 {[%clk 1:58:53]} O-O {[%clk 1:58:44]} 10. Be2
{[%clk 1:58:51]} Rd8 {[%clk 1:53:03]} 11. O-O {[%clk 1:58:24]} Bf8
{[%clk 1:52:52]} 12. Rfc1 {[%clk 1:57:59]} Ne7 {[%clk 1:49:56]} 13. b4
{[%clk 1:57:09]} a6 {[%clk 1:42:43]} 14. Qb3 {[%clk 1:52:42]} c6 {[%clk 1:34:54]}
15. Na4 {[%clk 1:49:57]} Bg4 {[%clk 1:26:15]} 16. Nc5 {[%clk 1:46:22]} Ra7
{[%clk 1:26:10]} 17. a4 {[%clk 1:34:34]} Nc8 {[%clk 1:20:04]} 18. Ra2
{[%clk 1:31:36]} Bxf3 {[%clk 1:09:59]} 19. Bxf3 {[%clk 1:30:00]} Nb6
{[%clk 1:09:51]} 20. Be2 {[%clk 1:24:28]} g6 {[%clk 1:05:00]} 21. g3
{[%clk 1:22:59]} h5 {[%clk 0:59:11]} 22. h4 {[%clk 1:20:32]} Nd7 {[%clk 0:50:54]}
23. Nxd7 {[%clk 1:06:25]} Rxd7 {[%clk 0:50:48]} 24. b5 {[%clk 1:06:16]} axb5
{[%clk 0:48:56]} 25. axb5 {[%clk 1:05:41]} Rxa2 {[%clk 0:48:54]} 26. Qxa2
{[%clk 1:05:32]} Rc7 {[%clk 0:43:36]} 27. Qa8 {[%clk 0:45:50]} Qd6
{[%clk 0:36:02]} 28. Qb8 {[%clk 0:39:36]} Qd7 {[%clk 0:30:48]} 29. Bf1
{[%clk 0:38:48]} Kg7 {[%clk 0:18:13]} 30. Bh3 {[%clk 0:35:15]} f5
{[%clk 0:18:12]} 31. Ra1 {[%clk 0:26:31]} Rc8 {[%clk 0:18:01]} 32. Qe5+
{[%clk 0:21:36]} Kf7 {[%clk 0:17:56]} 33. bxc6 {[%clk 0:15:16]} bxc6
{[%clk 0:17:38]} 34. Qf4 {[%clk 0:15:07]} Bd6 {[%clk 0:16:16]} 35. Qh6
{[%clk 0:14:35]} Bf8 {[%clk 0:15:35]} 36. Qf4 {[%clk 0:14:23]} Bd6
{[%clk 0:15:30]} 37. Qf3 {[%clk 0:14:14]} Kg7 {[%clk 0:15:17]} 38. Qe2
{[%clk 0:11:25]} Rc7 {[%clk 0:10:34]} 39. Qa2 {[%clk 0:09:29]} Be7
{[%clk 0:05:23]} 40. Qb3 {[%clk 1:05:09]} Rb7 {[%clk 1:03:58]} 41. Qc3
{[%clk 1:03:53]} Bb4 {[%clk 1:00:24]} 42. Qc2 {[%clk 0:55:41]} Be7
{[%clk 0:59:22]} 43. Ra6 {[%clk 0:52:46]} Rc7 {[%clk 0:58:43]} 44. Bg2
{[%clk 0:51:03]} Qd6 {[%clk 0:51:07]} 45. Bf3 {[%clk 0:49:35]} Qd7
{[%clk 0:47:56]} 46. Kg2 {[%clk 0:46:53]} Bf6 {[%clk 0:44:01]} 47. Qc5
{[%clk 0:43:36]} Be7 {[%clk 0:33:51]} 48. Qb6 {[%clk 0:42:07]} Bd8
{[%clk 0:33:23]} 49. Bd1 {[%clk 0:39:53]} Rc8 {[%clk 0:28:56]} 50. Qb2
{[%clk 0:35:09]} Rc7 {[%clk 0:22:32]} 51. Ba4 {[%clk 0:26:36]} f4
{[%clk 0:22:21]} 52. exf4 {[%clk 0:24:21]} Bxh4 {[%clk 0:22:17]} 53. Qb8
{[%clk 0:16:03]} Qd8 {[%clk 0:21:10]} *

[Event "No Logo Norway Chess 2014"]
[Site "?"]
[Date "2014.06.10"]
[Round "7.5"]
[White "Svidler, Peter"]
[Black "Agdestein, Simen"]
[Result "1/2-1/2"]
[LiveChessVersion "1.4.2"]
[BlackElo "2628"]
[WhiteElo "2753"]
[ECO "A05"]

1. Nf3 {[%clk 1:59:58]} Nf6 {[%clk 1:59:46]} 2. g3 {[%clk 1:59:28]} d5
{[%clk 1:58:44]} 3. Bg2 {[%clk 1:58:59]} c6 {[%clk 1:58:13]} 4. d3
{[%clk 1:56:07]} Bg4 {[%clk 1:56:22]} 5. Nbd2 {[%clk 1:54:32]} Nbd7
{[%clk 1:54:27]} 6. h3 {[%clk 1:53:54]} Bh5 {[%clk 1:51:33]} 7. g4
{[%clk 1:53:12]} Bg6 {[%clk 1:51:29]} 8. Nh4 {[%clk 1:53:06]} e5 {[%clk 1:49:36]}
9. e3 {[%clk 1:47:54]} Bd6 {[%clk 1:45:08]} 10. Qe2 {[%clk 1:38:31]} Qe7
{[%clk 1:37:17]} 11. c4 {[%clk 1:31:13]} dxc4 {[%clk 1:31:24]} 12. Nxc4
{[%clk 1:30:40]} Bb4+ {[%clk 1:20:56]} 13. Kf1 {[%clk 1:30:05]} Nb6
{[%clk 1:18:11]} 14. Nxg6 {[%clk 1:21:17]} hxg6 {[%clk 1:17:56]} 15. g5
{[%clk 1:20:09]} Nh5 {[%clk 1:07:57]} 16. Qg4 {[%clk 1:17:22]} O-O
{[%clk 1:03:51]} 17. Nxb6 {[%clk 0:52:02]} axb6 {[%clk 1:03:33]} 18. Be4
{[%clk 0:51:57]} b5 {[%clk 0:55:33]} 19. Rg1 {[%clk 0:50:12]} Bc5
{[%clk 0:46:44]} 20. Qd1 {[%clk 0:41:08]} Qe6 {[%clk 0:42:10]} 21. Qg4
{[%clk 0:40:50]} Qe7 {[%clk 0:37:43]} 22. Qd1 {[%clk 0:40:39]} Qe6
{[%clk 0:35:11]} 23. Qg4 {[%clk 0:40:16]} 1/2-1/2

