[Event "No Logo Norway Chess 2014"]
[Site "?"]
[Date "2014.06.10"]
[Round "7.1"]
[White "Giri, Anish"]
[Black "Karjakin, Sergey"]
[Result "*"]
[LiveChessVersion "1.4.2"]
[BlackElo "2771"]
[WhiteElo "2752"]
[ECO "A35"]

1. Nf3 {[%clk 1:59:59]} Nf6 {[%clk 1:59:49]} 2. c4 {[%clk 1:59:50]} c5
{[%clk 1:59:29]} 3. Nc3 {[%clk 1:59:06]} Nc6 {[%clk 1:59:21]} 4. g3
{[%clk 1:58:06]} d5 {[%clk 1:59:13]} 5. cxd5 {[%clk 1:57:23]} Nxd5
{[%clk 1:59:06]} 6. Bg2 {[%clk 1:57:20]} Nc7 {[%clk 1:58:53]} 7. a3
{[%clk 1:56:27]} g6 {[%clk 1:58:38]} 8. h4 {[%clk 1:56:22]} h6 {[%clk 1:58:30]}
9. d3 {[%clk 1:55:51]} Bg7 {[%clk 1:58:07]} 10. Be3 {[%clk 1:55:02]} Ne6
{[%clk 1:56:54]} 11. O-O {[%clk 1:48:03]} O-O {[%clk 1:45:11]} 12. Na4
{[%clk 1:43:11]} Ncd4 {[%clk 1:22:04]} 13. Rc1 {[%clk 1:33:09]} Qd6
{[%clk 1:08:54]} 14. Nd2 {[%clk 1:31:33]} Bd7 {[%clk 1:06:04]} 15. Bxd4
{[%clk 1:26:34]} Qxd4 {[%clk 0:47:19]} 16. Nc3 {[%clk 1:24:56]} Rab8
{[%clk 0:43:50]} 17. Nc4 {[%clk 1:22:36]} Bc6 {[%clk 0:34:21]} 18. Bxc6
{[%clk 1:20:58]} bxc6 {[%clk 0:34:19]} *

[Event "No Logo Norway Chess 2014"]
[Site "?"]
[Date "2014.06.10"]
[Round "7.2"]
[White "Caruana, Fabiano"]
[Black "Topalov, Veselin"]
[Result "*"]
[LiveChessVersion "1.4.2"]
[BlackElo "2772"]
[WhiteElo "2791"]
[ECO "B90"]

1. e4 {[%clk 1:59:58]} c5 {[%clk 1:59:56]} 2. Nf3 {[%clk 1:59:52]} d6
{[%clk 1:59:52]} 3. d4 {[%clk 1:59:47]} cxd4 {[%clk 1:59:47]} 4. Nxd4
{[%clk 1:59:41]} Nf6 {[%clk 1:59:42]} 5. Nc3 {[%clk 1:59:37]} a6 {[%clk 1:59:37]}
6. f3 {[%clk 1:59:26]} e6 {[%clk 1:59:04]} 7. Be3 {[%clk 1:58:45]} b5
{[%clk 1:58:54]} 8. Qd2 {[%clk 1:57:13]} b4 {[%clk 1:57:12]} 9. Na4
{[%clk 1:52:02]} Nbd7 {[%clk 1:56:53]} 10. O-O-O {[%clk 1:51:05]} Qa5
{[%clk 1:56:46]} 11. b3 {[%clk 1:50:59]} Bb7 {[%clk 1:56:42]} 12. a3
{[%clk 1:49:41]} Qc7 {[%clk 1:56:05]} 13. axb4 {[%clk 1:49:29]} d5
{[%clk 1:55:52]} 14. b5 {[%clk 1:47:06]} e5 {[%clk 1:42:54]} 15. bxa6
{[%clk 1:18:25]} Bxa6 {[%clk 1:42:17]} 16. Nb5 {[%clk 1:17:47]} Bxb5
{[%clk 1:36:20]} 17. Bxb5 {[%clk 1:17:14]} d4 {[%clk 1:36:04]} 18. Bxd4
{[%clk 0:52:26]} exd4 {[%clk 1:35:58]} 19. Qxd4 {[%clk 0:52:20]} Ra5
{[%clk 1:22:43]} 20. Qd3 {[%clk 0:30:53]} *

[Event "No Logo Norway Chess 2014"]
[Site "?"]
[Date "2014.06.10"]
[Round "7.3"]
[White "Carlsen, Magnus"]
[Black "Grischuk, Alexander"]
[Result "*"]
[LiveChessVersion "1.4.2"]
[BlackElo "2792"]
[WhiteElo "2881"]
[ECO "D91"]

1. d4 {[%clk 1:58:59]} Nf6 {[%clk 1:59:45]} 2. c4 {[%clk 1:58:22]} g6
{[%clk 1:59:37]} 3. Nc3 {[%clk 1:55:28]} d5 {[%clk 1:58:04]} 4. Nf3
{[%clk 1:55:01]} Bg7 {[%clk 1:57:58]} 5. Bg5 {[%clk 1:54:55]} Ne4
{[%clk 1:56:52]} 6. Bf4 {[%clk 1:54:44]} Nxc3 {[%clk 1:50:04]} 7. bxc3
{[%clk 1:53:59]} c5 {[%clk 1:48:54]} 8. cxd5 {[%clk 1:53:32]} cxd4
{[%clk 1:46:32]} 9. cxd4 {[%clk 1:53:22]} Qxd5 {[%clk 1:46:25]} 10. e3
{[%clk 1:53:13]} O-O {[%clk 1:45:18]} 11. Be2 {[%clk 1:52:24]} Nc6
{[%clk 1:42:04]} 12. O-O {[%clk 1:52:16]} Bf5 {[%clk 1:41:56]} 13. Qa4
{[%clk 1:30:49]} Qa5 {[%clk 1:17:34]} 14. Qxa5 {[%clk 1:30:00]} Nxa5
{[%clk 1:17:28]} 15. Rfc1 {[%clk 1:29:47]} Rfc8 {[%clk 1:04:36]} 16. Nd2
{[%clk 1:29:13]} Rxc1+ {[%clk 1:02:18]} 17. Rxc1 {[%clk 1:29:12]} Rc8
{[%clk 1:02:09]} 18. Rxc8+ {[%clk 1:27:18]} Bxc8 {[%clk 1:00:27]} 19. Bf3
{[%clk 1:24:26]} Nc6 {[%clk 0:56:37]} 20. Bc7 {[%clk 1:21:04]} Kf8
{[%clk 0:46:07]} 21. Nb3 {[%clk 1:18:17]} Ke8 {[%clk 0:35:38]} 22. Nc5
{[%clk 1:16:39]} *

[Event "No Logo Norway Chess 2014"]
[Site "?"]
[Date "2014.06.10"]
[Round "7.4"]
[White "Kramnik, Vladimir"]
[Black "Aronian, Levon"]
[Result "*"]
[LiveChessVersion "1.4.2"]
[BlackElo "2815"]
[WhiteElo "2783"]
[ECO "D38"]

1. d4 {[%clk 1:59:59]} Nf6 {[%clk 1:59:56]} 2. c4 {[%clk 1:59:50]} e6
{[%clk 1:59:52]} 3. Nf3 {[%clk 1:59:47]} d5 {[%clk 1:59:46]} 4. Nc3
{[%clk 1:59:43]} Bb4 {[%clk 1:59:40]} 5. cxd5 {[%clk 1:59:24]} exd5
{[%clk 1:59:35]} 6. Qa4+ {[%clk 1:59:04]} Nc6 {[%clk 1:59:26]} 7. Bg5
{[%clk 1:59:02]} h6 {[%clk 1:59:05]} 8. Bxf6 {[%clk 1:58:57]} Qxf6
{[%clk 1:59:00]} 9. e3 {[%clk 1:58:53]} O-O {[%clk 1:58:44]} 10. Be2
{[%clk 1:58:51]} Rd8 {[%clk 1:53:03]} 11. O-O {[%clk 1:58:24]} Bf8
{[%clk 1:52:52]} 12. Rfc1 {[%clk 1:57:59]} Ne7 {[%clk 1:49:56]} 13. b4
{[%clk 1:57:09]} a6 {[%clk 1:42:43]} 14. Qb3 {[%clk 1:52:42]} c6 {[%clk 1:34:54]}
15. Na4 {[%clk 1:49:57]} Bg4 {[%clk 1:26:15]} 16. Nc5 {[%clk 1:46:22]} Ra7
{[%clk 1:26:10]} 17. a4 {[%clk 1:34:34]} Nc8 {[%clk 1:20:04]} 18. Ra2
{[%clk 1:31:36]} Bxf3 {[%clk 1:09:59]} 19. Bxf3 {[%clk 1:30:00]} Nb6
{[%clk 1:09:51]} 20. Be2 {[%clk 1:24:28]} g6 {[%clk 1:05:00]} 21. g3
{[%clk 1:22:59]} h5 {[%clk 0:59:11]} 22. h4 {[%clk 1:20:32]} Nd7 {[%clk 0:50:54]}
23. Nxd7 {[%clk 1:06:25]} Rxd7 {[%clk 0:50:48]} 24. b5 {[%clk 1:06:16]} axb5
{[%clk 0:48:56]} 25. axb5 {[%clk 1:05:41]} Rxa2 {[%clk 0:48:54]} 26. Qxa2
{[%clk 1:05:32]} *

[Event "No Logo Norway Chess 2014"]
[Site "?"]
[Date "2014.06.10"]
[Round "7.5"]
[White "Svidler, Peter"]
[Black "Agdestein, Simen"]
[Result "*"]
[LiveChessVersion "1.4.2"]
[BlackElo "2628"]
[WhiteElo "2753"]
[ECO "A05"]

1. Nf3 {[%clk 1:59:58]} Nf6 {[%clk 1:59:46]} 2. g3 {[%clk 1:59:28]} d5
{[%clk 1:58:44]} 3. Bg2 {[%clk 1:58:59]} c6 {[%clk 1:58:13]} 4. d3
{[%clk 1:56:07]} Bg4 {[%clk 1:56:22]} 5. Nbd2 {[%clk 1:54:32]} Nbd7
{[%clk 1:54:27]} 6. h3 {[%clk 1:53:54]} Bh5 {[%clk 1:51:33]} 7. g4
{[%clk 1:53:12]} Bg6 {[%clk 1:51:29]} 8. Nh4 {[%clk 1:53:06]} e5 {[%clk 1:49:36]}
9. e3 {[%clk 1:47:54]} Bd6 {[%clk 1:45:08]} 10. Qe2 {[%clk 1:38:31]} Qe7
{[%clk 1:37:17]} 11. c4 {[%clk 1:31:13]} dxc4 {[%clk 1:31:24]} 12. Nxc4
{[%clk 1:30:40]} Bb4+ {[%clk 1:20:56]} 13. Kf1 {[%clk 1:30:05]} Nb6
{[%clk 1:18:11]} 14. Nxg6 {[%clk 1:21:17]} hxg6 {[%clk 1:17:56]} 15. g5
{[%clk 1:20:09]} Nh5 {[%clk 1:07:57]} 16. Qg4 {[%clk 1:17:22]} O-O
{[%clk 1:03:51]} 17. Nxb6 {[%clk 0:52:02]} axb6 {[%clk 1:03:33]} 18. Be4
{[%clk 0:51:57]} *

