[Event "Copenhagen Chess Challenge 2014"]
[Site "?"]
[Date "2014.05.17"]
[Round "7.1"]
[White "Fries-Nielsen, Jens Ove"]
[Black "Ziska, Helgi Dam"]
[Result "1/2-1/2"]
[LiveChessVersion "1.4.2"]
[BlackElo "2491"]
[WhiteElo "2384"]
[ECO "A45"]

1. d4 {[%clk 1:28:54]} Nf6 {[%clk 1:30:16]} 2. Nc3 {[%clk 1:26:25]} d5
{[%clk 1:30:07]} 3. Bf4 {[%clk 1:25:39]} g6 {[%clk 1:29:29]} 4. e3
{[%clk 1:23:54]} Bg7 {[%clk 1:29:21]} 5. Nb5 {[%clk 1:22:16]} Na6
{[%clk 1:28:57]} 6. Nc3 {[%clk 1:22:20]} Nb8 {[%clk 1:26:59]} 7. Nb5
{[%clk 1:22:31]} Na6 {[%clk 1:27:02]} 8. Nc3 {[%clk 1:22:53]} Nb8
{[%clk 1:25:26]} 1/2-1/2

[Event "Copenhagen Chess Challenge 2014"]
[Site "?"]
[Date "2014.05.17"]
[Round "7.2"]
[White "Mikkelsen, Nikolaj"]
[Black "Semcesen, Daniel"]
[Result "*"]
[LiveChessVersion "1.4.2"]
[BlackElo "2513"]
[WhiteElo "2430"]
[ECO "C42"]

1. e4 {[%clk 1:30:57]} e5 {[%clk 1:29:39]} 2. Nf3 {[%clk 1:31:20]} Nf6
{[%clk 1:28:50]} 3. Nxe5 {[%clk 1:31:33]} d6 {[%clk 1:29:11]} 4. Nf3
{[%clk 1:31:59]} Nxe4 {[%clk 1:29:32]} 5. Bd3 {[%clk 1:31:38]} Nf6
{[%clk 1:28:20]} 6. O-O {[%clk 1:31:38]} Be7 {[%clk 1:28:41]} 7. c3
{[%clk 1:31:01]} O-O {[%clk 1:28:31]} 8. h3 {[%clk 1:29:30]} Re8 {[%clk 1:28:37]}
9. Re1 {[%clk 1:22:46]} Nbd7 {[%clk 1:22:31]} 10. Bc2 {[%clk 1:22:48]} d5
{[%clk 1:22:27]} 11. d4 {[%clk 1:22:50]} Bd6 {[%clk 1:22:36]} 12. Nbd2
{[%clk 1:13:54]} c6 {[%clk 1:18:41]} 13. Nf1 {[%clk 0:53:09]} Ne4
{[%clk 1:11:14]} 14. Ng5 {[%clk 0:53:29]} Nxg5 {[%clk 0:54:36]} 15. Rxe8+
{[%clk 0:52:06]} Qxe8 {[%clk 0:54:54]} 16. Bxg5 {[%clk 0:52:32]} f6
{[%clk 0:53:36]} 17. Bh4 {[%clk 0:51:41]} Nf8 {[%clk 0:52:28]} 18. Bg3
{[%clk 0:49:53]} Bxg3 {[%clk 0:46:22]} 19. Nxg3 {[%clk 0:50:17]} Bd7
{[%clk 0:46:20]} 20. Qd2 {[%clk 0:42:50]} Qf7 {[%clk 0:43:14]} 21. Re1
{[%clk 0:41:43]} Re8 {[%clk 0:42:58]} 22. Rxe8 {[%clk 0:35:52]} Qxe8
{[%clk 0:41:18]} 23. Kf1 {[%clk 0:36:01]} Be6 {[%clk 0:39:49]} 24. Qf4
{[%clk 0:35:44]} Qd8 {[%clk 0:37:12]} 25. h4 {[%clk 0:30:20]} Qb6
{[%clk 0:35:43]} 26. Bb3 {[%clk 0:30:04]} Qd8 {[%clk 0:35:24]} 27. Bc2
{[%clk 0:29:11]} Qb6 {[%clk 0:35:45]} 28. Bb3 {[%clk 0:29:32]} Qd8
{[%clk 0:36:06]} 29. h5 {[%clk 0:25:57]} g6 {[%clk 0:32:37]} 30. hxg6
{[%clk 0:25:50]} hxg6 {[%clk 0:32:40]} 31. Kg1 {[%clk 0:25:04]} Kg7
{[%clk 0:32:44]} 32. Bc2 {[%clk 0:24:56]} Qe7 {[%clk 0:26:58]} 33. Nf1
{[%clk 0:24:45]} Qd7 {[%clk 0:25:16]} 34. Ne3 {[%clk 0:25:07]} Qc8
{[%clk 0:25:02]} 35. Qg3 {[%clk 0:23:05]} Qd7 {[%clk 0:24:59]} 36. Bd3
{[%clk 0:22:46]} Qc8 {[%clk 0:24:28]} 37. Kf1 {[%clk 0:21:00]} Qd7
{[%clk 0:24:02]} 38. Ke1 {[%clk 0:21:16]} Kf7 {[%clk 0:21:37]} 39. Qh4
{[%clk 0:20:45]} Ke7 {[%clk 0:19:00]} 40. Kd2 {[%clk 0:20:00]} Qe8
{[%clk 0:18:29]} 41. Qh2 {[%clk 0:18:18]} Kd7 {[%clk 0:17:29]} 42. Qf4
{[%clk 0:17:43]} Ke7 {[%clk 0:14:18]} 43. Qc7+ {[%clk 0:17:22]} Qd7
{[%clk 0:14:35]} 44. Qb8 {[%clk 0:17:36]} a6 {[%clk 0:14:49]} 45. Qh2
{[%clk 0:17:48]} Qe8 {[%clk 0:13:52]} 46. Qh4 {[%clk 0:16:35]} Qf7
{[%clk 0:13:56]} 47. a4 {[%clk 0:16:10]} Kd7 {[%clk 0:13:35]} *

[Event "Copenhagen Chess Challenge 2014"]
[Site "?"]
[Date "2014.05.17"]
[Round "7.3"]
[White "Hoi, Carsten"]
[Black "Danielsen, Henrik"]
[Result "0-1"]
[LiveChessVersion "1.4.2"]
[BlackElo "2483"]
[WhiteElo "2397"]
[ECO "A41"]

1. d4 {[%clk 1:30:43]} d6 {[%clk 1:30:58]} 2. Nf3 {[%clk 1:29:41]} g6
{[%clk 1:28:28]} 3. c4 {[%clk 1:29:08]} Bg7 {[%clk 1:28:25]} 4. Nc3
{[%clk 1:28:33]} e5 {[%clk 1:27:51]} 5. e4 {[%clk 1:15:42]} Bg4 {[%clk 1:25:25]}
6. d5 {[%clk 1:15:11]} Nd7 {[%clk 1:25:44]} 7. Be2 {[%clk 1:13:39]} Bh6
{[%clk 1:25:50]} 8. Bxh6 {[%clk 1:05:59]} Nxh6 {[%clk 1:26:09]} 9. Nd2
{[%clk 1:04:22]} Bxe2 {[%clk 1:24:54]} 10. Qxe2 {[%clk 1:03:24]} f5
{[%clk 1:24:51]} 11. O-O-O {[%clk 0:53:57]} Qe7 {[%clk 1:19:06]} 12. Kb1
{[%clk 0:49:58]} Nf7 {[%clk 1:10:09]} 13. exf5 {[%clk 0:47:43]} gxf5
{[%clk 1:10:30]} 14. h3 {[%clk 0:47:45]} O-O-O {[%clk 1:02:10]} 15. Nb3
{[%clk 0:42:44]} Qg5 {[%clk 1:00:03]} 16. g3 {[%clk 0:37:46]} Kb8
{[%clk 0:58:27]} 17. Na5 {[%clk 0:35:55]} e4 {[%clk 0:52:41]} 18. Nb5
{[%clk 0:32:47]} Nfe5 {[%clk 0:50:10]} 19. h4 {[%clk 0:30:35]} Qh6
{[%clk 0:41:55]} 20. Nd4 {[%clk 0:20:11]} Rdf8 {[%clk 0:41:36]} 21. Qc2
{[%clk 0:17:46]} Qf6 {[%clk 0:37:24]} 22. Qb3 {[%clk 0:16:37]} Nc5
{[%clk 0:34:49]} 23. Qb4 {[%clk 0:14:36]} Re8 {[%clk 0:29:59]} 24. Nxb7
{[%clk 0:09:47]} Nxb7 {[%clk 0:29:36]} 25. Nc6+ {[%clk 0:10:09]} Ka8
{[%clk 0:29:36]} 26. Qa4 {[%clk 0:04:25]} Nxc6 {[%clk 0:29:50]} 27. Qxc6
{[%clk 0:04:51]} Qd8 {[%clk 0:28:37]} 28. Rhe1 {[%clk 0:04:26]} Re7
{[%clk 0:28:42]} 29. b4 {[%clk 0:04:30]} Qd7 {[%clk 0:28:49]} 30. Qa6
{[%clk 0:04:50]} Rb8 {[%clk 0:28:48]} 31. Kc1 {[%clk 0:04:05]} Nd8
{[%clk 0:28:58]} 0-1

[Event "Copenhagen Chess Challenge 2014"]
[Site "?"]
[Date "2014.05.17"]
[Round "7.4"]
[White "Haub, Thorsten Michael"]
[Black "Ochsner, Bjorn Moller"]
[Result "1/2-1/2"]
[LiveChessVersion "1.4.2"]
[BlackElo "2307"]
[WhiteElo "2441"]
[ECO "A00"]

1. g3 {[%clk 1:30:58]} c5 {[%clk 1:30:41]} 2. Bg2 {[%clk 1:31:22]} Nc6
{[%clk 1:31:05]} 3. e4 {[%clk 1:31:37]} g6 {[%clk 1:31:18]} 4. d3
{[%clk 1:31:46]} Bg7 {[%clk 1:31:43]} 5. Nf3 {[%clk 1:32:09]} d6 {[%clk 1:32:01]}
6. O-O {[%clk 1:32:27]} e5 {[%clk 1:32:24]} 7. c3 {[%clk 1:32:00]} Nge7
{[%clk 1:32:24]} 8. Nbd2 {[%clk 1:31:45]} O-O {[%clk 1:32:33]} 9. Nh4
{[%clk 1:32:07]} Kh8 {[%clk 1:26:21]} 10. f4 {[%clk 1:32:18]} exf4
{[%clk 1:19:21]} 11. gxf4 {[%clk 1:32:34]} f5 {[%clk 1:19:14]} 12. Ndf3
{[%clk 1:31:08]} d5 {[%clk 1:06:03]} 13. e5 {[%clk 1:30:19]} d4 {[%clk 1:03:26]}
14. c4 {[%clk 1:28:17]} Qd7 {[%clk 1:01:00]} 15. Bd2 {[%clk 1:24:22]} Rb8
{[%clk 0:57:25]} 16. a4 Nd8 {[%clk 0:48:14]} 17. Ng5 {[%clk 1:08:25]} b6
{[%clk 0:41:37]} 18. Qf3 {[%clk 1:03:39]} Bh6 {[%clk 0:39:21]} 19. Qg3
{[%clk 1:01:57]} Bxg5 {[%clk 0:31:45]} 20. Qxg5 {[%clk 1:01:46]} Ne6
{[%clk 0:31:55]} 21. Qg3 {[%clk 1:01:31]} Bb7 {[%clk 0:30:44]} 22. Nf3
{[%clk 0:59:35]} Bc6 {[%clk 0:28:20]} 23. Ng5 {[%clk 0:57:11]} Nxg5
{[%clk 0:22:51]} 24. Qxg5 {[%clk 0:57:26]} Bxg2 {[%clk 0:22:53]} 25. Qxg2
{[%clk 0:57:39]} a5 {[%clk 0:20:14]} 26. Rf3 {[%clk 0:55:43]} Qe6
{[%clk 0:19:33]} 27. Qg5 {[%clk 0:53:55]} Rf7 {[%clk 0:19:21]} 28. Rh3
{[%clk 0:52:54]} Ng8 {[%clk 0:17:16]} 29. Kf2 {[%clk 0:52:09]} Kg7
{[%clk 0:14:36]} 30. b3 {[%clk 0:50:55]} Kf8 {[%clk 0:12:59]} 31. Kf1
{[%clk 0:46:23]} Rg7 {[%clk 0:12:28]} 32. Qg2 {[%clk 0:45:42]} Rd7
{[%clk 0:11:35]} 33. Be1 {[%clk 0:43:43]} Rc8 {[%clk 0:11:04]} 34. Bh4
{[%clk 0:43:16]} Qc6 {[%clk 0:10:57]} 35. Rf3 {[%clk 0:41:10]} Re8
{[%clk 0:10:49]} 36. Kf2 {[%clk 0:41:11]} Re6 {[%clk 0:10:26]} 37. Rg1
{[%clk 0:40:36]} Nh6 {[%clk 0:09:35]} 38. h3 {[%clk 0:40:40]} Qb7
{[%clk 0:08:08]} 39. Qg3 {[%clk 0:40:32]} Qc6 {[%clk 0:07:58]} 40. Qg5
{[%clk 0:34:22]} Nf7 {[%clk 0:08:18]} 41. Qg2 {[%clk 0:34:46]} Nh6
{[%clk 0:08:38]} 42. Rg3 {[%clk 0:34:54]} Qxg2+ {[%clk 0:08:38]} 43. R3xg2
{[%clk 0:35:03]} Kf7 {[%clk 0:07:44]} 44. Kf3 {[%clk 0:34:44]} Ng8
{[%clk 0:07:32]} 45. Bg5 {[%clk 0:31:33]} Rb7 {[%clk 0:05:50]} 46. Bh4
{[%clk 0:30:07]} Rd7 {[%clk 0:06:16]} 47. Rg5 {[%clk 0:29:53]} Rb7
{[%clk 0:05:59]} 48. R5g2 {[%clk 0:28:28]} 1/2-1/2

[Event "Copenhagen Chess Challenge 2014"]
[Site "?"]
[Date "2014.05.17"]
[Round "7.5"]
[White "Korley, Kassa"]
[Black "Pedersen, Daniel Vesterbaek"]
[Result "*"]
[LiveChessVersion "1.4.2"]
[BlackElo "2244"]
[WhiteElo "2390"]
[ECO "A07"]

1. Nf3 {[%clk 1:30:56]} Nf6 {[%clk 1:30:31]} 2. g3 {[%clk 1:31:24]} d5
{[%clk 1:28:50]} 3. Bg2 {[%clk 1:31:49]} c6 {[%clk 1:23:29]} 4. O-O
{[%clk 1:32:13]} Bg4 {[%clk 1:23:03]} 5. c4 {[%clk 1:31:36]} e6 {[%clk 1:23:14]}
6. d3 {[%clk 1:29:53]} Nbd7 {[%clk 1:22:10]} 7. cxd5 {[%clk 1:30:11]} exd5
{[%clk 1:13:49]} 8. Nc3 {[%clk 1:29:37]} Be7 {[%clk 1:10:09]} 9. h3
{[%clk 1:30:03]} Bxf3 {[%clk 1:08:06]} 10. Bxf3 {[%clk 1:30:31]} O-O
{[%clk 1:08:09]} 11. Bd2 {[%clk 1:30:57]} Re8 {[%clk 1:06:45]} 12. Rc1
{[%clk 1:28:15]} Nc5 {[%clk 1:01:56]} 13. b4 {[%clk 1:17:17]} Ne6
{[%clk 1:01:41]} 14. Rb1 {[%clk 1:17:42]} a6 {[%clk 0:54:13]} 15. Bg2
{[%clk 1:13:02]} Bf8 {[%clk 0:54:42]} 16. a4 {[%clk 1:09:07]} Nd4
{[%clk 0:52:51]} 17. e3 {[%clk 1:04:40]} Nf5 {[%clk 0:52:38]} 18. Ne2
{[%clk 1:02:07]} Bd6 {[%clk 0:47:30]} 19. Qc2 {[%clk 0:47:46]} Rc8
{[%clk 0:37:07]} 20. e4 {[%clk 0:43:13]} Ne7 {[%clk 0:37:26]} 21. f4
{[%clk 0:40:54]} Qb6+ {[%clk 0:29:25]} 22. Kh1 {[%clk 0:40:53]} Nf5
{[%clk 0:28:33]} 23. g4 {[%clk 0:29:04]} Nh4 {[%clk 0:24:00]} 24. e5
{[%clk 0:29:26]} Nxg2 {[%clk 0:23:08]} 25. Kxg2 {[%clk 0:29:51]} Nd7
{[%clk 0:18:45]} 26. Be1 {[%clk 0:28:27]} Bf8 {[%clk 0:15:59]} 27. Bf2
{[%clk 0:28:32]} Qc7 {[%clk 0:15:57]} 28. d4 {[%clk 0:28:06]} Nb6
{[%clk 0:13:43]} 29. a5 {[%clk 0:26:25]} Nc4 {[%clk 0:14:12]} 30. Rb3
{[%clk 0:25:07]} b6 {[%clk 0:14:41]} 31. axb6 {[%clk 0:25:27]} Qxb6
{[%clk 0:15:05]} 32. Rfb1 {[%clk 0:25:30]} Rb8 {[%clk 0:15:10]} 33. Nc1
{[%clk 0:25:39]} Qc7 {[%clk 0:13:59]} 34. Nd3 {[%clk 0:25:24]} a5
{[%clk 0:14:28]} 35. Qa2 {[%clk 0:17:56]} a4 {[%clk 0:13:15]} 36. Rc3
{[%clk 0:18:22]} a3 {[%clk 0:13:44]} 37. Rxa3 {[%clk 0:18:25]} Nxa3
{[%clk 0:14:05]} 38. Qxa3 {[%clk 0:18:52]} Qb6 {[%clk 0:12:37]} 39. Qc3
{[%clk 0:18:48]} Qb5 {[%clk 0:12:48]} 40. f5 {[%clk 0:16:41]} Ra8
{[%clk 0:12:39]} 41. Rc1 {[%clk 0:15:47]} Ra2 {[%clk 0:11:15]} *

[Event "Copenhagen Chess Challenge 2014"]
[Site "?"]
[Date "2014.05.17"]
[Round "7.6"]
[White "Christensen, Tobias"]
[Black "Sylvan, Jacob"]
[Result "*"]
[LiveChessVersion "1.4.2"]
[BlackElo "2348"]
[WhiteElo "2368"]
[ECO "B54"]

1. e4 {[%clk 1:30:58]} c5 {[%clk 1:28:27]} 2. Nf3 {[%clk 1:31:24]} d6
{[%clk 1:28:48]} 3. d4 {[%clk 1:31:50]} cxd4 {[%clk 1:29:11]} 4. Nxd4
{[%clk 1:32:17]} Nf6 {[%clk 1:29:34]} 5. f3 {[%clk 1:32:42]} g6 {[%clk 1:28:04]}
6. c4 {[%clk 1:31:40]} Bg7 {[%clk 1:27:47]} 7. Nc3 {[%clk 1:31:54]} Nc6
{[%clk 1:27:39]} 8. Be3 {[%clk 1:26:33]} O-O {[%clk 1:24:22]} 9. Qd2
{[%clk 1:24:32]} Bd7 {[%clk 1:22:07]} 10. Be2 {[%clk 1:24:31]} a6
{[%clk 1:19:41]} 11. O-O {[%clk 1:23:55]} Rc8 {[%clk 1:16:51]} 12. Rab1
{[%clk 1:18:04]} Nxd4 {[%clk 1:06:03]} 13. Bxd4 {[%clk 1:18:11]} a5
{[%clk 1:03:28]} 14. Qe3 {[%clk 1:13:55]} a4 {[%clk 1:02:56]} 15. Bb6
{[%clk 1:06:34]} Qe8 {[%clk 1:03:20]} 16. c5 {[%clk 1:04:52]} dxc5
{[%clk 1:02:31]} 17. e5 {[%clk 1:03:17]} Nh5 {[%clk 0:59:37]} 18. f4
{[%clk 0:46:59]} Bh6 {[%clk 0:58:16]} 19. Bxh5 {[%clk 0:44:15]} gxh5
{[%clk 0:58:36]} 20. Bxc5 {[%clk 0:43:48]} Bc6 {[%clk 0:57:19]} 21. Rbd1
{[%clk 0:32:52]} Kh8 {[%clk 0:50:58]} 22. Bd4 {[%clk 0:33:16]} Rg8
{[%clk 0:49:27]} 23. Ne4 {[%clk 0:31:36]} Rg6 {[%clk 0:48:21]} 24. Ng5
{[%clk 0:25:32]} h4 {[%clk 0:46:52]} 25. Qh3 {[%clk 0:16:42]} Bxg5
{[%clk 0:42:07]} 26. fxg5 {[%clk 0:17:06]} e6 {[%clk 0:37:26]} 27. Qxh4
{[%clk 0:16:37]} Kg8 {[%clk 0:36:46]} 28. Be3 {[%clk 0:13:58]} Bd5
{[%clk 0:36:02]} 29. a3 {[%clk 0:09:43]} h6 {[%clk 0:25:56]} 30. Rd2
{[%clk 0:06:26]} Rc4 {[%clk 0:24:16]} 31. Qg3 {[%clk 0:02:59]} hxg5
{[%clk 0:23:44]} 32. Bxg5 {[%clk 0:03:03]} Qc6 {[%clk 0:21:22]} 33. h4
{[%clk 0:03:11]} Rc1 {[%clk 0:21:18]} 34. Rdf2 {[%clk 0:02:21]} Qc5
{[%clk 0:17:28]} 35. Rxc1 {[%clk 0:02:11]} Qxc1+ {[%clk 0:17:52]} 36. Kh2
{[%clk 0:02:20]} Qc4 {[%clk 0:16:31]} *

[Event "Copenhagen Chess Challenge 2014"]
[Site "?"]
[Date "2014.05.17"]
[Round "7.7"]
[White "Westerinen, Heikki M.J."]
[Black "Sahl, Bjarke"]
[Result "1/2-1/2"]
[LiveChessVersion "1.4.2"]
[BlackElo "2368"]
[WhiteElo "2299"]
[ECO "B90"]

1. e4 {[%clk 1:30:43]} c5 {[%clk 1:24:17]} 2. Nf3 {[%clk 1:30:54]} d6
{[%clk 1:24:44]} 3. d4 {[%clk 1:30:43]} cxd4 {[%clk 1:25:10]} 4. Nxd4
{[%clk 1:30:55]} Nf6 {[%clk 1:25:37]} 5. Nc3 {[%clk 1:31:02]} a6 {[%clk 1:26:04]}
6. a4 {[%clk 1:30:24]} e5 {[%clk 1:25:44]} 7. Nf3 {[%clk 1:30:36]} Qc7
{[%clk 1:24:23]} 8. Bg5 {[%clk 1:29:54]} Nbd7 {[%clk 1:24:36]} 9. Nd2
{[%clk 1:29:36]} b6 {[%clk 1:12:09]} 10. Bc4 {[%clk 1:28:54]} Bb7
{[%clk 1:12:29]} 1/2-1/2

[Event "Copenhagen Chess Challenge 2014"]
[Site "?"]
[Date "2014.05.17"]
[Round "7.8"]
[White "Hansen, Mads"]
[Black "Thuesen, Mogens"]
[Result "*"]
[LiveChessVersion "1.4.2"]
[BlackElo "2235"]
[WhiteElo "2358"]
[ECO "C11"]

1. e4 {[%clk 1:30:14]} e6 {[%clk 1:29:41]} 2. d4 {[%clk 1:30:07]} d5
{[%clk 1:30:04]} 3. Nc3 {[%clk 1:29:36]} Nf6 {[%clk 1:30:24]} 4. e5
{[%clk 1:29:59]} Nfd7 {[%clk 1:30:48]} 5. f4 {[%clk 1:29:38]} c5 {[%clk 1:31:09]}
6. Nf3 {[%clk 1:30:02]} Nc6 {[%clk 1:31:29]} 7. Be3 {[%clk 1:30:27]} a6
{[%clk 1:30:36]} 8. Qd2 {[%clk 1:30:49]} b5 {[%clk 1:30:49]} 9. a3
{[%clk 1:31:12]} g5 {[%clk 1:19:50]} 10. Ne2 {[%clk 1:13:41]} g4 {[%clk 1:17:17]}
11. Nfg1 {[%clk 1:14:06]} h5 {[%clk 1:05:42]} 12. h3 {[%clk 1:10:35]} f5
{[%clk 0:56:06]} 13. g3 {[%clk 1:03:27]} Rg8 {[%clk 0:44:26]} 14. Bg2
{[%clk 1:02:36]} c4 {[%clk 0:44:12]} 15. hxg4 {[%clk 1:02:24]} hxg4
{[%clk 0:44:34]} 16. Nc3 {[%clk 0:53:47]} Nb6 {[%clk 0:44:30]} 17. Nge2
{[%clk 0:52:01]} Ra7 {[%clk 0:43:46]} 18. Kf2 {[%clk 0:50:14]} Rgg7
{[%clk 0:39:16]} 19. Rh5 {[%clk 0:48:27]} Raf7 {[%clk 0:38:36]} 20. Rah1
{[%clk 0:42:45]} Qe7 {[%clk 0:35:42]} 21. Qe1 {[%clk 0:39:07]} b4
{[%clk 0:35:23]} 22. axb4 {[%clk 0:36:41]} Nxb4 {[%clk 0:35:44]} 23. Qb1
{[%clk 0:34:11]} Rh7 {[%clk 0:34:37]} 24. Bd2 {[%clk 0:29:37]} Rxh5
{[%clk 0:34:11]} 25. Rxh5 {[%clk 0:29:13]} Rh7 {[%clk 0:33:46]} 26. Rxh7
{[%clk 0:29:26]} Qxh7 {[%clk 0:34:09]} 27. Na2 {[%clk 0:29:37]} Nc6
{[%clk 0:26:51]} 28. b3 {[%clk 0:27:50]} Qb7 {[%clk 0:25:25]} 29. Nac3
{[%clk 0:24:59]} Nb4 {[%clk 0:22:57]} 30. Nd1 {[%clk 0:24:26]} cxb3
{[%clk 0:21:25]} 31. cxb3 {[%clk 0:23:51]} Qc6 {[%clk 0:20:13]} 32. Ndc3
{[%clk 0:21:05]} Bd7 {[%clk 0:17:00]} 33. Qa1 {[%clk 0:19:11]} Qc7
{[%clk 0:13:43]} 34. Bf1 {[%clk 0:18:54]} Nc8 {[%clk 0:13:10]} 35. Na2
{[%clk 0:14:03]} Qa5 {[%clk 0:11:27]} 36. Nec1 {[%clk 0:13:51]} Na7
{[%clk 0:10:20]} 37. Qc3 {[%clk 0:09:56]} Nac6 {[%clk 0:10:10]} 38. Qb2
{[%clk 0:10:00]} Qb6 *

[Event "Copenhagen Chess Challenge 2014"]
[Site "?"]
[Date "2014.05.17"]
[Round "7.9"]
[White "Stefansson, Hannes"]
[Black "Mueller, Reinhold"]
[Result "1-0"]
[LiveChessVersion "1.4.2"]
[BlackElo "2282"]
[WhiteElo "2548"]
[ECO "A61"]

1. d4 {[%clk 1:30:50]} Nf6 {[%clk 1:30:49]} 2. c4 {[%clk 1:31:08]} c5
{[%clk 1:31:05]} 3. d5 {[%clk 1:31:20]} e6 {[%clk 1:31:18]} 4. Nc3
{[%clk 1:30:35]} exd5 {[%clk 1:31:36]} 5. cxd5 {[%clk 1:30:59]} d6
{[%clk 1:31:56]} 6. Nf3 {[%clk 1:29:53]} g6 {[%clk 1:32:10]} 7. Bf4
{[%clk 1:28:50]} Bg7 {[%clk 1:30:52]} 8. Qa4+ {[%clk 1:28:29]} Bd7
{[%clk 1:31:15]} 9. Qb3 {[%clk 1:28:17]} Qc7 {[%clk 1:31:37]} 10. e4
{[%clk 1:24:38]} O-O {[%clk 1:30:48]} 11. Nd2 {[%clk 1:21:25]} Re8
{[%clk 1:29:14]} 12. Be2 {[%clk 1:20:52]} b5 {[%clk 1:21:08]} 13. Bxb5
{[%clk 1:12:13]} Nxe4 {[%clk 1:20:11]} 14. Ncxe4 {[%clk 1:12:34]} f5
{[%clk 1:18:57]} 15. O-O {[%clk 1:05:04]} fxe4 {[%clk 1:17:46]} 16. Rae1
{[%clk 1:05:13]} Bxb5 {[%clk 1:01:34]} 17. Qxb5 {[%clk 1:05:20]} Nd7
{[%clk 1:00:59]} 18. Nxe4 {[%clk 1:00:27]} Ne5 {[%clk 0:51:03]} 19. Qa6
{[%clk 0:55:17]} Qf7 {[%clk 0:39:45]} 20. Bg3 {[%clk 0:53:48]} Qxd5
{[%clk 0:40:03]} 21. Qxd6 {[%clk 0:51:37]} Qxa2 {[%clk 0:34:15]} 22. Nf6+
{[%clk 0:51:03]} Bxf6 {[%clk 0:34:12]} 23. Qxf6 {[%clk 0:51:26]} Nd3
{[%clk 0:31:31]} 24. Re3 {[%clk 0:50:30]} Qd5 {[%clk 0:16:45]} 25. Bd6
{[%clk 0:42:19]} c4 {[%clk 0:15:11]} 26. h4 {[%clk 0:37:27]} Qf7 {[%clk 0:12:00]}
27. Qd4 {[%clk 0:36:54]} Rad8 {[%clk 0:03:41]} 28. Rxe8+ {[%clk 0:36:32]} Rxe8
{[%clk 0:03:54]} 29. b3 {[%clk 0:36:46]} Rc8 {[%clk 0:03:12]} 30. bxc4
{[%clk 0:31:49]} Qxc4 {[%clk 0:03:30]} 31. Qxa7 {[%clk 0:32:01]} Qxh4
{[%clk 0:03:24]} 32. Qd7 {[%clk 0:28:36]} Qc4 {[%clk 0:00:44]} 33. Ra1
{[%clk 0:22:53]} Nxf2 {[%clk 0:00:40]} 34. Be5 {[%clk 0:22:51]} Nh3+
{[%clk 0:00:32]} 35. Kh2 {[%clk 0:23:07]} 1-0

[Event "Copenhagen Chess Challenge 2014"]
[Site "?"]
[Date "2014.05.17"]
[Round "7.10"]
[White "Hector, Jonny"]
[Black "Rydstrom, Tom"]
[Result "1-0"]
[LiveChessVersion "1.4.2"]
[BlackElo "2190"]
[WhiteElo "2511"]
[ECO "C54"]

1. e4 {[%clk 1:30:44]} e5 {[%clk 1:30:51]} 2. Nf3 {[%clk 1:31:08]} Nc6
{[%clk 1:31:16]} 3. Bc4 {[%clk 1:31:31]} Bc5 {[%clk 1:31:07]} 4. c3
{[%clk 1:31:49]} Nf6 {[%clk 1:31:33]} 5. d4 {[%clk 1:32:11]} exd4
{[%clk 1:31:53]} 6. cxd4 {[%clk 1:32:34]} Bb4+ {[%clk 1:32:20]} 7. Nbd2
{[%clk 1:32:53]} d5 {[%clk 1:29:39]} 8. exd5 {[%clk 1:33:10]} Nxd5
{[%clk 1:29:59]} 9. O-O {[%clk 1:33:30]} O-O {[%clk 1:30:11]} 10. a3
{[%clk 1:33:44]} Be7 {[%clk 1:28:43]} 11. Re1 {[%clk 1:33:59]} Bg4
{[%clk 1:15:10]} 12. h3 {[%clk 1:32:11]} Bh5 {[%clk 1:13:58]} 13. Ba2
{[%clk 1:30:49]} Bf6 {[%clk 1:05:47]} 14. Qb3 {[%clk 1:20:24]} Nb6
{[%clk 1:05:09]} 15. d5 {[%clk 1:19:25]} Nd4 {[%clk 1:01:41]} 16. Nxd4
{[%clk 1:19:27]} Bxd4 {[%clk 1:02:03]} 17. Ne4 {[%clk 1:18:45]} Re8
{[%clk 0:49:13]} 18. Bf4 {[%clk 1:09:10]} Be5 {[%clk 0:39:43]} 19. Bxe5
{[%clk 1:06:49]} Rxe5 {[%clk 0:40:09]} 20. Qg3 {[%clk 1:06:21]} Nd7
{[%clk 0:35:16]} 21. f4 {[%clk 0:59:54]} Re8 {[%clk 0:31:15]} 22. Qf2
{[%clk 0:59:44]} f5 {[%clk 0:22:51]} 23. Ng5 {[%clk 0:54:36]} Rxe1+
{[%clk 0:19:28]} 24. Rxe1 {[%clk 0:54:40]} Nf6 {[%clk 0:17:59]} 25. d6+
{[%clk 0:54:00]} Kh8 {[%clk 0:18:24]} 26. Bf7 {[%clk 0:53:52]} h6
{[%clk 0:14:30]} 27. Bxh5 {[%clk 0:53:53]} hxg5 {[%clk 0:14:55]} 28. Bg6
{[%clk 0:46:47]} Ne4 {[%clk 0:03:55]} 29. Qf3 {[%clk 0:39:15]} g4
{[%clk 0:03:41]} 30. hxg4 {[%clk 0:39:27]} Qh4 {[%clk 0:03:24]} 31. g3
{[%clk 0:36:08]} Nxg3 {[%clk 0:03:33]} 32. Kg2 {[%clk 0:35:56]} Qf6
{[%clk 0:02:57]} 33. Kxg3 {[%clk 0:35:42]} 1-0

[Event "Copenhagen Chess Challenge 2014"]
[Site "?"]
[Date "2014.05.17"]
[Round "7.11"]
[White "Vesterli, Michael E."]
[Black "Thorfinnsson, Bragi"]
[Result "*"]
[LiveChessVersion "1.4.2"]
[BlackElo "2459"]
[WhiteElo "2107"]
[ECO "A84"]

1. d4 {[%clk 1:30:57]} f5 {[%clk 1:29:31]} 2. c4 {[%clk 1:31:13]} e6
{[%clk 1:28:52]} 3. Nc3 {[%clk 1:31:27]} Nf6 {[%clk 1:29:16]} 4. Nf3
{[%clk 1:31:51]} Be7 {[%clk 1:27:07]} 5. Bf4 {[%clk 1:31:14]} d6 {[%clk 1:24:29]}
6. e3 {[%clk 1:29:46]} O-O {[%clk 1:24:33]} 7. h3 {[%clk 1:28:20]} Qe8
{[%clk 1:19:38]} 8. Bd3 {[%clk 1:27:36]} Nc6 {[%clk 1:17:54]} 9. Bh2
{[%clk 1:19:15]} Bd8 {[%clk 1:14:23]} 10. d5 {[%clk 1:13:09]} Nb4
{[%clk 1:10:53]} 11. dxe6 {[%clk 1:13:25]} Bxe6 {[%clk 1:03:34]} 12. Be2
{[%clk 1:08:41]} Qg6 {[%clk 0:59:22]} 13. O-O {[%clk 1:07:55]} Ne4
{[%clk 0:58:20]} 14. Qb3 {[%clk 1:02:16]} a5 {[%clk 0:55:50]} 15. a3
{[%clk 0:49:55]} Nc5 {[%clk 0:53:48]} 16. Qd1 {[%clk 0:50:01]} Nc6
{[%clk 0:53:32]} 17. Nd5 {[%clk 0:49:57]} a4 {[%clk 0:52:25]} 18. Nf4
{[%clk 0:48:13]} Qe8 {[%clk 0:50:09]} 19. Nxe6 {[%clk 0:48:01]} Qxe6
{[%clk 0:48:15]} 20. Qc2 {[%clk 0:47:12]} Bf6 {[%clk 0:46:11]} 21. Rad1
{[%clk 0:44:58]} Kh8 {[%clk 0:42:32]} 22. Rfe1 {[%clk 0:40:38]} Rfe8
{[%clk 0:37:36]} 23. Nd2 {[%clk 0:31:55]} g6 {[%clk 0:32:49]} 24. Nb1
{[%clk 0:29:09]} Qe4 {[%clk 0:29:09]} 25. Rc1 {[%clk 0:28:36]} Nb3
{[%clk 0:26:12]} 26. Qxe4 {[%clk 0:28:49]} fxe4 {[%clk 0:26:00]} 27. Rc2
{[%clk 0:28:59]} Na1 {[%clk 0:26:06]} 28. Rd2 {[%clk 0:29:17]} Nb3
{[%clk 0:26:00]} 29. Rc2 {[%clk 0:29:41]} Na1 {[%clk 0:26:29]} 30. Rd2
{[%clk 0:30:06]} Na5 {[%clk 0:26:33]} 31. Rd5 {[%clk 0:13:01]} N1b3
{[%clk 0:22:45]} 32. Nc3 {[%clk 0:10:55]} Bxc3 {[%clk 0:23:07]} 33. bxc3
{[%clk 0:11:23]} Nc5 {[%clk 0:23:11]} 34. Bf4 {[%clk 0:11:16]} Kg7
{[%clk 0:21:58]} 35. h4 {[%clk 0:11:06]} h6 {[%clk 0:21:39]} 36. f3
{[%clk 0:10:45]} Ra6 {[%clk 0:21:06]} 37. Rb1 {[%clk 0:10:56]} Nab3
{[%clk 0:21:09]} 38. Bd1 {[%clk 0:10:27]} *

[Event "Copenhagen Chess Challenge 2014"]
[Site "?"]
[Date "2014.05.17"]
[Round "7.12"]
[White "Englert, Fabian"]
[Black "Lauritsen, Martin Lee"]
[Result "1-0"]
[LiveChessVersion "1.4.2"]
[BlackElo "2141"]
[WhiteElo "2310"]
[ECO "A43"]

1. d4 {[%clk 1:30:57]} Nf6 {[%clk 1:30:51]} 2. Nf3 {[%clk 1:31:20]} c5
{[%clk 1:31:08]} 3. d5 {[%clk 1:31:19]} g6 {[%clk 1:31:26]} 4. Nc3
{[%clk 1:28:26]} d6 {[%clk 1:30:39]} 5. e4 {[%clk 1:28:34]} Bg7 {[%clk 1:30:54]}
6. Bb5+ {[%clk 1:28:52]} Nfd7 {[%clk 1:29:37]} 7. a4 {[%clk 1:28:42]} O-O
{[%clk 1:29:44]} 8. O-O {[%clk 1:28:30]} a6 {[%clk 1:25:58]} 9. Bc4
{[%clk 1:26:10]} Ne5 {[%clk 1:23:50]} 10. Nxe5 {[%clk 1:26:27]} Bxe5
{[%clk 1:24:11]} 11. Bg5 {[%clk 1:21:29]} Bg7 {[%clk 1:18:21]} 12. f4
{[%clk 1:17:00]} Nd7 {[%clk 1:10:25]} 13. Qe1 {[%clk 1:09:54]} h6
{[%clk 1:09:12]} 14. Bh4 {[%clk 1:10:18]} Rb8 {[%clk 1:08:22]} 15. Qg3
{[%clk 1:07:15]} b5 {[%clk 1:05:57]} 16. axb5 {[%clk 1:06:19]} axb5
{[%clk 1:06:11]} 17. Nxb5 {[%clk 1:03:07]} Bxb2 {[%clk 1:05:06]} 18. Rab1
{[%clk 1:01:51]} Bf6 {[%clk 0:59:50]} 19. Na7 {[%clk 0:49:53]} Rxb1
{[%clk 0:52:31]} 20. Rxb1 {[%clk 0:50:21]} e5 {[%clk 0:43:47]} 21. dxe6
{[%clk 0:42:53]} Bxh4 {[%clk 0:43:17]} 22. exd7 {[%clk 0:43:14]} Bxg3
{[%clk 0:41:41]} 23. dxc8=Q {[%clk 0:43:31]} Qf6 {[%clk 0:38:07]} 24. Qg4
{[%clk 0:40:49]} Bxf4 {[%clk 0:37:57]} 25. Bd5 {[%clk 0:35:38]} Kg7
{[%clk 0:35:44]} 26. Kh1 {[%clk 0:35:20]} Rb8 {[%clk 0:34:22]} 27. Rf1
{[%clk 0:28:32]} Be3 {[%clk 0:29:30]} 28. Qe2 {[%clk 0:25:54]} Qg5
{[%clk 0:28:52]} 29. Rxf7+ {[%clk 0:25:52]} Kh8 {[%clk 0:29:11]} 30. Qf1
{[%clk 0:23:06]} Bf4 {[%clk 0:26:54]} 31. g3 {[%clk 0:23:10]} 1-0

[Event "Copenhagen Chess Challenge 2014"]
[Site "?"]
[Date "2014.05.17"]
[Round "7.13"]
[White "Pedersen, Nicolai Kvist Brondt"]
[Black "Stojanovski, Sandi"]
[Result "1/2-1/2"]
[LiveChessVersion "1.4.2"]
[BlackElo "2265"]
[WhiteElo "2200"]
[ECO "E11"]

1. d4 {[%clk 1:30:56]} Nf6 {[%clk 1:30:43]} 2. Nf3 {[%clk 1:31:07]} e6
{[%clk 1:30:19]} 3. c4 {[%clk 1:29:34]} Bb4+ {[%clk 1:29:59]} 4. Bd2
{[%clk 1:29:59]} Bxd2+ {[%clk 1:30:13]} 5. Qxd2 {[%clk 1:30:08]} O-O
{[%clk 1:29:35]} 6. Nc3 {[%clk 1:30:35]} d5 {[%clk 1:29:53]} 7. e3
{[%clk 1:30:28]} Qe7 {[%clk 1:29:50]} 8. cxd5 {[%clk 1:27:37]} exd5
{[%clk 1:28:35]} 9. Bd3 {[%clk 1:27:59]} Nbd7 {[%clk 1:24:57]} 10. O-O
{[%clk 1:24:55]} 1/2-1/2

[Event "Copenhagen Chess Challenge 2014"]
[Site "?"]
[Date "2014.05.17"]
[Round "7.14"]
[White "Nielsen, Viktor"]
[Black "Thorhallsson, Throstur"]
[Result "0-1"]
[LiveChessVersion "1.4.2"]
[BlackElo "2437"]
[WhiteElo "2029"]
[ECO "B22"]

1. e4 {[%clk 1:30:24]} c5 {[%clk 1:30:56]} 2. c3 {[%clk 1:30:30]} Nf6
{[%clk 1:30:11]} 3. e5 {[%clk 1:30:38]} Nd5 {[%clk 1:30:39]} 4. d4
{[%clk 1:30:37]} cxd4 {[%clk 1:30:41]} 5. Nf3 {[%clk 1:30:57]} e6
{[%clk 1:29:55]} 6. cxd4 {[%clk 1:31:21]} b6 {[%clk 1:28:07]} 7. Bd3
{[%clk 1:30:22]} Bb7 {[%clk 1:25:57]} 8. Nc3 {[%clk 1:29:41]} Nxc3
{[%clk 1:23:34]} 9. bxc3 {[%clk 1:30:10]} Be7 {[%clk 1:22:59]} 10. O-O
{[%clk 1:29:00]} Qc7 {[%clk 1:19:28]} 11. Bd2 {[%clk 1:27:21]} d6
{[%clk 1:17:48]} 12. Re1 {[%clk 1:25:36]} Nd7 {[%clk 1:17:04]} 13. c4
{[%clk 1:18:17]} dxe5 {[%clk 1:15:10]} 14. Nxe5 {[%clk 1:18:33]} Nxe5
{[%clk 1:14:56]} 15. dxe5 {[%clk 1:18:40]} O-O-O {[%clk 1:13:58]} 16. Qc2
{[%clk 1:15:40]} Qd7 {[%clk 1:11:32]} 17. Re3 {[%clk 1:15:15]} Bc5
{[%clk 1:09:50]} 18. Rd1 {[%clk 1:12:55]} Bxe3 {[%clk 1:08:10]} 19. Bxe3
{[%clk 1:13:23]} Be4 {[%clk 1:04:26]} 20. Bxe4 {[%clk 1:12:59]} Qxd1+
{[%clk 1:04:50]} 21. Qxd1 {[%clk 1:13:24]} Rxd1# {[%clk 1:05:15]} 0-1

[Event "Copenhagen Chess Challenge 2014"]
[Site "?"]
[Date "2014.05.17"]
[Round "7.15"]
[White "Nordenbaek, Jan"]
[Black "Larsen, Tor Ketil"]
[Result "1-0"]
[LiveChessVersion "1.4.2"]
[BlackElo "2004"]
[WhiteElo "2248"]
[ECO "B06"]

1. e4 {[%clk 1:30:56]} d6 {[%clk 1:30:56]} 2. d4 {[%clk 1:31:19]} g6
{[%clk 1:31:20]} 3. Nc3 {[%clk 1:31:41]} Bg7 {[%clk 1:31:42]} 4. f4
{[%clk 1:30:06]} c5 {[%clk 1:25:25]} 5. dxc5 {[%clk 1:26:33]} Qa5
{[%clk 1:25:24]} 6. cxd6 {[%clk 1:25:16]} Bxc3+ {[%clk 1:25:18]} 7. bxc3
{[%clk 1:25:36]} Qxc3+ {[%clk 1:25:42]} 8. Bd2 {[%clk 1:25:52]} Qd4
{[%clk 1:25:20]} 9. Bd3 {[%clk 1:25:25]} Qxd6 {[%clk 1:07:25]} 10. Nf3
{[%clk 1:12:54]} Qc5 {[%clk 1:02:57]} 11. Rb1 {[%clk 1:10:17]} Nf6
{[%clk 1:01:01]} 12. Rb5 {[%clk 1:10:04]} Qc7 {[%clk 1:00:16]} 13. O-O
{[%clk 1:04:06]} Bd7 {[%clk 0:58:44]} 14. Rb2 {[%clk 1:03:10]} Bc6
{[%clk 0:52:29]} 15. Qe2 {[%clk 1:01:31]} O-O {[%clk 0:52:19]} 16. e5
{[%clk 0:55:30]} Nh5 {[%clk 0:49:47]} 17. Ng5 {[%clk 0:55:08]} Ng7
{[%clk 0:45:03]} 18. f5 {[%clk 0:52:28]} Nd7 {[%clk 0:38:58]} 19. fxg6
{[%clk 0:36:14]} hxg6 {[%clk 0:32:33]} 20. e6 {[%clk 0:32:49]} Ne5
{[%clk 0:25:18]} 21. exf7+ {[%clk 0:32:44]} Nxf7 {[%clk 0:25:10]} 22. Ne6
{[%clk 0:29:58]} Qd6 {[%clk 0:21:40]} 23. Nxf8 {[%clk 0:29:09]} Qd4+
{[%clk 0:21:44]} 24. Qe3 {[%clk 0:28:28]} Qxb2 {[%clk 0:21:35]} 25. Nxg6
{[%clk 0:28:40]} Qxa2 {[%clk 0:19:26]} 26. Nxe7+ {[%clk 0:28:36]} Kf8
{[%clk 0:19:24]} 27. Bb4 {[%clk 0:27:19]} a5 {[%clk 0:19:15]} 28. Nd5+
{[%clk 0:27:29]} axb4 {[%clk 0:18:14]} 29. Qe7+ {[%clk 0:27:44]} Kg8
{[%clk 0:18:35]} 30. Qxf7+ {[%clk 0:27:56]} Kh8 {[%clk 0:18:58]} 31. Qf4 1-0

[Event "Copenhagen Chess Challenge 2014"]
[Site "?"]
[Date "2014.05.17"]
[Round "7.16"]
[White "Jorgensen, Dennis"]
[Black "Sorensen, Per Settergren"]
[Result "1-0"]
[LiveChessVersion "1.4.2"]
[BlackElo "2021"]
[WhiteElo "2231"]
[ECO "A40"]

1. d4 {[%clk 1:30:56]} e6 {[%clk 1:30:07]} 2. Nf3 {[%clk 1:30:23]} b6
{[%clk 1:29:58]} 3. c4 {[%clk 1:29:16]} Bb7 {[%clk 1:30:09]} 4. g3
{[%clk 1:29:01]} Bb4+ {[%clk 1:29:46]} 5. Bd2 {[%clk 1:27:32]} Bxf3
{[%clk 1:29:57]} 6. exf3 {[%clk 1:27:49]} Bxd2+ {[%clk 1:30:19]} 7. Qxd2
{[%clk 1:26:49]} d5 {[%clk 1:28:20]} 8. cxd5 {[%clk 1:20:54]} Qxd5
{[%clk 1:27:40]} 9. Nc3 {[%clk 1:08:43]} Qxf3 {[%clk 1:14:47]} 10. Rg1
{[%clk 1:09:07]} c6 {[%clk 1:11:31]} 11. Bg2 {[%clk 1:07:47]} Qf6
{[%clk 1:03:58]} 12. Nb5 {[%clk 1:01:47]} Qe7 {[%clk 0:57:11]} 13. Qc3
{[%clk 1:00:02]} Qd7 {[%clk 0:47:48]} 14. d5 {[%clk 0:54:33]} cxb5
{[%clk 0:34:27]} 15. Qxg7 {[%clk 0:51:44]} Na6 {[%clk 0:32:26]} 16. Qxh8
{[%clk 0:50:49]} O-O-O {[%clk 0:31:11]} 17. O-O-O {[%clk 0:48:38]} Ne7
{[%clk 0:27:27]} 18. Qe5 {[%clk 0:46:42]} exd5 {[%clk 0:26:15]} 19. Kb1
{[%clk 0:46:29]} Nb4 {[%clk 0:25:32]} 20. Rd2 {[%clk 0:43:18]} Nbc6
{[%clk 0:24:07]} 21. Qh5 {[%clk 0:43:05]} Kb7 {[%clk 0:20:24]} 22. Qxf7
{[%clk 0:41:44]} b4 {[%clk 0:18:39]} 23. Re1 {[%clk 0:40:13]} b3 {[%clk 0:17:59]}
24. axb3 {[%clk 0:39:59]} Kb8 {[%clk 0:12:10]} 25. Rde2 {[%clk 0:38:59]} Qf5+
{[%clk 0:10:06]} 26. Qxf5 {[%clk 0:39:19]} Nxf5 {[%clk 0:10:33]} 27. Re8
{[%clk 0:39:07]} Kc7 {[%clk 0:08:23]} 28. Rxd8 {[%clk 0:39:16]} Kxd8
{[%clk 0:08:20]} 29. Bxd5 {[%clk 0:39:27]} Nb4 {[%clk 0:08:26]} 30. Be4
{[%clk 0:39:31]} Nd6 {[%clk 0:07:21]} 31. Bxh7 {[%clk 0:39:38]} Nb7
{[%clk 0:06:54]} 32. h4 {[%clk 0:39:20]} Nc5 {[%clk 0:06:35]} 33. Bc2
{[%clk 0:39:43]} 1-0

