[Event "Copenhagen Chess Challenge 2014"]
[Site "?"]
[Date "2014.05.17"]
[Round "7.1"]
[White "Fries-Nielsen, Jens Ove"]
[Black "Ziska, Helgi Dam"]
[Result "1/2-1/2"]
[LiveChessVersion "1.4.2"]
[BlackElo "2491"]
[WhiteElo "2384"]
[ECO "A45"]

1. d4 {[%clk 1:28:54]} Nf6 {[%clk 1:30:16]} 2. Nc3 {[%clk 1:26:25]} d5
{[%clk 1:30:07]} 3. Bf4 {[%clk 1:25:39]} g6 {[%clk 1:29:29]} 4. e3
{[%clk 1:23:54]} Bg7 {[%clk 1:29:21]} 5. Nb5 {[%clk 1:22:16]} Na6
{[%clk 1:28:57]} 6. Nc3 {[%clk 1:22:20]} Nb8 {[%clk 1:26:59]} 7. Nb5
{[%clk 1:22:31]} Na6 {[%clk 1:27:02]} 8. Nc3 {[%clk 1:22:53]} Nb8
{[%clk 1:25:26]} 1/2-1/2

[Event "Copenhagen Chess Challenge 2014"]
[Site "?"]
[Date "2014.05.17"]
[Round "7.2"]
[White "Mikkelsen, Nikolaj"]
[Black "Semcesen, Daniel"]
[Result "*"]
[LiveChessVersion "1.4.2"]
[BlackElo "2513"]
[WhiteElo "2430"]
[ECO "C42"]

1. e4 {[%clk 1:30:57]} e5 {[%clk 1:29:39]} 2. Nf3 {[%clk 1:31:20]} Nf6
{[%clk 1:28:50]} 3. Nxe5 {[%clk 1:31:33]} d6 {[%clk 1:29:11]} 4. Nf3
{[%clk 1:31:59]} Nxe4 {[%clk 1:29:32]} 5. Bd3 {[%clk 1:31:38]} Nf6
{[%clk 1:28:20]} 6. O-O {[%clk 1:31:38]} Be7 {[%clk 1:28:41]} 7. c3
{[%clk 1:31:01]} O-O {[%clk 1:28:31]} 8. h3 {[%clk 1:29:30]} Re8 {[%clk 1:28:37]}
9. Re1 {[%clk 1:22:46]} Nbd7 {[%clk 1:22:31]} 10. Bc2 {[%clk 1:22:48]} d5
{[%clk 1:22:27]} 11. d4 {[%clk 1:22:50]} Bd6 {[%clk 1:22:36]} 12. Nbd2
{[%clk 1:13:54]} c6 {[%clk 1:18:41]} 13. Nf1 {[%clk 0:53:09]} Ne4
{[%clk 1:11:14]} 14. Ng5 {[%clk 0:53:29]} Nxg5 {[%clk 0:54:36]} 15. Rxe8+
{[%clk 0:52:06]} Qxe8 {[%clk 0:54:54]} 16. Bxg5 {[%clk 0:52:32]} f6
{[%clk 0:53:36]} 17. Bh4 {[%clk 0:51:41]} Nf8 {[%clk 0:52:28]} 18. Bg3
{[%clk 0:49:53]} Bxg3 {[%clk 0:46:22]} 19. Nxg3 {[%clk 0:50:17]} Bd7
{[%clk 0:46:20]} 20. Qd2 {[%clk 0:42:50]} Qf7 {[%clk 0:43:14]} 21. Re1
{[%clk 0:41:43]} Re8 {[%clk 0:42:58]} 22. Rxe8 {[%clk 0:35:52]} Qxe8
{[%clk 0:41:18]} 23. Kf1 {[%clk 0:36:01]} Be6 {[%clk 0:39:49]} 24. Qf4
{[%clk 0:35:44]} Qd8 {[%clk 0:37:12]} 25. h4 {[%clk 0:30:20]} Qb6
{[%clk 0:35:43]} 26. Bb3 {[%clk 0:30:04]} Qd8 {[%clk 0:35:24]} 27. Bc2
{[%clk 0:29:11]} Qb6 {[%clk 0:35:45]} 28. Bb3 {[%clk 0:29:32]} Qd8
{[%clk 0:36:06]} 29. h5 {[%clk 0:25:57]} g6 {[%clk 0:32:37]} 30. hxg6
{[%clk 0:25:50]} hxg6 {[%clk 0:32:40]} 31. Kg1 {[%clk 0:25:04]} Kg7
{[%clk 0:32:44]} 32. Bc2 {[%clk 0:24:56]} Qe7 {[%clk 0:26:58]} 33. Nf1
{[%clk 0:24:45]} Qd7 {[%clk 0:25:16]} 34. Ne3 {[%clk 0:25:07]} Qc8
{[%clk 0:25:02]} 35. Qg3 {[%clk 0:23:05]} Qd7 {[%clk 0:24:59]} 36. Bd3
{[%clk 0:22:46]} Qc8 {[%clk 0:24:28]} 37. Kf1 {[%clk 0:21:00]} Qd7
{[%clk 0:24:02]} 38. Ke1 {[%clk 0:21:16]} Kf7 {[%clk 0:21:37]} 39. Qh4
{[%clk 0:20:45]} Ke7 {[%clk 0:19:00]} 40. Kd2 {[%clk 0:20:00]} Qe8
{[%clk 0:18:29]} 41. Qh2 {[%clk 0:18:18]} Kd7 {[%clk 0:17:29]} 42. Qf4
{[%clk 0:17:43]} Ke7 {[%clk 0:14:18]} 43. Qc7+ {[%clk 0:17:22]} Qd7
{[%clk 0:14:35]} 44. Qb8 {[%clk 0:17:36]} a6 {[%clk 0:14:49]} 45. Qh2
{[%clk 0:17:48]} Qe8 {[%clk 0:13:52]} 46. Qh4 {[%clk 0:16:35]} Qf7
{[%clk 0:13:56]} 47. a4 {[%clk 0:16:10]} Kd7 {[%clk 0:13:35]} 48. a5
{[%clk 0:15:21]} Qe7 {[%clk 0:12:56]} 49. b4 {[%clk 0:15:10]} Kc8
{[%clk 0:10:09]} 50. Qh2 {[%clk 0:15:27]} f5 {[%clk 0:09:22]} 51. Qh6
{[%clk 0:12:39]} Qf6 {[%clk 0:09:31]} 52. Nf1 {[%clk 0:09:53]} Nd7
{[%clk 0:09:11]} 53. Nh2 {[%clk 0:10:02]} *

[Event "Copenhagen Chess Challenge 2014"]
[Site "?"]
[Date "2014.05.17"]
[Round "7.3"]
[White "Hoi, Carsten"]
[Black "Danielsen, Henrik"]
[Result "0-1"]
[LiveChessVersion "1.4.2"]
[BlackElo "2483"]
[WhiteElo "2397"]
[ECO "A41"]

1. d4 {[%clk 1:30:43]} d6 {[%clk 1:30:58]} 2. Nf3 {[%clk 1:29:41]} g6
{[%clk 1:28:28]} 3. c4 {[%clk 1:29:08]} Bg7 {[%clk 1:28:25]} 4. Nc3
{[%clk 1:28:33]} e5 {[%clk 1:27:51]} 5. e4 {[%clk 1:15:42]} Bg4 {[%clk 1:25:25]}
6. d5 {[%clk 1:15:11]} Nd7 {[%clk 1:25:44]} 7. Be2 {[%clk 1:13:39]} Bh6
{[%clk 1:25:50]} 8. Bxh6 {[%clk 1:05:59]} Nxh6 {[%clk 1:26:09]} 9. Nd2
{[%clk 1:04:22]} Bxe2 {[%clk 1:24:54]} 10. Qxe2 {[%clk 1:03:24]} f5
{[%clk 1:24:51]} 11. O-O-O {[%clk 0:53:57]} Qe7 {[%clk 1:19:06]} 12. Kb1
{[%clk 0:49:58]} Nf7 {[%clk 1:10:09]} 13. exf5 {[%clk 0:47:43]} gxf5
{[%clk 1:10:30]} 14. h3 {[%clk 0:47:45]} O-O-O {[%clk 1:02:10]} 15. Nb3
{[%clk 0:42:44]} Qg5 {[%clk 1:00:03]} 16. g3 {[%clk 0:37:46]} Kb8
{[%clk 0:58:27]} 17. Na5 {[%clk 0:35:55]} e4 {[%clk 0:52:41]} 18. Nb5
{[%clk 0:32:47]} Nfe5 {[%clk 0:50:10]} 19. h4 {[%clk 0:30:35]} Qh6
{[%clk 0:41:55]} 20. Nd4 {[%clk 0:20:11]} Rdf8 {[%clk 0:41:36]} 21. Qc2
{[%clk 0:17:46]} Qf6 {[%clk 0:37:24]} 22. Qb3 {[%clk 0:16:37]} Nc5
{[%clk 0:34:49]} 23. Qb4 {[%clk 0:14:36]} Re8 {[%clk 0:29:59]} 24. Nxb7
{[%clk 0:09:47]} Nxb7 {[%clk 0:29:36]} 25. Nc6+ {[%clk 0:10:09]} Ka8
{[%clk 0:29:36]} 26. Qa4 {[%clk 0:04:25]} Nxc6 {[%clk 0:29:50]} 27. Qxc6
{[%clk 0:04:51]} Qd8 {[%clk 0:28:37]} 28. Rhe1 {[%clk 0:04:26]} Re7
{[%clk 0:28:42]} 29. b4 {[%clk 0:04:30]} Qd7 {[%clk 0:28:49]} 30. Qa6
{[%clk 0:04:50]} Rb8 {[%clk 0:28:48]} 31. Kc1 {[%clk 0:04:05]} Nd8
{[%clk 0:28:58]} 0-1

[Event "Copenhagen Chess Challenge 2014"]
[Site "?"]
[Date "2014.05.17"]
[Round "7.4"]
[White "Haub, Thorsten Michael"]
[Black "Ochsner, Bjorn Moller"]
[Result "1/2-1/2"]
[LiveChessVersion "1.4.2"]
[BlackElo "2307"]
[WhiteElo "2441"]
[ECO "A00"]

1. g3 {[%clk 1:30:58]} c5 {[%clk 1:30:41]} 2. Bg2 {[%clk 1:31:22]} Nc6
{[%clk 1:31:05]} 3. e4 {[%clk 1:31:37]} g6 {[%clk 1:31:18]} 4. d3
{[%clk 1:31:46]} Bg7 {[%clk 1:31:43]} 5. Nf3 {[%clk 1:32:09]} d6 {[%clk 1:32:01]}
6. O-O {[%clk 1:32:27]} e5 {[%clk 1:32:24]} 7. c3 {[%clk 1:32:00]} Nge7
{[%clk 1:32:24]} 8. Nbd2 {[%clk 1:31:45]} O-O {[%clk 1:32:33]} 9. Nh4
{[%clk 1:32:07]} Kh8 {[%clk 1:26:21]} 10. f4 {[%clk 1:32:18]} exf4
{[%clk 1:19:21]} 11. gxf4 {[%clk 1:32:34]} f5 {[%clk 1:19:14]} 12. Ndf3
{[%clk 1:31:08]} d5 {[%clk 1:06:03]} 13. e5 {[%clk 1:30:19]} d4 {[%clk 1:03:26]}
14. c4 {[%clk 1:28:17]} Qd7 {[%clk 1:01:00]} 15. Bd2 {[%clk 1:24:22]} Rb8
{[%clk 0:57:25]} 16. a4 Nd8 {[%clk 0:48:14]} 17. Ng5 {[%clk 1:08:25]} b6
{[%clk 0:41:37]} 18. Qf3 {[%clk 1:03:39]} Bh6 {[%clk 0:39:21]} 19. Qg3
{[%clk 1:01:57]} Bxg5 {[%clk 0:31:45]} 20. Qxg5 {[%clk 1:01:46]} Ne6
{[%clk 0:31:55]} 21. Qg3 {[%clk 1:01:31]} Bb7 {[%clk 0:30:44]} 22. Nf3
{[%clk 0:59:35]} Bc6 {[%clk 0:28:20]} 23. Ng5 {[%clk 0:57:11]} Nxg5
{[%clk 0:22:51]} 24. Qxg5 {[%clk 0:57:26]} Bxg2 {[%clk 0:22:53]} 25. Qxg2
{[%clk 0:57:39]} a5 {[%clk 0:20:14]} 26. Rf3 {[%clk 0:55:43]} Qe6
{[%clk 0:19:33]} 27. Qg5 {[%clk 0:53:55]} Rf7 {[%clk 0:19:21]} 28. Rh3
{[%clk 0:52:54]} Ng8 {[%clk 0:17:16]} 29. Kf2 {[%clk 0:52:09]} Kg7
{[%clk 0:14:36]} 30. b3 {[%clk 0:50:55]} Kf8 {[%clk 0:12:59]} 31. Kf1
{[%clk 0:46:23]} Rg7 {[%clk 0:12:28]} 32. Qg2 {[%clk 0:45:42]} Rd7
{[%clk 0:11:35]} 33. Be1 {[%clk 0:43:43]} Rc8 {[%clk 0:11:04]} 34. Bh4
{[%clk 0:43:16]} Qc6 {[%clk 0:10:57]} 35. Rf3 {[%clk 0:41:10]} Re8
{[%clk 0:10:49]} 36. Kf2 {[%clk 0:41:11]} Re6 {[%clk 0:10:26]} 37. Rg1
{[%clk 0:40:36]} Nh6 {[%clk 0:09:35]} 38. h3 {[%clk 0:40:40]} Qb7
{[%clk 0:08:08]} 39. Qg3 {[%clk 0:40:32]} Qc6 {[%clk 0:07:58]} 40. Qg5
{[%clk 0:34:22]} Nf7 {[%clk 0:08:18]} 41. Qg2 {[%clk 0:34:46]} Nh6
{[%clk 0:08:38]} 42. Rg3 {[%clk 0:34:54]} Qxg2+ {[%clk 0:08:38]} 43. R3xg2
{[%clk 0:35:03]} Kf7 {[%clk 0:07:44]} 44. Kf3 {[%clk 0:34:44]} Ng8
{[%clk 0:07:32]} 45. Bg5 {[%clk 0:31:33]} Rb7 {[%clk 0:05:50]} 46. Bh4
{[%clk 0:30:07]} Rd7 {[%clk 0:06:16]} 47. Rg5 {[%clk 0:29:53]} Rb7
{[%clk 0:05:59]} 48. R5g2 {[%clk 0:28:28]} 1/2-1/2

[Event "Copenhagen Chess Challenge 2014"]
[Site "?"]
[Date "2014.05.17"]
[Round "7.5"]
[White "Korley, Kassa"]
[Black "Pedersen, Daniel Vesterbaek"]
[Result "*"]
[LiveChessVersion "1.4.2"]
[BlackElo "2244"]
[WhiteElo "2390"]
[ECO "A07"]

1. Nf3 {[%clk 1:30:56]} Nf6 {[%clk 1:30:31]} 2. g3 {[%clk 1:31:24]} d5
{[%clk 1:28:50]} 3. Bg2 {[%clk 1:31:49]} c6 {[%clk 1:23:29]} 4. O-O
{[%clk 1:32:13]} Bg4 {[%clk 1:23:03]} 5. c4 {[%clk 1:31:36]} e6 {[%clk 1:23:14]}
6. d3 {[%clk 1:29:53]} Nbd7 {[%clk 1:22:10]} 7. cxd5 {[%clk 1:30:11]} exd5
{[%clk 1:13:49]} 8. Nc3 {[%clk 1:29:37]} Be7 {[%clk 1:10:09]} 9. h3
{[%clk 1:30:03]} Bxf3 {[%clk 1:08:06]} 10. Bxf3 {[%clk 1:30:31]} O-O
{[%clk 1:08:09]} 11. Bd2 {[%clk 1:30:57]} Re8 {[%clk 1:06:45]} 12. Rc1
{[%clk 1:28:15]} Nc5 {[%clk 1:01:56]} 13. b4 {[%clk 1:17:17]} Ne6
{[%clk 1:01:41]} 14. Rb1 {[%clk 1:17:42]} a6 {[%clk 0:54:13]} 15. Bg2
{[%clk 1:13:02]} Bf8 {[%clk 0:54:42]} 16. a4 {[%clk 1:09:07]} Nd4
{[%clk 0:52:51]} 17. e3 {[%clk 1:04:40]} Nf5 {[%clk 0:52:38]} 18. Ne2
{[%clk 1:02:07]} Bd6 {[%clk 0:47:30]} 19. Qc2 {[%clk 0:47:46]} Rc8
{[%clk 0:37:07]} 20. e4 {[%clk 0:43:13]} Ne7 {[%clk 0:37:26]} 21. f4
{[%clk 0:40:54]} Qb6+ {[%clk 0:29:25]} 22. Kh1 {[%clk 0:40:53]} Nf5
{[%clk 0:28:33]} 23. g4 {[%clk 0:29:04]} Nh4 {[%clk 