[Event "Copenhagen Chess Challenge 2014"]
[Site "?"]
[Date "2014.05.17"]
[Round "7.1"]
[White "Fries-Nielsen, Jens Ove"]
[Black "Ziska, Helgi Dam"]
[Result "1/2-1/2"]
[LiveChessVersion "1.4.2"]
[BlackElo "2491"]
[WhiteElo "2384"]
[ECO "A45"]

1. d4 {[%clk 1:28:54]} Nf6 {[%clk 1:30:16]} 2. Nc3 {[%clk 1:26:25]} d5
{[%clk 1:30:07]} 3. Bf4 {[%clk 1:25:39]} g6 {[%clk 1:29:29]} 4. e3
{[%clk 1:23:54]} Bg7 {[%clk 1:29:21]} 5. Nb5 {[%clk 1:22:16]} Na6
{[%clk 1:28:57]} 6. Nc3 {[%clk 1:22:20]} Nb8 {[%clk 1:26:59]} 7. Nb5
{[%clk 1:22:31]} Na6 {[%clk 1:27:02]} 8. Nc3 {[%clk 1:22:53]} Nb8
{[%clk 1:25:26]} 1/2-1/2

[Event "Copenhagen Chess Challenge 2014"]
[Site "?"]
[Date "2014.05.17"]
[Round "7.2"]
[White "Mikkelsen, Nikolaj"]
[Black "Semcesen, Daniel"]
[Result "*"]
[LiveChessVersion "1.4.2"]
[BlackElo "2513"]
[WhiteElo "2430"]
[ECO "C42"]

1. e4 {[%clk 1:30:57]} e5 {[%clk 1:29:39]} 2. Nf3 {[%clk 1:31:20]} Nf6
{[%clk 1:28:50]} 3. Nxe5 {[%clk 1:31:33]} d6 {[%clk 1:29:11]} 4. Nf3
{[%clk 1:31:59]} Nxe4 {[%clk 1:29:32]} 5. Bd3 {[%clk 1:31:38]} Nf6
{[%clk 1:28:20]} 6. O-O {[%clk 1:31:38]} Be7 {[%clk 1:28:41]} 7. c3
{[%clk 1:31:01]} O-O {[%clk 1:28:31]} 8. h3 {[%clk 1:29:30]} Re8 {[%clk 1:28:37]}
9. Re1 {[%clk 1:22:46]} Nbd7 {[%clk 1:22:31]} 10. Bc2 {[%clk 1:22:48]} d5
{[%clk 1:22:27]} 11. d4 {[%clk 1:22:50]} Bd6 {[%clk 1:22:36]} 12. Nbd2
{[%clk 1:13:54]} c6 {[%clk 1:18:41]} 13. Nf1 {[%clk 0:53:09]} Ne4
{[%clk 1:11:14]} 14. Ng5 {[%clk 0:53:29]} Nxg5 {[%clk 0:54:36]} 15. Rxe8+
{[%clk 0:52:06]} Qxe8 {[%clk 0:54:54]} 16. Bxg5 {[%clk 0:52:32]} f6
{[%clk 0:53:36]} 17. Bh4 {[%clk 0:51:41]} Nf8 {[%clk 0:52:28]} 18. Bg3
{[%clk 0:49:53]} Bxg3 {[%clk 0:46:22]} 19. Nxg3 {[%clk 0:50:17]} Bd7
{[%clk 0:46:20]} 20. Qd2 {[%clk 0:42:50]} Qf7 {[%clk 0:43:14]} 21. Re1
{[%clk 0:41:43]} Re8 {[%clk 0:42:58]} 22. Rxe8 {[%clk 0:35:52]} Qxe8
{[%clk 0:41:18]} 23. Kf1 {[%clk 0:36:01]} Be6 {[%clk 0:39:49]} 24. Qf4
{[%clk 0:35:44]} Qd8 {[%clk 0:37:12]} 25. h4 {[%clk 0:30:20]} Qb6
{[%clk 0:35:43]} 26. Bb3 {[%clk 0:30:04]} Qd8 {[%clk 0:35:24]} 27. Bc2
{[%clk 0:29:11]} Qb6 {[%clk 0:35:45]} 28. Bb3 {[%clk 0:29:32]} Qd8
{[%clk 0:36:06]} 29. h5 {[%clk 0:25:57]} g6 {[%clk 0:32:37]} 30. hxg6
{[%clk 0:25:50]} hxg6 {[%clk 0:32:40]} 31. Kg1 {[%clk 0:25:04]} Kg7
{[%clk 0:32:44]} 32. Bc2 {[%clk 0:24:56]} Qe7 {[%clk 0:26:58]} 33. Nf1
{[%clk 0:24:45]} Qd7 {[%clk 0:25:16]} 34. Ne3 {[%clk 0:25:07]} Qc8
{[%clk 0:25:02]} 35. Qg3 {[%clk 0:23:05]} Qd7 {[%clk 0:24:59]} 36. Bd3
{[%clk 0:22:46]} Qc8 {[%clk 0:24:28]} 37. Kf1 {[%clk 0:21:00]} Qd7
{[%clk 0:24:02]} 38. Ke1 {[%clk 0:21:16]} Kf7 {[%clk 0:21:37]} 39. Qh4
{[%clk 0:20:45]} Ke7 {[%clk 0:19:00]} 40. Kd2 {[%clk 0:20:00]} Qe8
{[%clk 0:18:29]} 41. Qh2 {[%clk 0:18:18]} Kd7 {[%clk 0:17:29]} 42. Qf4
{[%clk 0:17:43]} Ke7 {[%clk 0:14:18]} 43. Qc7+ {[%clk 0:17:22]} Qd7
{[%clk 0:14:35]} 44. Qb8 {[%clk 0:17:36]} a6 {[%clk 0:14:49]} 45.