[Event "Copenhagen Chess Challenge 2014"]
[Site "?"]
[Date "2014.05.17"]
[Round "7.1"]
[White "Fries-Nielsen, Jens Ove"]
[Black "Ziska, Helgi Dam"]
[Result "1/2-1/2"]
[LiveChessVersion "1.4.2"]
[BlackElo "2491"]
[WhiteElo "2384"]
[ECO "A45"]

1. d4 {[%clk 1:28:54]} Nf6 {[%clk 1:30:16]} 2. Nc3 {[%clk 1:26:25]} d5
{[%clk 1:30:07]} 3. Bf4 {[%clk 1:25:39]} g6 {[%clk 1:29:29]} 4. e3
{[%clk 1:23:54]} Bg7 {[%clk 1:29:21]} 5. Nb5 {[%clk 1:22:16]} Na6
{[%clk 1:28:57]} 6. Nc3 {[%clk 1:22:20]} Nb8 {[%clk 1:26:59]} 7. Nb5
{[%clk 1:22:31]} Na6 {[%clk 1:27:02]} 8. Nc3 {[%clk 1:22:53]} Nb8
{[%clk 1:25:26]} 1/2-1/2

[Event "Copenhagen Chess Challenge 2014"]
[Site "?"]
[Date "2014.05.17"]
[Round "7.2"]
[White "Mikkelsen, Nikolaj"]
[Black "Semcesen, Daniel"]
[Result "*"]
[LiveChessVersion "1.4.2"]
[BlackElo "2513"]
[WhiteElo "2430"]
[ECO "C42"]

1. e4 {[%clk 1:30:57]} e5 {[%clk 1:29:39]} 2. Nf3 {[%clk 1:31:20]} Nf6
{[%clk 1:28:50]} 3. Nxe5 {[%clk 1:31:33]} d6 {[%clk 1:29:11]} 4. Nf3
{[%clk 1:31:59]} Nxe4 {[%clk 1:29:32]} 5. Bd3 {[%clk 1:31:38]} Nf6
{[%clk 1:28:20]} 6. O-O {[%clk 1:31:38]} Be7 {[%clk 1:28:41]} 7. c3
{[%clk 1:31:01]} O-O {[%clk 1:28:31]} 8. h3 {[%clk 1:29:30]} Re8 {[%clk 1:28:37]}
9. Re1 {[%clk 1:22:46]} Nbd7 {[%clk 1:22:31]} 10. Bc2 {[%clk 1:22:48]} d5
{[%clk 1:22:27]} 11. d4 {[%clk 1:22:50]} Bd6 {[%clk 1:22:36]} 12. Nbd2
{[%clk 1:13:54]} c6 {[%clk 1:18:41]} 13. Nf1 {[%clk 0:53:09]} Ne4
{[%clk 1:11:14]} 14. Ng5 {[%clk 0:53:29]} Nxg5 {[%clk 0:54:36]} 15. Rxe8+
{[%clk 0:52:06]} Qxe8 {[%clk 0:54:54]} 16. Bxg5 {[%clk 0:52:32]} f6
{[%clk 0:53:36]} 17. Bh4 {[%clk 0:51:41]} Nf8 {[%clk 0:52:28]} 18. Bg3
{[%clk 0:49:53]} Bxg3 {[%clk 0:46:22]} 19. Nxg3 {[%clk 0:50:17]} Bd7
{[%clk 0:46:20]} 20. Qd2 {[%clk 0:42:50]} Qf7 {[%clk 0:43:14]} 21. Re1
{[%clk 0:41:43]} Re8 {[%clk 0:42:58]} 22. Rxe8 {[%clk 0:35:52]} Qxe8
{[%clk 0:41:18]} 23. Kf1 {[%clk 0:36:01]} Be6 {[%clk 0:39:49]} 24. Qf4
{[%clk 0:35:44]} Qd8 {[%clk 0:37:12]} 25. h4 {[%clk 0:30:20]} *

[Event "Copenhagen Chess Challenge 2014"]
[Site "?"]
[Date "2014.05.17"]
[Round "7.3"]
[White "Hoi, Carsten"]
[Black "Danielsen, Henrik"]
[Result "*"]
[LiveChessVersion "1.4.2"]
[BlackElo "2483"]
[WhiteElo "2397"]
[ECO "A41"]

1. d4 {[%clk 1:30:43]} d6 {[%clk 1:30:58]} 2. Nf3 {[%clk 1:29:41]} g6
{[%clk 1:28:28]} 3. c4 {[%clk 1:29:08]} Bg7 {[%clk 1:28:25]} 4. Nc3
{[%clk 1:28:33]} e5 {[%clk 1:27:51]} 5. e4 {[%clk 1:15:42]} Bg4 {[%clk 1:25:25]}
6. d5 {[%clk 1:15:11]} Nd7 {[%clk 1:25:44]} 7. Be2 {[%clk 1:13:39]} Bh6
{[%clk 1:25:50]} 8. Bxh6 {[%clk 1:05:59]} Nxh6 {[%clk 1:26:09]} 9. Nd2
{[%clk 1:04:22]} Bxe2 {[%clk 1:24:54]} 10. Qxe2 {[%clk 1:03:24]} f5
{[%clk 1:24:51]} 11. O-O-O {[%clk 0:53:57]} Qe7 {[%clk 1:19:06]} 12. Kb1
{[%clk 0:49:58]} Nf7 {[%clk 1:10:09]} 13. exf5 {[%clk 0:47:43]} gxf5
{[%clk 1:10:30]} 14. h3 {[%clk 0:47:45]} O-O-O {[%clk 1:02:10]} 15. Nb3
{[%clk 0:42:44]} Qg5 {[%clk 1:00:03]} 16. g3 {[%clk 0:37:46]} Kb8
{[%clk 0:58:27]} 17. Na5 {[%clk 0:35:55]} e4 {[%clk 0:52:41]} 18. Nb5
{[%clk 0:32:47]} Nfe5 {[%clk 0:50:10]} 19. h4 {[%clk 0:30:35]} Qh6
{[%clk 0:41:55]} 20. Nd4 {[%clk 0:20:11]} *

[Event "Copenhagen Chess Challenge 2014"]
[Site "?"]
[Date "2014.05.17"]
[Round "7.4"]
[White "Haub, Thorsten Michael"]
[Black "Ochsner, Bjorn Moller"]
[Result "*"]
[LiveChessVersion "1.4.2"]
[BlackElo "2307"]
[WhiteElo "2441"]
[ECO "A00"]

1. g3 {[%clk 1:30:58]} c5 {[%clk 1:30:41]} 2. Bg2 {[%clk 1:31:22]} Nc6
{[%clk 1:31:05]} 3. e4 {[%clk 1:31:37]} g6 {[%clk 1:31:18]} 4. d3
{[%clk 1:31:46]} Bg7 {[%clk 1:31:43]} 5. Nf3 {[%clk 1:32:09]} d6 {[%clk 1:32:01]}
6. O-O {[%clk 1:32:27]} e5 {[%clk 1:32:24]} 7. c3 {[%clk 1:32:00]} Nge7
{[%clk 1:32:24]} 8. Nbd2 {[%clk 1:31:45]} O-O {[%clk 1:32:33]} 9. Nh4
{[%clk 1:32:07]} Kh8 {[%clk 1:26:21]} 10. f4 {[%clk 1:32:18]} exf4
{[%clk 1:19:21]} 11. gxf4 {[%clk 1:32:34]} f5 {[%clk 1:19:14]} 12. Ndf3
{[%clk 1:31:08]} d5 {[%clk 1:06:03]} 13. e5 {[%clk 1:30:19]} d4 {[%clk 1:03:26]}
14. c4 {[%clk 1:28:17]} Qd7 {[%clk 1:01:00]} 15. Bd2 {[%clk 1:24:22]} Rb8
{[%clk 0:57:25]} 16. a4 Nd8 {[%clk 0:48:14]} 17. Ng5 {[%clk 1:08:25]} b6
{[%clk 0:41:37]} 18. Qf3 {[%clk 1:03:39]} Bh6 {[%clk 0:39:21]} 19. Qg3
{[%clk 1:01:57]} Bxg5 {[%clk 0:31:45]} 20. Qxg5 {[%clk 1:01:46]} Ne6
{[%clk 0:31:55]} 21. Qg3 {[%clk 1:01:31]} Bb7 {[%clk 0:30:44]} 22. Nf3
{[%clk 0:59:35]} Bc6 {[%clk 0:28:20]} 23. Ng5 {[%clk 0:57:11]} Nxg5
{[%clk 0:22:51]} 24. Qxg5 {[%clk 0:57:26]} Bxg2 {[%clk 0:22:53]} 25. Qxg2
{[%clk 0:57:39]} a5 {[%clk 0:20:14]} 26. Rf3 {[%clk 0:55:43]} Qe6
{[%clk 0:19:33]} 27. Qg5 {[%clk 0:53:55]} Rf7 {[%clk 0:19:21]} 28. Rh3
{[%clk 0:52:54]} Ng8 {[%clk 0:17:16]} *

[Event "Copenhagen Chess Challenge 2014"]
[Site "?"]
[Date "2014.05.17"]
[Round "7.5"]
[White "Korley, Kassa"]
[Black "Pedersen, Daniel Vesterbaek"]
[Result "*"]
[LiveChessVersion "1.4.2"]
[BlackElo "2244"]
[WhiteElo "2390"]
[ECO "A07"]

1. Nf3 {[%clk 1:30:56]} Nf6 {[%clk 1:30:31]} 2. g3 {[%clk 1:31:24]} d5
{[%clk 1:28:50]} 3. Bg2 {[%clk 1:31:49]} c6 {[%clk 1:23:29]} 4. O-O
{[%clk 1:32:13]} Bg4 {[%clk 1:23:03]} 5. c4 {[%clk 1:31:36]} e6 {[%clk 1:23:14]}
6. d3 {[%clk 1:29:53]} Nbd7 {[%clk 1:22:10]} 7. cxd5 {[%clk 1:30:11]} exd5
{[%clk 1:13:49]} 8. Nc3 {[%clk 1:29:37]} Be7 {[%clk 1:10:09]} 9. h3
{[%clk 1:30:03]} Bxf3 {[%clk 1:08:06]} 10. Bxf3 {[%clk 1:30:31]} O-O
{[%clk 1:08:09]} 11. Bd2 {[%clk 1:30:57]} Re8 {[%clk 1:06:45]} 12. Rc1
{[%clk 1:28:15]} Nc5 {[%clk 1:01:56]} 13. b4 {[%clk 1:17:17]} Ne6
{[%clk 1:01:41]} 14. Rb1 {[%clk 1:17:42]} a6 {[%clk 0:54:13]} 15. Bg2
{[%clk 1:13:02]} Bf8 {[%clk 0:54:42]} 16. a4 {[%clk 1:09:07]} Nd4
{[%clk 0:52:51]} 17. e3 {[%clk 1:04:40]} Nf5 {[%clk 0:52:38]} 18. Ne2
{[%clk 1:02:07]} Bd6 {[%clk 0:47:30]} 19. Qc2 {[%clk 0:47:46]} Rc8
{[%clk 0:37:07]} 20. e4 {[%clk 0:43:13]} Ne7 {[%clk 0:37:26]} 21. f4
{[%clk 0:40:54]} Qb6+ {[%clk 0:29:25]} 22. Kh1 {[%clk 0:40:53]} Nf5
{[%clk 0:28:33]} *

[Event "Copenhagen Chess Challenge 2014"]
[Site "?"]
[Date "2014.05.17"]
[Round "7.6"]
[White "Christensen, Tobias"]
[Black "Sylvan, Jacob"]
[Result "*"]
[LiveChessVersion "1.4.2"]
[BlackElo "2348"]
[WhiteElo "2368"]
[ECO "B54"]

1. e4 {[%clk 1:30:58]} c5 {[%clk 1:28:27]} 2. Nf3 {[%clk 1:31:24]} d6
{[%clk 1:28:48]} 3. d4 {[%clk 1:31:50]} cxd4 {[%clk 1:29:11]} 4. Nxd4
{[%clk 1:32:17]} Nf6 {[%clk 1:29:34]} 5. f3 {[%clk 1:32:42]} g6 {[%clk 1:28:04]}
6. c4 {[%clk 1:31:40]} Bg7 {[%clk 1:27:47]} 7. Nc3 {[%clk 1:31:54]} Nc6
{[%clk 1:27:39]} 8. Be3 {[%clk 1:26:33]} O-O {[%clk 1:24:22]} 9. Qd2
{[%clk 1:24:32]} Bd7 {[%clk 1:22:07]} 10. Be2 {[%clk 1:24:31]} a6
{[%clk 1:19:41]} 11. O-O {[%clk 1:23:55]} Rc8 {[%clk 1:16:51]} 12. Rab1
{[%clk 1:18:04]} Nxd4 {[%clk 1:06:03]} 13. Bxd4 {[%clk 1:18:11]} a5
{[%clk 1:03:28]} 14. Qe3 {[%clk 1:13:55]} a4 {[%clk 1:02:56]} 15. Bb6
{[%clk 1:06:34]} Qe8 {[%clk 1:03:20]} 16. c5 {[%clk 1:04:52]} dxc5
{[%clk 1:02:31]} 17. e5 {[%clk 1:03:17]} Nh5 {[%clk 0:59:37]} 18. f4
{[%clk 0:46:59]} Bh6 {[%clk 0:58:16]} 19. Bxh5 {[%clk 0:44:15]} gxh5
{[%clk 0:58:36]} 20. Bxc5 {[%clk 0:43:48]} Bc6 {[%clk 0:57:19]} 21. Rbd1
{[%clk 0:32:52]} Kh8 {[%clk 0:50:58]} 22. Bd4 {[%clk 0:33:16]} Rg8
{[%clk 0:49:27]} 23. Ne4 {[%clk 0:31:36]} Rg6 {[%clk 0:48:21]} 24. Ng5
{[%clk 0:25:32]} h4 {[%clk 0:46:52]} *

[Event "Copenhagen Chess Challenge 2014"]
[Site "?"]
[Date "2014.05.17"]
[Round "7.7"]
[White "Westerinen, Heikki M.J."]
[Black "Sahl, Bjarke"]
[Result "1/2-1/2"]
[LiveChessVersion "1.4.2"]
[BlackElo "2368"]
[WhiteElo "2299"]
[ECO "B90"]

1. e4 {[%clk 1:30:43]} c5 {[%clk 1:24:17]} 2. Nf3 {[%clk 1:30:54]} d6
{[%clk 1:24:44]} 3. d4 {[%clk 1:30:43]} cxd4 {[%clk 1:25:10]} 4. Nxd4
{[%clk 1:30:55]} Nf6 {[%clk 1:25:37]} 5. Nc3 {[%clk 1:31:02]} a6 {[%clk 1:26:04]}
6. a4 {[%clk 1:30:24]} e5 {[%clk 1:25:44]} 7. Nf3 {[%clk 1:30:36]} Qc7
{[%clk 1:24:23]} 8. Bg5 {[%clk 1:29:54]} Nbd7 {[%clk 1:24:36]} 9. Nd2
{[%clk 1:29:36]} b6 {[%clk 1:12:09]} 10. Bc4 {[%clk 1:28:54]} Bb7
{[%clk 1:12:29]} 1/2-1/2

[Event "Copenhagen Chess Challenge 2014"]
[Site "?"]
[Date "2014.05.17"]
[Round "7.8"]
[White "Hansen, Mads"]
[Black "Thuesen, Mogens"]
[Result "*"]
[LiveChessVersion "1.4.2"]
[BlackElo "2235"]
[WhiteElo "2358"]
[ECO "C11"]

1. e4 {[%clk 1:30:14]} e6 {[%clk 1:29:41]} 2. d4 {[%clk 1:30:07]} d5
{[%clk 1:30:04]} 3. Nc3 {[%clk 1:29:36]} Nf6 {[%clk 1:30:24]} 4. e5
{[%clk 1:29:59]} Nfd7 {[%clk 1:30:48]} 5. f4 {[%clk 1:29:38]} c5 {[%clk 1:31:09]}
6. Nf3 {[%clk 1:30:02]} Nc6 {[%clk 1:31:29]} 7. Be3 {[%clk 1:30:27]} a6
{[%clk 1:30:36]} 8. Qd2 {[%clk 1:30:49]} b5 {[%clk 1:30:49]} 9. a3
{[%clk 1:31:12]} g5 {[%clk 1:19:50]} 10. Ne2 {[%clk 1:13:41]} g4 {[%clk 1:17:17]}
11. Nfg1 {[%clk 1:14:06]} h5 {[%clk 1:05:42]} 12. h3 {[