[Event "Copenhagen Chess Challenge 2014"]
[Site "?"]
[Date "2014.05.17"]
[Round "7.1"]
[White "Fries-Nielsen, Jens Ove"]
[Black "Ziska, Helgi Dam"]
[Result "1/2-1/2"]
[LiveChessVersion "1.4.2"]
[BlackElo "2491"]
[WhiteElo "2384"]
[ECO "A45"]

1. d4 {[%clk 1:28:54]} Nf6 {[%clk 1:30:16]} 2. Nc3 {[%clk 1:26:25]} d5
{[%clk 1:30:07]} 3. Bf4 {[%clk 1:25:39]} g6 {[%clk 1:29:29]} 4. e3
{[%clk 1:23:54]} Bg7 {[%clk 1:29:21]} 5. Nb5 {[%clk 1:22:16]} Na6
{[%clk 1:28:57]} 6. Nc3 {[%clk 1:22:20]} Nb8 {[%clk 1:26:59]} 7. Nb5
{[%clk 1:22:31]} Na6 {[%clk 1:27:02]} 8. Nc3 {[%clk 1:22:53]} Nb8
{[%clk 1:25:26]} 1/2-1/2

[Event "Copenhagen Chess Challenge 2014"]
[Site "?"]
[Date "2014.05.17"]
[Round "7.2"]
[White "Mikkelsen, Nikolaj"]
[Black "Semcesen, Daniel"]
[Result "*"]
[LiveChessVersion "1.4.2"]
[BlackElo "2513"]
[WhiteElo "2430"]
[ECO "C42"]

1. e4 {[%clk 1:30:57]} e5 {[%clk 1:29:39]} 2. Nf3 {[%clk 1:31:20]} Nf6
{[%clk 1:28:50]} 3. Nxe5 {[%clk 1:31:33]} d6 {[%clk 1:29:11]} 4. Nf3
{[%clk 1:31:59]} Nxe4 {[%clk 1:29:32]} 5. Bd3 {[%clk 1:31:38]} Nf6
{[%clk 1:28:20]} 6. O-O {[%clk 1:31:38]} Be7 {[%clk 1:28:41]} 7. c3
{[%clk 1:31:01]} O-O {[%clk 1:28:31]} 8. h3 {[%clk 1:29:30]} Re8 {[%clk 1:28:37]}
9. Re1 {[%clk 1:22:46]} Nbd7 {[%clk 1:22:31]} 10. Bc2 {[%clk 1:22:48]} d5
{[%clk 1:22:27]} 11. d4 {[%clk 1:22:50]} Bd6 {[%clk 1:22:36]} 12. Nbd2
{[%clk 1:13:54]} c6 {[%clk 1:18:41]} 13. Nf1 {[%clk 0:53:09]} Ne4
{[%clk 1:11:14]} 14. Ng5 {[%clk 0:53:29]} Nxg5 {[%clk 0:54:36]} 15. Rxe8+
{[%clk 0:52:06]} Qxe8 {[%clk 0:54:54]} 16. Bxg5 {[%clk 0:52:32]} f6
{[%clk 0:53:36]} 17. Bh4 {[%clk 0:51:41]} *

[Event "Copenhagen Chess Challenge 2014"]
[Site "?"]
[Date "2014.05.17"]
[Round "7.3"]
[White "Hoi, Carsten"]
[Black "Danielsen, Henrik"]
[Result "*"]
[LiveChessVersion "1.4.2"]
[BlackElo "2483"]
[WhiteElo "2397"]
[ECO "A41"]

1. d4 {[%clk 1:30:43]} d6 {[%clk 1:30:58]} 2. Nf3 {[%clk 1:29:41]} g6
{[%clk 1:28:28]} 3. c4 {[%clk 1:29:08]} Bg7 {[%clk 1:28:25]} 4. Nc3
{[%clk 1:28:33]} e5 {[%clk 1:27:51]} 5. e4 {[%clk 1:15:42]} Bg4 {[%clk 1:25:25]}
6. d5 {[%clk 1:15:11]} Nd7 {[%clk 1:25:44]} 7. Be2 {[%clk 1:13:39]} Bh6
{[%clk 1:25:50]} 8. Bxh6 {[%clk 1:05:59]} Nxh6 {[%clk 1:26:09]} 9. Nd2
{[%clk 1:04:22]} Bxe2 {[%clk 1:24:54]} 10. Qxe2 {[%clk 1:03:24]} f5
{[%clk 1:24:51]} 11. O-O-O {[%clk 0:53:57]} Qe7 {[%clk 1:19:06]} 12. Kb1
{[%clk 0:49:58]} Nf7 {[%clk 1:10:09]} 13. exf5 {[%clk 0:47:43]} gxf5
{[%clk 1:10:30]} 14. h3 {[%clk 0:47:45]} O-O-O {[%clk 1:02:10]} 15. Nb3
{[%clk 0:42:44]} Qg5 {[%clk 1:00:03]} *

[Event "Copenhagen Chess Challenge 2014"]
[Site "?"]
[Date "2014.05.17"]
[Round "7.4"]
[White "Haub, Thorsten Michael"]
[Black "Ochsner, Bjorn Moller"]
[Result "*"]
[LiveChessVersion "1.4.2"]
[BlackElo "2307"]
[WhiteElo "2441"]
[ECO "A00"]

1. g3 {[%clk 1:30:58]} c5 {[%clk 1:30:41]} 2. Bg2 {[%clk 1:31:22]} Nc6
{[%clk 1:31:05]} 3. e4 {[%clk 1:31:37]} g6 {[%clk 1:31:18]} 4. d3
{[%clk 1:31:46]} Bg7 {[%clk 1:31:43]} 5. Nf3 {[%clk 1:32:09]} d6 {[%clk 1:32:01]}
6. O-O {[%clk 1:32:27]} e5 {[%clk 1:32:24]} 7. c3 {[%clk 1:32:00]} Nge7
{[%clk 1:32:24]} 8. Nbd2 {[%clk 1:31:45]} O-O {[%clk 1:32:33]} 9. Nh4
{[%clk 1:32:07]} Kh8 {[%clk 1:26:21]} 10. f4 {[%clk 1:32:18]} exf4
{[%clk 1:19:21]} 11. gxf4 {[%clk 1:32:34]} f5 {[%clk 1:19:14]} 12. Ndf3
{[%clk 1:31:08]} d5 {[%clk 1:06:03]} 13. e5 {[%clk 1:30:19]} d4 {[%clk 1:03:26]}
14. c4 {[%clk 1:28:17]} Qd7 {[%clk 1:01:00]} 15. Bd2 {[%clk 1:24:22]} Rb8
{[%clk 0:57:25]} 16. a4 Nd8 {[%clk 0:48:14]} 17. Ng5 {[%clk 1:08:25]} b6
{[%clk 0:41:37]} 18. Qf3 {[%clk 1:03:39]} *

[Event "Copenhagen Chess Challenge 2014"]
[Site "?"]
[Date "2014.05.17"]
[Round "7.5"]
[White "Korley, Kassa"]
[Black "Pedersen, Daniel Vesterbaek"]
[Result "*"]
[LiveChessVersion "1.4.2"]
[BlackElo "2244"]
[WhiteElo "2390"]
[ECO "A07"]

1. Nf3 {[%clk 1:30:56]} Nf6 {[%clk 1:30:31]} 2. g3 {[%clk 1:31:24]} d5
{[%clk 1:28:50]} 3. Bg2 {[%clk 1:31:49]} c6 {[%clk 1:23:29]} 4. O-O
{[%clk 1:32:13]} Bg4 {[%clk 1:23:03]} 5. c4 {[%clk 1:31:36]} e6 {[%clk 1:23:14]}
6. d3 {[%clk 1:29:53]} Nbd7 {[%clk 1:22:10]} 7. cxd5 {[%clk 1:30:11]} exd5
{[%clk 1:13:49]} 8. Nc3 {[%clk 1:29:37]} Be7 {[%clk 1:10:09]} 9. h3
{[%clk 1:30:03]} Bxf3 {[%clk 1:08:06]} 10. Bxf3 {[%clk 1:30:31]} O-O
{[%clk 1:08:09]} 11. Bd2 {[%clk 1:30:57]} Re8 {[%clk 1:06:45]} 12. Rc1
{[%clk 1:28:15]} Nc5 {[%clk 1:01:56]} 13. b4 {[%clk 1:17:17]} Ne6
{[%clk 1:01:41]} 14. Rb1 {[%clk 1:17:42]} a6 {[%clk 0:54:13]} 15. Bg2
{[%clk 1:13:02]} Bf8 {[%clk 0:54:42]} 16. a4 {[%clk 1:09:07]} Nd4
{[%clk 0:52:51]} 17. e3 {[%clk 1:04:40]} Nf5 {[%clk 0:52:38]} 18. Ne2
{[%clk 1:02:07]} Bd6 {[%clk 0:47:30]} *

[Event "Copenhagen Chess Challenge 2014"]
[Site "?"]
[Date "2014.05.17"]
[Round "7.6"]
[White "Christensen, Tobias"]
[Black "Sylvan, Jacob"]
[Result "*"]
[LiveChessVersion "1.4.2"]
[BlackElo "2348"]
[WhiteElo "2368"]
[ECO "B54"]

1. e4 {[%clk 1:30:58]} c5 {[%clk 1:28:27]} 2. Nf3 {[%clk 1:31:24]} d6
{[%clk 1:28:48]} 3. d4 {[%clk 1:31:50]} cxd4 {[%clk 1:29:11]} 4. Nxd4
{[%clk 1:32:17]} Nf6 {[%clk 1:29:34]} 5. f3 {[%clk 1:32:42]} g6 {[%clk 1:28:04]}
6. c4 {[%clk 1:31:40]} Bg7 {[%clk 1:27:47]} 7. Nc3 {[%clk 1:31:54]} Nc6
{[%clk 1:27:39]} 8. Be3 {[%clk 1:26:33]} O-O {[%clk 1:24:22]} 9. Qd2
{[%clk 1:24:32]} Bd7 {[%clk 1:22:07]} 10. Be2 {[%clk 1:24:31]} a6
{[%clk 1:19:41]} 11. O-O {[%clk 1:23:55]} Rc8 {[%clk 1:16:51]} 12. Rab1
{[%clk 1:18:04]} Nxd4 {[%clk 1:06:03]} 13. Bxd4 {[%clk 1:18:11]} a5
{[%clk 1:03:28]} 14. Qe3 {[%clk 1:13:55]} a4 {[%clk 1:02:56]} 15. Bb6
{[%clk 1:06:34]} Qe8 {[%clk 1:03:20]} 16. c5 {[%clk 1:04:52]} dxc5
{[%clk 1:02:31]} 17. e5 {[%clk 1:03:17]} Nh5 {[%clk 0:59:37]} 18. f4
{[%clk 0:46:59]} Bh6 {[%clk 0:58:16]} *

[Event "Copenhagen Chess Challenge 2014"]
[Site "?"]
[Date "2014.05.17"]
[Round "7.7"]
[White "Westerinen, Heikki M.J."]
[Black "Sahl, Bjarke"]
[Result "1/2-1/2"]
[LiveChessVersion "1.4.2"]
[BlackElo "2368"]
[WhiteElo "2299"]
[ECO "B90"]

1. e4 {[%clk 1:30:43]} c5 {[%clk 1:24:17]} 2. Nf3 {[%clk 1:30:54]} d6
{[%clk 1:24:44]} 3. d4 {[%clk 1:30:43]} cxd4 {[%clk 1:25:10]} 4. Nxd4
{[%clk 1:30:55]} Nf6 {[%clk 1:25:37]} 5. Nc3 {[%clk 1:31:02]} a6 {[%clk 1:26:04]}
6. a4 {[%clk 1:30:24]} e5 {[%clk 1:25:44]} 7. Nf3 {[%clk 1:30:36]} Qc7
{[%clk 1:24:23]} 8. Bg5 {[%clk 1:29:54]} Nbd7 {[%clk 1:24:36]} 9. Nd2
{[%clk 1:29:36]} b6 {[%clk 1:12:09]} 10. Bc4 {[%clk 1:28:54]} Bb7
{[%clk 1:12:29]} 1/2-1/2

[Event "Copenhagen Chess Challenge 2014"]
[Site "?"]
[Date "2014.05.17"]
[Round "7.8"]
[White "Hansen, Mads"]
[Black "Thuesen, Mogens"]
[Result "*"]
[LiveChessVersion "1.4.2"]
[BlackElo "2235"]
[WhiteElo "2358"]
[ECO "C11"]

1. e4 {[%clk 1:30:14]} e6 {[%clk 1:29:41]} 2. d4 {[%clk 1:30:07]} d5
{[%clk 1:30:04]} 3. Nc3 {[%clk 1:29:36]} Nf6 {[%clk 1:30:24]} 4. e5
{[%clk 1:29:59]} Nfd7 {[%clk 1:30:48]} 5. f4 {[%clk 1:29:38]} c5 {[%clk 1:31:09]}
6. Nf3 {[%clk 1:30:02]} Nc6 {[%clk 1:31:29]} 7. Be3 {[%clk 1:30:27]} a6
{[%clk 1:30:36]} 8. Qd2 {[%clk 1:30:49]} b5 {[%clk 1:30:49]} 9. a3
{[%clk 1:31:12]} g5 {[%clk 1:19:50]} 10. Ne2 {[%clk 1:13:41]} g4 {[%clk 1:17:17]}
11. Nfg1 {[%clk 1:14:06]} h5 {[%clk 1:05:42]} 12. h3 {[%clk 1:10:35]} f5
{[%clk 0:56:06]} 13. g3 {[%clk 1:03:27]} Rg8 {[%clk 0:44:26]} 14. Bg2
{[%clk 1:02:36]} c4 {[%clk 0:44:12]} 15. hxg4 {[%clk 1:02:24]} hxg4
{[%clk 0:44:34]} *

[Event "Copenhagen Chess Challenge 2014"]
[Site "?"]
[Date "2014.05.17"]
[Round "7.9"]
[White "Stefansson, Hannes"]
[Black "Mueller, Reinhold"]
[Result "*"]
[LiveChessVersion "1.4.2"]
[BlackElo "2282"]
[WhiteElo "2548"]
[ECO "A61"]

1. d4 {[%clk 1:30:50]} Nf6 {[%clk 1:30:49]} 2. c4 {[%clk 1:31:08]} c5
{[%clk 1:31:05]} 3. d5 {[%clk 1:31:20]} e6 {[%clk 1:31:18]} 4. Nc3
{[%clk 1:30:35]} exd5 {[%clk 1:31:36]} 5. cxd5 {[%clk 1:30:59]} d6
{[%clk 1:31:56]} 6. Nf3 {[%clk 1:29:53]} g6 {[%clk 1:32:10]} 7. Bf4
{[%clk 1:28:50]} Bg7 {[%clk 1:30:52]} 8. Qa4+ {[%clk 1:28:29]} Bd7
{[%clk 1:31:15]} 9. Qb3 {[%clk 1:28:17]} Qc7 {[%clk 1:31:37]} 10. e4
{[%clk 1:24:38]} O-O {[%clk 1:30:48]} 11. Nd2 {[%clk 1:21:25]} Re8
{[%clk 1:29:14]} 12. Be2 {[%clk 1:20:52]} b5 {[%clk 1:21:08]} 13. Bxb5
{[%clk 1:12:13]} Nxe4 {[%clk 1:20:11]} 14. Ncxe4 {[%clk 1:12:34]} f5
{[%clk 1:18:57]} 15. O-O {[%clk 1:05:04]} fxe4 {[%clk 1:17:46]} 16. Rae1
{[%clk 1:05:13]} Bxb5 {[%clk 1:01:34]} 17. Qxb5 {[%clk 1:05:20]} Nd7
{[%clk 1:00:59]} 18. Nxe4 {[%clk 1:00:27]} Ne5 {[%clk 0:51:03]} *

[Event "Copenhagen Chess Challenge 2014"]
[Site "?"]
[Date "2014.05.17"]
[Round "7.10"]
[White "Hector, Jonny"]
[Black "Rydstrom, Tom"]
[Result "*"]
[LiveChessVersion "1.4.2"]
[BlackElo "2190"]
[WhiteElo "2511"]
[ECO "C54"]

1. e4 {[%clk 1:30:44]} e5 {[%clk 1:30:51]} 2. Nf3 {[%clk 1:31:08]} Nc6
{[%clk 1:31:16]} 3. Bc4 {[%clk 1:31:31]} Bc5 {[%clk 1:31:07]} 4. c3
{[%clk 1:31:49]} Nf6 {[%clk 1:31:33]} 5. d4 {[%clk 1:32:11]} exd4
{[%clk 1:31:53]} 6. cxd4 {[%clk 1:32:34]} Bb4+ {[%clk 1:32:20]} 7. Nbd2
{[%clk 1:32:53]} d5 {[%clk 1:29:39]} 8. exd5 {[%clk 1:33:10]} Nxd5
{[%clk 1:29:59]} 9. O-O {[%clk 1:33:30]} O-O {[%clk 1:30:11]} 10. a3
{[%clk 1:33:44]} Be7 {[%clk 1:28:43]} 11. Re1 {[%clk 1:33:59]} Bg4
{[%clk 1:15:10]} 12. h3 {[%clk 1:32:11]} Bh5 {[%clk 1:13:58]} 13. Ba2
{[%clk 1:30:49]} Bf6 {[%clk 1:05:47]} 14. Qb3 {[%clk 1:20:24]} Nb6
{[%clk 1:05:09]} 15. d5 {[%clk 1:19:25]} Nd4 {[%clk 1:01:41]} 16. Nxd4
{[%clk 1:19:27]} Bxd4 {[%clk 1:02:03]} 17. Ne4 {[%clk 1:18:45]} Re8
{[%clk 0:49:13]} 18. Bf4 {[%clk 1:09:10]} Be5 {[%clk 0:39:43]} 19. Bxe5
{[%clk 1:06:49]} Rxe5 {[%clk 0:40:09]} *

[Event "Copenhagen Chess Challenge 2014"]
[Site "?"]
[Date "2014.05.17"]
[Round "7.11"]
[White "Vesterli, Michael E."]
[Black "Thorfinnsson, Bragi"]
[Result "*"]
[LiveChessVersion "1.4.2"]
[BlackElo "2459"]
[WhiteElo "2107"]
[ECO "A84"]

1. d4 {[%clk 1:30:57]} f5 {[%clk 1:29:31]} 2. c4 {[%clk 1:31:13]} e6
{[%clk 1:28:52]} 3. Nc3 {[%clk 1:31:27]} Nf6 {[%clk 1:29:16]} 4. Nf3
{[%clk 1:31:51]} Be7 {[%clk 1:27:07]} 5. Bf4 {[%clk 1:31:14]} d6 {[%clk 1:24:29]}
6. e3 {[%clk 1:29:46]} O-O {[%clk 1:24:33]} 7. h3 {[%clk 1:28:20]} Qe8
{[%clk 1:19:38]} 8. Bd3 {[%clk 1:27:36]} Nc6 {[%clk 1:17:54]} 9. Bh2
{[%clk 1:19:15]} Bd8 {[%clk 1:14:23]} 10. d5 {[%clk 1:13:09]} Nb4
{[%clk 1:10:53]} 11. dxe6 {[%clk 1:13:25]} Bxe6 {[%clk 1:03:34]} 12. Be2
{[%clk 1:08:41]} Qg6 {[%clk 0:59:22]} 13. O-O {[%clk 1:07:55]} Ne4
{[%clk 0:58:20]} 14. Qb3 {[%clk 1:02:16]} a5 {[%clk 0:55:50]} *

[Event "Copenhagen Chess Challenge 2014"]
[Site "?"]
[Date "2014.05.17"]
[Round "7.12"]
[White "Englert, Fabian"]
[Black "Lauritsen, Martin Lee"]
[Result "*"]
[LiveChessVersion "1.4.2"]
[BlackElo "2141"]
[WhiteElo "2310"]
[ECO "A43"]

1. d4 {[%clk 1:30:57]} Nf6 {[%clk 1:30:51]} 2. Nf3 {[%clk 1:31:20]} c5
{[%clk 1:31:08]} 3. d5 {[%clk 1:31:19]} g6 {[%clk 1:31:26]} 4. Nc3
{[%clk 1:28:26]} d6 {[%clk 1:30:39]} 5. e4 {[%clk 1:28:34]} Bg7 {[%clk 1:30:54]}
6. Bb5+ {[%clk 1:28:52]} Nfd7 {[%clk 1:29:37]} 7. a4 {[%clk 1:28:42]} O-O
{[%clk 1:29:44]} 8. O-O {[%clk 1:28:30]} a6 {[%clk 1:25:58]} 9. Bc4
{[%clk 1:26:10]} Ne5 {[%clk 1:23:50]} 10. Nxe5 {[%clk 1:26:27]} Bxe5
{[%clk 1:24:11]} 11. Bg5 {[%clk 1:21:29]} Bg7 {[%clk 1:18:21]} 12. f4
{[%clk 1:17:00]} Nd7 {[%clk 1:10:25]} 13. Qe1 {[%clk 1:09:54]} h6
{[%clk 1:09:12]} 14. Bh4 {[%clk 1:10:18]} Rb8 {[%clk 1:08:22]} 15. Qg3
{[%clk 1:07:15]} b5 {[%clk 1:05:57]} 16. axb5 {[%clk 1:06:19]} axb5
{[%clk 1:06:11]} 17. Nxb5 {[%clk 1:03:07]} Bxb2 {[%clk 1:05:06]} 18. Rab1
{[%clk 1:01:51]} Bf6 {[%clk 0:59:50]} 19. Na7 {[%clk 0:49:53]} *

[Event "Copenhagen Chess Challenge 2014"]
[Site "?"]
[Date "2014.05.17"]
[Round "7.13"]
[White "Pedersen, Nicolai Kvist Brondt"]
[Black "Stojanovski, Sandi"]
[Result "1/2-1/2"]
[LiveChessVersion "1.4.2"]
[BlackElo "2265"]
[WhiteElo "2200"]
[ECO "E11"]

1. d4 {[%clk 1:30:56]} Nf6 {[%clk 1:30:43]} 2. Nf3 {[%clk 1:31:07]} e6
{[%clk 1:30:19]} 3. c4 {[%clk 1:29:34]} Bb4+ {[%clk 1:29:59]} 4. Bd2
{[%clk 1:29:59]} Bxd2+ {[%clk 1:30:13]} 5. Qxd2 {[%clk 1:30:08]} O-O
{[%clk 1:29:35]} 6. Nc3 {[%clk 1:30:35]} d5 {[%clk 1:29:53]} 7. e3
{[%clk 1:30:28]} Qe7 {[%clk 1:29:50]} 8. cxd5 {[%clk 1:27:37]} exd5
{[%clk 1:28:35]} 9. Bd3 {[%clk 1:27:59]} Nbd7 {[%clk 1:24:57]} 10. O-O
{[%clk 1:24:55]} 1/2-1/2

[Event "Copenhagen Chess Challenge 2014"]
[Site "?"]
[Date "2014.05.17"]
[Round "7.14"]
[White "Nielsen, Viktor"]
[Black "Thorhallsson, Throstur"]
[Result "0-1"]
[LiveChessVersion "1.4.2"]
[BlackElo "2437"]
[WhiteElo "2029"]
[ECO "B22"]

1. e4 {[%clk 1:30:24]} c5 {[%clk 1:30:56]} 2. c3 {[%clk 1:30:30]} Nf6
{[%clk 1:30:11]} 3. e5 {[%clk 1:30:38]} Nd5 {[%clk 1:30:39]} 4. d4
{[%clk 1:30:37]} cxd4 {[%clk 1:30:41]} 5. Nf3 {[%clk 1:30:57]} e6
{[%clk 1:29:55]} 6. cxd4 {[%clk 1:31:21]} b6 {[%clk 1:28:07]} 7. Bd3
{[%clk 1:30:22]} Bb7 {[%clk 1:25:57]} 8. Nc3 {[%clk 1:29:41]} Nxc3
{[%clk 1:23:34]} 9. bxc3 {[%clk 1:30:10]} Be7 {[%clk 1:22:59]} 10. O-O
{[%clk 1:29:00]} Qc7 {[%clk 1:19:28]} 11. Bd2 {[%clk 1:27:21]} d6
{[%clk 1:17:48]} 12. Re1 {[%clk 1:25:36]} Nd7 {[%clk 1:17:04]} 13. c4
{[%clk 1:18:17]} dxe5 {[%clk 1:15:10]} 14. Nxe5 {[%clk 1:18:33]} Nxe5
{[%clk 1:14:56]} 15. dxe5 {[%clk 1:18:40]} O-O-O {[%clk 1:13:58]} 16. Qc2
{[%clk 1:15:40]} Qd7 {[%clk 1:11:32]} 17. Re3 {[%clk 1:15:15]} Bc5
{[%clk 1:09:50]} 18. Rd1 {[%clk 1:12:55]} Bxe3 {[%clk 1:08:10]} 19. Bxe3
{[%clk 1:13:23]} Be4 {[%clk 1:04:26]} 20. Bxe4 {[%clk 1:12:59]} Qxd1+
{[%clk 1:04:50]} 21. Qxd1 {[%clk 1:13:24]} Rxd1# {[%clk 1:05:15]} 0-1

[Event "Copenhagen Chess Challenge 2014"]
[Site "?"]
[Date "2014.05.17"]
[Round "7.15"]
[White "Nordenbaek, Jan"]
[Black "Larsen, Tor Ketil"]
[Result "*"]
[LiveChessVersion "1.4.2"]
[BlackElo "2004"]
[WhiteElo "2248"]
[ECO "B06"]

1. e4 {[%clk 1:30:56]} d6 {[%clk 1:30:56]} 2. d4 {[%clk 1:31:19]} g6
{[%clk 1:31:20]} 3. Nc3 {[%clk 1:31:41]} Bg7 {[%clk 1:31:42]} 4. f4
{[%clk 1:30:06]} c5 {[%clk 1:25:25]} 5. dxc5 {[%clk 1:26:33]} Qa5
{[%clk 1:25:24]} 6. cxd6 {[%clk 1:25:16]} Bxc3+ {[%clk 1:25:18]} 7. bxc3
{[%clk 1:25:36]} Qxc3+ {[%clk 1:25:42]} 8. Bd2 {[%clk 1:25:52]} Qd4
{[%clk 1:25:20]} 9. Bd3 {[%clk 1:25:25]} Qxd6 {[%clk 1:07:25]} 10. Nf3
{[%clk 1:12:54]} Qc5 {[%clk 1:02:57]} 11. Rb1 {[%clk 1:10:17]} Nf6
{[%clk 1:01:01]} 12. Rb5 {[%clk 1:10:04]} Qc7 {[%clk 1:00:16]} 13. O-O
{[%clk 1:04:06]} Bd7 {[%clk 0:58:44]} 14. Rb2 {[%clk 1:03:10]} Bc6
{[%clk 0:52:29]} 15. Qe2 {[%clk 1:01:31]} O-O {[%clk 0:52:19]} 16. e5
{[%clk 0:55:30]} Nh5 {[%clk 0:49:47]} 17. Ng5 {[%clk 0:55:08]} *

[Event "Copenhagen Chess Challenge 2014"]
[Site "?"]
[Date "2014.05.17"]
[Round "7.16"]
[White "Jorgensen, Dennis"]
[Black "Sorensen, Per Settergren"]
[Result "*"]
[LiveChessVersion "1.4.2"]
[BlackElo "2021"]
[WhiteElo "2231"]
[ECO "A40"]

1. d4 {[%clk 1:30:56]} e6 {[%clk 1:30:07]} 2. Nf3 {[%clk 1:30:23]} b6
{[%clk 1:29:58]} 3. c4 {[%clk 1:29:16]} Bb7 {[%clk 1:30:09]} 4. g3
{[%clk 1:29:01]} Bb4+ {[%clk 1:29:46]} 5. Bd2 {[%clk 1:27:32]} Bxf3
{[%clk 1:29:57]} 6. exf3 {[%clk 1:27:49]} Bxd2+ {[%clk 1:30:19]} 7. Qxd2
{[%clk 1:26:49]} d5 {[%clk 1:28:20]} 8. cxd5 {[%clk 1:20:54]} Qxd5
{[%clk 1:27:40]} 9. Nc3 {[%clk 1:08:43]} Qxf3 {[%clk 1:14:47]} 10. Rg1
{[%clk 1:09:07]} c6 {[%clk 1:11:31]} 11. Bg2 {[%clk 1:07:47]} Qf6
{[%clk 1:03:58]} 12. Nb5 {[%clk 1:01:47]} Qe7 {[%clk 0:57:11]} 13. Qc3
{[%clk 1:00:02]} Qd7 {[%clk 0:47:48]} 14. d5 {[%clk 0:54:33]} *

