[Event "No Logo Norway Chess 2014 Blitz"]
[Site "?"]
[Date "2014.06.02"]
[Round "6.1"]
[White "Topalov, Veselin"]
[Black "Aronian, Levon"]
[Result "*"]
[LiveChessVersion "1.4.2"]
[BlackElo "2815"]
[WhiteElo "2772"]
[ECO "C44"]

1. e4 {[%clk 0:04:02]} e5 {[%clk 0:04:04]} 2. Nf3 {[%clk 0:04:03]} Nc6
{[%clk 0:04:03]} 3. g3 {[%clk 0:04:04]} Bc5 {[%clk 0:04:04]} 4. Bg2
{[%clk 0:04:02]} d6 {[%clk 0:04:04]} 5. c3 {[%clk 0:04:02]} Nf6 {[%clk 0:04:00]}
6. d3 {[%clk 0:04:02]} O-O {[%clk 0:03:58]} 7. O-O {[%clk 0:04:03]} a6
{[%clk 0:03:58]} 8. Re1 {[%clk 0:04:00]} Re8 {[%clk 0:03:52]} 9. h3
{[%clk 0:03:58]} h6 {[%clk 0:03:52]} 10. Nbd2 {[%clk 0:03:52]} Be6
{[%clk 0:03:52]} 11. Kh2 {[%clk 0:03:46]} Bxf2 {[%clk 0:03:51]} 12. Rf1
{[%clk 0:03:44]} Ba7 {[%clk 0:03:42]} 13. Nh4 {[%clk 0:03:28]} Nh7
{[%clk 0:03:24]} 14. Nf5 {[%clk 0:03:18]} Ne7 {[%clk 0:03:16]} 15. Qg4
{[%clk 0:02:50]} Ng6 {[%clk 0:02:59]} 16. Nc4 {[%clk 0:02:16]} Nf6
{[%clk 0:02:54]} 17. Qe2 {[%clk 0:02:10]} d5 {[%clk 0:02:29]} 18. exd5
{[%clk 0:01:54]} Bxd5 {[%clk 0:01:46]} 19. Bxd5 {[%clk 0:01:45]} Qxd5
{[%clk 0:01:07]} 20. Nxh6+ {[%clk 0:01:42]} Kf8 {[%clk 0:01:09]} 21. Bg5
{[%clk 0:01:31]} e4 {[%clk 0:01:08]} 22. Bxf6 {[%clk 0:01:28]} exd3
{[%clk 0:01:07]} 23. Qf3 {[%clk 0:01:00]} Qxf3 {[%clk 0:00:44]} 24. Rxf3
{[%clk 0:01:01]} Re2+ {[%clk 0:00:44]} 25. Kh1 {[%clk 0:01:02]} gxf6
{[%clk 0:00:38]} 26. Rxd3 {[%clk 0:01:01]} b5 {[%clk 0:00:38]} *

[Event "No Logo Norway Chess 2014 Blitz"]
[Site "?"]
[Date "2014.06.02"]
[Round "6.2"]
[White "Carlsen, Magnus"]
[Black "Caruana, Fabiano"]
[Result "1-0"]
[LiveChessVersion "1.4.2"]
[BlackElo "2791"]
[WhiteElo "2881"]
[ECO "C07"]

1. d4 {[%clk 0:04:03]} e6 {[%clk 0:04:01]} 2. e4 {[%clk 0:04:02]} d5
{[%clk 0:04:02]} 3. Nd2 {[%clk 0:04:03]} c5 {[%clk 0:04:01]} 4. Ngf3
{[%clk 0:04:04]} cxd4 {[%clk 0:04:00]} 5. Nxd4 {[%clk 0:04:04]} Nf6
{[%clk 0:04:00]} 6. exd5 {[%clk 0:04:03]} Qxd5 {[%clk 0:04:00]} 7. Nb5
{[%clk 0:03:57]} Na6 {[%clk 0:03:58]} 8. Nc3 {[%clk 0:03:32]} Qd8
{[%clk 0:03:57]} 9. a3 {[%clk 0:03:01]} Be7 {[%clk 0:03:57]} 10. Qf3
{[%clk 0:03:01]} O-O {[%clk 0:03:35]} 11. Bxa6 {[%clk 0:02:59]} 1-0

[Event "No Logo Norway Chess 2014 Blitz"]
[Site "?"]
[Date "2014.06.02"]
[Round "6.3"]
[White "Agdestein, Simen"]
[Black "Svidler, Peter"]
[Result "0-1"]
[LiveChessVersion "1.4.2"]
[BlackElo "2753"]
[WhiteElo "2628"]
[ECO "A40"]

1. d4 {[%clk 0:04:03]} g6 {[%clk 0:04:03]} 2. c4 {[%clk 0:04:02]} Bg7
{[%clk 0:04:04]} 3. e4 {[%clk 0:04:01]} Nc6 {[%clk 0:04:04]} 4. Ne2
{[%clk 0:03:43]} e5 {[%clk 0:03:53]} 5. d5 {[%clk 0:03:39]} Nd4 {[%clk 0:03:52]}
6. Nxd4 {[%clk 0:03:31]} exd4 {[%clk 0:03:53]} 7. Bd3 {[%clk 0:03:32]} c5
{[%clk 0:03:34]} 8. O-O {[%clk 0:03:26]} d6 {[%clk 0:03:36]} 9. f4
{[%clk 0:03:19]} Nf6 {[%clk 0:03:26]} 10. e5 {[%clk 0:02:28]} Ng4
{[%clk 0:03:27]} 11. e6 {[%clk 0:02:11]} Qh4 {[%clk 0:02:58]} 12. h3
{[%clk 0:02:11]} Ne3 {[%clk 0:03:00]} 13. Bxe3 {[%clk 0:02:09]} dxe3
{[%clk 0:03:01]} 14. exf7+ {[%clk 0:01:44]} Kxf7 {[%clk 0:02:55]} 15. Nc3
{[%clk 0:01:45]} Re8 {[%clk 0:02:37]} 16. Qf3 {[%clk 0:01:40]} Kg8
{[%clk 0:02:27]} 17. Kh2 {[%clk 0:01:32]} Bd7 {[%clk 0:02:24]} 18. Rae1
{[%clk 0:01:29]} Bd4 {[%clk 0:02:24]} 19. Nd1 {[%clk 0:01:15]} Re7
{[%clk 0:02:21]} 20. Re2 {[%clk 0:01:11]} Rae8 {[%clk 0:02:22]} 21. Nc3
{[%clk 0:00:52]} Rf8 {[%clk 0:02:17]} 22. Qg3 {[%clk 0:00:46]} Qxg3+
{[%clk 0:02:17]} 23. Kxg3 {[%clk 0:00:47]} g5 {[%clk 0:02:13]} 24. f5
{[%clk 0:00:44]} Be5+ {[%clk 0:02:15]} 25. Kg4 {[%clk 0:00:41]} h5+
{[%clk 0:02:16]} 26. Kxg5 {[%clk 0:00:14]} Rg7+ {[%clk 0:02:17]} 27. Kh4
{[%clk 0:00:06]} Bf6+ {[%clk 0:02:16]} 28. Kxh5 {[%clk 0:00:06]} Be8+
{[%clk 0:02:18]} 29. Kh6 {[%clk 0:00:08]} Rh7# {[%clk 0:02:19]} 0-1

[Event "No Logo Norway Chess 2014 Blitz"]
[Site "?"]
[Date "2014.06.02"]
[Round "6.4"]
[White "Kramnik, Vladimir"]
[Black "Karjakin, Sergey"]
[Result "*"]
[LiveChessVersion "1.4.2"]
[BlackElo "2771"]
[WhiteElo "2783"]
[ECO "D26"]

1. d4 {[%clk 0:04:03]} d5 {[%clk 0:04:04]} 2. Nf3 {[%clk 0:04:03]} Nf6
{[%clk 0:04:05]} 3. c4 {[%clk 0:04:04]} dxc4 {[%clk 0:04:06]} 4. e3
{[%clk 0:04:05]} e6 {[%clk 0:04:07]} 5. Bxc4 {[%clk 0:04:06]} a6 {[%clk 0:04:08]}
6. O-O {[%clk 0:04:05]} c5 {[%clk 0:04:09]} 7. Nc3 {[%clk 0:04:05]} b5
{[%clk 0:04:05]} 8. Be2 {[%clk 0:04:05]} Nbd7 {[%clk 0:04:04]} 9. d5
{[%clk 0:04:06]} exd5 {[%clk 0:04:04]} 10. Nxd5 {[%clk 0:04:07]} Bb7
{[%clk 0:04:06]} 11. Nxf6+ {[%clk 0:04:06]} Qxf6 {[%clk 0:04:06]} 12. a4
{[%clk 0:04:02]} b4 {[%clk 0:04:07]} 13. e4 {[%clk 0:04:03]} h6 {[%clk 0:03:47]}
14. Bc4 {[%clk 0:03:45]} Bd6 {[%clk 0:03:19]} 15. Bd5 {[%clk 0:03:34]} O-O-O
{[%clk 0:03:15]} 16. Bxb7+ {[%clk 0:03:28]} Kxb7 {[%clk 0:03:16]} 17. Qd5+
{[%clk 0:03:04]} Kc7 {[%clk 0:03:15]} 18. Be3 {[%clk 0:02:12]} Rhe8
{[%clk 0:03:14]} 19. Rac1 {[%clk 0:02:00]} Qe6 {[%clk 0:03:01]} 20. Qxe6
{[%clk 0:01:30]} Rxe6 {[%clk 0:02:54]} 21. Nd2 {[%clk 0:01:31]} Bf8
{[%clk 0:02:39]} 22. f4 {[%clk 0:01:28]} Rc6 {[%clk 0:02:29]} 23. b3
{[%clk 0:01:23]} Nf6 {[%clk 0:02:05]} 24. Rf3 {[%clk 0:01:22]} Rd3
{[%clk 0:01:52]} 25. f5 {[%clk 0:01:14]} Bd6 {[%clk 0:01:31]} 26. h3
{[%clk 0:01:02]} Rc3 {[%clk 0:01:24]} 27. Rcf1 {[%clk 0:00:38]} Nd7
{[%clk 0:01:14]} 28. f6 {[%clk 0:00:26]} g5 {[%clk 0:01:06]} 29. Nc4 *

[Event "No Logo Norway Chess 2014 Blitz"]
[Site "?"]
[Date "2014.06.02"]
[Round "6.5"]
[White "Giri, Anish"]
[Black "Grischuk, Alexander"]
[Result "*"]
[LiveChessVersion "1.4.2"]
[BlackElo "2792"]
[WhiteElo "2752"]
[ECO "B90"]

1. e4 {[%clk 0:04:03]} c5 {[%clk 0:04:03]} 2. Nf3 {[%clk 0:04:03]} d6
{[%clk 0:04:04]} 3. d4 {[%clk 0:04:04]} cxd4 {[%clk 0:04:04]} 4. Nxd4
{[%clk 0:04:04]} Nf6 {[%clk 0:04:05]} 5. Nc3 {[%clk 0:04:05]} a6 {[%clk 0:04:06]}
6. h3 {[%clk 0:04:06]} Nc6 {[%clk 0:04:06]} 7. g4 {[%clk 0:04:05]} Qb6
{[%clk 0:04:07]} 8. Nb3 {[%clk 0:04:04]} e6 {[%clk 0:04:07]} 9. g5
{[%clk 0:03:53]} Nd7 {[%clk 0:04:08]} 10. h4 {[%clk 0:03:54]} Qc7
{[%clk 0:04:04]} 11. h5 {[%clk 0:03:39]} b5 {[%clk 0:03:57]} 12. a3
{[%clk 0:03:41]} Bb7 {[%clk 0:03:52]} 13. Rh3 {[%clk 0:03:38]} Nce5
{[%clk 0:03:23]} 14. g6 {[%clk 0:03:01]} hxg6 {[%clk 0:02:54]} 15. f4
{[%clk 0:03:02]} Nc4 {[%clk 0:02:55]} 16. hxg6 {[%clk 0:03:02]} Rxh3
{[%clk 0:02:56]} 17. gxf7+ {[%clk 0:03:02]} Kxf7 {[%clk 0:02:57]} 18. Bxh3
{[%clk 0:03:02]} Nf6 {[%clk 0:02:51]} 19. Nd4 {[%clk 0:02:19]} Re8
{[%clk 0:02:52]} 20. Qd3 {[%clk 0:01:46]} e5 {[%clk 0:02:34]} 21. Nf3
{[%clk 0:01:46]} Kg8 {[%clk 0:02:01]} 22. Ng5 {[%clk 0:00:58]} exf4
{[%clk 0:00:54]} 23. Be6+ {[%clk 0:00:53]} Rxe6 {[%clk 0:00:55]} 24. Nxe6
{[%clk 0:00:54]} Qe7 {[%clk 0:00:26]} 25. Nxf8 {[%clk 0:00:55]} Nxe4
{[%clk 0:00:25]} 26. Ng6 {[%clk 0:00:49]} Qe8 *

