[Event "No Logo Norway Chess 2014 Blitz"]
[Site "?"]
[Date "2014.06.02"]
[Round "6.1"]
[White "Topalov, Veselin"]
[Black "Aronian, Levon"]
[Result "*"]
[LiveChessVersion "1.4.2"]
[BlackElo "2815"]
[WhiteElo "2772"]
[ECO "C44"]

1. e4 {[%clk 0:04:02]} e5 {[%clk 0:04:04]} 2. Nf3 {[%clk 0:04:03]} Nc6
{[%clk 0:04:03]} 3. g3 {[%clk 0:04:04]} Bc5 {[%clk 0:04:04]} 4. Bg2
{[%clk 0:04:02]} d6 {[%clk 0:04:04]} 5. c3 {[%clk 0:04:02]} Nf6 {[%clk 0:04:00]}
6. d3 {[%clk 0:04:02]} O-O {[%clk 0:03:58]} 7. O-O {[%clk 0:04:03]} a6
{[%clk 0:03:58]} 8. Re1 {[%clk 0:04:00]} Re8 {[%clk 0:03:52]} 9. h3
{[%clk 0:03:58]} h6 {[%clk 0:03:52]} 10. Nbd2 {[%clk 0:03:52]} Be6
{[%clk 0:03:52]} 11. Kh2 {[%clk 0:03:46]} Bxf2 {[%clk 0:03:51]} 12. Rf1
{[%clk 0:03:44]} Ba7 {[%clk 0:03:42]} 13. Nh4 {[%clk 0:03:28]} Nh7
{[%clk 0:03:24]} *

[Event "No Logo Norway Chess 2014 Blitz"]
[Site "?"]
[Date "2014.06.02"]
[Round "6.2"]
[White "Carlsen, Magnus"]
[Black "Caruana, Fabiano"]
[Result "*"]
[LiveChessVersion "1.4.2"]
[BlackElo "2791"]
[WhiteElo "2881"]
[ECO "C07"]

1. d4 {[%clk 0:04:03]} e6 {[%clk 0:04:01]} 2. e4 {[%clk 0:04:02]} d5
{[%clk 0:04:02]} 3. Nd2 {[%clk 0:04:03]} c5 {[%clk 0:04:01]} 4. Ngf3
{[%clk 0:04:04]} cxd4 {[%clk 0:04:00]} 5. Nxd4 {[%clk 0:04:04]} Nf6
{[%clk 0:04:00]} 6. exd5 {[%clk 0:04:03]} Qxd5 {[%clk 0:04:00]} 7. Nb5
{[%clk 0:03:57]} Na6 {[%clk 0:03:58]} 8. Nc3 {[%clk 0:03:32]} Qd8
{[%clk 0:03:57]} 9. a3 {[%clk 0:03:01]} Be7 {[%clk 0:03:57]} 10. Qf3
{[%clk 0:03:01]} *

[Event "No Logo Norway Chess 2014 Blitz"]
[Site "?"]
[Date "2014.06.02"]
[Round "6.3"]
[White "Agdestein, Simen"]
[Black "Svidler, Peter"]
[Result "*"]
[LiveChessVersion "1.4.2"]
[BlackElo "2753"]
[WhiteElo "2628"]
[ECO "A40"]

1. d4 {[%clk 0:04:03]} g6 {[%clk 0:04:03]} 2. c4 {[%clk 0:04:02]} Bg7
{[%clk 0:04:04]} 3. e4 {[%clk 0:04:01]} Nc6 {[%clk 0:04:04]} 4. Ne2
{[%clk 0:03:43]} e5 {[%clk 0:03:53]} 5. d5 {[%clk 0:03:39]} Nd4 {[%clk 0:03:52]}
6. Nxd4 {[%clk 0:03:31]} exd4 {[%clk 0:03:53]} 7. Bd3 {[%clk 0:03:32]} c5
{[%clk 0:03:34]} 8. O-O {[%clk 0:03:26]} d6 {[%clk 0:03:36]} 9. f4
{[%clk 0:03:19]} Nf6 {[%clk 0:03:26]} *

[Event "No Logo Norway Chess 2014 Blitz"]
[Site "?"]
[Date "2014.06.02"]
[Round "6.4"]
[White "Kramnik, Vladimir"]
[Black "Karjakin, Sergey"]
[Result "*"]
[LiveChessVersion "1.4.2"]
[BlackElo "2771"]
[WhiteElo "2783"]
[ECO "D26"]

1. d4 {[%clk 0:04:03]} d5 {[%clk 0:04:04]} 2. Nf3 {[%clk 0:04:03]} Nf6
{[%clk 0:04:05]} 3. c4 {[%clk 0:04:04]} dxc4 {[%clk 0:04:06]} 4. e3
{[%clk 0:04:05]} e6 {[%clk 0:04:07]} 5. Bxc4 {[%clk 0:04:06]} a6 {[%clk 0:04:08]}
6. O-O {[%clk 0:04:05]} c5 {[%clk 0:04:09]} 7. Nc3 {[%clk 0:04:05]} b5
{[%clk 0:04:05]} 8. Be2 {[%clk 0:04:05]} Nbd7 {[%clk 0:04:04]} 9. d5
{[%clk 0:04:06]} exd5 {[%clk 0:04:04]} 10. Nxd5 {[%clk 0:04:07]} Bb7
{[%clk 0:04:06]} 11. Nxf6+ {[%clk 0:04:06]} Qxf6 {[%clk 0:04:06]} 12. a4
{[%clk 0:04:02]} b4 {[%clk 0:04:07]} 13. e4 {[%clk 0:04:03]} h6 {[%clk 0:03:47]}
14. Bc4 {[%clk 0:03:45]} Bd6 {[%clk 0:03:19]} *

[Event "No Logo Norway Chess 2014 Blitz"]
[Site "?"]
[Date "2014.06.02"]
[Round "6.5"]
[White "Giri, Anish"]
[Black "Grischuk, Alexander"]
[Result "*"]
[LiveChessVersion "1.4.2"]
[BlackElo "2792"]
[WhiteElo "2752"]
[ECO "B90"]

1. e4 {[%clk 0:04:03]} c5 {[%clk 0:04:03]} 2. Nf3 {[%clk 0:04:03]} d6
{[%clk 0:04:04]} 3. d4 {[%clk 0:04:04]} cxd4 {[%clk 0:04:04]} 4. Nxd4
{[%clk 0:04:04]} Nf6 {[%clk 0:04:05]} 5. Nc3 {[%clk 0:04:05]} a6 {[%clk 0:04:06]}
6. h3 {[%clk 0:04:06]} Nc6 {[%clk 0:04:06]} 7. g4 {[%clk 0:04:05]} Qb6
{[%clk 0:04:07]} 8. Nb3 {[%clk 0:04:04]} e6 {[%clk 0:04:07]} 9. g5
{[%clk 0:03:53]} Nd7 {[%clk 0:04:08]} 10. h4 {[%clk 0:03:54]} Qc7
{[%clk 0:04:04]} 11. h5 {[%clk 0:03:39]} b5 {[%clk 0:03:57]} 12. a3
{[%clk 0:03:41]} Bb7 {[%clk 0:03:52]} 13. Rh3 {[%clk 0:03:38]} Nce5
{[%clk 0:03:23]} *

