[Event "No Logo Norway Chess 2014 Blitz"]
[Site "?"]
[Date "2014.06.02"]
[Round "6.1"]
[White "Topalov, Veselin"]
[Black "Aronian, Levon"]
[Result "*"]
[LiveChessVersion "1.4.2"]
[BlackElo "2815"]
[WhiteElo "2772"]
[ECO "C44"]

1. e4 {[%clk 0:04:02]} e5 {[%clk 0:04:04]} 2. Nf3 {[%clk 0:04:03]} Nc6
{[%clk 0:04:03]} 3. g3 {[%clk 0:04:04]} *

[Event "No Logo Norway Chess 2014 Blitz"]
[Site "?"]
[Date "2014.06.02"]
[Round "6.2"]
[White "Carlsen, Magnus"]
[Black "Caruana, Fabiano"]
[Result "*"]
[LiveChessVersion "1.4.2"]
[BlackElo "2791"]
[WhiteElo "2881"]
[ECO "A40"]

1. d4 {[%clk 0:04:03]} *

[Event "No Logo Norway Chess 2014 Blitz"]
[Site "?"]
[Date "2014.06.02"]
[Round "6.3"]
[White "Agdestein, Simen"]
[Black "Svidler, Peter"]
[Result "*"]
[LiveChessVersion "1.4.2"]
[BlackElo "2753"]
[WhiteElo "2628"]
[ECO "A40"]

1. d4 {[%clk 0:04:03]} g6 {[%clk 0:04:03]} 2. c4 {[%clk 0:04:02]} Bg7
{[%clk 0:04:04]} *

[Event "No Logo Norway Chess 2014 Blitz"]
[Site "?"]
[Date "2014.06.02"]
[Round "6.4"]
[White "Kramnik, Vladimir"]
[Black "Karjakin, Sergey"]
[Result "*"]
[LiveChessVersion "1.4.2"]
[BlackElo "2771"]
[WhiteElo "2783"]
[ECO "D23"]

1. d4 {[%clk 0:04:03]} d5 {[%clk 0:04:04]} 2. Nf3 {[%clk 0:04:03]} Nf6
{[%clk 0:04:05]} 3. c4 {[%clk 0:04:04]} dxc4 {[%clk 0:04:06]} *

[Event "No Logo Norway Chess 2014 Blitz"]
[Site "?"]
[Date "2014.06.02"]
[Round "6.5"]
[White "Giri, Anish"]
[Black "Grischuk, Alexander"]
[Result "*"]
[LiveChessVersion "1.4.2"]
[BlackElo "2792"]
[WhiteElo "2752"]
[ECO "B50"]

1. e4 {[%clk 0:04:03]} c5 {[%clk 0:04:03]} 2. Nf3 {[%clk 0:04:03]} d6 *

