[Event "No Logo Norway Chess 2014"]
[Site "?"]
[Date "2014.06.03"]
[Round "1.1"]
[White "Aronian, Levon"]
[Black "Agdestein, Simen"]
[Result "*"]
[LiveChessVersion "1.4.2"]
[BlackElo "2628"]
[WhiteElo "2815"]
[ECO "E15"]

1. d4 {[%clk 1:59:55]} Nf6 {[%clk 1:59:54]} 2. c4 {[%clk 1:59:49]} e6
{[%clk 1:59:49]} 3. Nf3 {[%clk 1:59:44]} b6 {[%clk 1:59:46]} 4. g3
{[%clk 1:59:36]} Ba6 {[%clk 1:59:42]} 5. b3 {[%clk 1:59:31]} Bb7 {[%clk 1:59:27]}
6. Bg2 {[%clk 1:58:34]} Bb4+ {[%clk 1:59:22]} 7. Bd2 {[%clk 1:58:25]} a5
{[%clk 1:59:18]} 8. Nc3 {[%clk 1:56:53]} O-O {[%clk 1:56:36]} 9. O-O
{[%clk 1:54:32]} d6 {[%clk 1:55:56]} 10. Qc2 {[%clk 1:52:40]} Nbd7
{[%clk 1:55:02]} 11. Rfe1 {[%clk 1:52:26]} Bxc3 {[%clk 1:54:09]} 12. Bxc3
{[%clk 1:51:28]} Be4 {[%clk 1:53:59]} 13. Qb2 {[%clk 1:51:21]} *

[Event "No Logo Norway Chess 2014"]
[Site "?"]
[Date "2014.06.03"]
[Round "1.2"]
[White "Grischuk, Alexander"]
[Black "Caruana, Fabiano"]
[Result "*"]
[LiveChessVersion "1.4.2"]
[BlackElo "2791"]
[WhiteElo "2792"]
[ECO "D71"]

1. d4 {[%clk 1:59:41]} Nf6 {[%clk 1:59:53]} 2. c4 {[%clk 1:59:07]} g6
{[%clk 1:59:44]} 3. g3 {[%clk 1:59:00]} Bg7 {[%clk 1:57:36]} 4. Bg2
{[%clk 1:58:29]} c5 {[%clk 1:55:10]} 5. d5 {[%clk 1:58:02]} O-O {[%clk 1:48:46]}
6. Nc3 {[%clk 1:56:42]} *

[Event "No Logo Norway Chess 2014"]
[Site "?"]
[Date "2014.06.03"]
[Round "1.3"]
[White "Carlsen, Magnus"]
[Black "Giri, Anish"]
[Result "*"]
[LiveChessVersion "1.4.2"]
[BlackElo "2752"]
[WhiteElo "2881"]
[ECO "A34"]

1. c4 {[%clk 1:59:52]} c5 {[%clk 1:59:54]} 2. Nf3 {[%clk 1:59:41]} Nf6
{[%clk 1:59:48]} 3. Nc3 {[%clk 1:59:34]} d5 {[%clk 1:59:34]} 4. cxd5
{[%clk 1:59:19]} Nxd5 {[%clk 1:59:28]} 5. e3 {[%clk 1:59:14]} Nxc3
{[%clk 1:58:41]} 6. bxc3 {[%clk 1:59:01]} Qc7 {[%clk 1:58:39]} 7. d4
{[%clk 1:54:43]} g6 {[%clk 1:58:29]} 8. Bb5+ {[%clk 1:53:35]} Bd7
{[%clk 1:55:05]} 9. a4 {[%clk 1:51:18]} Bg7 {[%clk 1:53:44]} 10. O-O
{[%clk 1:48:40]} O-O {[%clk 1:53:15]} *

[Event "No Logo Norway Chess 2014"]
[Site "?"]
[Date "2014.06.03"]
[Round "1.4"]
[White "Svidler, Peter"]
[Black "Kramnik, Vladimir"]
[Result "*"]
[LiveChessVersion "1.4.2"]
[BlackElo "2783"]
[WhiteElo "2753"]
[ECO "A29"]

1. c4 {[%clk 1:59:54]} Nf6 {[%clk 1:59:32]} 2. Nc3 {[%clk 1:59:23]} e5
{[%clk 1:59:14]} 3. Nf3 {[%clk 1:59:05]} Nc6 {[%clk 1:59:12]} 4. g3
{[%clk 1:55:27]} d5 {[%clk 1:58:56]} 5. cxd5 {[%clk 1:55:12]} Nxd5
{[%clk 1:58:53]} 6. Bg2 {[%clk 1:54:56]} Nb6 {[%clk 1:58:47]} 7. O-O
{[%clk 1:54:47]} Be7 {[%clk 1:58:44]} 8. a3 {[%clk 1:51:40]} O-O {[%clk 1:58:31]}
9. b4 {[%clk 1:51:36]} Be6 {[%clk 1:57:33]} 10. Rb1 {[%clk 1:47:28]} f6
{[%clk 1:57:09]} 11. d3 {[%clk 1:46:33]} a5 {[%clk 1:56:54]} 12. b5
{[%clk 1:46:09]} Nd4 {[%clk 1:56:52]} 13. Nd2 {[%clk 1:45:27]} Qc8
{[%clk 1:56:46]} 14. e3 {[%clk 1:45:02]} Nf5 {[%clk 1:56:45]} *

[Event "No Logo Norway Chess 2014"]
[Site "?"]
[Date "2014.06.03"]
[Round "1.5"]
[White "Karjakin, Sergey"]
[Black "Topalov, Veselin"]
[Result "*"]
[LiveChessVersion "1.4.2"]
[BlackElo "2772"]
[WhiteElo "2771"]
[ECO "E10"]

1. d4 {[%clk 1:59:57]} Nf6 {[%clk 1:59:45]} 2. c4 {[%clk 1:59:53]} e6
{[%clk 1:59:41]} 3. Nf3 {[%clk 1:59:48]} d5 {[%clk 1:59:31]} 4. e3
{[%clk 1:59:43]} a6 {[%clk 1:59:17]} 5. b3 {[%clk 1:56:23]} c5 {[%clk 1:58:39]}
6. Bb2 {[%clk 1:54:59]} cxd4 {[%clk 1:56:50]} 7. exd4 {[%clk 1:53:39]} g6
{[%clk 1:54:49]} *

