[Event "No Logo Norway Chess 2014"]
[Site "?"]
[Date "2014.06.03"]
[Round "1.1"]
[White "Aronian, Levon"]
[Black "Agdestein, Simen"]
[Result "*"]
[LiveChessVersion "1.4.2"]
[BlackElo "2628"]
[WhiteElo "2815"]
[ECO "E15"]

1. d4 {[%clk 1:59:55]} Nf6 {[%clk 1:59:54]} 2. c4 {[%clk 1:59:49]} e6
{[%clk 1:59:49]} 3. Nf3 {[%clk 1:59:44]} b6 {[%clk 1:59:46]} 4. g3
{[%clk 1:59:36]} Ba6 {[%clk 1:59:42]} *

[Event "No Logo Norway Chess 2014"]
[Site "?"]
[Date "2014.06.03"]
[Round "1.2"]
[White "Grischuk, Alexander"]
[Black "Caruana, Fabiano"]
[Result "*"]
[LiveChessVersion "1.4.2"]
[BlackElo "2791"]
[WhiteElo "2792"]
[ECO "A45"]

1. d4 {[%clk 1:59:41]} Nf6 {[%clk 1:59:53]} *

[Event "No Logo Norway Chess 2014"]
[Site "?"]
[Date "2014.06.03"]
[Round "1.3"]
[White "Carlsen, Magnus"]
[Black "Giri, Anish"]
[Result "*"]
[LiveChessVersion "1.4.2"]
[BlackElo "2752"]
[WhiteElo "2881"]
[ECO "A30"]

1. c4 {[%clk 1:59:52]} c5 {[%clk 1:59:54]} 2. Nf3 {[%clk 1:59:41]} Nf6
{[%clk 1:59:48]} 3. Nc3 *

[Event "No Logo Norway Chess 2014"]
[Site "?"]
[Date "2014.06.03"]
[Round "1.4"]
[White "Svidler, Peter"]
[Black "Kramnik, Vladimir"]
[Result "*"]
[LiveChessVersion "1.4.2"]
[BlackElo "2783"]
[WhiteElo "2753"]
[ECO "A15"]

1. c4 {[%clk 1:59:54]} Nf6 {[%clk 1:59:32]} *

[Event "No Logo Norway Chess 2014"]
[Site "?"]
[Date "2014.06.03"]
[Round "1.5"]
[White "Karjakin, Sergey"]
[Black "Topalov, Veselin"]
[Result "*"]
[LiveChessVersion "1.4.2"]
[BlackElo "2772"]
[WhiteElo "2771"]
[ECO "E10"]

1. d4 {[%clk 1:59:57]} Nf6 {[%clk 1:59:45]} 2. c4 {[%clk 1:59:53]} e6
{[%clk 1:59:41]} 3. Nf3 {[%clk 1:59:48]} d5 {[%clk 1:59:31]} 4. e3
{[%clk 1:59:43]} *

