[Event "No Logo Norway Chess 2014 Blitz"]
[Site "?"]
[Date "2014.06.02"]
[Round "5.1"]
[White "Caruana, Fabiano"]
[Black "Karjakin, Sergey"]
[Result "*"]
[LiveChessVersion "1.4.2"]
[BlackElo "2771"]
[WhiteElo "2791"]
[ECO "A04"]

1. Nf3 {[%clk 0:04:02]} c5 {[%clk 0:04:00]} 2. g3 {[%clk 0:04:00]} Nc6
{[%clk 0:03:59]} 3. Bg2 {[%clk 0:03:56]} g6 {[%clk 0:04:00]} 4. O-O
{[%clk 0:03:46]} Bg7 {[%clk 0:04:00]} 5. e4 {[%clk 0:03:43]} Nf6 {[%clk 0:03:57]}
6. Qe2 {[%clk 0:03:35]} d5 {[%clk 0:03:53]} 7. d3 {[%clk 0:03:30]} O-O
{[%clk 0:03:52]} 8. e5 {[%clk 0:03:18]} Ne8 {[%clk 0:03:44]} 9. h3
{[%clk 0:02:39]} Nc7 {[%clk 0:03:43]} 10. c3 {[%clk 0:02:36]} d4 {[%clk 0:03:40]}
11. Nbd2 {[%clk 0:02:28]} dxc3 {[%clk 0:03:29]} 12. bxc3 {[%clk 0:02:29]} Nd5
{[%clk 0:03:30]} 13. Bb2 {[%clk 0:02:24]} h6 {[%clk 0:03:26]} 14. Rfd1
{[%clk 0:01:57]} Qa5 {[%clk 0:03:14]} 15. Nb3 {[%clk 0:01:35]} Qb6
{[%clk 0:03:11]} 16. c4 {[%clk 0:01:34]} Nc7 {[%clk 0:03:11]} 17. Rab1
{[%clk 0:01:22]} Ne6 {[%clk 0:03:10]} 18. d4 {[%clk 0:01:10]} cxd4
{[%clk 0:03:10]} 19. Nbxd4 {[%clk 0:01:10]} Qa5 {[%clk 0:03:07]} 20. Nxc6
{[%clk 0:01:06]} bxc6 {[%clk 0:03:08]} 21. Nd4 {[%clk 0:00:58]} Nxd4
{[%clk 0:03:03]} 22. Bxd4 {[%clk 0:00:59]} Qa6 {[%clk 0:03:01]} 23. Bc5
{[%clk 0:00:57]} Be6 {[%clk 0:02:56]} 24. Rbc1 {[%clk 0:00:57]} Rfe8
{[%clk 0:02:55]} 25. Kh2 {[%clk 0:00:48]} Rab8 {[%clk 0:02:50]} 26. a3
{[%clk 0:00:48]} Qa5 {[%clk 0:02:43]} 27. Bb4 {[%clk 0:00:43]} Qc7
{[%clk 0:02:44]} 28. Bc3 {[%clk 0:00:39]} Rb3 {[%clk 0:02:39]} 29. Qe4
{[%clk 0:00:39]} Rxa3 {[%clk 0:02:10]} 30. Bb2 {[%clk 0:00:18]} Ra2
{[%clk 0:02:09]} 31. Bd4 {[%clk 0:00:13]} c5 {[%clk 0:02:04]} 32. Be3
{[%clk 0:00:14]} Bxe5 {[%clk 0:01:56]} 33. h4 {[%clk 0:00:07]} Rb8
{[%clk 0:01:54]} 34. h5 {[%clk 0:00:07]} g5 {[%clk 0:01:50]} 35. Rc2
{[%clk 0:00:07]} Rxc2 {[%clk 0:01:43]} 36. Qxc2 {[%clk 0:00:08]} Kg7
{[%clk 0:01:28]} 37. Re1 {[%clk 0:00:05]} Rb4 {[%clk 0:01:20]} 38. Bd2
{[%clk 0:00:04]} Rxc4 {[%clk 0:01:20]} *

[Event "No Logo Norway Chess 2014 Blitz"]
[Site "?"]
[Date "2014.06.02"]
[Round "5.2"]
[White "Giri, Anish"]
[Black "Kramnik, Vladimir"]
[Result "*"]
[LiveChessVersion "1.4.2"]
[BlackElo "2783"]
[WhiteElo "2752"]
[ECO "B01"]

1. e4 {[%clk 0:04:03]} d5 {[%clk 0:04:03]} 2. exd5 {[%clk 0:04:02]} Qxd5
{[%clk 0:04:04]} 3. Nf3 {[%clk 0:04:02]} c6 {[%clk 0:03:59]} 4. d4
{[%clk 0:04:00]} Nf6 {[%clk 0:03:59]} 5. Be2 {[%clk 0:04:01]} Bg4
{[%clk 0:03:56]} 6. h3 {[%clk 0:03:59]} Bxf3 {[%clk 0:03:54]} 7. Bxf3
{[%clk 0:04:00]} Qa5+ {[%clk 0:03:48]} 8. c3 {[%clk 0:04:00]} e6 {[%clk 0:03:48]}
9. Bf4 {[%clk 0:03:39]} Qa6 {[%clk 0:03:25]} 10. Qb3 {[%clk 0:03:24]} Nbd7
{[%clk 0:03:19]} 11. Nd2 {[%clk 0:03:18]} Nd5 {[%clk 0:03:16]} 12. Bg3
{[%clk 0:03:16]} Be7 {[%clk 0:02:58]} 13. Nc4 {[%clk 0:03:15]} O-O
{[%clk 0:02:52]} 14. O-O {[%clk 0:03:15]} b5 {[%clk 0:02:50]} 15. Nd2
{[%clk 0:03:06]} N7b6 {[%clk 0:02:41]} 16. Rfe1 {[%clk 0:03:05]} Qa4
{[%clk 0:02:28]} 17. Ne4 {[%clk 0:02:23]} a5 {[%clk 0:02:18]} 18. Nc5
{[%clk 0:02:00]} Qxb3 {[%clk 0:02:10]} 19. axb3 {[%clk 0:02:00]} a4
{[%clk 0:02:11]} 20. bxa4 bxa4 {[%clk 0:01:57]} 21. Rec1 {[%clk 0:01:40]} Ra7
{[%clk 0:01:32]} 22. Ra2 {[%clk 0:01:09]} Rfa8 {[%clk 0:01:22]} 23. Rca1
{[%clk 0:01:10]} Bxc5 {[%clk 0:01:01]} 24. dxc5 {[%clk 0:01:10]} Nd7
{[%clk 0:01:02]} 25. Bd6 {[%clk 0:01:06]} Ra5 {[%clk 0:01:03]} 26. b4
{[%clk 0:00:58]} R5a7 {[%clk 0:00:44]} 27. Ra3 {[%clk 0:00:59]} N7f6
{[%clk 0:00:31]} 28. Kf1 {[%clk 0:00:41]} h5 {[%clk 0:00:29]} 29. Ke1
{[%clk 0:00:37]} g6 {[%clk 0:00:27]} 30. Kd2 {[%clk 0:00:36]} Kh7
{[%clk 0:00:27]} 31. Kd3 {[%clk 0:00:35]} g5 {[%clk 0:00:28]} 32. g3
{[%clk 0:00:30]} *

[Event "No Logo Norway Chess 2014 Blitz"]
[Site "?"]
[Date "2014.06.02"]
[Round "5.3"]
[White "Grischuk, Alexander"]
[Black "Topalov, Veselin"]
[Result "*"]
[LiveChessVersion "1.4.2"]
[BlackElo "2772"]
[WhiteElo "2792"]
[ECO "C47"]

1. e4 {[%clk 0:04:03]} e5 {[%clk 0:04:03]} 2. Nf3 {[%clk 0:04:03]} Nc6
{[%clk 0:04:04]} 3. Nc3 {[%clk 0:04:04]} Nf6 {[%clk 0:04:01]} 4. Be2
{[%clk 0:04:05]} d5 {[%clk 0:04:00]} 5. exd5 {[%clk 0:04:05]} Nxd5
{[%clk 0:04:01]} 6. O-O {[%clk 0:04:05]} Nxc3 {[%clk 0:04:01]} 7. bxc3
{[%clk 0:04:06]} Bd6 {[%clk 0:04:02]} 8. d4 {[%clk 0:04:06]} O-O {[%clk 0:04:02]}
9. Re1 {[%clk 0:04:07]} Bf5 {[%clk 0:04:02]} 10. Rb1 {[%clk 0:03:40]} exd4
{[%clk 0:04:02]} 11. cxd4 {[%clk 0:03:06]} Nb4 {[%clk 0:03:48]} 12. Rb2
{[%clk 0:03:08]} Nd5 {[%clk 0:03:25]} 13. Bd3 {[%clk 0:02:49]} Bxd3
{[%clk 0:03:18]} 14. Qxd3 {[%clk 0:02:50]} b6 {[%clk 0:03:16]} 15. c4
{[%clk 0:02:50]} Nf4 {[%clk 0:03:12]} 16. Bxf4 {[%clk 0:02:48]} Bxf4
{[%clk 0:03:13]} 17. Rbe2 {[%clk 0:02:10]} Qf6 {[%clk 0:03:12]} 18. g3
{[%clk 0:02:09]} Bd6 {[%clk 0:03:13]} 19. Kg2 {[%clk 0:02:06]} Rad8
{[%clk 0:03:10]} 20. Re4 {[%clk 0:01:58]} g6 {[%clk 0:03:10]} 21. R1e3
{[%clk 0:01:53]} c6 {[%clk 0:03:02]} 22. a4 {[%clk 0:01:53]} Rd7 {[%clk 0:03:02]}
23. Qe2 {[%clk 0:01:48]} Kg7 {[%clk 0:03:00]} 24. a5 {[%clk 0:01:48]} Rfd8
{[%clk 0:02:59]} 25. axb6 axb6 26. h4 {[%clk 0:01:41]} h6 {[%clk 0:02:56]} 27.
Nh2 {[%clk 0:01:36]} Qf5 {[%clk 0:02:52]} 28. Rf3 {[%clk 0:01:27]} Qa5
{[%clk 0:02:47]} 29. Nf1 {[%clk 0:01:22]} Bf8 {[%clk 0:02:39]} 30. Qb2
{[%clk 0:01:10]} Kg8 {[%clk 0:02:40]} 31. Ref4 {[%clk 0:00:36]} Bg7
{[%clk 0:02:38]} 32. Ra3 {[%clk 0:00:37]} Qe1 {[%clk 0:02:33]} 33. Rd3
{[%clk 0:00:30]} Qa5 {[%clk 0:02:04]} 34. Ra3 {[%clk 0:00:30]} Qe1
{[%clk 0:02:04]} 35. Ne3 {[%clk 0:00:30]} Bxd4 {[%clk 0:01:55]} 36. Qc2
{[%clk 0:00:25]} Qb4 {[%clk 0:01:51]} 37. Rd3 {[%clk 0:00:24]} Qc5
{[%clk 0:01:50]} 38. Ng4 {[%clk 0:00:12]} h5 {[%clk 0:01:40]} 39. Nh2
{[%clk 0:00:11]} b5 {[%clk 0:01:18]} *

[Event "No Logo Norway Chess 2014 Blitz"]
[Site "?"]
[Date "2014.06.02"]
[Round "5.4"]
[White "Aronian, Levon"]
[Black "Agdestein, Simen"]
[Result "*"]
[LiveChessVersion "1.4.2"]
[BlackElo "2628"]
[WhiteElo "2815"]
[ECO "E15"]

1. d4 {[%clk 0:04:03]} Nf6 {[%clk 0:04:02]} 2. c4 {[%clk 0:04:04]} e6
{[%clk 0:04:04]} 3. Nf3 {[%clk 0:04:05]} b6 {[%clk 0:04:01]} 4. g3
{[%clk 0:04:05]} Ba6 {[%clk 0:04:02]} 5. Qc2 {[%clk 0:04:06]} Bb4+
{[%clk 0:03:46]} 6. Bd2 {[%clk 0:04:07]} Bxd2+ {[%clk 0:03:47]} 7. Nbxd2
{[%clk 0:04:07]} c5 {[%clk 0:03:38]} 8. e4 {[%clk 0:04:06]} O-O {[%clk 0:03:08]}
9. e5 {[%clk 0:04:03]} Ne8 {[%clk 0:03:10]} 10. Bd3 {[%clk 0:03:54]} f5
{[%clk 0:03:05]} 11. d5 {[%clk 0:03:40]} Bb7 {[%clk 0:02:58]} 12. O-O-O
{[%clk 0:03:33]} g6 {[%clk 0:02:40]} 13. h4 {[%clk 0:03:28]} Ng7 {[%clk 0:02:38]}
14. Kb1 {[%clk 0:03:17]} Na6 {[%clk 0:02:24]} 15. a3 {[%clk 0:03:17]} Nc7
{[%clk 0:02:22]} 16. d6 {[%clk 0:03:02]} Nce8 {[%clk 0:02:18]} 17. Rhe1
{[%clk 0:03:03]} a6 {[%clk 0:02:01]} 18. Ng5 {[%clk 0:02:59]} Bc6
{[%clk 0:01:55]} 19. Be2 {[%clk 0:02:53]} Qb8 {[%clk 0:01:33]} 20. Bf3
{[%clk 0:02:34]} Qb7 {[%clk 0:01:21]} 21. Rc1 {[%clk 0:02:31]} Bxf3
{[%clk 0:01:13]} 22. Ngxf3 {[%clk 0:02:32]} Nh5 {[%clk 0:01:12]} 23. Ka1
{[%clk 0:02:23]} Neg7 {[%clk 0:01:09]} 24. Qd3 {[%clk 0:02:19]} Qc6
{[%clk 0:01:03]} 25. Nb3 {[%clk 0:02:13]} Rfc8 {[%clk 0:00:50]} 26. Nfd2
{[%clk 0:02:13]} Rab8 {[%clk 0:00:49]} 27. Qf3 {[%clk 0:02:06]} Qa4
{[%clk 0:00:42]} 28. Rc3 {[%clk 0:02:04]} Qc6 {[%clk 0:00:32]} 29. Qxc6
{[%clk 0:02:03]} Rxc6 {[%clk 0:00:33]} 30. Nc1 {[%clk 0:02:02]} h6
{[%clk 0:00:32]} 31. Nf3 {[%clk 0:01:59]} Rbc8 {[%clk 0:00:28]} 32. Nd3
{[%clk 0:01:59]} Kf7 {[%clk 0:00:28]} 33. Rec1 {[%clk 0:01:58]} a5
{[%clk 0:00:24]} 34. Rh1 {[%clk 0:01:51]} Rb8 {[%clk 0:00:18]} 35. Rc2
{[%clk 0:01:49]} a4 {[%clk 0:00:16]} 36. Nc1 {[%clk 0:01:50]} b5 {[%clk 0:00:14]}
37. cxb5 {[%clk 0:01:47]} Rxb5 {[%clk 0:00:16]} 38. Ne2 {[%clk 0:01:45]} Rb3
{[%clk 0:00:13]} 39. Nc3 {[%clk 0:01:44]} Ra6 {[%clk 0:00:09]} 40. Rd1
{[%clk 0:01:38]} Ne8 {[%clk 0:00:08]} 41. Ka2 {[%clk 0:01:38]} Rb8
{[%clk 0:00:08]} 42. Ne2 {[%clk 0:01:35]} Ra5 {[%clk 0:00:04]} *

[Event "No Logo Norway Chess 2014 Blitz"]
[Site "?"]
[Date "2014.06.02"]
[Round "5.5"]
[White "Svidler, Peter"]
[Black "Carlsen, Magnus"]
[Result "*"]
[LiveChessVersion "1.4.2"]
[BlackElo "2881"]
[WhiteElo "2753"]
[ECO "A10"]

1. c4 {[%clk 0:04:03]} g6 {[%clk 0:03:58]} 2. e4 {[%clk 0:04:04]} e5
{[%clk 0:03:55]} 3. d4 {[%clk 0:04:04]} Nf6 {[%clk 0:03:39]} 4. Nf3
{[%clk 0:04:05]} exd4 {[%clk 0:03:22]} 5. e5 {[%clk 0:04:05]} Ne4
{[%clk 0:03:03]} 6. Qxd4 {[%clk 0:04:05]} Bb4+ {[%clk 0:02:58]} 7. Nbd2
{[%clk 0:04:05]} Nxd2 {[%clk 0:02:58]} 8. Bxd2 {[%clk 0:04:06]} Nc6
{[%clk 0:02:59]} 9. Qf4 {[%clk 0:03:57]} Bxd2+ {[%clk 0:02:55]} 10. Qxd2
{[%clk 0:03:46]} Qe7 {[%clk 0:02:54]} 11. O-O-O {[%clk 0:03:44]} b6
{[%clk 0:02:52]} 12. Bd3 {[%clk 0:03:31]} Bb7 {[%clk 0:02:53]} 13. Be4
{[%clk 0:03:17]} O-O-O {[%clk 0:02:52]} 14. Rhe1 {[%clk 0:03:17]} f6
{[%clk 0:02:35]} 15. exf6 {[%clk 0:02:51]} Qxf6 {[%clk 0:02:36]} 16. Qg5
{[%clk 0:02:36]} Qg7 {[%clk 0:02:34]} 17. h4 {[%clk 0:02:28]} Rhe8
{[%clk 0:02:32]} 18. h5 {[%clk 0:01:51]} Nb4 {[%clk 0:02:28]} 19. Bxb7+
{[%clk 0:01:44]} Kxb7 {[%clk 0:02:29]} 20. Rxe8 {[%clk 0:01:26]} Rxe8
{[%clk 0:02:30]} 21. Qd2 {[%clk 0:01:26]} Nc6 {[%clk 0:02:00]} 22. Qxd7
{[%clk 0:00:40]} Qh6+ {[%clk 0:02:01]} 23. Rd2 {[%clk 0:00:30]} Rd8
{[%clk 0:01:28]} 24. Qg4 {[%clk 0:00:30]} gxh5 {[%clk 0:00:52]} 25. Qg5
{[%clk 0:00:24]} Qxg5 {[%clk 0:00:53]} 26. Nxg5 {[%clk 0:00:25]} Rg8
{[%clk 0:00:54]} 27. f4 {[%clk 0:00:26]} h4 {[%clk 0:00:43]} 28. Nxh7
{[%clk 0:00:19]} Ne7 {[%clk 0:00:32]} *

