[Event "No Logo Norway Chess 2014 Blitz"]
[Site "?"]
[Date "2014.06.02"]
[Round "5.1"]
[White "Caruana, Fabiano"]
[Black "Karjakin, Sergey"]
[Result "*"]
[LiveChessVersion "1.4.2"]
[BlackElo "2771"]
[WhiteElo "2791"]
[ECO "A04"]

1. Nf3 {[%clk 0:04:02]} c5 {[%clk 0:04:00]} 2. g3 {[%clk 0:04:00]} Nc6
{[%clk 0:03:59]} 3. Bg2 {[%clk 0:03:56]} g6 {[%clk 0:04:00]} 4. O-O
{[%clk 0:03:46]} Bg7 {[%clk 0:04:00]} 5. e4 {[%clk 0:03:43]} Nf6 {[%clk 0:03:57]}
6. Qe2 {[%clk 0:03:35]} d5 {[%clk 0:03:53]} 7. d3 {[%clk 0:03:30]} O-O
{[%clk 0:03:52]} 8. e5 {[%clk 0:03:18]} Ne8 {[%clk 0:03:44]} 9. h3
{[%clk 0:02:39]} Nc7 {[%clk 0:03:43]} 10. c3 {[%clk 0:02:36]} d4 {[%clk 0:03:40]}
11. Nbd2 {[%clk 0:02:28]} dxc3 {[%clk 0:03:29]} 12. bxc3 {[%clk 0:02:29]} Nd5
{[%clk 0:03:30]} 13. Bb2 {[%clk 0:02:24]} h6 {[%clk 0:03:26]} 14. Rfd1
{[%clk 0:01:57]} Qa5 {[%clk 0:03:14]} 15. Nb3 {[%clk 0:01:35]} Qb6
{[%clk 0:03:11]} 16. c4 {[%clk 0:01:34]} Nc7 {[%clk 0:03:11]} 17. Rab1
{[%clk 0:01:22]} Ne6 {[%clk 0:03:10]} 18. d4 {[%clk 0:01:10]} cxd4
{[%clk 0:03:10]} 19. Nbxd4 {[%clk 0:01:10]} Qa5 {[%clk 0:03:07]} 20. Nxc6
{[%clk 0:01:06]} bxc6 {[%clk 0:03:08]} 21. Nd4 {[%clk 0:00:58]} Nxd4
{[%clk 0:03:03]} 22. Bxd4 {[%clk 0:00:59]} Qa6 {[%clk 0:03:01]} 23. Bc5
{[%clk 0:00:57]} Be6 {[%clk 0:02:56]} 24. Rbc1 *

[Event "No Logo Norway Chess 2014 Blitz"]
[Site "?"]
[Date "2014.06.02"]
[Round "5.2"]
[White "Giri, Anish"]
[Black "Kramnik, Vladimir"]
[Result "*"]
[LiveChessVersion "1.4.2"]
[BlackElo "2783"]
[WhiteElo "2752"]
[ECO "B01"]

1. e4 {[%clk 0:04:03]} d5 {[%clk 0:04:03]} 2. exd5 {[%clk 0:04:02]} Qxd5
{[%clk 0:04:04]} 3. Nf3 {[%clk 0:04:02]} c6 {[%clk 0:03:59]} 4. d4
{[%clk 0:04:00]} Nf6 {[%clk 0:03:59]} 5. Be2 {[%clk 0:04:01]} Bg4
{[%clk 0:03:56]} 6. h3 {[%clk 0:03:59]} Bxf3 {[%clk 0:03:54]} 7. Bxf3
{[%clk 0:04:00]} Qa5+ {[%clk 0:03:48]} 8. c3 {[%clk 0:04:00]} e6 {[%clk 0:03:48]}
9. Bf4 {[%clk 0:03:39]} Qa6 {[%clk 0:03:25]} 10. Qb3 {[%clk 0:03:24]} Nbd7
{[%clk 0:03:19]} 11. Nd2 {[%clk 0:03:18]} Nd5 {[%clk 0:03:16]} 12. Bg3
{[%clk 0:03:16]} Be7 {[%clk 0:02:58]} 13. Nc4 {[%clk 0:03:15]} O-O
{[%clk 0:02:52]} 14. O-O {[%clk 0:03:15]} b5 {[%clk 0:02:50]} 15. Nd2
{[%clk 0:03:06]} N7b6 {[%clk 0:02:41]} 16. Rfe1 {[%clk 0:03:05]} Qa4
{[%clk 0:02:28]} 17. Ne4 {[%clk 0:02:23]} a5 {[%clk 0:02:18]} 18. Nc5
{[%clk 0:02:00]} Qxb3 {[%clk 0:02:10]} 19. axb3 {[%clk 0:02:00]} a4
{[%clk 0:02:11]} 20. bxa4 bxa4 {[%clk 0:01:57]} *

[Event "No Logo Norway Chess 2014 Blitz"]
[Site "?"]
[Date "2014.06.02"]
[Round "5.3"]
[White "Grischuk, Alexander"]
[Black "Topalov, Veselin"]
[Result "*"]
[LiveChessVersion "1.4.2"]
[BlackElo "2772"]
[WhiteElo "2792"]
[ECO "C47"]

1. e4 {[%clk 0:04:03]} e5 {[%clk 0:04:03]} 2. Nf3 {[%clk 0:04:03]} Nc6
{[%clk 0:04:04]} 3. Nc3 {[%clk 0:04:04]} Nf6 {[%clk 0:04:01]} 4. Be2
{[%clk 0:04:05]} d5 {[%clk 0:04:00]} 5. exd5 {[%clk 0:04:05]} Nxd5
{[%clk 0:04:01]} 6. O-O {[%clk 0:04:05]} Nxc3 {[%clk 0:04:01]} 7. bxc3
{[%clk 0:04:06]} Bd6 {[%clk 0:04:02]} 8. d4 {[%clk 0:04:06]} O-O {[%clk 0:04:02]}
9. Re1 {[%clk 0:04:07]} Bf5 {[%clk 0:04:02]} 10. Rb1 {[%clk 0:03:40]} exd4
{[%clk 0:04:02]} 11. cxd4 {[%clk 0:03:06]} Nb4 {[%clk 0:03:48]} 12. Rb2
{[%clk 0:03:08]} Nd5 {[%clk 0:03:25]} 13. Bd3 {[%clk 0:02:49]} Bxd3
{[%clk 0:03:18]} 14. Qxd3 {[%clk 0:02:50]} b6 {[%clk 0:03:16]} 15. c4
{[%clk 0:02:50]} Nf4 {[%clk 0:03:12]} 16. Bxf4 {[%clk 0:02:48]} Bxf4
{[%clk 0:03:13]} 17. Rbe2 {[%clk 0:02:10]} Qf6 {[%clk 0:03:12]} 18. g3
{[%clk 0:02:09]} Bd6 {[%clk 0:03:13]} 19. Kg2 {[%clk 0:02:06]} Rad8
{[%clk 0:03:10]} 20. Re4 {[%clk 0:01:58]} g6 {[%clk 0:03:10]} 21. R1e3
{[%clk 0:01:53]} c6 {[%clk 0:03:02]} 22. a4 {[%clk 0:01:53]} Rd7 {[%clk 0:03:02]}
23. Qe2 {[%clk 0:01:48]} Kg7 {[%clk 0:03:00]} 24. a5 {[%clk 0:01:48]} Rfd8
{[%clk 0:02:59]} 25. axb6 axb6 26. h4 {[%clk 0:01:41]} h6 {[%clk 0:02:56]} 27.
Nh2 {[%clk 0:01:36]} Qf5 {[%clk 0:02:52]} 28. Rf3 {[%clk 0:01:27]} Qa5
{[%clk 0:02:47]} 29. Ng4 *

[Event "No Logo Norway Chess 2014 Blitz"]
[Site "?"]
[Date "2014.06.02"]
[Round "5.4"]
[White "Aronian, Levon"]
[Black "Agdestein, Simen"]
[Result "*"]
[LiveChessVersion "1.4.2"]
[BlackElo "2628"]
[WhiteElo "2815"]
[ECO "E15"]

1. d4 {[%clk 0:04:03]} Nf6 {[%clk 0:04:02]} 2. c4 {[%clk 0:04:04]} e6
{[%clk 0:04:04]} 3. Nf3 {[%clk 0:04:05]} b6 {[%clk 0:04:01]} 4. g3
{[%clk 0:04:05]} Ba6 {[%clk 0:04:02]} 5. Qc2 {[%clk 0:04:06]} Bb4+
{[%clk 0:03:46]} 6. Bd2 {[%clk 0:04:07]} Bxd2+ {[%clk 0:03:47]} 7. Nbxd2
{[%clk 0:04:07]} c5 {[%clk 0:03:38]} 8. e4 {[%clk 0:04:06]} O-O {[%clk 0:03:08]}
9. e5 {[%clk 0:04:03]} Ne8 {[%clk 0:03:10]} 10. Bd3 {[%clk 0:03:54]} f5
{[%clk 0:03:05]} 11. d5 {[%clk 0:03:40]} Bb7 {[%clk 0:02:58]} 12. O-O-O
{[%clk 0:03:33]} g6 {[%clk 0:02:40]} 13. h4 {[%clk 0:03:28]} Ng7 {[%clk 0:02:38]}
14. Kb1 {[%clk 0:03:17]} Na6 {[%clk 0:02:24]} 15. a3 {[%clk 0:03:17]} Nc7
{[%clk 0:02:22]} 16. d6 {[%clk 0:03:02]} Nce8 {[%clk 0:02:18]} 17. Rhe1
{[%clk 0:03:03]} a6 {[%clk 0:02:01]} 18. Ng5 {[%clk 0:02:59]} Bc6
{[%clk 0:01:55]} 19. Be2 {[%clk 0:02:53]} Qb8 {[%clk 0:01:33]} 20. Bf3
{[%clk 0:02:34]} Qb7 {[%clk 0:01:21]} 21. Rc1 {[%clk 0:02:31]} Bxf3
{[%clk 0:01:13]} 22. Ngxf3 {[%clk 0:02:32]} *

[Event "No Logo Norway Chess 2014 Blitz"]
[Site "?"]
[Date "2014.06.02"]
[Round "5.5"]
[White "Svidler, Peter"]
[Black "Carlsen, Magnus"]
[Result "*"]
[LiveChessVersion "1.4.2"]
[BlackElo "2881"]
[WhiteElo "2753"]
[ECO "A10"]

1. c4 {[%clk 0:04:03]} g6 {[%clk 0:03:58]} 2. e4 {[%clk 0:04:04]} e5
{[%clk 0:03:55]} 3. d4 {[%clk 0:04:04]} Nf6 {[%clk 0:03:39]} 4. Nf3
{[%clk 0:04:05]} exd4 {[%clk 0:03:22]} 5. e5 {[%clk 0:04:05]} Ne4
{[%clk 0:03:03]} 6. Qxd4 {[%clk 0:04:05]} Bb4+ {[%clk 0:02:58]} 7. Nbd2
{[%clk 0:04:05]} Nxd2 {[%clk 0:02:58]} 8. Bxd2 {[%clk 0:04:06]} Nc6
{[%clk 0:02:59]} 9. Qf4 {[%clk 0:03:57]} Bxd2+ {[%clk 0:02:55]} 10. Qxd2
{[%clk 0:03:46]} Qe7 {[%clk 0:02:54]} 11. O-O-O {[%clk 0:03:44]} b6
{[%clk 0:02:52]} 12. Bd3 {[%clk 0:03:31]} Bb7 {[%clk 0:02:53]} 13. Be4
{[%clk 0:03:17]} O-O-O {[%clk 0:02:52]} 14. Rhe1 {[%clk 0:03:17]} f6
{[%clk 0:02:35]} 15. exf6 {[%clk 0:02:51]} Qxf6 {[%clk 0:02:36]} 16. Qg5
{[%clk 0:02:36]} Qg7 {[%clk 0:02:34]} 17. h4 {[%clk 0:02:28]} Rhe8
{[%clk 0:02:32]} 18. h5 {[%clk 0:01:51]} Nb4 {[%clk 0:02:28]} 19. Bxb7+
{[%clk 0:01:44]} Kxb7 {[%clk 0:02:29]} 20. Rxe8 {[%clk 0:01:26]} Rxe8
{[%clk 0:02:30]} 21. Qd2 {[%clk 0:01:26]} *

