[Event "No Logo Norway Chess 2014 Blitz"]
[Site "?"]
[Date "2014.06.02"]
[Round "5.1"]
[White "Caruana, Fabiano"]
[Black "Karjakin, Sergey"]
[Result "*"]
[LiveChessVersion "1.4.2"]
[BlackElo "2771"]
[WhiteElo "2791"]
[ECO "A04"]

1. Nf3 {[%clk 0:04:02]} c5 {[%clk 0:04:00]} 2. g3 {[%clk 0:04:00]} Nc6
{[%clk 0:03:59]} 3. Bg2 {[%clk 0:03:56]} g6 {[%clk 0:04:00]} 4. O-O
{[%clk 0:03:46]} Bg7 {[%clk 0:04:00]} 5. e4 {[%clk 0:03:43]} Nf6 {[%clk 0:03:57]}
6. Qe2 {[%clk 0:03:35]} d5 {[%clk 0:03:53]} 7. d3 {[%clk 0:03:30]} O-O
{[%clk 0:03:52]} 8. e5 {[%clk 0:03:18]} Ne8 {[%clk 0:03:44]} 9. h3
{[%clk 0:02:39]} Nc7 {[%clk 0:03:43]} 10. c3 {[%clk 0:02:36]} *

[Event "No Logo Norway Chess 2014 Blitz"]
[Site "?"]
[Date "2014.06.02"]
[Round "5.2"]
[White "Giri, Anish"]
[Black "Kramnik, Vladimir"]
[Result "*"]
[LiveChessVersion "1.4.2"]
[BlackElo "2783"]
[WhiteElo "2752"]
[ECO "B01"]

1. e4 {[%clk 0:04:03]} d5 {[%clk 0:04:03]} 2. exd5 {[%clk 0:04:02]} Qxd5
{[%clk 0:04:04]} 3. Nf3 {[%clk 0:04:02]} c6 {[%clk 0:03:59]} 4. d4
{[%clk 0:04:00]} Nf6 {[%clk 0:03:59]} 5. Be2 {[%clk 0:04:01]} Bg4
{[%clk 0:03:56]} 6. h3 {[%clk 0:03:59]} Bxf3 {[%clk 0:03:54]} 7. Bxf3
{[%clk 0:04:00]} Qa5+ {[%clk 0:03:48]} 8. c3 {[%clk 0:04:00]} e6 {[%clk 0:03:48]}
9. Bf4 {[%clk 0:03:39]} Qa6 {[%clk 0:03:25]} 10. Qb3 {[%clk 0:03:24]} Nbd7
{[%clk 0:03:19]} 11. Nd2 {[%clk 0:03:18]} Nd5 {[%clk 0:03:16]} 12. Bg3
{[%clk 0:03:16]} *

[Event "No Logo Norway Chess 2014 Blitz"]
[Site "?"]
[Date "2014.06.02"]
[Round "5.3"]
[White "Grischuk, Alexander"]
[Black "Topalov, Veselin"]
[Result "*"]
[LiveChessVersion "1.4.2"]
[BlackElo "2772"]
[WhiteElo "2792"]
[ECO "C47"]

1. e4 {[%clk 0:04:03]} e5 {[%clk 0:04:03]} 2. Nf3 {[%clk 0:04:03]} Nc6
{[%clk 0:04:04]} 3. Nc3 {[%clk 0:04:04]} Nf6 {[%clk 0:04:01]} 4. Be2
{[%clk 0:04:05]} d5 {[%clk 0:04:00]} 5. exd5 {[%clk 0:04:05]} Nxd5
{[%clk 0:04:01]} 6. O-O {[%clk 0:04:05]} Nxc3 {[%clk 0:04:01]} 7. bxc3
{[%clk 0:04:06]} Bd6 {[%clk 0:04:02]} 8. d4 {[%clk 0:04:06]} O-O {[%clk 0:04:02]}
9. Re1 {[%clk 0:04:07]} Bf5 {[%clk 0:04:02]} 10. Rb1 {[%clk 0:03:40]} exd4
{[%clk 0:04:02]} 11. cxd4 {[%clk 0:03:06]} Nb4 {[%clk 0:03:48]} 12. Rb2
{[%clk 0:03:08]} Nd5 {[%clk 0:03:25]} *

[Event "No Logo Norway Chess 2014 Blitz"]
[Site "?"]
[Date "2014.06.02"]
[Round "5.4"]
[White "Aronian, Levon"]
[Black "Agdestein, Simen"]
[Result "*"]
[LiveChessVersion "1.4.2"]
[BlackElo "2628"]
[WhiteElo "2815"]
[ECO "E15"]

1. d4 {[%clk 0:04:03]} Nf6 {[%clk 0:04:02]} 2. c4 {[%clk 0:04:04]} e6
{[%clk 0:04:04]} 3. Nf3 {[%clk 0:04:05]} b6 {[%clk 0:04:01]} 4. g3
{[%clk 0:04:05]} Ba6 {[%clk 0:04:02]} 5. Qc2 {[%clk 0:04:06]} Bb4+
{[%clk 0:03:46]} 6. Bd2 {[%clk 0:04:07]} Bxd2+ {[%clk 0:03:47]} 7. Nbxd2
{[%clk 0:04:07]} c5 {[%clk 0:03:38]} 8. e4 {[%clk 0:04:06]} O-O {[%clk 0:03:08]}
9. e5 {[%clk 0:04:03]} Ne8 {[%clk 0:03:10]} 10. Bd3 {[%clk 0:03:54]} f5
{[%clk 0:03:05]} 11. d5 {[%clk 0:03:40]} Bb7 {[%clk 0:02:58]} 12. O-O-O
{[%clk 0:03:33]} *

[Event "No Logo Norway Chess 2014 Blitz"]
[Site "?"]
[Date "2014.06.02"]
[Round "5.5"]
[White "Svidler, Peter"]
[Black "Carlsen, Magnus"]
[Result "*"]
[LiveChessVersion "1.4.2"]
[BlackElo "2881"]
[WhiteElo "2753"]
[ECO "A10"]

1. c4 {[%clk 0:04:03]} g6 {[%clk 0:03:58]} 2. e4 {[%clk 0:04:04]} e5
{[%clk 0:03:55]} 3. d4 {[%clk 0:04:04]} Nf6 {[%clk 0:03:39]} 4. Nf3
{[%clk 0:04:05]} exd4 {[%clk 0:03:22]} 5. e5 {[%clk 0:04:05]} Ne4
{[%clk 0:03:03]} 6. Qxd4 {[%clk 0:04:05]} Bb4+ {[%clk 0:02:58]} 7. Nbd2
{[%clk 0:04:05]} Nxd2 {[%clk 0:02:58]} 8. Bxd2 {[%clk 0:04:06]} Nc6
{[%clk 0:02:59]} 9. Qf4 {[%clk 0:03:57]} Bxd2+ {[%clk 0:02:55]} 10. Qxd2
{[%clk 0:03:46]} Qe7 {[%clk 0:02:54]} 11. O-O-O {[%clk 0:03:44]} b6
{[%clk 0:02:52]} *

