[
  {
    "move": "e4",
    "white": 16,
    "black": 8,
    "suggestions": [
      {
        "move": "c5",
        "chance": 8
      },
      {
        "move": "e6",
        "chance": 7
      },
      {
        "move": "e5",
        "chance": 7
      }
    ],
    "result": {
      "status": {
        "white": 26,
        "black": 8
      },
      "suggestions": [
        {
          "move": "Nc6",
          "chance": 11
        },
        {
          "move": "Na6",
          "chance": 13
        },
        {
          "move": "Nh6",
          "chance": 20
        }
      ]
    }
  },
  {
    "move": "e5",
    "white": 16,
    "black": 7,
    "suggestions": [
      {
        "move": "Sf3",
        "chance": 16
      },
      {
        "move": "Sc3",
        "chance": 15
      },
      {
        "move": "Lc4",
        "chance": 15
      }
    ],
    "result": {
      "status": {
        "white": 4,
        "black": 18
      },
      "suggestions": [
        {
          "move": "a3",
          "chance": 15
        },
        {
          "move": "a4",
          "chance": 1
        },
        {
          "move": "b3",
          "chance": 10
        }
      ]
    }
  },
  {
    "move": "Sf3",
    "white": 17,
    "black": 8,
    "suggestions": [
      {
        "move": "Sc6",
        "chance": 8
      },
      {
        "move": "Sf6",
        "chance": 8
      },
      {
        "move": "d6",
        "chance": 8
      }
    ],
    "result": {
      "status": {
        "white": 20,
        "black": 13
      },
      "suggestions": [
        {
          "move": "a3",
          "chance": 8
        },
        {
          "move": "a4",
          "chance": 16
        },
        {
          "move": "b3",
          "chance": 12
        }
      ]
    }
  },
  {
    "move": "Sc6",
    "white": 18,
    "black": 7,
    "suggestions": [
      {
        "move": "Lb5",
        "chance": 18
      },
      {
        "move": "Le2",
        "chance": 15
      },
      {
        "move": "Sc3",
        "chance": 15
      }
    ],
    "result": {
      "status": {
        "white": 23,
        "black": 15
      },
      "suggestions": [
        {
          "move": "a3",
          "chance": 11
        },
        {
          "move": "a4",
          "chance": 15
        },
        {
          "move": "b3",
          "chance": 12
        }
      ]
    }
  },
  {
    "move": "Lb5",
    "white": 16,
    "black": 8,
    "suggestions": [
      {
        "move": "a6",
        "chance": 8
      },
      {
        "move": "Sf6",
        "chance": 7
      },
      {
        "move": "Sd4",
        "chance": 7
      }
    ],
    "result": {
      "status": {
        "white": 24,
        "black": 17
      },
      "suggestions": [
        {
          "move": "a3",
          "chance": 14
        },
        {
          "move": "a4",
          "chance": 13
        },
        {
          "move": "b3",
          "chance": 9
        }
      ]
    }
  },
  {
    "move": "Sf6",
    "white": 18,
    "black": 8,
    "suggestions": [
      {
        "move": "O-O",
        "chance": 18
      },
      {
        "move": "d3",
        "chance": 16
      },
      {
        "move": "Sc3",
        "chance": 15
      }
    ],
    "result": {
      "status": {
        "white": 19,
        "black": 15
      },
      "suggestions": [
        {
          "move": "a3",
          "chance": 9
        },
        {
          "move": "a4",
          "chance": 9
        },
        {
          "move": "b3",
          "chance": 19
        }
      ]
    }
  },
  {
    "move": "O-O",
    "white": 18,
    "black": 8,
    "suggestions": [
      {
        "move": "Sxe4",
        "chance": 8
      },
      {
        "move": "Lc5",
        "chance": 8
      },
      {
        "move": "Le7",
        "chance": 8
      }
    ],
    "result": {
      "status": {
        "white": 13,
        "black": 6
      },
      "suggestions": [
        {
          "move": "a3",
          "chance": 14
        },
        {
          "move": "a4",
          "chance": 5
        },
        {
          "move": "b3",
          "chance": 9
        }
      ]
    }
  },
  {
    "move": "Sxe4",
    "white": 18,
    "black": 7,
    "suggestions": [
      {
        "move": "d4",
        "chance": 18
      },
      {
        "move": "Te1",
        "chance": 16
      },
      {
        "move": "De2",
        "chance": 15
      }
    ],
    "result": {
      "status": {
        "white": 29,
        "black": 19
      },
      "suggestions": [
        {
          "move": "a3",
          "chance": 3
        },
        {
          "move": "a4",
          "chance": 16
        },
        {
          "move": "b3",
          "chance": 13
        }
      ]
    }
  },
  {
    "move": "d4",
    "white": 18,
    "black": 7,
    "suggestions": [
      {
        "move": "Sd6",
        "chance": 7
      },
      {
        "move": "Le7",
        "chance": 8
      },
      {
        "move": "a6",
        "chance": 7
      }
    ],
    "result": {
      "status": {
        "white": 29,
        "black": 5
      },
      "suggestions": [
        {
          "move": "Nc6",
          "chance": 20
        },
        {
          "move": "Na6",
          "chance": 13
        },
        {
          "move": "Qe7",
          "chance": 11
        }
      ]
    }
  },
  {
    "move": "Sd6",
    "white": 18,
    "black": 8,
    "suggestions": [
      {
        "move": "Lxc6",
        "chance": 18
      },
      {
        "move": "La4",
        "chance": 14
      },
      {
        "move": "dxe5",
        "chance": 11
      }
    ],
    "result": {
      "status": {
        "white": 13,
        "black": 17
      },
      "suggestions": [
        {
          "move": "Nc6",
          "chance": 10
        },
        {
          "move": "Na6",
          "chance": 18
        },
        {
          "move": "Qe7",
          "chance": 20
        }
      ]
    }
  },
  {
    "move": "Lxc6",
    "white": 18,
    "black": 8,
    "suggestions": [
      {
        "move": "dxc6",
        "chance": 8
      },
      {
        "move": "bxc6",
        "chance": 7
      },
      {
        "move": "e4",
        "chance": 5
      }
    ],
    "result": {
      "status": {
        "white": 7,
        "black": 9
      },
      "suggestions": [
        {
          "move": "Nc6",
          "chance": 17
        },
        {
          "move": "Na6",
          "chance": 8
        },
        {
          "move": "Qe7",
          "chance": 15
        }
      ]
    }
  },
  {
    "move": "dxc6",
    "white": 18,
    "black": 8,
    "suggestions": [
      {
        "move": "dxe5",
        "chance": 18
      },
      {
        "move": "Sxe5",
        "chance": 8
      },
      {
        "move": "Lg5",
        "chance": 8
      }
    ],
    "result": {
      "status": {
        "white": 19,
        "black": 1
      },
      "suggestions": [
        {
          "move": "Nc6",
          "chance": 8
        },
        {
          "move": "Na6",
          "chance": 20
        },
        {
          "move": "Qe7",
          "chance": 15
        }
      ]
    }
  },
  {
    "move": "dxe5",
    "white": 17,
    "black": 8,
    "suggestions": [
      {
        "move": "Sf5",
        "chance": 8
      },
      {
        "move": "Se4",
        "chance": 6
      },
      {
        "move": "Sc4",
        "chance": 6
      }
    ],
    "result": {
      "status": {
        "white": 11,
        "black": 7
      },
      "suggestions": [
        {
          "move": "Nc6",
          "chance": 6
        },
        {
          "move": "Na6",
          "chance": 9
        },
        {
          "move": "Qe7",
          "chance": 11
        }
      ]
    }
  },
  {
    "move": "Sf5",
    "white": 18,
    "black": 7,
    "suggestions": [
      {
        "move": "Dxd8+",
        "chance": 18
      },
      {
        "move": "De2",
        "chance": 15
      },
      {
        "move": "Sc3",
        "chance": 14
      }
    ],
    "result": {
      "status": {
        "white": 4,
        "black": 9
      },
      "suggestions": [
        {
          "move": "Nc6",
          "chance": 1
        },
        {
          "move": "Na6",
          "chance": 15
        },
        {
          "move": "Qe7",
          "chance": 5
        }
      ]
    }
  },
  {
    "move": "Dxd8+",
    "white": 17,
    "black": 8,
    "suggestions": [
      {
        "move": "Kxd8",
        "chance": 8
      }
    ],
    "result": {
      "status": {
        "white": 20,
        "black": 1
      },
      "suggestions": [
        {
          "move": "Nc6",
          "chance": 9
        },
        {
          "move": "Na6",
          "chance": 14
        },
        {
          "move": "Qe7",
          "chance": 10
        }
      ]
    }
  },
  {
    "move": "Kxd8",
    "white": 17,
    "black": 8,
    "suggestions": [
      {
        "move": "Sc3",
        "chance": 17
      },
      {
        "move": "Td1+",
        "chance": 16
      },
      {
        "move": "Sbd2",
        "chance": 16
      }
    ],
    "result": {
      "status": {
        "white": 23,
        "black": 12
      },
      "suggestions": [
        {
          "move": "Nc6",
          "chance": 12
        },
        {
          "move": "Na6",
          "chance": 13
        },
        {
          "move": "Qe7",
          "chance": 5
        }
      ]
    }
  },
  {
    "move": "h3",
    "white": 15,
    "black": 8,
    "suggestions": [
      {
        "move": "Ke8",
        "chance": 8
      },
      {
        "move": "Le6",
        "chance": 7
      },
      {
        "move": "Le7",
        "chance": 8
      }
    ],
    "result": {
      "status": {
        "white": 30,
        "black": 7
      },
      "suggestions": [
        {
          "move": "Nc6",
          "chance": 11
        },
        {
          "move": "Na6",
          "chance": 16
        },
        {
          "move": "Qe7",
          "chance": 7
        }
      ]
    }
  },
  {
    "move": "Ld7",
    "white": 18,
    "black": 7,
    "suggestions": [
      {
        "move": "Sc3",
        "chance": 18
      },
      {
        "move": "b3",
        "chance": 17
      },
      {
        "move": "Td1",
        "chance": 17
      }
    ],
    "result": {
      "status": {
        "white": 21,
        "black": 14
      },
      "suggestions": [
        {
          "move": "Nc6",
          "chance": 15
        },
        {
          "move": "Na6",
          "chance": 9
        },
        {
          "move": "Qe7",
          "chance": 4
        }
      ]
    }
  },
  {
    "move": "Td1",
    "white": 17,
    "black": 8,
    "suggestions": [
      {
        "move": "Kc8",
        "chance": 8
      },
      {
        "move": "Ke8",
        "chance": 8
      },
      {
        "move": "Le7",
        "chance": 8
      }
    ],
    "result": {
      "status": {
        "white": 14,
        "black": 8
      },
      "suggestions": [
        {
          "move": "Nc6",
          "chance": 13
        },
        {
          "move": "Na6",
          "chance": 13
        },
        {
          "move": "Qe7",
          "chance": 5
        }
      ]
    }
  },
  {
    "move": "Le7",
    "white": 17,
    "black": 8,
    "suggestions": [
      {
        "move": "b3",
        "chance": 17
      },
      {
        "move": "Lg5",
        "chance": 17
      },
      {
        "move": "Sc3",
        "chance": 16
      }
    ],
    "result": {
      "status": {
        "white": 5,
        "black": 8
      },
      "suggestions": [
        {
          "move": "Nc6",
          "chance": 16
        },
        {
          "move": "Na6",
          "chance": 2
        },
        {
          "move": "Qe7",
          "chance": 3
        }
      ]
    }
  },
  {
    "move": "Sc3",
    "white": 16,
    "black": 8,
    "suggestions": [
      {
        "move": "h6",
        "chance": 8
      },
      {
        "move": "Kc8",
        "chance": 8
      },
      {
        "move": "Ke8",
        "chance": 8
      }
    ],
    "result": {
      "status": {
        "white": 25,
        "black": 15
      },
      "suggestions": [
        {
          "move": "Nc6",
          "chance": 6
        },
        {
          "move": "Na6",
          "chance": 14
        },
        {
          "move": "Qe7",
          "chance": 9
        }
      ]
    }
  },
  {
    "move": "Kc8",
    "white": 15,
    "black": 8,
    "suggestions": [
      {
        "move": "Lg5",
        "chance": 15
      },
      {
        "move": "b3",
        "chance": 15
      },
      {
        "move": "Se4",
        "chance": 14
      }
    ],
    "result": {
      "status": {
        "white": 19,
        "black": 10
      },
      "suggestions": [
        {
          "move": "Nc6",
          "chance": 18
        },
        {
          "move": "Na6",
          "chance": 20
        },
        {
          "move": "Qe7",
          "chance": 14
        }
      ]
    }
  },
  {
    "move": "Lg5",
    "white": 15,
    "black": 8,
    "suggestions": [
      {
        "move": "Lxg5",
        "chance": 8
      },
      {
        "move": "h6",
        "chance": 8
      },
      {
        "move": "f6",
        "chance": 8
      }
    ],
    "result": {
      "status": {
        "white": 2,
        "black": 2
      },
      "suggestions": [
        {
          "move": "Nc6",
          "chance": 12
        },
        {
          "move": "Na6",
          "chance": 10
        },
        {
          "move": "Qe7",
          "chance": 3
        }
      ]
    }
  },
  {
    "move": "h6",
    "white": 14,
    "black": 8,
    "suggestions": [
      {
        "move": "Lxe7",
        "chance": 14
      },
      {
        "move": "Lf4",
        "chance": 8
      },
      {
        "move": "Ld2",
        "chance": 8
      }
    ],
    "result": {
      "status": {
        "white": 18,
        "black": 4
      },
      "suggestions": [
        {
          "move": "d5",
          "chance": 8
        },
        {
          "move": "dxe5",
          "chance": 11
        },
        {
          "move": "a3",
          "chance": 2
        }
      ]
    }
  },
  {
    "move": "Lxe7",
    "white": 14,
    "black": 8,
    "suggestions": [
      {
        "move": "Sxe7",
        "chance": 8
      },
      {
        "move": "b6",
        "chance": 1
      },
      {
        "move": "Te8",
        "chance": 1
      }
    ],
    "result": {
      "status": {
        "white": 17,
        "black": 16
      },
      "suggestions": [
        {
          "move": "d5",
          "chance": 11
        },
        {
          "move": "dxe5",
          "chance": 9
        },
        {
          "move": "a3",
          "chance": 16
        }
      ]
    }
  },
  {
    "move": "Sxe7",
    "white": 15,
    "black": 7,
    "suggestions": [
      {
        "move": "a4",
        "chance": 15
      },
      {
        "move": "Kh2",
        "chance": 11
      },
      {
        "move": "Td2",
        "chance": 11
      }
    ],
    "result": {
      "status": {
        "white": 9,
        "black": 20
      },
      "suggestions": [
        {
          "move": "d5",
          "chance": 2
        },
        {
          "move": "dxe5",
          "chance": 15
        },
        {
          "move": "a3",
          "chance": 7
        }
      ]
    }
  },
  {
    "move": "Td2",
    "white": 11,
    "black": 11,
    "suggestions": [
      {
        "move": "c5",
        "chance": 11
      },
      {
        "move": "b6",
        "chance": 8
      },
      {
        "move": "Lf5",
        "chance": 7
      }
    ],
    "result": {
      "status": {
        "white": 4,
        "black": 6
      },
      "suggestions": [
        {
          "move": "d5",
          "chance": 19
        },
        {
          "move": "dxe5",
          "chance": 17
        },
        {
          "move": "a3",
          "chance": 17
        }
      ]
    }
  },
  {
    "move": "c5",
    "white": 11,
    "black": 11,
    "suggestions": [
      {
        "move": "a4",
        "chance": 11
      },
      {
        "move": "Tad1",
        "chance": 8
      },
      {
        "move": "b3",
        "chance": 8
      }
    ],
    "result": {
      "status": {
        "white": 19,
        "black": 13
      },
      "suggestions": [
        {
          "move": "d5",
          "chance": 5
        },
        {
          "move": "dxe5",
          "chance": 9
        },
        {
          "move": "a3",
          "chance": 7
        }
      ]
    }
  },
  {
    "move": "Tad1",
    "white": 11,
    "black": 11,
    "suggestions": [
      {
        "move": "Le6",
        "chance": 11
      },
      {
        "move": "Lf5",
        "chance": 7
      },
      {
        "move": "Lc6",
        "chance": 8
      }
    ],
    "result": {
      "status": {
        "white": 19,
        "black": 12
      },
      "suggestions": [
        {
          "move": "d5",
          "chance": 4
        },
        {
          "move": "dxe5",
          "chance": 20
        },
        {
          "move": "a3",
          "chance": 14
        }
      ]
    }
  },
  {
    "move": "Le6",
    "white": 11,
    "black": 11,
    "suggestions": [
      {
        "move": "b3",
        "chance": 11
      },
      {
        "move": "Se2",
        "chance": 11
      },
      {
        "move": "a4",
        "chance": 8
      }
    ],
    "result": {
      "status": {
        "white": 10,
        "black": 11
      },
      "suggestions": [
        {
          "move": "d5",
          "chance": 5
        },
        {
          "move": "dxe5",
          "chance": 8
        },
        {
          "move": "a3",
          "chance": 6
        }
      ]
    }
  },
  {
    "move": "Se1",
    "white": 8,
    "black": 15,
    "suggestions": [
      {
        "move": "b6",
        "chance": 15
      },
      {
        "move": "Sg6",
        "chance": 15
      },
      {
        "move": "g5",
        "chance": 11
      }
    ],
    "result": {
      "status": {
        "white": 25,
        "black": 20
      },
      "suggestions": [
        {
          "move": "d5",
          "chance": 12
        },
        {
          "move": "dxe5",
          "chance": 6
        },
        {
          "move": "a3",
          "chance": 18
        }
      ]
    }
  },
  {
    "move": "Sg6",
    "white": 8,
    "black": 15,
    "suggestions": [
      {
        "move": "Sd3",
        "chance": 8
      },
      {
        "move": "Sf3",
        "chance": 8
      },
      {
        "move": "Te2",
        "chance": 8
      }
    ],
    "result": {
      "status": {
        "white": 23,
        "black": 12
      },
      "suggestions": [
        {
          "move": "d5",
          "chance": 19
        },
        {
          "move": "dxe5",
          "chance": 10
        },
        {
          "move": "a3",
          "chance": 16
        }
      ]
    }
  },
  {
    "move": "Sd3",
    "white": 8,
    "black": 15,
    "suggestions": [
      {
        "move": "b6",
        "chance": 15
      },
      {
        "move": "Lf5",
        "chance": 7
      },
      {
        "move": "Te8",
        "chance": 7
      }
    ],
    "result": {
      "status": {
        "white": 15,
        "black": 7
      },
      "suggestions": [
        {
          "move": "d5",
          "chance": 9
        },
        {
          "move": "dxe5",
          "chance": 15
        },
        {
          "move": "a3",
          "chance": 9
        }
      ]
    }
  },
  {
    "move": "b6",
    "white": 8,
    "black": 15,
    "suggestions": [
      {
        "move": "f4",
        "chance": 8
      },
      {
        "move": "b3",
        "chance": 8
      },
      {
        "move": "Tf1",
        "chance": 8
      }
    ],
    "result": {
      "status": {
        "white": 4,
        "black": 7
      },
      "suggestions": [
        {
          "move": "d5",
          "chance": 11
        },
        {
          "move": "dxe5",
          "chance": 15
        },
        {
          "move": "a3",
          "chance": 15
        }
      ]
    }
  },
  {
    "move": "Se2",
    "white": 7,
    "black": 22,
    "suggestions": [
      {
        "move": "Lxa2",
        "chance": 22
      },
      {
        "move": "Te8",
        "chance": 15
      },
      {
        "move": "Kb7",
        "chance": 15
      }
    ],
    "result": {
      "status": {
        "white": 28,
        "black": 17
      },
      "suggestions": [
        {
          "move": "d5",
          "chance": 15
        },
        {
          "move": "dxe5",
          "chance": 3
        },
        {
          "move": "a3",
          "chance": 19
        }
      ]
    }
  },
  {
    "move": "Lxa2",
    "white": 8,
    "black": 17,
    "suggestions": [
      {
        "move": "b3",
        "chance": 8
      },
      {
        "move": "Sdf4",
        "chance": 6
      },
      {
        "move": "Sef4",
        "chance": 6
      }
    ],
    "result": {
      "status": {
        "white": 23,
        "black": 12
      },
      "suggestions": [
        {
          "move": "d5",
          "chance": 11
        },
        {
          "move": "dxe5",
          "chance": 11
        },
        {
          "move": "a3",
          "chance": 15
        }
      ]
    }
  },
  {
    "move": "b3",
    "white": 8,
    "black": 18,
    "suggestions": [
      {
        "move": "c4",
        "chance": 18
      },
      {
        "move": "Td8",
        "chance": 7
      },
      {
        "move": "a5",
        "chance": 7
      }
    ],
    "result": {
      "status": {
        "white": 17,
        "black": 3
      },
      "suggestions": [
        {
          "move": "Nc6",
          "chance": 17
        },
        {
          "move": "Na6",
          "chance": 7
        },
        {
          "move": "Qe7",
          "chance": 3
        }
      ]
    }
  },
  {
    "move": "c4",
    "white": 8,
    "black": 18,
    "suggestions": [
      {
        "move": "Sdc1",
        "chance": 8
      },
      {
        "move": "Sec1",
        "chance": 4
      },
      {
        "move": "f4",
        "chance": 4
      }
    ],
    "result": {
      "status": {
        "white": 22,
        "black": 17
      },
      "suggestions": [
        {
          "move": "Nc6",
          "chance": 16
        },
        {
          "move": "Na6",
          "chance": 10
        },
        {
          "move": "Qe7",
          "chance": 13
        }
      ]
    }
  },
  {
    "move": "Sdc1",
    "white": 8,
    "black": 16,
    "suggestions": [
      {
        "move": "cxb3",
        "chance": 16
      },
      {
        "move": "Lxb3",
        "chance": 6
      },
      {
        "move": "Lb1",
        "chance": 5
      }
    ],
    "result": {
      "status": {
        "white": 8,
        "black": 10
      },
      "suggestions": [
        {
          "move": "Nc6",
          "chance": 20
        },
        {
          "move": "Na6",
          "chance": 13
        },
        {
          "move": "Qe7",
          "chance": 6
        }
      ]
    }
  },
  {
    "move": "cxb3",
    "white": 7,
    "black": 20,
    "suggestions": [
      {
        "move": "cxb3",
        "chance": 7
      },
      {
        "move": "Te1",
        "chance": 6
      },
      {
        "move": "Tf1",
        "chance": 5
      }
    ],
    "result": {
      "status": {
        "white": 23,
        "black": 18
      },
      "suggestions": [
        {
          "move": "Nc6",
          "chance": 15
        },
        {
          "move": "Na6",
          "chance": 20
        },
        {
          "move": "Qe7",
          "chance": 12
        }
      ]
    }
  },
  {
    "move": "cxb3",
    "white": 8,
    "black": 18,
    "suggestions": [
      {
        "move": "Lb1",
        "chance": 18
      },
      {
        "move": "Lxb3",
        "chance": 6
      },
      {
        "move": "Kb7",
        "chance": 3
      }
    ],
    "result": {
      "status": {
        "white": 23,
        "black": 9
      },
      "suggestions": [
        {
          "move": "Nc6",
          "chance": 11
        },
        {
          "move": "Na6",
          "chance": 5
        },
        {
          "move": "Qe7",
          "chance": 20
        }
      ]
    }
  },
  {
    "move": "Lb1",
    "white": 8,
    "black": 19,
    "suggestions": [
      {
        "move": "f4",
        "chance": 8
      },
      {
        "move": "Sd4",
        "chance": 7
      },
      {
        "move": "e6",
        "chance": 6
      }
    ],
    "result": {
      "status": {
        "white": 7,
        "black": 12
      },
      "suggestions": [
        {
          "move": "Nc6",
          "chance": 19
        },
        {
          "move": "Na6",
          "chance": 8
        },
        {
          "move": "Qe7",
          "chance": 19
        }
      ]
    }
  },
  {
    "move": "f4",
    "white": 7,
    "black": 20,
    "suggestions": [
      {
        "move": "Kb7",
        "chance": 20
      },
      {
        "move": "Te8",
        "chance": 20
      },
      {
        "move": "Le4",
        "chance": 17
      }
    ],
    "result": {
      "status": {
        "white": 2,
        "black": 8
      },
      "suggestions": [
        {
          "move": "Nc6",
          "chance": 12
        },
        {
          "move": "Na6",
          "chance": 12
        },
        {
          "move": "Qe7",
          "chance": 14
        }
      ]
    }
  },
  {
    "move": "Kb7",
    "white": 8,
    "black": 19,
    "suggestions": [
      {
        "move": "Sd3",
        "chance": 8
      },
      {
        "move": "Kf2",
        "chance": 7
      },
      {
        "move": "Td7",
        "chance": 6
      }
    ],
    "result": {
      "status": {
        "white": 24,
        "black": 5
      },
      "suggestions": [
        {
          "move": "Nc6",
          "chance": 10
        },
        {
          "move": "Na6",
          "chance": 19
        },
        {
          "move": "Qe7",
          "chance": 5
        }
      ]
    }
  },
  {
    "move": "Sc3",
    "white": 7,
    "black": 25,
    "suggestions": [
      {
        "move": "Lf5",
        "chance": 25
      },
      {
        "move": "Sxf4",
        "chance": 5
      },
      {
        "move": "Tae8",
        "chance": 6
      }
    ],
    "result": {
      "status": {
        "white": 8,
        "black": 1
      },
      "suggestions": [
        {
          "move": "Nc6",
          "chance": 2
        },
        {
          "move": "Na6",
          "chance": 7
        },
        {
          "move": "Qe7",
          "chance": 15
        }
      ]
    }
  },
  {
    "move": "Lf5",
    "white": 7,
    "black": 26,
    "suggestions": [
      {
        "move": "g4",
        "chance": 7
      },
      {
        "move": "S1e2",
        "chance": 6
      },
      {
        "move": "Kh2",
        "chance": 5
      }
    ],
    "result": {
      "status": {
        "white": 1,
        "black": 10
      },
      "suggestions": [
        {
          "move": "Nc6",
          "chance": 11
        },
        {
          "move": "Na6",
          "chance": 18
        },
        {
          "move": "Qe7",
          "chance": 16
        }
      ]
    }
  },
  {
    "move": "g4",
    "white": 7,
    "black": 23,
    "suggestions": [
      {
        "move": "Lc8",
        "chance": 23
      },
      {
        "move": "Le6",
        "chance": 10
      },
      {
        "move": "Sh4",
        "chance": 7
      }
    ],
    "result": {
      "status": {
        "white": 22,
        "black": 3
      },
      "suggestions": [
        {
          "move": "Nc6",
          "chance": 9
        },
        {
          "move": "Na6",
          "chance": 7
        },
        {
          "move": "Qe7",
          "chance": 17
        }
      ]
    }
  },
  {
    "move": "Lc8",
    "white": 7,
    "black": 26,
    "suggestions": [
      {
        "move": "Sd3",
        "chance": 7
      },
      {
        "move": "S1e2",
        "chance": 6
      },
      {
        "move": "Tf1",
        "chance": 5
      }
    ],
    "result": {
      "status": {
        "white": 21,
        "black": 7
      },
      "suggestions": [
        {
          "move": "Nc6",
          "chance": 13
        },
        {
          "move": "Na6",
          "chance": 4
        },
        {
          "move": "Qe7",
          "chance": 3
        }
      ]
    }
  },
  {
    "move": "Sd3",
    "white": 6,
    "black": 35,
    "suggestions": [
      {
        "move": "h5",
        "chance": 35
      },
      {
        "move": "Se7",
        "chance": 28
      },
      {
        "move": "a6",
        "chance": 22
      }
    ],
    "result": {
      "status": {
        "white": 13,
        "black": 7
      },
      "suggestions": [
        {
          "move": "Nc6",
          "chance": 16
        },
        {
          "move": "Na6",
          "chance": 15
        },
        {
          "move": "Qe7",
          "chance": 2
        }
      ]
    }
  },
  {
    "move": "h5",
    "white": 6,
    "black": 37,
    "suggestions": [
      {
        "move": "Tc1",
        "chance": 6
      },
      {
        "move": "f5",
        "chance": 6
      },
      {
        "move": "Tf1",
        "chance": 6
      }
    ],
    "result": {
      "status": {
        "white": 19,
        "black": 5
      },
      "suggestions": [
        {
          "move": "d5",
          "chance": 18
        },
        {
          "move": "dxe5",
          "chance": 18
        },
        {
          "move": "b4",
          "chance": 8
        }
      ]
    }
  },
  {
    "move": "f5",
    "white": 7,
    "black": 30,
    "suggestions": [
      {
        "move": "Se7",
        "chance": 30
      },
      {
        "move": "Sh4",
        "chance": 18
      },
      {
        "move": "Sf8",
        "chance": 15
      }
    ],
    "result": {
      "status": {
        "white": 1,
        "black": 3
      },
      "suggestions": [
        {
          "move": "d5",
          "chance": 3
        },
        {
          "move": "dxe5",
          "chance": 12
        },
        {
          "move": "b4",
          "chance": 11
        }
      ]
    }
  },
  {
    "move": "Se7",
    "white": 7,
    "black": 25,
    "suggestions": [
      {
        "move": "Tc1",
        "chance": 7
      },
      {
        "move": "Tc2",
        "chance": 7
      },
      {
        "move": "Se4",
        "chance": 7
      }
    ],
    "result": {
      "status": {
        "white": 29,
        "black": 12
      },
      "suggestions": [
        {
          "move": "d5",
          "chance": 4
        },
        {
          "move": "dxe5",
          "chance": 9
        },
        {
          "move": "b4",
          "chance": 17
        }
      ]
    }
  },
  {
    "move": "Sb5",
    "white": 5,
    "black": 42,
    "suggestions": [
      {
        "move": "a6",
        "chance": 42
      },
      {
        "move": "Sd5",
        "chance": 21
      },
      {
        "move": "hxg4",
        "chance": 20
      }
    ],
    "result": {
      "status": {
        "white": 7,
        "black": 3
      },
      "suggestions": [
        {
          "move": "d5",
          "chance": 14
        },
        {
          "move": "dxe5",
          "chance": 8
        },
        {
          "move": "b4",
          "chance": 13
        }
      ]
    }
  },
  {
    "move": "hxg4",
    "white": 8,
    "black": 15,
    "suggestions": [
      {
        "move": "Tc2",
        "chance": 8
      },
      {
        "move": "Tc1",
        "chance": 7
      },
      {
        "move": "hxg4",
        "chance": 6
      }
    ],
    "result": {
      "status": {
        "white": 14,
        "black": 20
      },
      "suggestions": [
        {
          "move": "d5",
          "chance": 18
        },
        {
          "move": "dxe5",
          "chance": 9
        },
        {
          "move": "b4",
          "chance": 2
        }
      ]
    }
  },
  {
    "move": "hxg4",
    "white": 5,
    "black": 43,
    "suggestions": [
      {
        "move": "a6",
        "chance": 43
      },
      {
        "move": "Sc6",
        "chance": 33
      },
      {
        "move": "Th4",
        "chance": 33
      }
    ],
    "result": {
      "status": {
        "white": 25,
        "black": 2
      },
      "suggestions": [
        {
          "move": "d5",
          "chance": 4
        },
        {
          "move": "dxe5",
          "chance": 6
        },
        {
          "move": "b4",
          "chance": 5
        }
      ]
    }
  },
  {
    "move": "Th4",
    "white": 6,
    "black": 33,
    "suggestions": [
      {
        "move": "Sf2",
        "chance": 6
      },
      {
        "move": "Tc1",
        "chance": 5
      },
      {
        "move": "Tg2",
        "chance": 4
      }
    ],
    "result": {
      "status": {
        "white": 18,
        "black": 8
      },
      "suggestions": [
        {
          "move": "d5",
          "chance": 12
        },
        {
          "move": "dxe5",
          "chance": 19
        },
        {
          "move": "b4",
          "chance": 20
        }
      ]
    }
  },
  {
    "move": "Sf2",
    "white": 6,
    "black": 31,
    "suggestions": [
      {
        "move": "Sc6",
        "chance": 31
      },
      {
        "move": "g6",
        "chance": 26
      },
      {
        "move": "a5",
        "chance": 20
      }
    ],
    "result": {
      "status": {
        "white": 8,
        "black": 8
      },
      "suggestions": [
        {
          "move": "d5",
          "chance": 5
        },
        {
          "move": "dxe5",
          "chance": 1
        },
        {
          "move": "b4",
          "chance": 6
        }
      ]
    }
  },
  {
    "move": "Sc6",
    "white": 7,
    "black": 30,
    "suggestions": [
      {
        "move": "Tc2",
        "chance": 7
      },
      {
        "move": "Tc1",
        "chance": 6
      },
      {
        "move": "Te1",
        "chance": 6
      }
    ],
    "result": {
      "status": {
        "white": 21,
        "black": 10
      },
      "suggestions": [
        {
          "move": "d5",
          "chance": 18
        },
        {
          "move": "dxe5",
          "chance": 2
        },
        {
          "move": "b4",
          "chance": 19
        }
      ]
    }
  },
  {
    "move": "Tc2",
    "white": 6,
    "black": 34,
    "suggestions": [
      {
        "move": "Th6",
        "chance": 34
      },
      {
        "move": "a5",
        "chance": 32
      },
      {
        "move": "g6",
        "chance": 31
      }
    ],
    "result": {
      "status": {
        "white": 29,
        "black": 18
      },
      "suggestions": [
        {
          "move": "d5",
          "chance": 18
        },
        {
          "move": "dxe5",
          "chance": 12
        },
        {
          "move": "b4",
          "chance": 6
        }
      ]
    }
  },
  {
    "move": "a5",
    "white": 7,
    "black": 28,
    "suggestions": [
      {
        "move": "Kg2",
        "chance": 7
      },
      {
        "move": "Tc4",
        "chance": 6
      },
      {
        "move": "Tdc1",
        "chance": 5
      }
    ],
    "result": {
      "status": {
        "white": 30,
        "black": 1
      },
      "suggestions": [
        {
          "move": "d5",
          "chance": 12
        },
        {
          "move": "dxe5",
          "chance": 5
        },
        {
          "move": "b4",
          "chance": 10
        }
      ]
    }
  },
  {
    "move": "Tc4",
    "white": 6,
    "black": 40,
    "suggestions": [
      {
        "move": "g6",
        "chance": 40
      },
      {
        "move": "Lxf5",
        "chance": 16
      },
      {
        "move": "g5",
        "chance": 9
      }
    ],
    "result": {
      "status": {
        "white": 11,
        "black": 9
      },
      "suggestions": [
        {
          "move": "d5",
          "chance": 9
        },
        {
          "move": "dxe5",
          "chance": 20
        },
        {
          "move": "b4",
          "chance": 18
        }
      ]
    }
  },
  {
    "move": "g6",
    "white": 7,
    "black": 26,
    "suggestions": [
      {
        "move": "e6",
        "chance": 7
      },
      {
        "move": "Tdc1",
        "chance": 7
      },
      {
        "move": "fxg6",
        "chance": 5
      }
    ],
    "result": {
      "status": {
        "white": 25,
        "black": 12
      },
      "suggestions": [
        {
          "move": "d5",
          "chance": 7
        },
        {
          "move": "dxe5",
          "chance": 7
        },
        {
          "move": "b4",
          "chance": 11
        }
      ]
    }
  },
  {
    "move": "Tdc1",
    "white": 6,
    "black": 36,
    "suggestions": [
      {
        "move": "Ld7",
        "chance": 36
      },
      {
        "move": "Sxe5",
        "chance": 8
      },
      {
        "move": "gxf5",
        "chance": 1
      }
    ],
    "result": {
      "status": {
        "white": 15,
        "black": 2
      },
      "suggestions": [
        {
          "move": "d5",
          "chance": 1
        },
        {
          "move": "dxe5",
          "chance": 4
        },
        {
          "move": "b4",
          "chance": 1
        }
      ]
    }
  },
  {
    "move": "Ld7",
    "white": 5,
    "black": 46,
    "suggestions": [
      {
        "move": "e6",
        "chance": 5
      },
      {
        "move": "fxg6",
        "chance": 5
      },
      {
        "move": "f6",
        "chance": 3
      }
    ],
    "result": {
      "status": {
        "white": 20,
        "black": 11
      },
      "suggestions": [
        {
          "move": "d5",
          "chance": 3
        },
        {
          "move": "dxe5",
          "chance": 5
        },
        {
          "move": "b4",
          "chance": 2
        }
      ]
    }
  },
  {
    "move": "e6",
    "white": 6,
    "black": 40,
    "suggestions": [
      {
        "move": "fxe6",
        "chance": 40
      },
      {
        "move": "Le8",
        "chance": 1
      },
      {
        "move": "gxf5",
        "chance": 1
      }
    ],
    "result": {
      "status": {
        "white": 15,
        "black": 1
      },
      "suggestions": [
        {
          "move": "d5",
          "chance": 2
        },
        {
          "move": "dxe5",
          "chance": 11
        },
        {
          "move": "b4",
          "chance": 8
        }
      ]
    }
  },
  {
    "move": "fxe6",
    "white": 7,
    "black": 26,
    "suggestions": [
      {
        "move": "fxe6",
        "chance": 7
      },
      {
        "move": "Sd4",
        "chance": 4
      },
      {
        "move": "Td1",
        "chance": 2
      }
    ],
    "result": {
      "status": {
        "white": 23,
        "black": 4
      },
      "suggestions": [
        {
          "move": "d5",
          "chance": 16
        },
        {
          "move": "dxe5",
          "chance": 9
        },
        {
          "move": "b4",
          "chance": 10
        }
      ]
    }
  },
  {
    "move": "fxe6",
    "white": 6,
    "black": 38,
    "suggestions": [
      {
        "move": "Le8",
        "chance": 38
      },
      {
        "move": "Lxe6",
        "chance": 4
      },
      {
        "move": "Se5",
        "chance": 1
      }
    ],
    "result": {
      "status": {
        "white": 19,
        "black": 17
      },
      "suggestions": [
        {
          "move": "d5",
          "chance": 4
        },
        {
          "move": "dxe5",
          "chance": 8
        },
        {
          "move": "b4",
          "chance": 17
        }
      ]
    }
  },
  {
    "move": "Le8",
    "white": 7,
    "black": 22,
    "suggestions": [
      {
        "move": "Se4",
        "chance": 7
      },
      {
        "move": "Kg2",
        "chance": 5
      },
      {
        "move": "T1c3",
        "chance": 4
      }
    ],
    "result": {
      "status": {
        "white": 10,
        "black": 8
      },
      "suggestions": [
        {
          "move": "d5",
          "chance": 20
        },
        {
          "move": "dxe5",
          "chance": 12
        },
        {
          "move": "b4",
          "chance": 13
        }
      ]
    }
  },
  {
    "move": "Se4",
    "white": 7,
    "black": 24,
    "suggestions": [
      {
        "move": "Txg4+",
        "chance": 24
      },
      {
        "move": "Th3",
        "chance": 16
      },
      {
        "move": "Td8",
        "chance": 15
      }
    ],
    "result": {
      "status": {
        "white": 25,
        "black": 17
      },
      "suggestions": [
        {
          "move": "d5",
          "chance": 8
        },
        {
          "move": "dxe5",
          "chance": 6
        },
        {
          "move": "b4",
          "chance": 12
        }
      ]
    }
  },
  {
    "move": "Txg4+",
    "white": 7,
    "black": 24,
    "suggestions": [
      {
        "move": "Kf2",
        "chance": 7
      },
      {
        "move": "Kh2",
        "chance": 3
      },
      {
        "move": "Kf1",
        "chance": 2
      }
    ],
    "result": {
      "status": {
        "white": 21,
        "black": 2
      },
      "suggestions": [
        {
          "move": "d5",
          "chance": 10
        },
        {
          "move": "dxe5",
          "chance": 5
        },
        {
          "move": "b4",
          "chance": 9
        }
      ]
    }
  },
  {
    "move": "Kf2",
    "white": 7,
    "black": 23,
    "suggestions": [
      {
        "move": "Td8",
        "chance": 23
      },
      {
        "move": "Tf4+",
        "chance": 21
      },
      {
        "move": "Kb8",
        "chance": 8
      }
    ],
    "result": {
      "status": {
        "white": 26,
        "black": 1
      },
      "suggestions": [
        {
          "move": "d5",
          "chance": 11
        },
        {
          "move": "dxe5",
          "chance": 9
        },
        {
          "move": "b4",
          "chance": 16
        }
      ]
    }
  },
  {
    "move": "Tf4+",
    "white": 7,
    "black": 20,
    "suggestions": [
      {
        "move": "Ke3",
        "chance": 7
      },
      {
        "move": "Kg3",
        "chance": 5
      },
      {
        "move": "Kg2",
        "chance": 5
      }
    ],
    "result": {
      "status": {
        "white": 4,
        "black": 3
      },
      "suggestions": [
        {
          "move": "d5",
          "chance": 18
        },
        {
          "move": "dxe5",
          "chance": 18
        },
        {
          "move": "b4",
          "chance": 13
        }
      ]
    }
  },
  {
    "move": "Ke3",
    "white": 7,
    "black": 23,
    "suggestions": [
      {
        "move": "g5",
        "chance": 23
      },
      {
        "move": "Tf5",
        "chance": 8
      },
      {
        "move": "Tf8",
        "chance": 8
      }
    ],
    "result": {
      "status": {
        "white": 1,
        "black": 9
      },
      "suggestions": [
        {
          "move": "d5",
          "chance": 14
        },
        {
          "move": "dxe5",
          "chance": 9
        },
        {
          "move": "b4",
          "chance": 19
        }
      ]
    }
  },
  {
    "move": "Tf8",
    "white": 8,
    "black": 8,
    "suggestions": [
      {
        "move": "Sd4",
        "chance": 8
      },
      {
        "move": "T1c3",
        "chance": 7
      },
      {
        "move": "T1c2",
        "chance": 5
      }
    ],
    "result": {
      "status": {
        "white": 9,
        "black": 14
      },
      "suggestions": [
        {
          "move": "d5",
          "chance": 17
        },
        {
          "move": "dxe5",
          "chance": 3
        },
        {
          "move": "b4",
          "chance": 11
        }
      ]
    }
  },
  {
    "move": "Sd4",
    "white": 8,
    "black": 8,
    "suggestions": [
      {
        "move": "Sxd4",
        "chance": 8
      },
      {
        "move": "Sb4",
        "chance": 8
      },
      {
        "move": "Sa7",
        "chance": 5
      }
    ],
    "result": {
      "status": {
        "white": 27,
        "black": 11
      },
      "suggestions": [
        {
          "move": "d5",
          "chance": 4
        },
        {
          "move": "dxe5",
          "chance": 12
        },
        {
          "move": "b4",
          "chance": 19
        }
      ]
    }
  },
  {
    "move": "Sxd4",
    "white": 7,
    "black": 7,
    "suggestions": [
      {
        "move": "Txc7+",
        "chance": 7
      },
      {
        "move": "Txd4",
        "chance": 4
      },
      {
        "move": "Kxd4",
        "chance": 2
      }
    ],
    "result": {
      "status": {
        "white": 23,
        "black": 3
      },
      "suggestions": [
        {
          "move": "d5",
          "chance": 17
        },
        {
          "move": "dxe5",
          "chance": 17
        },
        {
          "move": "b4",
          "chance": 13
        }
      ]
    }
  },
  {
    "move": "Txc7+",
    "white": 10,
    "black": 4,
    "suggestions": [
      {
        "move": "Ka6",
        "chance": 4
      },
      {
        "move": "Kb8",
        "chance": 1
      }
    ],
    "result": {
      "status": {
        "white": 10,
        "black": 8
      },
      "suggestions": [
        {
          "move": "d5",
          "chance": 17
        },
        {
          "move": "dxe5",
          "chance": 4
        },
        {
          "move": "b4",
          "chance": 17
        }
      ]
    }
  },
  {
    "move": "Ka6",
    "white": 7,
    "black": 7,
    "suggestions": [
      {
        "move": "Kxd4",
        "chance": 7
      },
      {
        "move": "e7",
        "chance": 1
      },
      {
        "move": "Sg5",
        "chance": 1
      }
    ],
    "result": {
      "status": {
        "white": 9,
        "black": 9
      },
      "suggestions": [
        {
          "move": "d5",
          "chance": 8
        },
        {
          "move": "dxe5",
          "chance": 1
        },
        {
          "move": "b4",
          "chance": 6
        }
      ]
    }
  },
  {
    "move": "Kxd4",
    "white": 6,
    "black": 6,
    "suggestions": [
      {
        "move": "Td8+",
        "chance": 6
      },
      {
        "move": "Lb5",
        "chance": 5
      },
      {
        "move": "Tf4",
        "chance": 4
      }
    ],
    "result": {
      "status": {
        "white": 18,
        "black": 6
      },
      "suggestions": [
        {
          "move": "d5",
          "chance": 17
        },
        {
          "move": "dxe5",
          "chance": 14
        },
        {
          "move": "b4",
          "chance": 6
        }
      ]
    }
  },
  {
    "move": "Td8+",
    "white": 6,
    "black": 6,
    "suggestions": [
      {
        "move": "Ke3",
        "chance": 6
      },
      {
        "move": "Kc3",
        "chance": 7
      },
      {
        "move": "Td7",
        "chance": 1
      }
    ],
    "result": {
      "status": {
        "white": 6,
        "black": 2
      },
      "suggestions": [
        {
          "move": "d5",
          "chance": 1
        },
        {
          "move": "dxe5",
          "chance": 17
        },
        {
          "move": "b4",
          "chance": 4
        }
      ]
    }
  },
  {
    "move": "Kc3",
    "white": 7,
    "black": 24,
    "suggestions": [
      {
        "move": "Tf3+",
        "chance": 24
      },
      {
        "move": "g5",
        "chance": 6
      },
      {
        "move": "Th8",
        "chance": 7
      }
    ],
    "result": {
      "status": {
        "white": 23,
        "black": 4
      },
      "suggestions": [
        {
          "move": "d5",
          "chance": 16
        },
        {
          "move": "dxe5",
          "chance": 1
        },
        {
          "move": "b4",
          "chance": 12
        }
      ]
    }
  },
  {
    "move": "Tf3+",
    "white": 7,
    "black": 23,
    "suggestions": [
      {
        "move": "Kb2",
        "chance": 7
      },
      {
        "move": "Kc2",
        "chance": 5
      },
      {
        "move": "Kc4",
        "chance": 1
      }
    ],
    "result": {
      "status": {
        "white": 8,
        "black": 20
      },
      "suggestions": [
        {
          "move": "d5",
          "chance": 7
        },
        {
          "move": "dxe5",
          "chance": 10
        },
        {
          "move": "b4",
          "chance": 17
        }
      ]
    }
  },
  {
    "move": "Kb2",
    "white": 7,
    "black": 23,
    "suggestions": [
      {
        "move": "Te3",
        "chance": 23
      },
      {
        "move": "Tdd3",
        "chance": 6
      },
      {
        "move": "Td5",
        "chance": 6
      }
    ],
    "result": {
      "status": {
        "white": 8,
        "black": 6
      },
      "suggestions": [
        {
          "move": "d5",
          "chance": 14
        },
        {
          "move": "dxe5",
          "chance": 18
        },
        {
          "move": "b4",
          "chance": 17
        }
      ]
    }
  },
  {
    "move": "Te3",
    "white": 7,
    "black": 23,
    "suggestions": [
      {
        "move": "Tc8",
        "chance": 7
      },
      {
        "move": "e7",
        "chance": 6
      },
      {
        "move": "Sg5",
        "chance": 5
      }
    ],
    "result": {
      "status": {
        "white": 18,
        "black": 19
      },
      "suggestions": [
        {
          "move": "d5",
          "chance": 2
        },
        {
          "move": "dxe5",
          "chance": 2
        },
        {
          "move": "b4",
          "chance": 5
        }
      ]
    }
  },
  {
    "move": "Tc8",
    "white": 7,
    "black": 23,
    "suggestions": [
      {
        "move": "Txc8",
        "chance": 23
      },
      {
        "move": "Td4",
        "chance": 17
      },
      {
        "move": "Tdd3",
        "chance": 6
      }
    ],
    "result": {
      "status": {
        "white": 15,
        "black": 14
      },
      "suggestions": [
        {
          "move": "d5",
          "chance": 12
        },
        {
          "move": "dxe5",
          "chance": 7
        },
        {
          "move": "b4",
          "chance": 8
        }
      ]
    }
  },
  {
    "move": "Tdd3",
    "white": 3,
    "black": 10,
    "suggestions": [
      {
        "move": "T1c4",
        "chance": 3
      },
      {
        "move": "Txe8",
        "chance": 7
      },
      {
        "move": "Ta8+",
        "chance": 7
      }
    ],
    "result": {
      "status": {
        "white": 8,
        "black": 16
      },
      "suggestions": [
        {
          "move": "d5",
          "chance": 15
        },
        {
          "move": "dxe5",
          "chance": 3
        },
        {
          "move": "b4",
          "chance": 19
        }
      ]
    }
  },
  {
    "move": "Ta8+",
    "white": 7,
    "black": 24,
    "suggestions": [
      {
        "move": "Kb7",
        "chance": 24
      },
      {
        "move": "Kb5",
        "chance": 3
      }
    ],
    "result": {
      "status": {
        "white": 30,
        "black": 10
      },
      "suggestions": [
        {
          "move": "d5",
          "chance": 12
        },
        {
          "move": "dxe5",
          "chance": 9
        },
        {
          "move": "b4",
          "chance": 17
        }
      ]
    }
  },
  {
    "move": "Kb7",
    "white": 7,
    "black": 24,
    "suggestions": [
      {
        "move": "Txe8",
        "chance": 7
      },
      {
        "move": "Tcc8",
        "chance": 4
      },
      {
        "move": "Sc5+",
        "chance": 2
      }
    ],
    "result": {
      "status": {
        "white": 7,
        "black": 4
      },
      "suggestions": [
        {
          "move": "d5",
          "chance": 19
        },
        {
          "move": "dxe5",
          "chance": 14
        },
        {
          "move": "b4",
          "chance": 19
        }
      ]
    }
  },
  {
    "move": "Txe8",
    "white": 7,
    "black": 23,
    "suggestions": [
      {
        "move": "Te2+",
        "chance": 23
      },
      {
        "move": "Txe4",
        "chance": 23
      },
      {
        "move": "Txb3+",
        "chance": 6
      }
    ],
    "result": {
      "status": {
        "white": 10,
        "black": 12
      },
      "suggestions": [
        {
          "move": "d5",
          "chance": 7
        },
        {
          "move": "dxe5",
          "chance": 7
        },
        {
          "move": "b4",
          "chance": 4
        }
      ]
    }
  },
  {
    "move": "Txe4",
    "white": 7,
    "black": 23,
    "suggestions": [
      {
        "move": "Tf1",
        "chance": 7
      },
      {
        "move": "e7",
        "chance": 7
      },
      {
        "move": "Te7+",
        "chance": 6
      }
    ],
    "result": {
      "status": {
        "white": 26,
        "black": 9
      },
      "suggestions": [
        {
          "move": "d5",
          "chance": 3
        },
        {
          "move": "dxe5",
          "chance": 19
        },
        {
          "move": "b4",
          "chance": 13
        }
      ]
    }
  },
  {
    "move": "e7",
    "white": 7,
    "black": 23,
    "suggestions": [
      {
        "move": "g5",
        "chance": 23
      },
      {
        "move": "Tde3",
        "chance": 23
      },
      {
        "move": "Td7",
        "chance": 23
      }
    ],
    "result": {
      "status": {
        "white": 13,
        "black": 20
      },
      "suggestions": [
        {
          "move": "d5",
          "chance": 12
        },
        {
          "move": "dxe5",
          "chance": 16
        },
        {
          "move": "b4",
          "chance": 12
        }
      ]
    }
  },
  {
    "move": "Tg3",
    "white": 7,
    "black": 23,
    "suggestions": [
      {
        "move": "Tc2",
        "chance": 7
      },
      {
        "move": "Tcc8",
        "chance": 7
      },
      {
        "move": "Tc3",
        "chance": 7
      }
    ],
    "result": {
      "status": {
        "white": 15,
        "black": 5
      },
      "suggestions": [
        {
          "move": "d5",
          "chance": 5
        },
        {
          "move": "dxe5",
          "chance": 5
        },
        {
          "move": "b4",
          "chance": 8
        }
      ]
    }
  },
  {
    "move": "Tc3",
    "white": 7,
    "black": 23,
    "suggestions": [
      {
        "move": "Txc3",
        "chance": 23
      },
      {
        "move": "Tg1",
        "chance": 23
      },
      {
        "move": "Tg2+",
        "chance": 23
      }
    ],
    "result": {
      "status": {
        "white": 20,
        "black": 1
      },
      "suggestions": [
        {
          "move": "d5",
          "chance": 19
        },
        {
          "move": "dxe5",
          "chance": 8
        },
        {
          "move": "b4",
          "chance": 16
        }
      ]
    }
  },
  {
    "move": "Te2+",
    "white": 7,
    "black": 22,
    "suggestions": [
      {
        "move": "Tc2",
        "chance": 7
      },
      {
        "move": "Kb1",
        "chance": 1
      },
      {
        "move": "Ka3",
        "chance": 1
      }
    ],
    "result": {
      "status": {
        "white": 19,
        "black": 2
      },
      "suggestions": [
        {
          "move": "d5",
          "chance": 12
        },
        {
          "move": "dxe5",
          "chance": 1
        },
        {
          "move": "b4",
          "chance": 3
        }
      ]
    }
  },
  {
    "move": "Tc2",
    "white": 7,
    "black": 23,
    "suggestions": [
      {
        "move": "Te5",
        "chance": 23
      },
      {
        "move": "Te4",
        "chance": 23
      },
      {
        "move": "Te1",
        "chance": 23
      }
    ],
    "result": {
      "status": {
        "white": 25,
        "black": 9
      },
      "suggestions": [
        {
          "move": "d5",
          "chance": 20
        },
        {
          "move": "dxe5",
          "chance": 12
        },
        {
          "move": "b4",
          "chance": 2
        }
      ]
    }
  },
  {
    "move": "Tee3",
    "white": 5,
    "black": 5,
    "suggestions": [
      {
        "move": "Th2",
        "chance": 5
      },
      {
        "move": "Tf2",
        "chance": 5
      },
      {
        "move": "Ka2",
        "chance": 7
      }
    ],
    "result": {
      "status": {
        "white": 6,
        "black": 16
      },
      "suggestions": [
        {
          "move": "d5",
          "chance": 6
        },
        {
          "move": "dxe5",
          "chance": 10
        },
        {
          "move": "b4",
          "chance": 10
        }
      ]
    }
  },
  {
    "move": "Ka2",
    "white": 7,
    "black": 23,
    "suggestions": [
      {
        "move": "Te1",
        "chance": 23
      },
      {
        "move": "Tg1",
        "chance": 23
      },
      {
        "move": "g5",
        "chance": 23
      }
    ],
    "result": {
      "status": {
        "white": 19,
        "black": 2
      },
      "suggestions": [
        {
          "move": "d5",
          "chance": 2
        },
        {
          "move": "dxe5",
          "chance": 15
        },
        {
          "move": "b4",
          "chance": 16
        }
      ]
    }
  },
  {
    "move": "g5",
    "white": 7,
    "black": 23,
    "suggestions": [
      {
        "move": "Tf2",
        "chance": 7
      },
      {
        "move": "Th2",
        "chance": 7
      },
      {
        "move": "Td2",
        "chance": 7
      }
    ],
    "result": {
      "status": {
        "white": 14,
        "black": 17
      },
      "suggestions": [
        {
          "move": "d5",
          "chance": 18
        },
        {
          "move": "dxe5",
          "chance": 5
        },
        {
          "move": "b4",
          "chance": 12
        }
      ]
    }
  },
  {
    "move": "Td2",
    "white": 7,
    "black": 23,
    "suggestions": [
      {
        "move": "Te1",
        "chance": 23
      },
      {
        "move": "Tg1",
        "chance": 23
      },
      {
        "move": "Te4",
        "chance": 22
      }
    ],
    "result": {
      "status": {
        "white": 14,
        "black": 13
      },
      "suggestions": [
        {
          "move": "d5",
          "chance": 5
        },
        {
          "move": "dxe5",
          "chance": 12
        },
        {
          "move": "b4",
          "chance": 1
        }
      ]
    }
  },
  {
    "move": "Te5",
    "white": 7,
    "black": 23,
    "suggestions": [
      {
        "move": "Kb2",
        "chance": 7
      },
      {
        "move": "Ka3",
        "chance": 7
      },
      {
        "move": "Td7+",
        "chance": 7
      }
    ],
    "result": {
      "status": {
        "white": 30,
        "black": 8
      },
      "suggestions": [
        {
          "move": "d5",
          "chance": 14
        },
        {
          "move": "dxe5",
          "chance": 12
        },
        {
          "move": "b4",
          "chance": 15
        }
      ]
    }
  },
  {
    "move": "Td7+",
    "white": 7,
    "black": 23,
    "suggestions": [
      {
        "move": "Kc6",
        "chance": 23
      },
      {
        "move": "Ka6",
        "chance": 1
      }
    ],
    "result": {
      "status": {
        "white": 12,
        "black": 4
      },
      "suggestions": [
        {
          "move": "d5",
          "chance": 10
        },
        {
          "move": "dxe5",
          "chance": 6
        },
        {
          "move": "b4",
          "chance": 2
        }
      ]
    }
  },
  {
    "move": "Kc6",
    "white": 7,
    "black": 23,
    "suggestions": [
      {
        "move": "Ta7",
        "chance": 7
      },
      {
        "move": "Ted8",
        "chance": 7
      },
      {
        "move": "Td2",
        "chance": 7
      }
    ],
    "result": {
      "status": {
        "white": 30,
        "black": 19
      },
      "suggestions": [
        {
          "move": "d5",
          "chance": 2
        },
        {
          "move": "dxe5",
          "chance": 11
        },
        {
          "move": "b4",
          "chance": 20
        }
      ]
    }
  },
  {
    "move": "Ted8",
    "white": 7,
    "black": 23,
    "suggestions": [
      {
        "move": "Tge3",
        "chance": 23
      },
      {
        "move": "Tg2+",
        "chance": 23
      },
      {
        "move": "Te2+",
        "chance": 23
      }
    ],
    "result": {
      "status": {
        "white": 29,
        "black": 11
      },
      "suggestions": [
        {
          "move": "d5",
          "chance": 12
        },
        {
          "move": "dxe5",
          "chance": 18
        },
        {
          "move": "b4",
          "chance": 14
        }
      ]
    }
  },
  {
    "move": "Tge3",
    "white": 7,
    "black": 23,
    "suggestions": [
      {
        "move": "Td6+",
        "chance": 7
      },
      {
        "move": "b4",
        "chance": 3
      },
      {
        "move": "Td4",
        "chance": 3
      }
    ],
    "result": {
      "status": {
        "white": 7,
        "black": 16
      },
      "suggestions": [
        {
          "move": "d5",
          "chance": 13
        },
        {
          "move": "dxe5",
          "chance": 17
        },
        {
          "move": "b4",
          "chance": 14
        }
      ]
    }
  },
  {
    "move": "Td6+",
    "white": 7,
    "black": 23,
    "suggestions": [
      {
        "move": "Kc5",
        "chance": 23
      },
      {
        "move": "Kb7",
        "chance": 23
      },
      {
        "move": "Kb5",
        "chance": 5
      }
    ],
    "result": {
      "status": {
        "white": 30,
        "black": 8
      },
      "suggestions": [
        {
          "move": "d5",
          "chance": 11
        },
        {
          "move": "dxe5",
          "chance": 3
        },
        {
          "move": "b4",
          "chance": 13
        }
      ]
    }
  },
  {
    "move": "Kb7",
    "white": 7,
    "black": 23,
    "suggestions": [
      {
        "move": "T8d7+",
        "chance": 7
      },
      {
        "move": "T6d7+",
        "chance": 7
      },
      {
        "move": "Tg6",
        "chance": 7
      }
    ],
    "result": {
      "status": {
        "white": 11,
        "black": 16
      },
      "suggestions": [
        {
          "move": "d5",
          "chance": 11
        },
        {
          "move": "dxe5",
          "chance": 8
        },
        {
          "move": "b4",
          "chance": 10
        }
      ]
    }
  },
  {
    "move": "T8d7+",
    "white": 7,
    "black": 23,
    "suggestions": [
      {
        "move": "Ka6",
        "chance": 23
      },
      {
        "move": "Kc8",
        "chance": 5
      },
      {
        "move": "Kb8",
        "chance": 8
      }
    ],
    "result": {
      "status": {
        "white": 8,
        "black": 20
      },
      "suggestions": [
        {
          "move": "d5",
          "chance": 5
        },
        {
          "move": "dxe5",
          "chance": 15
        },
        {
          "move": "b4",
          "chance": 2
        }
      ]
    }
  },
  {
    "move": "Ka6",
    "white": 7,
    "black": 23,
    "suggestions": [
      {
        "move": "Tg6",
        "chance": 7
      },
      {
        "move": "Td5",
        "chance": 7
      },
      {
        "move": "Th6",
        "chance": 7
      }
    ],
    "result": {
      "status": {
        "white": 14,
        "black": 19
      },
      "suggestions": [
        {
          "move": "d5",
          "chance": 16
        },
        {
          "move": "dxe5",
          "chance": 8
        },
        {
          "move": "b4",
          "chance": 9
        }
      ]
    }
  },
  {
    "move": "Td5",
    "white": 7,
    "black": 23,
    "suggestions": [
      {
        "move": "Txd5",
        "chance": 23
      },
      {
        "move": "g4",
        "chance": 23
      },
      {
        "move": "Te2+",
        "chance": 23
      }
    ],
    "result": {
      "status": {
        "white": 9,
        "black": 14
      },
      "suggestions": [
        {
          "move": "d5",
          "chance": 12
        },
        {
          "move": "dxe5",
          "chance": 8
        },
        {
          "move": "b4",
          "chance": 15
        }
      ]
    }
  },
  {
    "move": "Te2+",
    "white": 7,
    "black": 23,
    "suggestions": [
      {
        "move": "Ka3",
        "chance": 7
      },
      {
        "move": "Ka1",
        "chance": 6
      },
      {
        "move": "Kb1",
        "chance": 6
      }
    ],
    "result": {
      "status": {
        "white": 3,
        "black": 18
      },
      "suggestions": [
        {
          "move": "d5",
          "chance": 20
        },
        {
          "move": "dxe5",
          "chance": 15
        },
        {
          "move": "b4",
          "chance": 10
        }
      ]
    }
  },
  {
    "move": "Ka3",
    "white": 7,
    "black": 23,
    "suggestions": [
      {
        "move": "Txd5",
        "chance": 23
      },
      {
        "move": "Te6",
        "chance": 23
      },
      {
        "move": "g4",
        "chance": 23
      }
    ],
    "result": {
      "status": {
        "white": 28,
        "black": 20
      },
      "suggestions": [
        {
          "move": "d5",
          "chance": 14
        },
        {
          "move": "dxe5",
          "chance": 12
        },
        {
          "move": "b4",
          "chance": 11
        }
      ]
    }
  },
  {
    "move": "Te6",
    "white": 7,
    "black": 23,
    "suggestions": [
      {
        "move": "e8=L",
        "chance": 7
      },
      {
        "move": "e8=T",
        "chance": 7
      },
      {
        "move": "e8=D",
        "chance": 7
      }
    ],
    "result": {
      "status": {
        "white": 6,
        "black": 6
      },
      "suggestions": [
        {
          "move": "d5",
          "chance": 18
        },
        {
          "move": "dxe5",
          "chance": 17
        },
        {
          "move": "b4",
          "chance": 13
        }
      ]
    }
  },
  {
    "move": "Td8",
    "white": 7,
    "black": 25,
    "suggestions": [
      {
        "move": "Txe7",
        "chance": 25
      },
      {
        "move": "g4",
        "chance": 23
      },
      {
        "move": "Te1",
        "chance": 22
      }
    ],
    "result": {
      "status": {
        "white": 11,
        "black": 4
      },
      "suggestions": [
        {
          "move": "d5",
          "chance": 20
        },
        {
          "move": "dxe5",
          "chance": 1
        },
        {
          "move": "b4",
          "chance": 14
        }
      ]
    }
  },
  {
    "move": "g4",
    "white": 7,
    "black": 24,
    "suggestions": [
      {
        "move": "Tg5",
        "chance": 7
      },
      {
        "move": "Ta8+",
        "chance": 7
      },
      {
        "move": "Td4",
        "chance": 6
      }
    ],
    "result": {
      "status": {
        "white": 25,
        "black": 3
      },
      "suggestions": [
        {
          "move": "Nc6",
          "chance": 14
        },
        {
          "move": "Na6",
          "chance": 14
        },
        {
          "move": "Qe7",
          "chance": 6
        }
      ]
    }
  },
  {
    "move": "Tg5",
    "white": 7,
    "black": 23,
    "suggestions": [
      {
        "move": "Txe7",
        "chance": 23
      },
      {
        "move": "T2e4",
        "chance": 22
      },
      {
        "move": "Te1",
        "chance": 22
      }
    ],
    "result": {
      "status": {
        "white": 21,
        "black": 16
      },
      "suggestions": [
        {
          "move": "Nc6",
          "chance": 15
        },
        {
          "move": "Na6",
          "chance": 5
        },
        {
          "move": "Qe7",
          "chance": 7
        }
      ]
    }
  },
  {
    "move": "Txe7",
    "white": 7,
    "black": 24,
    "suggestions": [
      {
        "move": "Ta8+",
        "chance": 7
      },
      {
        "move": "Txg4",
        "chance": 6
      },
      {
        "move": "Td3",
        "chance": 3
      }
    ],
    "result": {
      "status": {
        "white": 18,
        "black": 16
      },
      "suggestions": [
        {
          "move": "Nc6",
          "chance": 15
        },
        {
          "move": "Na6",
          "chance": 2
        },
        {
          "move": "Qe7",
          "chance": 1
        }
      ]
    }
  },
  {
    "move": "Ta8+",
    "white": 7,
    "black": 23,
    "suggestions": [
      {
        "move": "Ta7",
        "chance": 23
      },
      {
        "move": "Kb7",
        "chance": 23
      }
    ],
    "result": {
      "status": {
        "white": 6,
        "black": 11
      },
      "suggestions": [
        {
          "move": "Nc6",
          "chance": 4
        },
        {
          "move": "Na6",
          "chance": 13
        },
        {
          "move": "Qe7",
          "chance": 6
        }
      ]
    }
  },
  {
    "move": "Kb7",
    "white": 7,
    "black": 23,
    "suggestions": [
      {
        "move": "Tag8",
        "chance": 7
      },
      {
        "move": "Th8",
        "chance": 4
      },
      {
        "move": "Tgg8",
        "chance": 3
      }
    ],
    "result": {
      "status": {
        "white": 29,
        "black": 8
      },
      "suggestions": [
        {
          "move": "Nc6",
          "chance": 20
        },
        {
          "move": "Na6",
          "chance": 16
        },
        {
          "move": "Qe7",
          "chance": 6
        }
      ]
    }
  },
  {
    "move": "Tag8",
    "white": 7,
    "black": 23,
    "suggestions": [
      {
        "move": "Td2",
        "chance": 23
      },
      {
        "move": "T7e3",
        "chance": 23
      },
      {
        "move": "Tf7",
        "chance": 23
      }
    ],
    "result": {
      "status": {
        "white": 12,
        "black": 18
      },
      "suggestions": [
        {
          "move": "Nc6",
          "chance": 5
        },
        {
          "move": "Na6",
          "chance": 16
        },
        {
          "move": "Qe7",
          "chance": 17
        }
      ]
    }
  },
  {
    "move": "a4",
    "white": 5,
    "black": 5,
    "suggestions": [
      {
        "move": "T5g7",
        "chance": 5
      },
      {
        "move": "T8g7",
        "chance": 5
      },
      {
        "move": "Txg4",
        "chance": 5
      }
    ],
    "result": {
      "status": {
        "white": 18,
        "black": 1
      },
      "suggestions": [
        {
          "move": "Nc6",
          "chance": 16
        },
        {
          "move": "Na6",
          "chance": 12
        },
        {
          "move": "Qe7",
          "chance": 15
        }
      ]
    }
  },
  {
    "move": "Txg4",
    "white": 5,
    "black": 5,
    "suggestions": [
      {
        "move": "b5",
        "chance": 5
      },
      {
        "move": "T2e3",
        "chance": 5
      },
      {
        "move": "axb3",
        "chance": 5
      }
    ],
    "result": {
      "status": {
        "white": 21,
        "black": 13
      },
      "suggestions": [
        {
          "move": "Nc6",
          "chance": 16
        },
        {
          "move": "Na6",
          "chance": 2
        },
        {
          "move": "Qe7",
          "chance": 10
        }
      ]
    }
  },
  {
    "move": "axb3",
    "white": 4,
    "black": 4,
    "suggestions": [
      {
        "move": "T4g7",
        "chance": 4
      },
      {
        "move": "T8g7",
        "chance": 4
      },
      {
        "move": "Tb4",
        "chance": 8
      }
    ],
    "result": {
      "status": {
        "white": 9,
        "black": 12
      },
      "suggestions": [
        {
          "move": "Nc6",
          "chance": 19
        },
        {
          "move": "Na6",
          "chance": 13
        },
        {
          "move": "Qe7",
          "chance": 17
        }
      ]
    }
  },
  {
    "move": "T8g7",
    "white": 4,
    "black": 4,
    "suggestions": [
      {
        "move": "Ka6",
        "chance": 4
      },
      {
        "move": "Kc6",
        "chance": 4
      },
      {
        "move": "Txg7",
        "chance": 4
      }
    ],
    "result": {
      "status": {
        "white": 22,
        "black": 9
      },
      "suggestions": [
        {
          "move": "Nc6",
          "chance": 1
        },
        {
          "move": "Na6",
          "chance": 10
        },
        {
          "move": "Qe7",
          "chance": 10
        }
      ]
    }
  },
  {
    "move": "Ka6",
    "white": 4,
    "black": 4,
    "suggestions": [
      {
        "move": "Ta4+",
        "chance": 4
      },
      {
        "move": "Txe7",
        "chance": 4
      },
      {
        "move": "Kxb3",
        "chance": 8
      }
    ],
    "result": {
      "status": {
        "white": 13,
        "black": 3
      },
      "suggestions": [
        {
          "move": "Nc6",
          "chance": 7
        },
        {
          "move": "Na6",
          "chance": 7
        },
        {
          "move": "Qe7",
          "chance": 6
        }
      ]
    }
  },
  {
    "move": "Txe7",
    "white": 4,
    "black": 4,
    "suggestions": [
      {
        "move": "Txe7",
        "chance": 4
      },
      {
        "move": "Ta2+",
        "chance": 1
      },
      {
        "move": "Th2",
        "chance": 1
      }
    ],
    "result": {
      "status": {
        "white": 27,
        "black": 14
      },
      "suggestions": [
        {
          "move": "Nc6",
          "chance": 1
        },
        {
          "move": "Na6",
          "chance": 13
        },
        {
          "move": "Qe7",
          "chance": 12
        }
      ]
    }
  },
  {
    "move": "Txe7",
    "white": 3,
    "black": 3,
    "suggestions": [
      {
        "move": "Tg3",
        "chance": 3
      },
      {
        "move": "Ta4+",
        "chance": 3
      },
      {
        "move": "Kxb3",
        "chance": 3
      }
    ],
    "result": {
      "status": {
        "white": 27,
        "black": 4
      },
      "suggestions": [
        {
          "move": "Nc6",
          "chance": 19
        },
        {
          "move": "Na6",
          "chance": 2
        },
        {
          "move": "Qe7",
          "chance": 4
        }
      ]
    }
  },
  {
    "move": "Kxb3",
    "white": 3,
    "black": 3,
    "suggestions": [
      {
        "move": "Kb5",
        "chance": 3
      }
    ],
    "result": {
      "status": {
        "white": 12,
        "black": 13
      },
      "suggestions": [
        {
          "move": "Nc6",
          "chance": 12
        },
        {
          "move": "Na6",
          "chance": 8
        },
        {
          "move": "Qe7",
          "chance": 4
        }
      ]
    }
  }
]