[
  {
    "move": "Sf3",
    "white": 16,
    "black": 7,
    "suggestions": [
      {
        "move": "Sf6",
        "chance": 7
      },
      {
        "move": "d5",
        "chance": 7
      },
      {
        "move": "Sc6",
        "chance": 8
      }
    ],
    "result": {
      "status": {
        "white": 15,
        "black": 13
      },
      "suggestions": [
        {
          "move": "a3",
          "chance": 4
        },
        {
          "move": "a4",
          "chance": 2
        },
        {
          "move": "b3",
          "chance": 20
        }
      ]
    }
  },
  {
    "move": "d5",
    "white": 15,
    "black": 8,
    "suggestions": [
      {
        "move": "d4",
        "chance": 15
      },
      {
        "move": "e3",
        "chance": 15
      },
      {
        "move": "c4",
        "chance": 15
      }
    ],
    "result": {
      "status": {
        "white": 20,
        "black": 10
      },
      "suggestions": [
        {
          "move": "a3",
          "chance": 6
        },
        {
          "move": "a4",
          "chance": 10
        },
        {
          "move": "b3",
          "chance": 17
        }
      ]
    }
  },
  {
    "move": "g3",
    "white": 11,
    "black": 11,
    "suggestions": [
      {
        "move": "Sf6",
        "chance": 11
      },
      {
        "move": "Sc6",
        "chance": 8
      },
      {
        "move": "c5",
        "chance": 8
      }
    ],
    "result": {
      "status": {
        "white": 17,
        "black": 13
      },
      "suggestions": [
        {
          "move": "Nc6",
          "chance": 11
        },
        {
          "move": "Na6",
          "chance": 8
        },
        {
          "move": "Nh6",
          "chance": 16
        }
      ]
    }
  },
  {
    "move": "g6",
    "white": 15,
    "black": 8,
    "suggestions": [
      {
        "move": "Lg2",
        "chance": 15
      },
      {
        "move": "c4",
        "chance": 15
      },
      {
        "move": "d4",
        "chance": 15
      }
    ],
    "result": {
      "status": {
        "white": 2,
        "black": 7
      },
      "suggestions": [
        {
          "move": "g4",
          "chance": 2
        },
        {
          "move": "a3",
          "chance": 5
        },
        {
          "move": "a4",
          "chance": 1
        }
      ]
    }
  },
  {
    "move": "c4",
    "white": 14,
    "black": 8,
    "suggestions": [
      {
        "move": "dxc4",
        "chance": 8
      },
      {
        "move": "c6",
        "chance": 8
      },
      {
        "move": "d4",
        "chance": 8
      }
    ],
    "result": {
      "status": {
        "white": 4,
        "black": 3
      },
      "suggestions": [
        {
          "move": "Nc6",
          "chance": 17
        },
        {
          "move": "Na6",
          "chance": 18
        },
        {
          "move": "Bg7",
          "chance": 3
        }
      ]
    }
  },
  {
    "move": "dxc4",
    "white": 15,
    "black": 8,
    "suggestions": [
      {
        "move": "Sa3",
        "chance": 15
      },
      {
        "move": "Lg2",
        "chance": 15
      },
      {
        "move": "Da4+",
        "chance": 14
      }
    ],
    "result": {
      "status": {
        "white": 13,
        "black": 17
      },
      "suggestions": [
        {
          "move": "Nc6",
          "chance": 15
        },
        {
          "move": "Na6",
          "chance": 10
        },
        {
          "move": "Bg7",
          "chance": 8
        }
      ]
    }
  },
  {
    "move": "Da4+",
    "white": 8,
    "black": 15,
    "suggestions": [
      {
        "move": "Sc6",
        "chance": 15
      },
      {
        "move": "c6",
        "chance": 8
      },
      {
        "move": "Dd7",
        "chance": 7
      }
    ],
    "result": {
      "status": {
        "white": 20,
        "black": 17
      },
      "suggestions": [
        {
          "move": "Nc6",
          "chance": 11
        },
        {
          "move": "Na6",
          "chance": 4
        },
        {
          "move": "Bg7",
          "chance": 19
        }
      ]
    }
  },
  {
    "move": "Sc6",
    "white": 8,
    "black": 14,
    "suggestions": [
      {
        "move": "Dxc4",
        "chance": 8
      },
      {
        "move": "Sc3",
        "chance": 8
      },
      {
        "move": "Lg2",
        "chance": 8
      }
    ],
    "result": {
      "status": {
        "white": 7,
        "black": 9
      },
      "suggestions": [
        {
          "move": "Nc6",
          "chance": 6
        },
        {
          "move": "Na6",
          "chance": 17
        },
        {
          "move": "Bg7",
          "chance": 7
        }
      ]
    }
  },
  {
    "move": "Lg2",
    "white": 11,
    "black": 11,
    "suggestions": [
      {
        "move": "Lg7",
        "chance": 11
      },
      {
        "move": "Ld7",
        "chance": 8
      },
      {
        "move": "Dd6",
        "chance": 8
      }
    ],
    "result": {
      "status": {
        "white": 17,
        "black": 15
      },
      "suggestions": [
        {
          "move": "Nc6",
          "chance": 7
        },
        {
          "move": "Na6",
          "chance": 5
        },
        {
          "move": "Bg7",
          "chance": 2
        }
      ]
    }
  },
  {
    "move": "Lg7",
    "white": 11,
    "black": 11,
    "suggestions": [
      {
        "move": "Dxc4",
        "chance": 11
      },
      {
        "move": "Sc3",
        "chance": 11
      },
      {
        "move": "O-O",
        "chance": 8
      }
    ],
    "result": {
      "status": {
        "white": 4,
        "black": 9
      },
      "suggestions": [
        {
          "move": "Nc6",
          "chance": 12
        },
        {
          "move": "Na6",
          "chance": 13
        },
        {
          "move": "Bg7",
          "chance": 2
        }
      ]
    }
  },
  {
    "move": "Sc3",
    "white": 15,
    "black": 8,
    "suggestions": [
      {
        "move": "Sh6",
        "chance": 8
      },
      {
        "move": "Dd6",
        "chance": 8
      },
      {
        "move": "e5",
        "chance": 8
      }
    ],
    "result": {
      "status": {
        "white": 11,
        "black": 12
      },
      "suggestions": [
        {
          "move": "Nc6",
          "chance": 1
        },
        {
          "move": "Na6",
          "chance": 4
        },
        {
          "move": "Bg7",
          "chance": 11
        }
      ]
    }
  },
  {
    "move": "e5",
    "white": 16,
    "black": 7,
    "suggestions": [
      {
        "move": "O-O",
        "chance": 16
      },
      {
        "move": "Dxc4",
        "chance": 16
      },
      {
        "move": "h4",
        "chance": 11
      }
    ],
    "result": {
      "status": {
        "white": 20,
        "black": 10
      },
      "suggestions": [
        {
          "move": "c5",
          "chance": 20
        },
        {
          "move": "g4",
          "chance": 17
        },
        {
          "move": "a3",
          "chance": 17
        }
      ]
    }
  },
  {
    "move": "Dxc4",
    "white": 15,
    "black": 8,
    "suggestions": [
      {
        "move": "h6",
        "chance": 8
      },
      {
        "move": "Sge7",
        "chance": 8
      },
      {
        "move": "Sf6",
        "chance": 8
      }
    ],
    "result": {
      "status": {
        "white": 19,
        "black": 3
      },
      "suggestions": [
        {
          "move": "c5",
          "chance": 7
        },
        {
          "move": "g4",
          "chance": 15
        },
        {
          "move": "a3",
          "chance": 9
        }
      ]
    }
  },
  {
    "move": "Sge7",
    "white": 15,
    "black": 8,
    "suggestions": [
      {
        "move": "O-O",
        "chance": 15
      },
      {
        "move": "d3",
        "chance": 15
      },
      {
        "move": "Dh4",
        "chance": 11
      }
    ],
    "result": {
      "status": {
        "white": 18,
        "black": 1
      },
      "suggestions": [
        {
          "move": "c5",
          "chance": 11
        },
        {
          "move": "g4",
          "chance": 4
        },
        {
          "move": "a3",
          "chance": 2
        }
      ]
    }
  },
  {
    "move": "O-O",
    "white": 14,
    "black": 8,
    "suggestions": [
      {
        "move": "Le6",
        "chance": 8
      },
      {
        "move": "Sd4",
        "chance": 8
      },
      {
        "move": "O-O",
        "chance": 8
      }
    ],
    "result": {
      "status": {
        "white": 3,
        "black": 15
      },
      "suggestions": [
        {
          "move": "c5",
          "chance": 6
        },
        {
          "move": "g4",
          "chance": 4
        },
        {
          "move": "a3",
          "chance": 8
        }
      ]
    }
  },
  {
    "move": "O-O",
    "white": 11,
    "black": 11,
    "suggestions": [
      {
        "move": "Se4",
        "chance": 11
      },
      {
        "move": "d3",
        "chance": 11
      },
      {
        "move": "Da4",
        "chance": 8
      }
    ],
    "result": {
      "status": {
        "white": 4,
        "black": 4
      },
      "suggestions": [
        {
          "move": "c5",
          "chance": 15
        },
        {
          "move": "g4",
          "chance": 10
        },
        {
          "move": "a3",
          "chance": 5
        }
      ]
    }
  },
  {
    "move": "d3",
    "white": 11,
    "black": 11,
    "suggestions": [
      {
        "move": "Sd4",
        "chance": 11
      },
      {
        "move": "h6",
        "chance": 8
      },
      {
        "move": "Le6",
        "chance": 8
      }
    ],
    "result": {
      "status": {
        "white": 24,
        "black": 9
      },
      "suggestions": [
        {
          "move": "Nc6",
          "chance": 15
        },
        {
          "move": "Na6",
          "chance": 20
        },
        {
          "move": "Qe7",
          "chance": 4
        }
      ]
    }
  },
  {
    "move": "h6",
    "white": 14,
    "black": 8,
    "suggestions": [
      {
        "move": "Ld2",
        "chance": 14
      },
      {
        "move": "Da4",
        "chance": 8
      },
      {
        "move": "Le3",
        "chance": 8
      }
    ],
    "result": {
      "status": {
        "white": 26,
        "black": 9
      },
      "suggestions": [
        {
          "move": "c5",
          "chance": 16
        },
        {
          "move": "d4",
          "chance": 12
        },
        {
          "move": "g4",
          "chance": 7
        }
      ]
    }
  },
  {
    "move": "Ld2",
    "white": 11,
    "black": 11,
    "suggestions": [
      {
        "move": "Le6",
        "chance": 11
      },
      {
        "move": "Sf5",
        "chance": 7
      },
      {
        "move": "Tb8",
        "chance": 8
      }
    ],
    "result": {
      "status": {
        "white": 23,
        "black": 15
      },
      "suggestions": [
        {
          "move": "c5",
          "chance": 18
        },
        {
          "move": "d4",
          "chance": 1
        },
        {
          "move": "g4",
          "chance": 13
        }
      ]
    }
  },
  {
    "move": "Sd4",
    "white": 16,
    "black": 8,
    "suggestions": [
      {
        "move": "Sxd4",
        "chance": 16
      },
      {
        "move": "Tfc1",
        "chance": 15
      },
      {
        "move": "Tac1",
        "chance": 11
      }
    ],
    "result": {
      "status": {
        "white": 19,
        "black": 13
      },
      "suggestions": [
        {
          "move": "c5",
          "chance": 19
        },
        {
          "move": "d4",
          "chance": 6
        },
        {
          "move": "g4",
          "chance": 11
        }
      ]
    }
  },
  {
    "move": "Sxd4",
    "white": 15,
    "black": 8,
    "suggestions": [
      {
        "move": "exd4",
        "chance": 8
      },
      {
        "move": "Dxd4",
        "chance": 4
      },
      {
        "move": "c6",
        "chance": 1
      }
    ],
    "result": {
      "status": {
        "white": 4,
        "black": 11
      },
      "suggestions": [
        {
          "move": "c5",
          "chance": 6
        },
        {
          "move": "d4",
          "chance": 14
        },
        {
          "move": "g4",
          "chance": 19
        }
      ]
    }
  },
  {
    "move": "exd4",
    "white": 17,
    "black": 8,
    "suggestions": [
      {
        "move": "Se4",
        "chance": 17
      },
      {
        "move": "Sd5",
        "chance": 8
      },
      {
        "move": "Sa4",
        "chance": 8
      }
    ],
    "result": {
      "status": {
        "white": 7,
        "black": 3
      },
      "suggestions": [
        {
          "move": "c5",
          "chance": 8
        },
        {
          "move": "d4",
          "chance": 6
        },
        {
          "move": "g4",
          "chance": 3
        }
      ]
    }
  },
  {
    "move": "Se4",
    "white": 16,
    "black": 8,
    "suggestions": [
      {
        "move": "c6",
        "chance": 8
      },
      {
        "move": "a5",
        "chance": 8
      },
      {
        "move": "Sd5",
        "chance": 7
      }
    ],
    "result": {
      "status": {
        "white": 5,
        "black": 11
      },
      "suggestions": [
        {
          "move": "c5",
          "chance": 2
        },
        {
          "move": "d4",
          "chance": 20
        },
        {
          "move": "g4",
          "chance": 8
        }
      ]
    }
  },
  {
    "move": "c6",
    "white": 17,
    "black": 8,
    "suggestions": [
      {
        "move": "Dc1",
        "chance": 17
      },
      {
        "move": "Tfe1",
        "chance": 16
      },
      {
        "move": "h4",
        "chance": 14
      }
    ],
    "result": {
      "status": {
        "white": 9,
        "black": 5
      },
      "suggestions": [
        {
          "move": "c5",
          "chance": 7
        },
        {
          "move": "d4",
          "chance": 18
        },
        {
          "move": "g4",
          "chance": 13
        }
      ]
    }
  },
  {
    "move": "Lb4",
    "white": 8,
    "black": 15,
    "suggestions": [
      {
        "move": "Le6",
        "chance": 15
      },
      {
        "move": "Lg4",
        "chance": 8
      },
      {
        "move": "a5",
        "chance": 8
      }
    ],
    "result": {
      "status": {
        "white": 30,
        "black": 13
      },
      "suggestions": [
        {
          "move": "c5",
          "chance": 6
        },
        {
          "move": "d4",
          "chance": 14
        },
        {
          "move": "g4",
          "chance": 7
        }
      ]
    }
  },
  {
    "move": "Le6",
    "white": 8,
    "black": 15,
    "suggestions": [
      {
        "move": "Dc2",
        "chance": 8
      },
      {
        "move": "Dc5",
        "chance": 8
      },
      {
        "move": "Dc1",
        "chance": 8
      }
    ],
    "result": {
      "status": {
        "white": 29,
        "black": 11
      },
      "suggestions": [
        {
          "move": "c5",
          "chance": 17
        },
        {
          "move": "d4",
          "chance": 11
        },
        {
          "move": "g4",
          "chance": 9
        }
      ]
    }
  },
  {
    "move": "Dc1",
    "white": 8,
    "black": 17,
    "suggestions": [
      {
        "move": "Ld5",
        "chance": 17
      },
      {
        "move": "b6",
        "chance": 11
      },
      {
        "move": "a5",
        "chance": 8
      }
    ],
    "result": {
      "status": {
        "white": 22,
        "black": 7
      },
      "suggestions": [
        {
          "move": "c5",
          "chance": 18
        },
        {
          "move": "d4",
          "chance": 13
        },
        {
          "move": "g4",
          "chance": 11
        }
      ]
    }
  },
  {
    "move": "Ld5",
    "white": 8,
    "black": 16,
    "suggestions": [
      {
        "move": "Dc5",
        "chance": 8
      },
      {
        "move": "a4",
        "chance": 8
      },
      {
        "move": "Df4",
        "chance": 7
      }
    ],
    "result": {
      "status": {
        "white": 7,
        "black": 8
      },
      "suggestions": [
        {
          "move": "c5",
          "chance": 19
        },
        {
          "move": "d4",
          "chance": 5
        },
        {
          "move": "g4",
          "chance": 13
        }
      ]
    }
  },
  {
    "move": "a4",
    "white": 8,
    "black": 19,
    "suggestions": [
      {
        "move": "a5",
        "chance": 19
      },
      {
        "move": "b6",
        "chance": 16
      },
      {
        "move": "f5",
        "chance": 15
      }
    ],
    "result": {
      "status": {
        "white": 26,
        "black": 20
      },
      "suggestions": [
        {
          "move": "Nc6",
          "chance": 6
        },
        {
          "move": "Na6",
          "chance": 10
        },
        {
          "move": "Qe7",
          "chance": 16
        }
      ]
    }
  },
  {
    "move": "b6",
    "white": 8,
    "black": 15,
    "suggestions": [
      {
        "move": "Lxe7",
        "chance": 8
      },
      {
        "move": "La3",
        "chance": 7
      },
      {
        "move": "Ld6",
        "chance": 7
      }
    ],
    "result": {
      "status": {
        "white": 8,
        "black": 20
      },
      "suggestions": [
        {
          "move": "a5",
          "chance": 7
        },
        {
          "move": "c5",
          "chance": 17
        },
        {
          "move": "d4",
          "chance": 3
        }
      ]
    }
  },
  {
    "move": "Lxe7",
    "white": 8,
    "black": 16,
    "suggestions": [
      {
        "move": "Dxe7",
        "chance": 16
      },
      {
        "move": "Dd7",
        "chance": 1
      },
      {
        "move": "De8",
        "chance": 1
      }
    ],
    "result": {
      "status": {
        "white": 2,
        "black": 1
      },
      "suggestions": [
        {
          "move": "a5",
          "chance": 12
        },
        {
          "move": "c5",
          "chance": 15
        },
        {
          "move": "d4",
          "chance": 10
        }
      ]
    }
  },
  {
    "move": "Dxe7",
    "white": 8,
    "black": 16,
    "suggestions": [
      {
        "move": "a5",
        "chance": 8
      },
      {
        "move": "Te1",
        "chance": 8
      },
      {
        "move": "Dc2",
        "chance": 7
      }
    ],
    "result": {
      "status": {
        "white": 3,
        "black": 14
      },
      "suggestions": [
        {
          "move": "a5",
          "chance": 18
        },
        {
          "move": "c5",
          "chance": 15
        },
        {
          "move": "d4",
          "chance": 18
        }
      ]
    }
  },
  {
    "move": "a5",
    "white": 8,
    "black": 16,
    "suggestions": [
      {
        "move": "Tfb8",
        "chance": 16
      },
      {
        "move": "De6",
        "chance": 15
      },
      {
        "move": "Tfe8",
        "chance": 15
      }
    ],
    "result": {
      "status": {
        "white": 4,
        "black": 5
      },
      "suggestions": [
        {
          "move": "Nc6",
          "chance": 6
        },
        {
          "move": "Na6",
          "chance": 6
        },
        {
          "move": "Bb7",
          "chance": 8
        }
      ]
    }
  },
  {
    "move": "Tab8",
    "white": 8,
    "black": 15,
    "suggestions": [
      {
        "move": "Te1",
        "chance": 8
      },
      {
        "move": "axb6",
        "chance": 8
      },
      {
        "move": "Lf3",
        "chance": 8
      }
    ],
    "result": {
      "status": {
        "white": 28,
        "black": 5
      },
      "suggestions": [
        {
          "move": "Nc6",
          "chance": 8
        },
        {
          "move": "Na6",
          "chance": 8
        },
        {
          "move": "Bb7",
          "chance": 11
        }
      ]
    }
  },
  {
    "move": "Te1",
    "white": 8,
    "black": 15,
    "suggestions": [
      {
        "move": "Tfe8",
        "chance": 15
      },
      {
        "move": "Tbc8",
        "chance": 11
      },
      {
        "move": "Tfc8",
        "chance": 11
      }
    ],
    "result": {
      "status": {
        "white": 13,
        "black": 5
      },
      "suggestions": [
        {
          "move": "Nc6",
          "chance": 2
        },
        {
          "move": "Na6",
          "chance": 7
        },
        {
          "move": "Bb7",
          "chance": 3
        }
      ]
    }
  },
  {
    "move": "Tfc8",
    "white": 8,
    "black": 15,
    "suggestions": [
      {
        "move": "axb6",
        "chance": 8
      },
      {
        "move": "Lf3",
        "chance": 8
      },
      {
        "move": "Dc2",
        "chance": 8
      }
    ],
    "result": {
      "status": {
        "white": 20,
        "black": 12
      },
      "suggestions": [
        {
          "move": "Nc6",
          "chance": 12
        },
        {
          "move": "Na6",
          "chance": 9
        },
        {
          "move": "Bb7",
          "chance": 9
        }
      ]
    }
  },
  {
    "move": "axb6",
    "white": 8,
    "black": 14,
    "suggestions": [
      {
        "move": "axb6",
        "chance": 14
      },
      {
        "move": "Txb6",
        "chance": 8
      },
      {
        "move": "a5",
        "chance": 6
      }
    ],
    "result": {
      "status": {
        "white": 23,
        "black": 9
      },
      "suggestions": [
        {
          "move": "Nc6",
          "chance": 6
        },
        {
          "move": "Na6",
          "chance": 10
        },
        {
          "move": "Bb7",
          "chance": 1
        }
      ]
    }
  },
  {
    "move": "axb6",
    "white": 11,
    "black": 11,
    "suggestions": [
      {
        "move": "Ta6",
        "chance": 11
      },
      {
        "move": "Df4",
        "chance": 8
      },
      {
        "move": "Sd2",
        "chance": 8
      }
    ],
    "result": {
      "status": {
        "white": 17,
        "black": 11
      },
      "suggestions": [
        {
          "move": "Nc6",
          "chance": 5
        },
        {
          "move": "Na6",
          "chance": 13
        },
        {
          "move": "Bb7",
          "chance": 12
        }
      ]
    }
  },
  {
    "move": "Df4",
    "white": 8,
    "black": 15,
    "suggestions": [
      {
        "move": "Td8",
        "chance": 15
      },
      {
        "move": "Le6",
        "chance": 11
      },
      {
        "move": "Ta8",
        "chance": 11
      }
    ],
    "result": {
      "status": {
        "white": 18,
        "black": 18
      },
      "suggestions": [
        {
          "move": "Nc6",
          "chance": 19
        },
        {
          "move": "Na6",
          "chance": 17
        },
        {
          "move": "Bb7",
          "chance": 1
        }
      ]
    }
  },
  {
    "move": "Td8",
    "white": 8,
    "black": 15,
    "suggestions": [
      {
        "move": "Sd2",
        "chance": 8
      },
      {
        "move": "h4",
        "chance": 8
      },
      {
        "move": "Dc1",
        "chance": 8
      }
    ],
    "result": {
      "status": {
        "white": 20,
        "black": 13
      },
      "suggestions": [
        {
          "move": "Nc6",
          "chance": 2
        },
        {
          "move": "Na6",
          "chance": 10
        },
        {
          "move": "Bb7",
          "chance": 2
        }
      ]
    }
  },
  {
    "move": "h4",
    "white": 8,
    "black": 16,
    "suggestions": [
      {
        "move": "Ta8",
        "chance": 16
      },
      {
        "move": "Kh7",
        "chance": 15
      },
      {
        "move": "Tbc8",
        "chance": 8
      }
    ],
    "result": {
      "status": {
        "white": 11,
        "black": 15
      },
      "suggestions": [
        {
          "move": "Nc6",
          "chance": 11
        },
        {
          "move": "Na6",
          "chance": 2
        },
        {
          "move": "Bb7",
          "chance": 4
        }
      ]
    }
  },
  {
    "move": "Kh7",
    "white": 8,
    "black": 15,
    "suggestions": [
      {
        "move": "Sd2",
        "chance": 8
      },
      {
        "move": "Dc1",
        "chance": 8
      },
      {
        "move": "h5",
        "chance": 8
      }
    ],
    "result": {
      "status": {
        "white": 28,
        "black": 10
      },
      "suggestions": [
        {
          "move": "Nc6",
          "chance": 8
        },
        {
          "move": "Na6",
          "chance": 13
        },
        {
          "move": "Bb7",
          "chance": 19
        }
      ]
    }
  },
  {
    "move": "Sd2",
    "white": 8,
    "black": 15,
    "suggestions": [
      {
        "move": "Le5",
        "chance": 15
      },
      {
        "move": "Tb7",
        "chance": 11
      },
      {
        "move": "Ta8",
        "chance": 7
      }
    ],
    "result": {
      "status": {
        "white": 8,
        "black": 2
      },
      "suggestions": [
        {
          "move": "Nc6",
          "chance": 5
        },
        {
          "move": "Na6",
          "chance": 17
        },
        {
          "move": "Bb7",
          "chance": 13
        }
      ]
    }
  },
  {
    "move": "Le5",
    "white": 8,
    "black": 15,
    "suggestions": [
      {
        "move": "Dg4",
        "chance": 8
      },
      {
        "move": "Ta7",
        "chance": 1
      },
      {
        "move": "e4",
        "chance": 1
      }
    ],
    "result": {
      "status": {
        "white": 27,
        "black": 11
      },
      "suggestions": [
        {
          "move": "Nc6",
          "chance": 5
        },
        {
          "move": "Na6",
          "chance": 10
        },
        {
          "move": "Bb7",
          "chance": 9
        }
      ]
    }
  },
  {
    "move": "Dg4",
    "white": 8,
    "black": 15,
    "suggestions": [
      {
        "move": "h5",
        "chance": 15
      },
      {
        "move": "Le6",
        "chance": 11
      },
      {
        "move": "Ta8",
        "chance": 8
      }
    ],
    "result": {
      "status": {
        "white": 29,
        "black": 8
      },
      "suggestions": [
        {
          "move": "Nc6",
          "chance": 9
        },
        {
          "move": "Na6",
          "chance": 17
        },
        {
          "move": "Bb7",
          "chance": 20
        }
      ]
    }
  },
  {
    "move": "h5",
    "white": 8,
    "black": 15,
    "suggestions": [
      {
        "move": "Dh3",
        "chance": 8
      },
      {
        "move": "Ta7",
        "chance": 1
      },
      {
        "move": "Df3",
        "chance": 1
      }
    ],
    "result": {
      "status": {
        "white": 27,
        "black": 14
      },
      "suggestions": [
        {
          "move": "a6",
          "chance": 13
        },
        {
          "move": "axb6",
          "chance": 3
        },
        {
          "move": "c5",
          "chance": 16
        }
      ]
    }
  },
  {
    "move": "Dh3",
    "white": 8,
    "black": 16,
    "suggestions": [
      {
        "move": "Lg7",
        "chance": 16
      },
      {
        "move": "Le6",
        "chance": 15
      },
      {
        "move": "Tbc8",
        "chance": 15
      }
    ],
    "result": {
      "status": {
        "white": 17,
        "black": 15
      },
      "suggestions": [
        {
          "move": "a6",
          "chance": 19
        },
        {
          "move": "axb6",
          "chance": 14
        },
        {
          "move": "c5",
          "chance": 5
        }
      ]
    }
  },
  {
    "move": "Le6",
    "white": 8,
    "black": 16,
    "suggestions": [
      {
        "move": "Dh1",
        "chance": 8
      },
      {
        "move": "Dh2",
        "chance": 8
      },
      {
        "move": "g4",
        "chance": 1
      }
    ],
    "result": {
      "status": {
        "white": 13,
        "black": 8
      },
      "suggestions": [
        {
          "move": "a6",
          "chance": 18
        },
        {
          "move": "axb6",
          "chance": 18
        },
        {
          "move": "c5",
          "chance": 7
        }
      ]
    }
  },
  {
    "move": "Dh1",
    "white": 8,
    "black": 17,
    "suggestions": [
      {
        "move": "c5",
        "chance": 17
      },
      {
        "move": "Tbc8",
        "chance": 11
      },
      {
        "move": "Ld5",
        "chance": 11
      }
    ],
    "result": {
      "status": {
        "white": 13,
        "black": 9
      },
      "suggestions": [
        {
          "move": "a6",
          "chance": 20
        },
        {
          "move": "axb6",
          "chance": 19
        },
        {
          "move": "c5",
          "chance": 17
        }
      ]
    }
  },
  {
    "move": "c5",
    "white": 8,
    "black": 16,
    "suggestions": [
      {
        "move": "Se4",
        "chance": 8
      },
      {
        "move": "b3",
        "chance": 8
      },
      {
        "move": "Tec1",
        "chance": 8
      }
    ],
    "result": {
      "status": {
        "white": 3,
        "black": 4
      },
      "suggestions": [
        {
          "move": "Nc6",
          "chance": 14
        },
        {
          "move": "Na6",
          "chance": 6
        },
        {
          "move": "Bb7",
          "chance": 15
        }
      ]
    }
  },
  {
    "move": "Se4",
    "white": 8,
    "black": 19,
    "suggestions": [
      {
        "move": "b5",
        "chance": 19
      },
      {
        "move": "Kg7",
        "chance": 18
      },
      {
        "move": "Lc8",
        "chance": 14
      }
    ],
    "result": {
      "status": {
        "white": 15,
        "black": 8
      },
      "suggestions": [
        {
          "move": "Nc6",
          "chance": 3
        },
        {
          "move": "Na6",
          "chance": 1
        },
        {
          "move": "Bb7",
          "chance": 18
        }
      ]
    }
  },
  {
    "move": "Kg7",
    "white": 8,
    "black": 17,
    "suggestions": [
      {
        "move": "Sg5",
        "chance": 8
      },
      {
        "move": "f4",
        "chance": 8
      },
      {
        "move": "Sd2",
        "chance": 7
      }
    ],
    "result": {
      "status": {
        "white": 10,
        "black": 8
      },
      "suggestions": [
        {
          "move": "Nc6",
          "chance": 7
        },
        {
          "move": "Na6",
          "chance": 1
        },
        {
          "move": "Bb7",
          "chance": 19
        }
      ]
    }
  },
  {
    "move": "Sg5",
    "white": 8,
    "black": 18,
    "suggestions": [
      {
        "move": "b5",
        "chance": 18
      },
      {
        "move": "Lc8",
        "chance": 16
      },
      {
        "move": "Lf5",
        "chance": 15
      }
    ],
    "result": {
      "status": {
        "white": 20,
        "black": 2
      },
      "suggestions": [
        {
          "move": "Nc6",
          "chance": 13
        },
        {
          "move": "Na6",
          "chance": 5
        },
        {
          "move": "Bb7",
          "chance": 12
        }
      ]
    }
  },
  {
    "move": "b5",
    "white": 7,
    "black": 22,
    "suggestions": [
      {
        "move": "f4",
        "chance": 7
      },
      {
        "move": "Kh2",
        "chance": 7
      },
      {
        "move": "Sxe6+",
        "chance": 7
      }
    ],
    "result": {
      "status": {
        "white": 13,
        "black": 3
      },
      "suggestions": [
        {
          "move": "a6",
          "chance": 9
        },
        {
          "move": "c6",
          "chance": 9
        },
        {
          "move": "d4",
          "chance": 12
        }
      ]
    }
  },
  {
    "move": "e3",
    "white": 5,
    "black": 44,
    "suggestions": [
      {
        "move": "dxe3",
        "chance": 44
      },
      {
        "move": "c4",
        "chance": 27
      },
      {
        "move": "Tb6",
        "chance": 15
      }
    ],
    "result": {
      "status": {
        "white": 30,
        "black": 19
      },
      "suggestions": [
        {
          "move": "Nc6",
          "chance": 11
        },
        {
          "move": "Na6",
          "chance": 7
        },
        {
          "move": "Bb7",
          "chance": 19
        }
      ]
    }
  },
  {
    "move": "dxe3",
    "white": 5,
    "black": 42,
    "suggestions": [
      {
        "move": "Txe3",
        "chance": 5
      },
      {
        "move": "Sxe6+",
        "chance": 2
      },
      {
        "move": "Kh2",
        "chance": 1
      }
    ],
    "result": {
      "status": {
        "white": 18,
        "black": 6
      },
      "suggestions": [
        {
          "move": "Nc6",
          "chance": 11
        },
        {
          "move": "Na6",
          "chance": 5
        },
        {
          "move": "Bb7",
          "chance": 16
        }
      ]
    }
  },
  {
    "move": "Txe3",
    "white": 6,
    "black": 40,
    "suggestions": [
      {
        "move": "Lxb2",
        "chance": 40
      },
      {
        "move": "Ld4",
        "chance": 20
      },
      {
        "move": "Lf6",
        "chance": 15
      }
    ],
    "result": {
      "status": {
        "white": 23,
        "black": 8
      },
      "suggestions": [
        {
          "move": "Nc6",
          "chance": 2
        },
        {
          "move": "Na6",
          "chance": 1
        },
        {
          "move": "Bb7",
          "chance": 16
        }
      ]
    }
  },
  {
    "move": "Ld4",
    "white": 7,
    "black": 24,
    "suggestions": [
      {
        "move": "Te2",
        "chance": 7
      },
      {
        "move": "Sxe6+",
        "chance": 7
      },
      {
        "move": "Te4",
        "chance": 5
      }
    ],
    "result": {
      "status": {
        "white": 23,
        "black": 7
      },
      "suggestions": [
        {
          "move": "Nc6",
          "chance": 12
        },
        {
          "move": "Na6",
          "chance": 20
        },
        {
          "move": "Bb7",
          "chance": 9
        }
      ]
    }
  },
  {
    "move": "Te2",
    "white": 8,
    "black": 18,
    "suggestions": [
      {
        "move": "c4",
        "chance": 18
      },
      {
        "move": "Td6",
        "chance": 10
      },
      {
        "move": "Tb6",
        "chance": 10
      }
    ],
    "result": {
      "status": {
        "white": 23,
        "black": 19
      },
      "suggestions": [
        {
          "move": "Nc6",
          "chance": 19
        },
        {
          "move": "Na6",
          "chance": 14
        },
        {
          "move": "Bb7",
          "chance": 5
        }
      ]
    }
  },
  {
    "move": "c4",
    "white": 7,
    "black": 21,
    "suggestions": [
      {
        "move": "Sxe6+",
        "chance": 7
      },
      {
        "move": "Ta6",
        "chance": 7
      },
      {
        "move": "Kh2",
        "chance": 7
      }
    ],
    "result": {
      "status": {
        "white": 12,
        "black": 15
      },
      "suggestions": [
        {
          "move": "Nc6",
          "chance": 12
        },
        {
          "move": "Na6",
          "chance": 4
        },
        {
          "move": "Bb7",
          "chance": 9
        }
      ]
    }
  },
  {
    "move": "Sxe6+",
    "white": 7,
    "black": 25,
    "suggestions": [
      {
        "move": "fxe6",
        "chance": 25
      },
      {
        "move": "Dxe6",
        "chance": 1
      },
      {
        "move": "Kh6",
        "chance": 1
      }
    ],
    "result": {
      "status": {
        "white": 20,
        "black": 12
      },
      "suggestions": [
        {
          "move": "Nc6",
          "chance": 15
        },
        {
          "move": "Na6",
          "chance": 5
        },
        {
          "move": "Bb7",
          "chance": 12
        }
      ]
    }
  },
  {
    "move": "fxe6",
    "white": 7,
    "black": 24,
    "suggestions": [
      {
        "move": "Lf1",
        "chance": 7
      },
      {
        "move": "Le4",
        "chance": 7
      },
      {
        "move": "Kh2",
        "chance": 7
      }
    ],
    "result": {
      "status": {
        "white": 16,
        "black": 6
      },
      "suggestions": [
        {
          "move": "Nc6",
          "chance": 10
        },
        {
          "move": "Na6",
          "chance": 11
        },
        {
          "move": "Bb7",
          "chance": 2
        }
      ]
    }
  },
  {
    "move": "Le4",
    "white": 7,
    "black": 26,
    "suggestions": [
      {
        "move": "cxd3",
        "chance": 26
      },
      {
        "move": "Td7",
        "chance": 15
      },
      {
        "move": "e5",
        "chance": 15
      }
    ],
    "result": {
      "status": {
        "white": 21,
        "black": 15
      },
      "suggestions": [
        {
          "move": "Nc6",
          "chance": 20
        },
        {
          "move": "Na6",
          "chance": 19
        },
        {
          "move": "Bb7",
          "chance": 15
        }
      ]
    }
  },
  {
    "move": "cxd3",
    "white": 7,
    "black": 23,
    "suggestions": [
      {
        "move": "Td2",
        "chance": 7
      },
      {
        "move": "Lxd3",
        "chance": 5
      },
      {
        "move": "Tee1",
        "chance": 1
      }
    ],
    "result": {
      "status": {
        "white": 20,
        "black": 14
      },
      "suggestions": [
        {
          "move": "Nc6",
          "chance": 14
        },
        {
          "move": "Na6",
          "chance": 12
        },
        {
          "move": "Bb7",
          "chance": 9
        }
      ]
    }
  },
  {
    "move": "Td2",
    "white": 7,
    "black": 24,
    "suggestions": [
      {
        "move": "Db4",
        "chance": 24
      },
      {
        "move": "Tf8",
        "chance": 24
      },
      {
        "move": "Td7",
        "chance": 18
      }
    ],
    "result": {
      "status": {
        "white": 16,
        "black": 7
      },
      "suggestions": [
        {
          "move": "Nc6",
          "chance": 13
        },
        {
          "move": "Na6",
          "chance": 20
        },
        {
          "move": "Bb7",
          "chance": 9
        }
      ]
    }
  },
  {
    "move": "Db4",
    "white": 7,
    "black": 26,
    "suggestions": [
      {
        "move": "Tad1",
        "chance": 7
      },
      {
        "move": "Txd3",
        "chance": 4
      },
      {
        "move": "Tdd1",
        "chance": 1
      }
    ],
    "result": {
      "status": {
        "white": 12,
        "black": 5
      },
      "suggestions": [
        {
          "move": "Nc6",
          "chance": 17
        },
        {
          "move": "Na6",
          "chance": 8
        },
        {
          "move": "Bb7",
          "chance": 10
        }
      ]
    }
  },
  {
    "move": "Tad1",
    "white": 7,
    "black": 28,
    "suggestions": [
      {
        "move": "Tf8",
        "chance": 28
      },
      {
        "move": "Lxb2",
        "chance": 18
      },
      {
        "move": "Td6",
        "chance": 17
      }
    ],
    "result": {
      "status": {
        "white": 14,
        "black": 6
      },
      "suggestions": [
        {
          "move": "Nc6",
          "chance": 18
        },
        {
          "move": "Na6",
          "chance": 12
        },
        {
          "move": "Bb7",
          "chance": 5
        }
      ]
    }
  },
  {
    "move": "Lxb2",
    "white": 8,
    "black": 16,
    "suggestions": [
      {
        "move": "Txd3",
        "chance": 8
      },
      {
        "move": "Df3",
        "chance": 8
      },
      {
        "move": "Dg2",
        "chance": 7
      }
    ],
    "result": {
      "status": {
        "white": 6,
        "black": 5
      },
      "suggestions": [
        {
          "move": "Nc6",
          "chance": 9
        },
        {
          "move": "Na6",
          "chance": 8
        },
        {
          "move": "Bb7",
          "chance": 3
        }
      ]
    }
  },
  {
    "move": "Df3",
    "white": 8,
    "black": 18,
    "suggestions": [
      {
        "move": "Lf6",
        "chance": 18
      },
      {
        "move": "Ld4",
        "chance": 18
      },
      {
        "move": "e5",
        "chance": 8
      }
    ],
    "result": {
      "status": {
        "white": 30,
        "black": 20
      },
      "suggestions": [
        {
          "move": "Nc6",
          "chance": 2
        },
        {
          "move": "Na6",
          "chance": 15
        },
        {
          "move": "Bb7",
          "chance": 14
        }
      ]
    }
  },
  {
    "move": "Lf6",
    "white": 8,
    "black": 15,
    "suggestions": [
      {
        "move": "De3",
        "chance": 8
      },
      {
        "move": "Kg2",
        "chance": 8
      },
      {
        "move": "Lxd3",
        "chance": 8
      }
    ],
    "result": {
      "status": {
        "white": 21,
        "black": 20
      },
      "suggestions": [
        {
          "move": "Nc6",
          "chance": 7
        },
        {
          "move": "Na6",
          "chance": 8
        },
        {
          "move": "Bb7",
          "chance": 17
        }
      ]
    }
  },
  {
    "move": "Txd3",
    "white": 8,
    "black": 17,
    "suggestions": [
      {
        "move": "Txd3",
        "chance": 17
      },
      {
        "move": "De7",
        "chance": 4
      },
      {
        "move": "Dc5",
        "chance": 8
      }
    ],
    "result": {
      "status": {
        "white": 12,
        "black": 13
      },
      "suggestions": [
        {
          "move": "Nc6",
          "chance": 14
        },
        {
          "move": "Na6",
          "chance": 7
        },
        {
          "move": "Bb7",
          "chance": 5
        }
      ]
    }
  },
  {
    "move": "Txd3",
    "white": 8,
    "black": 17,
    "suggestions": [
      {
        "move": "Lxd3",
        "chance": 8
      },
      {
        "move": "Txd3",
        "chance": 7
      },
      {
        "move": "Dxd3",
        "chance": 7
      }
    ],
    "result": {
      "status": {
        "white": 17,
        "black": 20
      },
      "suggestions": [
        {
          "move": "Nc6",
          "chance": 14
        },
        {
          "move": "Na6",
          "chance": 5
        },
        {
          "move": "Bb7",
          "chance": 20
        }
      ]
    }
  },
  {
    "move": "Txd3",
    "white": 7,
    "black": 21,
    "suggestions": [
      {
        "move": "Ld4",
        "chance": 21
      },
      {
        "move": "De7",
        "chance": 7
      },
      {
        "move": "Tf8",
        "chance": 4
      }
    ],
    "result": {
      "status": {
        "white": 21,
        "black": 9
      },
      "suggestions": [
        {
          "move": "Nc6",
          "chance": 6
        },
        {
          "move": "Na6",
          "chance": 3
        },
        {
          "move": "Bb7",
          "chance": 2
        }
      ]
    }
  },
  {
    "move": "Td8",
    "white": 11,
    "black": 4,
    "suggestions": [
      {
        "move": "Txd8",
        "chance": 11
      },
      {
        "move": "Lxg6",
        "chance": 7
      },
      {
        "move": "Kg2",
        "chance": 4
      }
    ],
    "result": {
      "status": {
        "white": 13,
        "black": 6
      },
      "suggestions": [
        {
          "move": "Nc6",
          "chance": 1
        },
        {
          "move": "Na6",
          "chance": 6
        },
        {
          "move": "Bb7",
          "chance": 18
        }
      ]
    }
  },
  {
    "move": "Txd8",
    "white": 10,
    "black": 4,
    "suggestions": [
      {
        "move": "De1+",
        "chance": 4
      },
      {
        "move": "Lxd8",
        "chance": 4
      },
      {
        "move": "De7",
        "chance": 1
      }
    ],
    "result": {
      "status": {
        "white": 24,
        "black": 1
      },
      "suggestions": [
        {
          "move": "Nc6",
          "chance": 3
        },
        {
          "move": "Na6",
          "chance": 13
        },
        {
          "move": "Bb7",
          "chance": 8
        }
      ]
    }
  },
  {
    "move": "Lxd8",
    "white": 10,
    "black": 3,
    "suggestions": [
      {
        "move": "Ld3",
        "chance": 10
      },
      {
        "move": "Lc2",
        "chance": 6
      },
      {
        "move": "Lxg6",
        "chance": 6
      }
    ],
    "result": {
      "status": {
        "white": 26,
        "black": 8
      },
      "suggestions": [
        {
          "move": "Nc6",
          "chance": 19
        },
        {
          "move": "Na6",
          "chance": 7
        },
        {
          "move": "Bb7",
          "chance": 10
        }
      ]
    }
  },
  {
    "move": "Ld3",
    "white": 10,
    "black": 3,
    "suggestions": [
      {
        "move": "Lc7",
        "chance": 3
      },
      {
        "move": "De1+",
        "chance": 3
      },
      {
        "move": "Dg4",
        "chance": 8
      }
    ],
    "result": {
      "status": {
        "white": 17,
        "black": 2
      },
      "suggestions": [
        {
          "move": "Nc6",
          "chance": 18
        },
        {
          "move": "Na6",
          "chance": 19
        },
        {
          "move": "Bb7",
          "chance": 18
        }
      ]
    }
  },
  {
    "move": "Dd4",
    "white": 15,
    "black": 8,
    "suggestions": [
      {
        "move": "Lxb5",
        "chance": 15
      },
      {
        "move": "Db7+",
        "chance": 10
      },
      {
        "move": "Kg2",
        "chance": 6
      }
    ],
    "result": {
      "status": {
        "white": 15,
        "black": 3
      },
      "suggestions": [
        {
          "move": "Nc6",
          "chance": 17
        },
        {
          "move": "Na6",
          "chance": 6
        },
        {
          "move": "Bb7",
          "chance": 6
        }
      ]
    }
  },
  {
    "move": "Lxb5",
    "white": 15,
    "black": 8,
    "suggestions": [
      {
        "move": "La5",
        "chance": 8
      },
      {
        "move": "Lc7",
        "chance": 8
      },
      {
        "move": "Lb6",
        "chance": 8
      }
    ],
    "result": {
      "status": {
        "white": 9,
        "black": 9
      },
      "suggestions": [
        {
          "move": "Nc6",
          "chance": 20
        },
        {
          "move": "Na6",
          "chance": 1
        },
        {
          "move": "Bb7",
          "chance": 19
        }
      ]
    }
  },
  {
    "move": "Df6",
    "white": 16,
    "black": 7,
    "suggestions": [
      {
        "move": "Db7+",
        "chance": 16
      },
      {
        "move": "De4",
        "chance": 16
      },
      {
        "move": "Dc6",
        "chance": 15
      }
    ],
    "result": {
      "status": {
        "white": 14,
        "black": 16
      },
      "suggestions": [
        {
          "move": "Nc6",
          "chance": 20
        },
        {
          "move": "Na6",
          "chance": 18
        },
        {
          "move": "Bb7",
          "chance": 5
        }
      ]
    }
  },
  {
    "move": "Db7+",
    "white": 15,
    "black": 8,
    "suggestions": [
      {
        "move": "Df7",
        "chance": 8
      },
      {
        "move": "Kh6",
        "chance": 7
      },
      {
        "move": "Le7",
        "chance": 7
      }
    ],
    "result": {
      "status": {
        "white": 8,
        "black": 19
      },
      "suggestions": [
        {
          "move": "Nc6",
          "chance": 20
        },
        {
          "move": "Na6",
          "chance": 10
        },
        {
          "move": "Bb7",
          "chance": 4
        }
      ]
    }
  },
  {
    "move": "Le7",
    "white": 16,
    "black": 7,
    "suggestions": [
      {
        "move": "Le2",
        "chance": 16
      },
      {
        "move": "Lc4",
        "chance": 16
      },
      {
        "move": "Dd7",
        "chance": 16
      }
    ],
    "result": {
      "status": {
        "white": 25,
        "black": 19
      },
      "suggestions": [
        {
          "move": "Nc6",
          "chance": 19
        },
        {
          "move": "Na6",
          "chance": 7
        },
        {
          "move": "Bb7",
          "chance": 5
        }
      ]
    }
  },
  {
    "move": "Kg2",
    "white": 6,
    "black": 6,
    "suggestions": [
      {
        "move": "g5",
        "chance": 6
      },
      {
        "move": "Df7",
        "chance": 7
      },
      {
        "move": "Kf7",
        "chance": 8
      }
    ],
    "result": {
      "status": {
        "white": 22,
        "black": 1
      },
      "suggestions": [
        {
          "move": "Nc6",
          "chance": 9
        },
        {
          "move": "Na6",
          "chance": 9
        },
        {
          "move": "Bb7",
          "chance": 11
        }
      ]
    }
  },
  {
    "move": "g5",
    "white": 6,
    "black": 6,
    "suggestions": [
      {
        "move": "Le8",
        "chance": 6
      },
      {
        "move": "Le2",
        "chance": 6
      },
      {
        "move": "hxg5",
        "chance": 6
      }
    ],
    "result": {
      "status": {
        "white": 1,
        "black": 4
      },
      "suggestions": [
        {
          "move": "a6",
          "chance": 18
        },
        {
          "move": "c6",
          "chance": 5
        },
        {
          "move": "d4",
          "chance": 20
        }
      ]
    }
  },
  {
    "move": "hxg5",
    "white": 5,
    "black": 5,
    "suggestions": [
      {
        "move": "Dxg5",
        "chance": 5
      },
      {
        "move": "Df7",
        "chance": 2
      },
      {
        "move": "Df8",
        "chance": 1
      }
    ],
    "result": {
      "status": {
        "white": 14,
        "black": 15
      },
      "suggestions": [
        {
          "move": "a6",
          "chance": 7
        },
        {
          "move": "c6",
          "chance": 7
        },
        {
          "move": "d4",
          "chance": 1
        }
      ]
    }
  },
  {
    "move": "Dxg5",
    "white": 5,
    "black": 5,
    "suggestions": [
      {
        "move": "Da7",
        "chance": 5
      },
      {
        "move": "Dd7",
        "chance": 5
      },
      {
        "move": "Lc4",
        "chance": 5
      }
    ],
    "result": {
      "status": {
        "white": 25,
        "black": 18
      },
      "suggestions": [
        {
          "move": "a6",
          "chance": 6
        },
        {
          "move": "c6",
          "chance": 1
        },
        {
          "move": "d4",
          "chance": 14
        }
      ]
    }
  },
  {
    "move": "Lc4",
    "white": 5,
    "black": 5,
    "suggestions": [
      {
        "move": "Df6",
        "chance": 5
      },
      {
        "move": "h4",
        "chance": 5
      },
      {
        "move": "Kf6",
        "chance": 8
      }
    ],
    "result": {
      "status": {
        "white": 1,
        "black": 16
      },
      "suggestions": [
        {
          "move": "a6",
          "chance": 4
        },
        {
          "move": "c6",
          "chance": 12
        },
        {
          "move": "d4",
          "chance": 14
        }
      ]
    }
  },
  {
    "move": "h4",
    "white": 5,
    "black": 5,
    "suggestions": [
      {
        "move": "Dc7",
        "chance": 5
      },
      {
        "move": "Db2+",
        "chance": 5
      },
      {
        "move": "Dd7",
        "chance": 5
      }
    ],
    "result": {
      "status": {
        "white": 8,
        "black": 18
      },
      "suggestions": [
        {
          "move": "Nc6",
          "chance": 6
        },
        {
          "move": "Na6",
          "chance": 8
        },
        {
          "move": "Bb7",
          "chance": 15
        }
      ]
    }
  },
  {
    "move": "Dc7",
    "white": 5,
    "black": 5,
    "suggestions": [
      {
        "move": "Kf7",
        "chance": 5
      },
      {
        "move": "Kf6",
        "chance": 5
      },
      {
        "move": "hxg3",
        "chance": 5
      }
    ],
    "result": {
      "status": {
        "white": 27,
        "black": 19
      },
      "suggestions": [
        {
          "move": "Nc6",
          "chance": 10
        },
        {
          "move": "Na6",
          "chance": 6
        },
        {
          "move": "Bb7",
          "chance": 6
        }
      ]
    }
  },
  {
    "move": "hxg3",
    "white": 5,
    "black": 5,
    "suggestions": [
      {
        "move": "f4",
        "chance": 5
      },
      {
        "move": "fxg3",
        "chance": 5
      },
      {
        "move": "Dxg3",
        "chance": 5
      }
    ],
    "result": {
      "status": {
        "white": 2,
        "black": 4
      },
      "suggestions": [
        {
          "move": "Nc6",
          "chance": 5
        },
        {
          "move": "Na6",
          "chance": 10
        },
        {
          "move": "Bb7",
          "chance": 20
        }
      ]
    }
  },
  {
    "move": "Dxg3",
    "white": 4,
    "black": 4,
    "suggestions": [
      {
        "move": "Kh6",
        "chance": 4
      },
      {
        "move": "Kf6",
        "chance": 4
      },
      {
        "move": "e5",
        "chance": 4
      }
    ],
    "result": {
      "status": {
        "white": 2,
        "black": 10
      },
      "suggestions": [
        {
          "move": "Nc6",
          "chance": 13
        },
        {
          "move": "Na6",
          "chance": 3
        },
        {
          "move": "Bb7",
          "chance": 10
        }
      ]
    }
  },
  {
    "move": "e5",
    "white": 4,
    "black": 4,
    "suggestions": [
      {
        "move": "Ld3",
        "chance": 4
      },
      {
        "move": "Dxg5+",
        "chance": 4
      },
      {
        "move": "Kf3",
        "chance": 4
      }
    ],
    "result": {
      "status": {
        "white": 26,
        "black": 19
      },
      "suggestions": [
        {
          "move": "Nc6",
          "chance": 8
        },
        {
          "move": "Na6",
          "chance": 2
        },
        {
          "move": "Bb7",
          "chance": 3
        }
      ]
    }
  },
  {
    "move": "Kf3",
    "white": 4,
    "black": 4,
    "suggestions": [
      {
        "move": "Kf6",
        "chance": 4
      },
      {
        "move": "Kh6",
        "chance": 4
      },
      {
        "move": "Dxg3+",
        "chance": 4
      }
    ],
    "result": {
      "status": {
        "white": 20,
        "black": 5
      },
      "suggestions": [
        {
          "move": "Nc6",
          "chance": 1
        },
        {
          "move": "Na6",
          "chance": 18
        },
        {
          "move": "Bb7",
          "chance": 3
        }
      ]
    }
  },
  {
    "move": "Dxg3+",
    "white": 4,
    "black": 4,
    "suggestions": [
      {
        "move": "Kxg3",
        "chance": 4
      },
      {
        "move": "fxg3",
        "chance": 4
      },
      {
        "move": "Ke4",
        "chance": 1
      }
    ],
    "result": {
      "status": {
        "white": 3,
        "black": 7
      },
      "suggestions": [
        {
          "move": "Nc6",
          "chance": 18
        },
        {
          "move": "Na6",
          "chance": 1
        },
        {
          "move": "Bb7",
          "chance": 19
        }
      ]
    }
  },
  {
    "move": "fxg3",
    "white": 3,
    "black": 3,
    "suggestions": [
      {
        "move": "Kg6",
        "chance": 3
      },
      {
        "move": "Kh6",
        "chance": 3
      },
      {
        "move": "Kf6",
        "chance": 3
      }
    ],
    "result": {
      "status": {
        "white": 22,
        "black": 2
      },
      "suggestions": [
        {
          "move": "Nc6",
          "chance": 10
        },
        {
          "move": "Na6",
          "chance": 17
        },
        {
          "move": "Bb7",
          "chance": 1
        }
      ]
    }
  },
  {
    "move": "Lc5",
    "white": 3,
    "black": 3,
    "suggestions": [
      {
        "move": "La6",
        "chance": 3
      },
      {
        "move": "g4",
        "chance": 3
      },
      {
        "move": "Ke4",
        "chance": 3
      }
    ],
    "result": {
      "status": {
        "white": 22,
        "black": 17
      },
      "suggestions": [
        {
          "move": "Nc6",
          "chance": 5
        },
        {
          "move": "Na6",
          "chance": 20
        },
        {
          "move": "Bb7",
          "chance": 15
        }
      ]
    }
  },
  {
    "move": "Ke4",
    "white": 3,
    "black": 3,
    "suggestions": [
      {
        "move": "Lf2",
        "chance": 3
      },
      {
        "move": "Kg6",
        "chance": 3
      },
      {
        "move": "Kf6",
        "chance": 3
      }
    ],
    "result": {
      "status": {
        "white": 29,
        "black": 2
      },
      "suggestions": [
        {
          "move": "Nc6",
          "chance": 10
        },
        {
          "move": "Na6",
          "chance": 16
        },
        {
          "move": "Bb7",
          "chance": 19
        }
      ]
    }
  },
  {
    "move": "Ld4",
    "white": 3,
    "black": 3,
    "suggestions": [
      {
        "move": "g4",
        "chance": 3
      },
      {
        "move": "Ld5",
        "chance": 3
      },
      {
        "move": "Kf5",
        "chance": 3
      }
    ],
    "result": {
      "status": {
        "white": 4,
        "black": 11
      },
      "suggestions": [
        {
          "move": "Nc6",
          "chance": 13
        },
        {
          "move": "Na6",
          "chance": 2
        },
        {
          "move": "Bb7",
          "chance": 16
        }
      ]
    }
  },
  {
    "move": "Kf5",
    "white": 3,
    "black": 3,
    "suggestions": [
      {
        "move": "Kh6",
        "chance": 3
      },
      {
        "move": "Lf2",
        "chance": 3
      },
      {
        "move": "e4",
        "chance": 3
      }
    ],
    "result": {
      "status": {
        "white": 20,
        "black": 7
      },
      "suggestions": [
        {
          "move": "Nc6",
          "chance": 6
        },
        {
          "move": "Na6",
          "chance": 11
        },
        {
          "move": "Bb7",
          "chance": 8
        }
      ]
    }
  },
  {
    "move": "Lf2",
    "white": 3,
    "black": 3,
    "suggestions": [
      {
        "move": "Ld5",
        "chance": 3
      },
      {
        "move": "Kxe5",
        "chance": 3
      },
      {
        "move": "g4",
        "chance": 3
      }
    ],
    "result": {
      "status": {
        "white": 24,
        "black": 9
      },
      "suggestions": [
        {
          "move": "Nc6",
          "chance": 12
        },
        {
          "move": "Na6",
          "chance": 20
        },
        {
          "move": "Bb7",
          "chance": 19
        }
      ]
    }
  },
  {
    "move": "Kxe5",
    "white": 3,
    "black": 3,
    "suggestions": [
      {
        "move": "Kd5",
        "chance": 3
      },
      {
        "move": "Kf5",
        "chance": 3
      },
      {
        "move": "Ke6",
        "chance": 3
      }
    ],
    "result": {
      "status": {
        "white": 12,
        "black": 16
      },
      "suggestions": [
        {
          "move": "Nc6",
          "chance": 19
        },
        {
          "move": "Na6",
          "chance": 19
        },
        {
          "move": "Bb7",
          "chance": 16
        }
      ]
    }
  },
  {
    "move": "Lxg3+",
    "white": 3,
    "black": 3,
    "suggestions": [
      {
        "move": "Kd5",
        "chance": 3
      },
      {
        "move": "Kf5",
        "chance": 3
      },
      {
        "move": "Ke6",
        "chance": 3
      }
    ],
    "result": {
      "status": {
        "white": 13,
        "black": 9
      },
      "suggestions": [
        {
          "move": "Nc6",
          "chance": 10
        },
        {
          "move": "Na6",
          "chance": 20
        },
        {
          "move": "Bb7",
          "chance": 2
        }
      ]
    }
  }
]