[Event "No Logo Norway Chess 2014"]
[Site "?"]
[Date "2014.06.04"]
[Round "2.1"]
[White "Caruana, Fabiano"]
[Black "Svidler, Peter"]
[Result "*"]
[LiveChessVersion "1.4.2"]
[BlackElo "2753"]
[WhiteElo "2791"]
[ECO "B45"]

1. e4 {[%clk 1:59:55]} c5 {[%clk 1:59:51]} 2. Nf3 {[%clk 1:59:49]} e6
{[%clk 1:59:41]} 3. d4 {[%clk 1:59:43]} cxd4 {[%clk 1:59:37]} 4. Nxd4
{[%clk 1:59:39]} Nc6 {[%clk 1:59:29]} 5. Nc3 {[%clk 1:59:33]} *

[Event "No Logo Norway Chess 2014"]
[Site "?"]
[Date "2014.06.04"]
[Round "2.2"]
[White "Kramnik, Vladimir"]
[Black "Carlsen, Magnus"]
[Result "*"]
[LiveChessVersion "1.4.2"]
[BlackElo "2881"]
[WhiteElo "2783"]
[ECO "A40"]

1. d4 {[%clk 1:59:56]} Nf6 {[%clk 1:59:54]} 2. c4 {[%clk 1:59:52]} e6
{[%clk 1:59:47]} 3. g3 {[%clk 1:59:43]} Bb4+ {[%clk 1:59:30]} 4. Bd2
{[%clk 1:59:37]} Bxd2+ *

[Event "No Logo Norway Chess 2014"]
[Site "?"]
[Date "2014.06.04"]
[Round "2.3"]
[White "Aronian, Levon"]
[Black "Karjakin, Sergey"]
[Result "*"]
[LiveChessVersion "1.4.2"]
[BlackElo "2771"]
[WhiteElo "2815"]
[ECO "E15"]

1. d4 {[%clk 1:59:55]} Nf6 {[%clk 1:59:51]} 2. c4 {[%clk 1:59:49]} e6
{[%clk 1:59:47]} 3. Nf3 {[%clk 1:59:42]} b6 {[%clk 1:59:43]} 4. g3
{[%clk 1:59:37]} Ba6 {[%clk 1:59:37]} 5. b3 {[%clk 1:59:32]} *

[Event "No Logo Norway Chess 2014"]
[Site "?"]
[Date "2014.06.04"]
[Round "2.4"]
[White "Topalov, Veselin"]
[Black "Grischuk, Alexander"]
[Result "*"]
[LiveChessVersion "1.4.2"]
[BlackElo "2792"]
[WhiteElo "2772"]
[ECO "A04"]

1. Nf3 {[%clk 1:59:46]} *

[Event "No Logo Norway Chess 2014"]
[Site "?"]
[Date "2014.06.04"]
[Round "2.5"]
[White "Agdestein, Simen"]
[Black "Giri, Anish"]
[Result "*"]
[LiveChessVersion "1.4.2"]
[BlackElo "2752"]
[WhiteElo "2628"]
[ECO "E00"]

1. d4 {[%clk 1:59:52]} Nf6 {[%clk 1:59:55]} 2. c4 {[%clk 1:59:48]} e6
{[%clk 1:59:53]} *

