[Event "No Logo Norway Chess 2014"]
[Site "?"]
[Date "2014.06.04"]
[Round "2.1"]
[White "Caruana, Fabiano"]
[Black "Svidler, Peter"]
[Result "*"]
[LiveChessVersion "1.4.2"]
[BlackElo "2753"]
[WhiteElo "2791"]
[ECO "B48"]

1. e4 {[%clk 1:59:55]} c5 {[%clk 1:59:51]} 2. Nf3 {[%clk 1:59:49]} e6
{[%clk 1:59:41]} 3. d4 {[%clk 1:59:43]} cxd4 {[%clk 1:59:37]} 4. Nxd4
{[%clk 1:59:39]} Nc6 {[%clk 1:59:29]} 5. Nc3 {[%clk 1:59:33]} Qc7
{[%clk 1:59:16]} 6. Be3 {[%clk 1:59:11]} a6 {[%clk 1:58:47]} 7. Qd2
{[%clk 1:58:58]} Nf6 {[%clk 1:58:40]} 8. O-O-O {[%clk 1:58:51]} Be7
{[%clk 1:58:24]} 9. f3 {[%clk 1:58:37]} b5 {[%clk 1:57:53]} 10. Kb1
{[%clk 1:57:46]} Ne5 {[%clk 1:55:59]} 11. g4 {[%clk 1:55:56]} b4 {[%clk 1:55:30]}
12. Na4 {[%clk 1:55:34]} h6 {[%clk 1:55:24]} 13. Rg1 {[%clk 1:49:39]} d5
{[%clk 1:53:25]} 14. Bf4 {[%clk 1:47:32]} dxe4 {[%clk 1:49:01]} 15. g5
{[%clk 1:46:47]} hxg5 {[%clk 1:46:20]} 16. Rxg5 {[%clk 1:46:40]} Nfd7
{[%clk 1:46:14]} 17. Rxg7 {[%clk 1:46:31]} exf3 {[%clk 1:28:37]} 18. Nxe6
{[%clk 1:44:08]} fxe6 {[%clk 1:11:53]} 19. Bd3 {[%clk 1:43:29]} Bf6
{[%clk 1:07:33]} 20. Bg6+ {[%clk 1:40:42]} Nxg6 {[%clk 1:07:00]} 21. Bxc7
{[%clk 1:40:20]} Bxg7 {[%clk 1:06:47]} 22. Qd3 *

[Event "No Logo Norway Chess 2014"]
[Site "?"]
[Date "2014.06.04"]
[Round "2.2"]
[White "Kramnik, Vladimir"]
[Black "Carlsen, Magnus"]
[Result "*"]
[LiveChessVersion "1.4.2"]
[BlackElo "2881"]
[WhiteElo "2783"]
[ECO "A40"]

1. d4 {[%clk 1:59:56]} Nf6 {[%clk 1:59:54]} 2. c4 {[%clk 1:59:52]} e6
{[%clk 1:59:47]} 3. g3 {[%clk 1:59:43]} Bb4+ {[%clk 1:59:30]} 4. Bd2
{[%clk 1:59:37]} Bxd2+ {[%clk 1:59:24]} 5. Qxd2 {[%clk 1:59:33]} d5
{[%clk 1:59:07]} 6. Bg2 {[%clk 1:59:11]} c6 {[%clk 1:58:53]} 7. Nf3
{[%clk 1:58:45]} Nbd7 {[%clk 1:58:45]} 8. O-O {[%clk 1:58:25]} O-O
{[%clk 1:58:38]} 9. Rc1 {[%clk 1:56:17]} b6 {[%clk 1:58:11]} 10. cxd5
{[%clk 1:53:44]} cxd5 {[%clk 1:58:08]} 11. Na3 {[%clk 1:53:37]} Ne4
{[%clk 1:56:34]} 12. Qe3 {[%clk 1:36:28]} Ba6 {[%clk 1:47:46]} 13. Ne5
{[%clk 1:34:54]} Nd6 {[%clk 1:41:07]} 14. Nc2 {[%clk 1:26:10]} Nxe5
{[%clk 1:24:36]} 15. dxe5 {[%clk 1:25:00]} Nc4 {[%clk 1:23:52]} *

[Event "No Logo Norway Chess 2014"]
[Site "?"]
[Date "2014.06.04"]
[Round "2.3"]
[White "Aronian, Levon"]
[Black "Karjakin, Sergey"]
[Result "*"]
[LiveChessVersion "1.4.2"]
[BlackElo "2771"]
[WhiteElo "2815"]
[ECO "E15"]

1. d4 {[%clk 1:59:55]} Nf6 {[%clk 1:59:51]} 2. c4 {[%clk 1:59:49]} e6
{[%clk 1:59:47]} 3. Nf3 {[%clk 1:59:42]} b6 {[%clk 1:59:43]} 4. g3
{[%clk 1:59:37]} Ba6 {[%clk 1:59:37]} 5. b3 {[%clk 1:59:32]} Bb4+
{[%clk 1:59:32]} 6. Bd2 {[%clk 1:59:27]} Be7 {[%clk 1:59:26]} 7. Nc3
{[%clk 1:59:23]} c6 {[%clk 1:59:13]} 8. e4 {[%clk 1:59:17]} d5 {[%clk 1:59:08]}
9. Qc2 {[%clk 1:59:13]} dxe4 {[%clk 1:57:29]} 10. Nxe4 {[%clk 1:58:20]} Bb7
{[%clk 1:55:44]} 11. Bc3 {[%clk 1:53:41]} Nbd7 {[%clk 1:16:13]} 12. Nxf6+
{[%clk 1:37:28]} Bxf6 {[%clk 1:10:28]} 13. Bd3 {[%clk 1:36:34]} c5
{[%clk 1:09:49]} 14. Be4 {[%clk 1:36:30]} Bxe4 {[%clk 1:07:18]} *

[Event "No Logo Norway Chess 2014"]
[Site "?"]
[Date "2014.06.04"]
[Round "2.4"]
[White "Topalov, Veselin"]
[Black "Grischuk, Alexander"]
[Result "*"]
[LiveChessVersion "1.4.2"]
[BlackElo "2792"]
[WhiteElo "2772"]
[ECO "B90"]

1. Nf3 {[%clk 1:59:46]} c5 {[%clk 1:58:56]} 2. e4 {[%clk 1:59:17]} d6
{[%clk 1:58:51]} 3. d4 {[%clk 1:59:06]} cxd4 {[%clk 1:58:46]} 4. Nxd4
{[%clk 1:59:01]} Nf6 {[%clk 1:58:42]} 5. Nc3 {[%clk 1:58:55]} a6 {[%clk 1:58:36]}
6. Be3 {[%clk 1:58:26]} Ng4 {[%clk 1:58:14]} 7. Bc1 {[%clk 1:58:21]} Nf6
{[%clk 1:58:07]} 8. h3 {[%clk 1:58:13]} e5 {[%clk 1:51:58]} 9. Nb3
{[%clk 1:58:03]} Be6 {[%clk 1:51:11]} 10. Be3 {[%clk 1:57:45]} Be7
{[%clk 1:37:41]} 11. f4 {[%clk 1:57:33]} exf4 {[%clk 1:37:25]} 12. Bxf4
{[%clk 1:57:28]} Nc6 {[%clk 1:37:19]} 13. Qe2 {[%clk 1:57:15]} Nd7
{[%clk 1:36:52]} 14. O-O-O {[%clk 1:56:42]} Nce5 {[%clk 1:36:40]} 15. Nd5
{[%clk 1:44:00]} Bxd5 {[%clk 1:32:23]} 16. Rxd5 {[%clk 1:43:52]} O-O
{[%clk 1:30:34]} 17. Kb1 {[%clk 1:43:35]} Qc7 {[%clk 1:14:07]} 18. Rd1
{[%clk 1:42:10]} Nb6 {[%clk 1:06:15]} *

[Event "No Logo Norway Chess 2014"]
[Site "?"]
[Date "2014.06.04"]
[Round "2.5"]
[White "Agdestein, Simen"]
[Black "Giri, Anish"]
[Result "*"]
[LiveChessVersion "1.4.2"]
[BlackElo "2752"]
[WhiteElo "2628"]
[ECO "D38"]

1. d4 {[%clk 1:59:52]} Nf6 {[%clk 1:59:55]} 2. c4 {[%clk 1:59:48]} e6
{[%clk 1:59:53]} 3. Nf3 {[%clk 1:58:17]} d5 {[%clk 1:59:47]} 4. Nc3
{[%clk 1:57:25]} Bb4 {[%clk 1:59:36]} 5. cxd5 {[%clk 1:56:55]} exd5
{[%clk 1:59:32]} 6. Bg5 {[%clk 1:56:50]} Nbd7 {[%clk 1:59:10]} 7. Qa4
{[%clk 1:55:55]} c5 {[%clk 1:43:31]} 8. dxc5 {[%clk 1:54:31]} Bxc3+
{[%clk 1:42:36]} 9. bxc3 {[%clk 1:54:26]} O-O {[%clk 1:42:27]} 10. Qb4
{[%clk 1:51:32]} h6 {[%clk 1:36:54]} 11. Bh4 {[%clk 1:49:53]} Re8
{[%clk 1:34:15]} 12. e3 {[%clk 1:46:47]} Re4 {[%clk 1:26:51]} 13. Qa3
{[%clk 1:31:04]} Qe7 {[%clk 1:13:02]} *

