[Event "No Logo Norway Chess 2014"]
[Site "?"]
[Date "2014.06.08"]
[Round "5.1"]
[White "Grischuk, Alexander"]
[Black "Agdestein, Simen"]
[Result "*"]
[LiveChessVersion "1.4.2"]
[BlackElo "2628"]
[WhiteElo "2792"]
[ECO "C11"]

1. e4 {[%clk 1:59:50]} e6 {[%clk 1:59:43]} 2. d4 {[%clk 1:59:29]} d5
{[%clk 1:59:39]} 3. Nc3 {[%clk 1:59:10]} Nf6 {[%clk 1:59:24]} 4. e5
{[%clk 1:58:54]} Nfd7 {[%clk 1:59:20]} 5. f4 {[%clk 1:58:45]} c5 {[%clk 1:59:18]}
6. Nf3 {[%clk 1:58:38]} Nc6 {[%clk 1:59:16]} 7. Be3 {[%clk 1:57:59]} cxd4
{[%clk 1:58:55]} 8. Nxd4 {[%clk 1:57:50]} Qb6 {[%clk 1:58:52]} 9. Qd2
{[%clk 1:56:08]} Qxb2 {[%clk 1:58:44]} 10. Rb1 {[%clk 1:56:00]} Qa3
{[%clk 1:58:42]} 11. Bb5 {[%clk 1:53:54]} Nxd4 {[%clk 1:58:32]} 12. Bxd4
{[%clk 1:53:47]} a6 {[%clk 1:58:28]} 13. Bxd7+ {[%clk 1:50:05]} Bxd7
{[%clk 1:58:22]} 14. Rb3 {[%clk 1:49:58]} Qe7 {[%clk 1:58:19]} 15. Rxb7
{[%clk 1:49:36]} Qd8 {[%clk 1:58:15]} 16. O-O {[%clk 1:35:55]} Rb8
{[%clk 1:58:10]} 17. Rxb8 {[%clk 1:29:26]} Qxb8 {[%clk 1:58:07]} 18. f5
{[%clk 1:28:42]} Qc8 {[%clk 1:45:07]} 19. f6 {[%clk 1:15:04]} gxf6
{[%clk 1:40:47]} 20. Rxf6 {[%clk 1:13:37]} h5 {[%clk 1:27:04]} *

[Event "No Logo Norway Chess 2014"]
[Site "?"]
[Date "2014.06.08"]
[Round "5.2"]
[White "Carlsen, Magnus"]
[Black "Aronian, Levon"]
[Result "*"]
[LiveChessVersion "1.4.2"]
[BlackElo "2815"]
[WhiteElo "2881"]
[ECO "D38"]

1. d4 {[%clk 1:59:59]} Nf6 {[%clk 1:59:56]} 2. c4 {[%clk 1:59:54]} e6
{[%clk 1:59:49]} 3. Nf3 {[%clk 1:59:50]} d5 {[%clk 1:59:43]} 4. Nc3
{[%clk 1:59:45]} Bb4 {[%clk 1:59:37]} 5. cxd5 {[%clk 1:59:34]} exd5
{[%clk 1:59:31]} 6. Bg5 {[%clk 1:59:19]} h6 {[%clk 1:59:26]} 7. Bh4
{[%clk 1:59:07]} Nbd7 {[%clk 1:59:20]} 8. e3 {[%clk 1:51:20]} g5 {[%clk 1:57:53]}
9. Bg3 {[%clk 1:51:18]} Ne4 {[%clk 1:57:45]} 10. Nd2 {[%clk 1:47:09]} Nxg3
{[%clk 1:56:32]} 11. fxg3 {[%clk 1:44:36]} Nb6 {[%clk 1:53:10]} 12. Bd3
{[%clk 1:42:57]} Qe7 {[%clk 1:50:55]} 13. Qf3 {[%clk 1:42:05]} Be6
{[%clk 1:48:58]} 14. a3 {[%clk 1:38:01]} Bxc3 {[%clk 1:34:11]} 15. bxc3
{[%clk 1:38:00]} O-O-O {[%clk 1:32:33]} 16. a4 {[%clk 1:33:21]} Bd7
{[%clk 1:21:57]} 17. a5 {[%clk 1:26:04]} Na4 {[%clk 1:21:01]} 18. a6
{[%clk 1:25:21]} Rhe8 {[%clk 1:15:30]} *

[Event "No Logo Norway Chess 2014"]
[Site "?"]
[Date "2014.06.08"]
[Round "5.3"]
[White "Kramnik, Vladimir"]
[Black "Caruana, Fabiano"]
[Result "*"]
[LiveChessVersion "1.4.2"]
[BlackElo "2791"]
[WhiteElo "2783"]
[ECO "D70"]

1. d4 {[%clk 1:59:48]} Nf6 {[%clk 1:59:54]} 2. c4 {[%clk 1:59:37]} g6
{[%clk 1:59:48]} 3. Nf3 {[%clk 1:59:10]} Bg7 {[%clk 1:59:41]} 4. g3
{[%clk 1:59:06]} O-O {[%clk 1:58:38]} 5. Bg2 {[%clk 1:59:01]} c5 {[%clk 1:58:28]}
6. Nc3 {[%clk 1:58:42]} cxd4 {[%clk 1:58:19]} 7. Nxd4 {[%clk 1:58:39]} Qc7
{[%clk 1:57:26]} 8. Qd3 {[%clk 1:58:05]} Nc6 {[%clk 1:54:01]} 9. O-O
{[%clk 1:57:39]} d6 {[%clk 1:43:07]} 10. b3 {[%clk 1:55:42]} Nxd4
{[%clk 1:27:11]} 11. Qxd4 {[%clk 1:55:40]} Ne4 {[%clk 1:27:00]} 12. Nd5
{[%clk 1:55:35]} Bxd4 {[%clk 1:25:20]} 13. Nxc7 {[%clk 1:55:32]} Bxa1
{[%clk 1:12:30]} 14. Be3 {[%clk 1:54:23]} Bf6 {[%clk 1:09:31]} 15. Nxa8
{[%clk 1:52:56]} Nc3 {[%clk 1:08:11]} 16. Bxa7 {[%clk 1:52:40]} Nxa2
{[%clk 1:00:56]} 17. Nc7 {[%clk 1:45:26]} Nb4 {[%clk 0:56:02]} 18. Rd1
{[%clk 1:36:10]} *

[Event "No Logo Norway Chess 2014"]
[Site "?"]
[Date "2014.06.08"]
[Round "5.4"]
[White "Svidler, Peter"]
[Black "Karjakin, Sergey"]
[Result "*"]
[LiveChessVersion "1.4.2"]
[BlackElo "2771"]
[WhiteElo "2753"]
[ECO "A35"]

1. Nf3 {[%clk 1:59:53]} Nf6 {[%clk 1:59:45]} 2. c4 {[%clk 1:59:43]} c5
{[%clk 1:59:07]} 3. Nc3 {[%clk 1:58:31]} Nc6 {[%clk 1:58:55]} 4. g3
{[%clk 1:58:19]} d5 {[%clk 1:58:47]} 5. cxd5 {[%clk 1:58:15]} Nxd5
{[%clk 1:58:43]} 6. Bg2 {[%clk 1:58:08]} Nc7 {[%clk 1:58:35]} 7. O-O
{[%clk 1:57:00]} e5 {[%clk 1:58:22]} 8. a3 {[%clk 1:56:28]} Rb8 {[%clk 1:57:50]}
9. Rb1 {[%clk 1:53:51]} Be7 {[%clk 1:57:16]} 10. b4 {[%clk 1:32:25]} cxb4
{[%clk 1:56:00]} 11. axb4 {[%clk 1:31:47]} b5 {[%clk 1:55:54]} 12. d3
{[%clk 1:30:56]} O-O {[%clk 1:55:31]} 13. Be3 {[%clk 1:30:19]} Bb7
{[%clk 1:55:18]} 14. Qd2 {[%clk 1:19:49]} Re8 {[%clk 1:26:41]} 15. Ne4
{[%clk 1:07:50]} Na6 {[%clk 1:25:36]} *

[Event "No Logo Norway Chess 2014"]
[Site "?"]
[Date "2014.06.08"]
[Round "5.5"]
[White "Giri, Anish"]
[Black "Topalov, Veselin"]
[Result "*"]
[LiveChessVersion "1.4.2"]
[BlackElo "2772"]
[WhiteElo "2752"]
[ECO "B67"]

1. e4 {[%clk 1:59:57]} c5 {[%clk 1:59:32]} 2. Nf3 {[%clk 1:59:53]} d6
{[%clk 1:59:13]} 3. d4 {[%clk 1:59:10]} cxd4 {[%clk 1:59:05]} 4. Nxd4
{[%clk 1:59:07]} Nf6 {[%clk 1:58:56]} 5. Nc3 {[%clk 1:59:03]} Nc6
{[%clk 1:56:53]} 6. Bg5 {[%clk 1:58:57]} e6 {[%clk 1:56:35]} 7. Qd2
{[%clk 1:58:33]} a6 {[%clk 1:56:29]} 8. O-O-O {[%clk 1:57:58]} Bd7
{[%clk 1:56:02]} 9. f4 {[%clk 1:47:29]} b5 {[%clk 1:55:34]} 10. Bxf6
{[%clk 1:40:41]} gxf6 {[%clk 1:55:28]} 11. Kb1 {[%clk 1:40:19]} b4
{[%clk 1:54:18]} 12. Nce2 {[%clk 1:39:25]} Qb6 {[%clk 1:53:55]} 13. Qe1
{[%clk 1:21:17]} Rc8 {[%clk 1:47:11]} 14. h4 {[%clk 1:13:38]} Na5
{[%clk 1:41:05]} 15. Nc1 {[%clk 1:09:19]} Nc4 {[%clk 1:37:06]} 16. Rh3
{[%clk 0:59:20]} a5 {[%clk 1:33:18]} 17. Bxc4 {[%clk 0:57:51]} *

