[Event "No Logo Norway Chess 2014"]
[Site "?"]
[Date "2014.06.08"]
[Round "5.1"]
[White "Grischuk, Alexander"]
[Black "Agdestein, Simen"]
[Result "*"]
[LiveChessVersion "1.4.2"]
[BlackElo "2628"]
[WhiteElo "2792"]
[ECO "C00"]

1. e4 {[%clk 1:59:50]} e6 {[%clk 1:59:43]} 2. d4 *

[Event "No Logo Norway Chess 2014"]
[Site "?"]
[Date "2014.06.08"]
[Round "5.2"]
[White "Carlsen, Magnus"]
[Black "Aronian, Levon"]
[Result "*"]
[LiveChessVersion "1.4.2"]
[BlackElo "2815"]
[WhiteElo "2881"]
[ECO "D38"]

1. d4 {[%clk 1:59:59]} Nf6 {[%clk 1:59:56]} 2. c4 {[%clk 1:59:54]} e6
{[%clk 1:59:49]} 3. Nf3 {[%clk 1:59:50]} d5 {[%clk 1:59:43]} 4. Nc3
{[%clk 1:59:45]} Bb4 {[%clk 1:59:37]} *

[Event "No Logo Norway Chess 2014"]
[Site "?"]
[Date "2014.06.08"]
[Round "5.3"]
[White "Kramnik, Vladimir"]
[Black "Caruana, Fabiano"]
[Result "*"]
[LiveChessVersion "1.4.2"]
[BlackElo "2791"]
[WhiteElo "2783"]
[ECO "A50"]

1. d4 {[%clk 1:59:48]} Nf6 {[%clk 1:59:54]} 2. c4 {[%clk 1:59:37]} g6
{[%clk 1:59:48]} *

[Event "No Logo Norway Chess 2014"]
[Site "?"]
[Date "2014.06.08"]
[Round "5.4"]
[White "Svidler, Peter"]
[Black "Karjakin, Sergey"]
[Result "*"]
[LiveChessVersion "1.4.2"]
[BlackElo "2771"]
[WhiteElo "2753"]
[ECO "A05"]

1. Nf3 {[%clk 1:59:53]} Nf6 {[%clk 1:59:45]} 2. c4 {[%clk 1:59:43]} *

[Event "No Logo Norway Chess 2014"]
[Site "?"]
[Date "2014.06.08"]
[Round "5.5"]
[White "Giri, Anish"]
[Black "Topalov, Veselin"]
[Result "*"]
[LiveChessVersion "1.4.2"]
[BlackElo "2772"]
[WhiteElo "2752"]
[ECO "B27"]

1. e4 {[%clk 1:59:57]} c5 {[%clk 1:59:32]} 2. Nf3 {[%clk 1:59:53]} *

