[Event "No Logo Norway Chess 2014"]
[Site "?"]
[Date "2014.06.08"]
[Round "5.1"]
[White "Grischuk, Alexander"]
[Black "Agdestein, Simen"]
[Result "*"]
[LiveChessVersion "1.4.2"]
[BlackElo "2628"]
[WhiteElo "2792"]
[ECO "C11"]

1. e4 {[%clk 1:59:50]} e6 {[%clk 1:59:43]} 2. d4 {[%clk 1:59:29]} d5
{[%clk 1:59:39]} 3. Nc3 {[%clk 1:59:10]} Nf6 {[%clk 1:59:24]} 4. e5
{[%clk 1:58:54]} Nfd7 {[%clk 1:59:20]} 5. f4 {[%clk 1:58:45]} c5 {[%clk 1:59:18]}
6. Nf3 {[%clk 1:58:38]} Nc6 {[%clk 1:59:16]} 7. Be3 {[%clk 1:57:59]} cxd4
{[%clk 1:58:55]} 8. Nxd4 {[%clk 1:57:50]} Qb6 {[%clk 1:58:52]} 9. Qd2
{[%clk 1:56:08]} Qxb2 {[%clk 1:58:44]} 10. Rb1 {[%clk 1:56:00]} Qa3
{[%clk 1:58:42]} *

[Event "No Logo Norway Chess 2014"]
[Site "?"]
[Date "2014.06.08"]
[Round "5.2"]
[White "Carlsen, Magnus"]
[Black "Aronian, Levon"]
[Result "*"]
[LiveChessVersion "1.4.2"]
[BlackElo "2815"]
[WhiteElo "2881"]
[ECO "D38"]

1. d4 {[%clk 1:59:59]} Nf6 {[%clk 1:59:56]} 2. c4 {[%clk 1:59:54]} e6
{[%clk 1:59:49]} 3. Nf3 {[%clk 1:59:50]} d5 {[%clk 1:59:43]} 4. Nc3
{[%clk 1:59:45]} Bb4 {[%clk 1:59:37]} 5. cxd5 {[%clk 1:59:34]} exd5
{[%clk 1:59:31]} 6. Bg5 {[%clk 1:59:19]} h6 {[%clk 1:59:26]} 7. Bh4
{[%clk 1:59:07]} Nbd7 {[%clk 1:59:20]} *

[Event "No Logo Norway Chess 2014"]
[Site "?"]
[Date "2014.06.08"]
[Round "5.3"]
[White "Kramnik, Vladimir"]
[Black "Caruana, Fabiano"]
[Result "*"]
[LiveChessVersion "1.4.2"]
[BlackElo "2791"]
[WhiteElo "2783"]
[ECO "D70"]

1. d4 {[%clk 1:59:48]} Nf6 {[%clk 1:59:54]} 2. c4 {[%clk 1:59:37]} g6
{[%clk 1:59:48]} 3. Nf3 {[%clk 1:59:10]} Bg7 {[%clk 1:59:41]} 4. g3
{[%clk 1:59:06]} O-O {[%clk 1:58:38]} 5. Bg2 {[%clk 1:59:01]} c5 {[%clk 1:58:28]}
6. Nc3 {[%clk 1:58:42]} cxd4 {[%clk 1:58:19]} 7. Nxd4 {[%clk 1:58:39]} Qc7
{[%clk 1:57:26]} 8. Qd3 {[%clk 1:58:05]} *

[Event "No Logo Norway Chess 2014"]
[Site "?"]
[Date "2014.06.08"]
[Round "5.4"]
[White "Svidler, Peter"]
[Black "Karjakin, Sergey"]
[Result "*"]
[LiveChessVersion "1.4.2"]
[BlackElo "2771"]
[WhiteElo "2753"]
[ECO "A35"]

1. Nf3 {[%clk 1:59:53]} Nf6 {[%clk 1:59:45]} 2. c4 {[%clk 1:59:43]} c5
{[%clk 1:59:07]} 3. Nc3 {[%clk 1:58:31]} Nc6 {[%clk 1:58:55]} 4. g3
{[%clk 1:58:19]} d5 {[%clk 1:58:47]} 5. cxd5 {[%clk 1:58:15]} Nxd5
{[%clk 1:58:43]} 6. Bg2 {[%clk 1:58:08]} Nc7 {[%clk 1:58:35]} 7. O-O
{[%clk 1:57:00]} e5 {[%clk 1:58:22]} 8. a3 {[%clk 1:56:28]} *

[Event "No Logo Norway Chess 2014"]
[Site "?"]
[Date "2014.06.08"]
[Round "5.5"]
[White "Giri, Anish"]
[Black "Topalov, Veselin"]
[Result "*"]
[LiveChessVersion "1.4.2"]
[BlackElo "2772"]
[WhiteElo "2752"]
[ECO "B66"]

1. e4 {[%clk 1:59:57]} c5 {[%clk 1:59:32]} 2. Nf3 {[%clk 1:59:53]} d6
{[%clk 1:59:13]} 3. d4 {[%clk 1:59:10]} cxd4 {[%clk 1:59:05]} 4. Nxd4
{[%clk 1:59:07]} Nf6 {[%clk 1:58:56]} 5. Nc3 {[%clk 1:59:03]} Nc6
{[%clk 1:56:53]} 6. Bg5 {[%clk 1:58:57]} e6 {[%clk 1:56:35]} 7. Qd2
{[%clk 1:58:33]} a6 {[%clk 1:56:29]} 8. O-O-O *

