[Event "No Logo Norway Chess 2014"]
[Site "?"]
[Date "2014.06.05"]
[Round "3.1"]
[White "Karjakin, Sergey"]
[Black "Agdestein, Simen"]
[Result "*"]
[LiveChessVersion "1.4.2"]
[BlackElo "2628"]
[WhiteElo "2771"]
[ECO "C11"]

1. e4 {[%clk 1:59:56]} e6 {[%clk 1:59:54]} 2. d4 {[%clk 1:59:52]} d5
{[%clk 1:59:51]} 3. Nc3 {[%clk 1:59:47]} Nf6 {[%clk 1:59:43]} 4. e5
{[%clk 1:59:40]} Nfd7 {[%clk 1:59:40]} 5. f4 {[%clk 1:59:34]} c5 {[%clk 1:59:37]}
6. Nf3 {[%clk 1:59:30]} *

[Event "No Logo Norway Chess 2014"]
[Site "?"]
[Date "2014.06.05"]
[Round "3.2"]
[White "Grischuk, Alexander"]
[Black "Aronian, Levon"]
[Result "*"]
[LiveChessVersion "1.4.2"]
[BlackElo "2815"]
[WhiteElo "2792"]
[ECO "A15"]

1. c4 {[%clk 1:59:36]} Nf6 {[%clk 1:59:54]} *

[Event "No Logo Norway Chess 2014"]
[Site "?"]
[Date "2014.06.05"]
[Round "3.3"]
[White "Giri, Anish"]
[Black "Kramnik, Vladimir"]
[Result "*"]
[LiveChessVersion "1.4.2"]
[BlackElo "2783"]
[WhiteElo "2752"]
[ECO "E10"]

1. d4 {[%clk 1:59:57]} Nf6 {[%clk 1:59:33]} 2. c4 {[%clk 1:59:52]} e6
{[%clk 1:59:29]} 3. Nf3 {[%clk 1:59:48]} d5 {[%clk 1:59:25]} 4. g3
{[%clk 1:59:44]} *

[Event "No Logo Norway Chess 2014"]
[Site "?"]
[Date "2014.06.05"]
[Round "3.4"]
[White "Carlsen, Magnus"]
[Black "Caruana, Fabiano"]
[Result "*"]
[LiveChessVersion "1.4.2"]
[BlackElo "2791"]
[WhiteElo "2881"]
[ECO "A50"]

1. d4 {[%clk 1:59:55]} Nf6 {[%clk 1:59:55]} 2. c4 {[%clk 1:59:48]} g6
{[%clk 1:59:51]} 3. f3 {[%clk 1:59:39]} *

[Event "No Logo Norway Chess 2014"]
[Site "?"]
[Date "2014.06.05"]
[Round "3.5"]
[White "Svidler, Peter"]
[Black "Topalov, Veselin"]
[Result "*"]
[LiveChessVersion "1.4.2"]
[BlackElo "2772"]
[WhiteElo "2753"]
[ECO "B90"]

1. e4 {[%clk 1:59:55]} c5 {[%clk 1:59:55]} 2. Nf3 {[%clk 1:59:47]} d6
{[%clk 1:59:51]} 3. d4 {[%clk 1:59:40]} cxd4 {[%clk 1:59:44]} 4. Nxd4
{[%clk 1:59:37]} Nf6 {[%clk 1:59:35]} 5. Nc3 {[%clk 1:59:33]} a6 {[%clk 1:59:31]}
*

