[Event "No Logo Norway Chess 2014"]
[Site "?"]
[Date "2014.06.05"]
[Round "3.1"]
[White "Karjakin, Sergey"]
[Black "Agdestein, Simen"]
[Result "*"]
[LiveChessVersion "1.4.2"]
[BlackElo "2628"]
[WhiteElo "2771"]
[ECO "C11"]

1. e4 {[%clk 1:59:56]} e6 {[%clk 1:59:54]} 2. d4 {[%clk 1:59:52]} d5
{[%clk 1:59:51]} 3. Nc3 {[%clk 1:59:47]} Nf6 {[%clk 1:59:43]} 4. e5
{[%clk 1:59:40]} Nfd7 {[%clk 1:59:40]} 5. f4 {[%clk 1:59:34]} c5 {[%clk 1:59:37]}
6. Nf3 {[%clk 1:59:30]} Nc6 {[%clk 1:59:26]} 7. Be3 {[%clk 1:59:25]} cxd4
{[%clk 1:59:03]} 8. Nxd4 {[%clk 1:59:18]} Qb6 {[%clk 1:58:45]} 9. Qd2
{[%clk 1:59:11]} Qxb2 {[%clk 1:58:37]} 10. Rb1 {[%clk 1:59:05]} Qa3
{[%clk 1:58:35]} 11. Bb5 {[%clk 1:58:57]} Nxd4 {[%clk 1:58:10]} 12. Bxd4
{[%clk 1:58:51]} a6 {[%clk 1:57:59]} 13. Bxd7+ {[%clk 1:58:44]} Bxd7
{[%clk 1:57:41]} 14. Rb3 {[%clk 1:58:39]} Qe7 {[%clk 1:57:23]} 15. Rxb7
{[%clk 1:58:33]} Qh4+ {[%clk 1:57:13]} 16. Qf2 {[%clk 1:58:24]} *

[Event "No Logo Norway Chess 2014"]
[Site "?"]
[Date "2014.06.05"]
[Round "3.2"]
[White "Grischuk, Alexander"]
[Black "Aronian, Levon"]
[Result "*"]
[LiveChessVersion "1.4.2"]
[BlackElo "2815"]
[WhiteElo "2792"]
[ECO "A17"]

1. c4 {[%clk 1:59:36]} Nf6 {[%clk 1:59:54]} 2. Nc3 {[%clk 1:58:57]} e6
{[%clk 1:59:47]} *

[Event "No Logo Norway Chess 2014"]
[Site "?"]
[Date "2014.06.05"]
[Round "3.3"]
[White "Giri, Anish"]
[Black "Kramnik, Vladimir"]
[Result "*"]
[LiveChessVersion "1.4.2"]
[BlackElo "2783"]
[WhiteElo "2752"]
[ECO "E06"]

1. d4 {[%clk 1:59:57]} Nf6 {[%clk 1:59:33]} 2. c4 {[%clk 1:59:52]} e6
{[%clk 1:59:29]} 3. Nf3 {[%clk 1:59:48]} d5 {[%clk 1:59:25]} 4. g3
{[%clk 1:59:44]} Be7 {[%clk 1:58:58]} 5. Bg2 {[%clk 1:59:32]} O-O
{[%clk 1:58:47]} 6. O-O {[%clk 1:59:28]} dxc4 {[%clk 1:58:44]} 7. Qc2
{[%clk 1:59:26]} a6 {[%clk 1:58:40]} 8. a4 {[%clk 1:59:23]} Bd7 {[%clk 1:58:25]}
9. Qxc4 {[%clk 1:59:18]} Bc6 {[%clk 1:58:20]} 10. Bf4 {[%clk 1:59:11]} Bd6
{[%clk 1:57:53]} 11. Qc1 {[%clk 1:59:07]} *

[Event "No Logo Norway Chess 2014"]
[Site "?"]
[Date "2014.06.05"]
[Round "3.4"]
[White "Carlsen, Magnus"]
[Black "Caruana, Fabiano"]
[Result "*"]
[LiveChessVersion "1.4.2"]
[BlackElo "2791"]
[WhiteElo "2881"]
[ECO "D70"]

1. d4 {[%clk 1:59:55]} Nf6 {[%clk 1:59:55]} 2. c4 {[%clk 1:59:48]} g6
{[%clk 1:59:51]} 3. f3 {[%clk 1:59:39]} d5 {[%clk 1:59:00]} 4. cxd5
{[%clk 1:59:34]} Nxd5 {[%clk 1:58:56]} 5. e4 {[%clk 1:59:27]} Nb6
{[%clk 1:58:53]} 6. Nc3 {[%clk 1:59:13]} Bg7 {[%clk 1:58:46]} 7. Be3
{[%clk 1:59:08]} O-O {[%clk 1:57:43]} 8. Qd2 {[%clk 1:58:59]} Nc6
{[%clk 1:57:00]} 9. O-O-O {[%clk 1:58:51]} Qd6 {[%clk 1:56:48]} 10. Nb5 *

[Event "No Logo Norway Chess 2014"]
[Site "?"]
[Date "2014.06.05"]
[Round "3.5"]
[White "Svidler, Peter"]
[Black "Topalov, Veselin"]
[Result "*"]
[LiveChessVersion "1.4.2"]
[BlackElo "2772"]
[WhiteElo "2753"]
[ECO "B90"]

1. e4 {[%clk 1:59:55]} c5 {[%clk 1:59:55]} 2. Nf3 {[%clk 1:59:47]} d6
{[%clk 1:59:51]} 3. d4 {[%clk 1:59:40]} cxd4 {[%clk 1:59:44]} 4. Nxd4
{[%clk 1:59:37]} Nf6 {[%clk 1:59:35]} 5. Nc3 {[%clk 1:59:33]} a6 {[%clk 1:59:31]}
6. Be3 {[%clk 1:59:24]} e6 {[%clk 1:59:24]} 7. a4 {[%clk 1:58:49]} Nc6
{[%clk 1:58:09]} 8. f4 {[%clk 1:57:15]} *

