[Event "No Logo Norway Chess 2014"]
[Site "?"]
[Date "2014.06.05"]
[Round "3.1"]
[White "Karjakin, Sergey"]
[Black "Agdestein, Simen"]
[Result "*"]
[LiveChessVersion "1.4.2"]
[BlackElo "2628"]
[WhiteElo "2771"]
[ECO "C00"]

1. e4 {[%clk 1:59:56]} e6 {[%clk 1:59:54]} 2. d4 {[%clk 1:59:52]} d5 *

[Event "No Logo Norway Chess 2014"]
[Site "?"]
[Date "2014.06.05"]
[Round "3.2"]
[White "Grischuk, Alexander"]
[Black "Aronian, Levon"]
[Result "*"]
[LiveChessVersion "1.4.2"]
[BlackElo "2815"]
[WhiteElo "2792"]

*

[Event "No Logo Norway Chess 2014"]
[Site "?"]
[Date "2014.06.05"]
[Round "3.3"]
[White "Giri, Anish"]
[Black "Kramnik, Vladimir"]
[Result "*"]
[LiveChessVersion "1.4.2"]
[BlackElo "2783"]
[WhiteElo "2752"]
[ECO "A40"]

1. d4 {[%clk 1:59:57]} *

[Event "No Logo Norway Chess 2014"]
[Site "?"]
[Date "2014.06.05"]
[Round "3.4"]
[White "Carlsen, Magnus"]
[Black "Caruana, Fabiano"]
[Result "*"]
[LiveChessVersion "1.4.2"]
[BlackElo "2791"]
[WhiteElo "2881"]
[ECO "A50"]

1. d4 {[%clk 1:59:55]} Nf6 {[%clk 1:59:55]} 2. c4 *

[Event "No Logo Norway Chess 2014"]
[Site "?"]
[Date "2014.06.05"]
[Round "3.5"]
[White "Svidler, Peter"]
[Black "Topalov, Veselin"]
[Result "*"]
[LiveChessVersion "1.4.2"]
[BlackElo "2772"]
[WhiteElo "2753"]
[ECO "B27"]

1. e4 {[%clk 1:59:55]} c5 {[%clk 1:59:55]} 2. Nf3 {[%clk 1:59:47]} *

