[Event "Copenhagen Chess Challenge 2014"]
[Site "?"]
[Date "2014.05.18"]
[Round "8.1"]
[White "Ziska, Helgi Dam"]
[Black "Danielsen, Henrik"]
[Result "1/2-1/2"]
[LiveChessVersion "1.4.2"]
[BlackElo "2483"]
[WhiteElo "2491"]
[ECO "B07"]

1. e4 {[%clk 1:30:23]} d6 {[%clk 1:30:51]} 2. d4 {[%clk 1:30:29]} Nf6
{[%clk 1:31:17]} 3. Nc3 {[%clk 1:30:31]} e5 {[%clk 1:31:38]} 4. dxe5
{[%clk 1:30:15]} dxe5 {[%clk 1:31:58]} 5. Qxd8+ {[%clk 1:30:31]} Kxd8
{[%clk 1:32:22]} 6. Bg5 {[%clk 1:30:36]} Be6 1/2-1/2

[Event "Copenhagen Chess Challenge 2014"]
[Site "?"]
[Date "2014.05.18"]
[Round "8.2"]
[White "Semcesen, Daniel"]
[Black "Fries-Nielsen, Jens Ove"]
[Result "*"]
[LiveChessVersion "1.4.2"]
[BlackElo "2384"]
[WhiteElo "2513"]
[ECO "A43"]

1. d4 {[%clk 1:26:56]} c5 {[%clk 1:29:54]} 2. d5 {[%clk 1:26:46]} g6
{[%clk 1:29:46]} 3. e4 {[%clk 1:26:56]} d6 {[%clk 1:29:43]} 4. c4
{[%clk 1:26:50]} Bg7 {[%clk 1:29:46]} 5. Nc3 {[%clk 1:25:28]} e6 {[%clk 1:29:39]}
6. Bd3 {[%clk 1:15:08]} Ne7 {[%clk 1:29:40]} 7. Nge2 {[%clk 1:15:18]} Nd7
{[%clk 1:27:38]} 8. f4 {[%clk 1:11:34]} O-O {[%clk 1:24:56]} 9. O-O
{[%clk 1:11:48]} *

[Event "Copenhagen Chess Challenge 2014"]
[Site "?"]
[Date "2014.05.18"]
[Round "8.3"]
[White "Hansen, Mads"]
[Black "Haub, Thorsten Michael"]
[Result "*"]
[LiveChessVersion "1.4.2"]
[BlackElo "2441"]
[WhiteElo "2358"]
[ECO "B06"]

1. e4 {[%clk 1:30:57]} g6 {[%clk 1:30:59]} 2. d4 {[%clk 1:31:16]} Bg7
{[%clk 1:31:24]} 3. Nf3 {[%clk 1:31:34]} d6 {[%clk 1:31:43]} 4. Bc4
{[%clk 1:31:45]} a6 {[%clk 1:32:01]} 5. O-O {[%clk 1:31:57]} e6 {[%clk 1:30:43]}
6. Bb3 {[%clk 1:32:21]} Ne7 {[%clk 1:31:05]} 7. Re1 {[%clk 1:32:37]} Nd7
{[%clk 1:31:01]} 8. Nbd2 {[%clk 1:33:00]} O-O {[%clk 1:30:17]} 9. Nf1
{[%clk 1:32:44]} c5 {[%clk 1:29:58]} 10. c3 {[%clk 1:32:35]} b5 {[%clk 1:28:52]}
11. h4 {[%clk 1:32:16]} c4 {[%clk 1:23:21]} 12. Bc2 {[%clk 1:32:43]} e5
{[%clk 1:22:12]} 13. Ng3 {[%clk 1:30:31]} Qc7 {[%clk 1:20:22]} 14. Bg5
{[%clk 1:25:07]} Nf6 {[%clk 1:19:49]} *

[Event "Copenhagen Chess Challenge 2014"]
[Site "?"]
[Date "2014.05.18"]
[Round "8.4"]
[White "Ochsner, Bjorn Moller"]
[Black "Mikkelsen, Nikolaj"]
[Result "*"]
[LiveChessVersion "1.4.2"]
[BlackElo "2430"]
[WhiteElo "2307"]
[ECO "B76"]

1. e4 {[%clk 1:30:36]} c5 {[%clk 1:30:58]} 2. Nf3 {[%clk 1:31:01]} d6
{[%clk 1:31:23]} 3. d4 {[%clk 1:31:27]} cxd4 {[%clk 1:31:48]} 4. Nxd4
{[%clk 1:31:55]} Nf6 {[%clk 1:32:08]} 5. Nc3 {[%clk 1:32:20]} g6 {[%clk 1:32:16]}
6. Be3 {[%clk 1:32:22]} Bg7 {[%clk 1:30:52]} 7. f3 {[%clk 1:32:10]} O-O
{[%clk 1:31:15]} 8. Qd2 {[%clk 1:32:38]} Nc6 {[%clk 1:31:37]} 9. O-O-O
{[%clk 1:31:46]} d5 {[%clk 1:28:15]} 10. Qe1 {[%clk 1:30:41]} Re8
{[%clk 1:02:32]} *

[Event "Copenhagen Chess Challenge 2014"]
[Site "?"]
[Date "2014.05.18"]
[Round "8.5"]
[White "Pedersen, Daniel Vesterbaek"]
[Black "Christensen, Tobias"]
[Result "*"]
[LiveChessVersion "1.4.2"]
[BlackElo "2368"]
[WhiteElo "2244"]
[ECO "B22"]

1. e4 {[%clk 1:30:16]} c5 {[%clk 1:30:57]} 2. c3 {[%clk 1:30:43]} d5
{[%clk 1:31:22]} 3. exd5 {[%clk 1:30:58]} Nf6 {[%clk 1:31:48]} 4. d4
{[%clk 1:30:51]} Nxd5 {[%clk 1:32:11]} 5. dxc5 {[%clk 1:25:25]} e6
{[%clk 1:32:37]} 6. a3 {[%clk 0:57:35]} *

[Event "Copenhagen Chess Challenge 2014"]
[Site "?"]
[Date "2014.05.18"]
[Round "8.6"]
[White "Korley, Kassa"]
[Black "Stefansson, Hannes"]
[Result "*"]
[LiveChessVersion "1.4.2"]
[BlackElo "2548"]
[WhiteElo "2390"]
[ECO "A04"]

1. Nf3 {[%clk 1:30:58]} b6 {[%clk 1:29:13]} 2. g3 {[%clk 1:30:43]} Bb7
{[%clk 1:29:08]} 3. Bg2 {[%clk 1:31:12]} e5 {[%clk 1:25:57]} 4. d3
{[%clk 1:30:05]} g6 {[%clk 1:25:22]} 5. O-O {[%clk 1:27:21]} Bg7 {[%clk 1:25:42]}
6. c4 {[%clk 1:26:53]} Ne7 {[%clk 1:25:19]} 7. Nc3 {[%clk 1:24:21]} O-O
{[%clk 1:24:19]} 8. h4 {[%clk 1:18:40]} d5 {[%clk 1:19:03]} 9. Nh2
{[%clk 1:13:43]} *

[Event "Copenhagen Chess Challenge 2014"]
[Site "?"]
[Date "2014.05.18"]
[Round "8.7"]
[White "Sahl, Bjarke"]
[Black "Hector, Jonny"]
[Result "*"]
[LiveChessVersion "1.4.2"]
[BlackElo "2511"]
[WhiteElo "2368"]
[ECO "D12"]

1. d4 {[%clk 1:30:09]} d5 {[%clk 1:30:53]} 2. c4 {[%clk 1:30:29]} c6
{[%clk 1:31:16]} 3. Nf3 {[%clk 1:30:54]} Nf6 {[%clk 1:31:41]} 4. e3
{[%clk 1:31:00]} Bf5 {[%clk 1:32:02]} 5. Nc3 {[%clk 1:31:24]} e6 {[%clk 1:32:26]}
6. Qb3 {[%clk 1:26:06]} Qb6 {[%clk 1:31:35]} 7. Be2 {[%clk 1:02:05]} Qxb3
{[%clk 1:29:52]} 8. axb3 {[%clk 1:02:31]} Nbd7 {[%clk 1:29:53]} *

[Event "Copenhagen Chess Challenge 2014"]
[Site "?"]
[Date "2014.05.18"]
[Round "8.8"]
[White "Thorfinnsson, Bragi"]
[Black "Englert, Fabian"]
[Result "*"]
[LiveChessVersion "1.4.2"]
[BlackElo "2310"]
[WhiteElo "2459"]
[ECO "D21"]

1. d4 {[%clk 1:29:34]} d5 {[%clk 1:30:54]} 2. c4 {[%clk 1:28:20]} dxc4
{[%clk 1:31:01]} 3. Nf3 {[%clk 1:27:37]} c6 {[%clk 1:31:16]} 4. Qc2
{[%clk 1:21:45]} b5 {[%clk 1:30:25]} 5. e4 {[%clk 1:20:17]} e6 {[%clk 1:29:32]}
6. b3 {[%clk 1:20:05]} cxb3 {[%clk 1:29:30]} 7. axb3 {[%clk 1:20:32]} Bb7
{[%clk 1:27:58]} 8. Bd3 {[%clk 1:08:52]} *

[Event "Copenhagen Chess Challenge 2014"]
[Site "?"]
[Date "2014.05.18"]
[Round "8.9"]
[White "Westerinen, Heikki M.J."]
[Black "Hoi, Carsten"]
[Result "*"]
[LiveChessVersion "1.4.2"]
[BlackElo "2397"]
[WhiteElo "2299"]
[ECO "B08"]

1. e4 {[%clk 1:30:52]} g6 {[%clk 1:30:27]} 2. d4 {[%clk 1:30:59]} Bg7
{[%clk 1:30:48]} 3. Nf3 {[%clk 1:25:25]} d6 {[%clk 1:30:54]} 4. Be2
{[%clk 1:22:10]} Nf6 {[%clk 1:30:22]} 5. Nc3 {[%clk 1:22:17]} O-O
{[%clk 1:30:17]} 6. O-O {[%clk 1:22:30]} Bg4 {[%clk 1:28:31]} 7. h3
{[%clk 1:17:28]} Bxf3 {[%clk 1:28:37]} 8. Bxf3 {[%clk 1:17:54]} Nc6
{[%clk 1:28:21]} 9. Be3 {[%clk 1:14:56]} e5 {[%clk 1:23:37]} 10. dxe5
{[%clk 1:11:07]} *

[Event "Copenhagen Chess Challenge 2014"]
[Site "?"]
[Date "2014.05.18"]
[Round "8.10"]
[White "Thorhallsson, Throstur"]
[Black "Pedersen, Nicolai Kvist Brondt"]
[Result "*"]
[LiveChessVersion "1.4.2"]
[BlackElo "2200"]
[WhiteElo "2437"]
[ECO "B10"]

1. e4 {[%clk 1:30:30]} c6 {[%clk 1:30:27]} 2. c4 {[%clk 1:29:16]} d5
{[%clk 1:29:56]} 3. exd5 {[%clk 1:29:39]} cxd5 {[%clk 1:30:25]} 4. cxd5
{[%clk 1:29:30]} Nf6 {[%clk 1:30:42]} 5. Nc3 {[%clk 1:29:40]} Nxd5
{[%clk 1:30:57]} 6. Nf3 {[%clk 1:29:46]} e6 {[%clk 1:29:15]} 7. Bc4
{[%clk 1:27:11]} Be7 {[%clk 1:23:19]} 8. O-O {[%clk 1:27:04]} O-O
{[%clk 1:23:06]} 9. d4 {[%clk 1:27:11]} Nc6 {[%clk 1:18:14]} 10. Re1
{[%clk 1:24:29]} Nxc3 {[%clk 1:10:48]} 11. bxc3 {[%clk 1:24:25]} *

[Event "Copenhagen Chess Challenge 2014"]
[Site "?"]
[Date "2014.05.18"]
[Round "8.11"]
[White "Sylvan, Jacob"]
[Black "De Blecourt, Sandra"]
[Result "*"]
[LiveChessVersion "1.4.2"]
[BlackElo "2121"]
[WhiteElo "2348"]
[ECO "A06"]

1. Nf3 {[%clk 1:30:54]} d5 {[%clk 1:30:51]} 2. c4 {[%clk 1:31:07]} c6
{[%clk 1:31:10]} 3. g3 {[%clk 1:31:23]} Nf6 {[%clk 1:31:21]} 4. Bg2
{[%clk 1:31:48]} Bg4 {[%clk 1:31:14]} 5. cxd5 {[%clk 1:32:09]} cxd5
{[%clk 1:30:25]} 6. Ne5 {[%clk 1:31:47]} Bf5 {[%clk 1:21:37]} 7. Nc3
{[%clk 1:31:14]} Nc6 {[%clk 1:15:27]} 8. Nxc6 {[%clk 1:30:59]} bxc6
{[%clk 1:15:48]} 9. O-O {[%clk 1:30:51]} e6 {[%clk 1:13:00]} 10. d3
{[%clk 1:30:53]} Bd6 {[%clk 1:07:28]} 11. Qa4 {[%clk 1:28:54]} Qd7
{[%clk 1:07:12]} 12. e4 {[%clk 1:28:40]} *

[Event "Copenhagen Chess Challenge 2014"]
[Site "?"]
[Date "2014.05.18"]
[Round "8.12"]
[White "Jorgensen, Dennis"]
[Black "Nordenbaek, Jan"]
[Result "*"]
[LiveChessVersion "1.4.2"]
[BlackElo "2248"]
[WhiteElo "2231"]
[ECO "D12"]

1. d4 {[%clk 1:30:53]} d5 {[%clk 1:30:54]} 2. c4 {[%clk 1:31:07]} c6
{[%clk 1:31:11]} 3. Nf3 {[%clk 1:30:21]} Nf6 {[%clk 1:29:00]} 4. e3
{[%clk 1:29:44]} Bf5 {[%clk 1:27:29]} 5. Nc3 {[%clk 1:29:48]} e6 {[%clk 1:27:33]}
6. Nh4 {[%clk 1:29:44]} Bg6 {[%clk 1:27:30]} 7. Qb3 {[%clk 1:29:29]} Qb6
{[%clk 1:26:33]} 8. Nxg6 {[%clk 1:28:34]} hxg6 {[%clk 1:26:41]} 9. Be2
{[%clk 1:19:09]} Nbd7 {[%clk 1:25:53]} 10. Bd2 {[%clk 1:15:09]} *

[Event "Copenhagen Chess Challenge 2014"]
[Site "?"]
[Date "2014.05.18"]
[Round "8.13"]
[White "Jacobsen, Mikkel Manosri"]
[Black "Mueller, Reinhold"]
[Result "*"]
[LiveChessVersion "1.4.2"]
[BlackElo "2282"]
[WhiteElo "2113"]
[ECO "A48"]

1. d4 {[%clk 1:30:58]} Nf6 {[%clk 1:30:38]} 2. Nf3 {[%clk 1:31:22]} g6
{[%clk 1:30:24]} 3. Bf4 {[%clk 1:31:42]} Bg7 {[%clk 1:30:44]} 4. e3
{[%clk 1:32:03]} d6 {[%clk 1:29:31]} 5. c4 {[%clk 1:32:15]} O-O {[%clk 1:29:37]}
6. Nc3 {[%clk 1:32:39]} c5 {[%clk 1:27:09]} 7. Be2 {[%clk 1:29:44]} b6
{[%clk 1:24:30]} 8. h3 {[%clk 1:28:14]} Bb7 {[%clk 1:24:39]} 9. O-O
{[%clk 1:28:12]} cxd4 {[%clk 1:22:59]} 10. exd4 {[%clk 1:28:33]} d5
{[%clk 1:22:43]} 11. b3 {[%clk 1:21:49]} Nc6 {[%clk 1:19:36]} *

[Event "Copenhagen Chess Challenge 2014"]
[Site "?"]
[Date "2014.05.18"]
[Round "8.14"]
[White "Murtuzov, Rauf Mubariz"]
[Black "Rosenkilde, Alexander"]
[Result "*"]
[LiveChessVersion "1.4.2"]
[BlackElo "2271"]
[WhiteElo "2079"]
[ECO "B90"]

1. e4 c5 {[%clk 1:29:37]} 2. Nf3 {[%clk 1:31:26]} d6 {[%clk 1:29:52]} 3. d4
{[%clk 1:31:55]} cxd4 {[%clk 1:30:14]} 4. Nxd4 {[%clk 1:32:22]} Nf6
{[%clk 1:30:35]} 5. Nc3 {[%clk 1:32:51]} a6 {[%clk 1:30:57]} 6. Be3
{[%clk 1:33:06]} e5 {[%clk 1:31:09]} 7. Nb3 {[%clk 1:33:34]} Be6 {[%clk 1:31:14]}
8. f3 {[%clk 1:29:24]} Nbd7 {[%clk 1:27:47]} 9. Qd2 {[%clk 1:29:02]} Rc8
{[%clk 1:21:19]} 10. g4 {[%clk 1:20:14]} h6 {[%clk 1:19:19]} *

[Event "Copenhagen Chess Challenge 2014"]
[Site "?"]
[Date "2014.05.18"]
[Round "8.15"]
[White "Stojanovski, Sandi"]
[Black "Brondal, Paul"]
[Result "*"]
[LiveChessVersion "1.4.2"]
[BlackElo "2078"]
[WhiteElo "2265"]
[ECO "D52"]

1. d4 {[%clk 1:30:46]} Nf6 {[%clk 1:30:46]} 2. c4 {[%clk 1:30:36]} e6
{[%clk 1:31:11]} 3. Nc3 {[%clk 1:30:03]} d5 {[%clk 1:31:35]} 4. Bg5
{[%clk 1:29:22]} Nbd7 {[%clk 1:31:50]} 5. e3 {[%clk 1:26:32]} c6 {[%clk 1:31:58]}
6. Nf3 {[%clk 1:26:05]} Qa5 {[%clk 1:32:03]} 7. cxd5 {[%clk 1:23:41]} Nxd5
{[%clk 1:31:15]} 8. Qd2 {[%clk 1:23:24]} Bb4 {[%clk 1:31:23]} 9. Rc1
{[%clk 1:22:15]} h6 {[%clk 1:31:31]} 10. Bh4 {[%clk 1:17:47]} c5 {[%clk 1:31:23]}
11. a3 {[%clk 1:04:49]} Bxc3 {[%clk 1:30:42]} 12. bxc3 {[%clk 1:05:14]} *

[Event "Copenhagen Chess Challenge 2014"]
[Site "?"]
[Date "2014.05.18"]
[Round "8.16"]
[White "Thuesen, Mogens"]
[Black "Bjerre, Tavs"]
[Result "*"]
[LiveChessVersion "1.4.2"]
[BlackElo "2067"]
[WhiteElo "2235"]
[ECO "B24"]

1. e4 {[%clk 1:27:40]} c5 {[%clk 1:30:10]} 2. Nc3 {[%clk 1:28:01]} Nc6
{[%clk 1:30:18]} 3. Bb5 {[%clk 1:28:21]} Nd4 {[%clk 1:30:15]} 4. Bc4
{[%clk 1:28:41]} e6 {[%clk 1:29:56]} 5. Nf3 {[%clk 1:28:16]} a6 {[%clk 1:29:01]}
6. d3 {[%clk 1:25:41]} b5 {[%clk 1:28:20]} 7. Bb3 {[%clk 1:26:05]} Nxb3
{[%clk 1:28:31]} 8. axb3 {[%clk 1:26:26]} Bb7 {[%clk 1:28:34]} 9. O-O
{[%clk 1:26:31]} Nf6 {[%clk 1:26:14]} 10. Bg5 {[%clk 1:25:09]} Qc7
{[%clk 1:24:59]} 11. Re1 {[%clk 1:13:30]} *

