[Event "Copenhagen Chess Challenge 2014"]
[Site "?"]
[Date "2014.05.18"]
[Round "8.1"]
[White "Ziska, Helgi Dam"]
[Black "Danielsen, Henrik"]
[Result "1/2-1/2"]
[LiveChessVersion "1.4.2"]
[BlackElo "2483"]
[WhiteElo "2491"]
[ECO "B07"]

1. e4 {[%clk 1:30:23]} d6 {[%clk 1:30:51]} 2. d4 {[%clk 1:30:29]} Nf6
{[%clk 1:31:17]} 3. Nc3 {[%clk 1:30:31]} e5 {[%clk 1:31:38]} 4. dxe5
{[%clk 1:30:15]} dxe5 {[%clk 1:31:58]} 5. Qxd8+ {[%clk 1:30:31]} Kxd8
{[%clk 1:32:22]} 6. Bg5 {[%clk 1:30:36]} Be6 1/2-1/2

[Event "Copenhagen Chess Challenge 2014"]
[Site "?"]
[Date "2014.05.18"]
[Round "8.2"]
[White "Semcesen, Daniel"]
[Black "Fries-Nielsen, Jens Ove"]
[Result "*"]
[LiveChessVersion "1.4.2"]
[BlackElo "2384"]
[WhiteElo "2513"]
[ECO "A43"]

1. d4 {[%clk 1:26:56]} c5 {[%clk 1:29:54]} 2. d5 {[%clk 1:26:46]} g6
{[%clk 1:29:46]} 3. e4 {[%clk 1:26:56]} d6 {[%clk 1:29:43]} 4. c4
{[%clk 1:26:50]} Bg7 {[%clk 1:29:46]} 5. Nc3 {[%clk 1:25:28]} e6 {[%clk 1:29:39]}
6. Bd3 {[%clk 1:15:08]} Ne7 {[%clk 1:29:40]} 7. Nge2 {[%clk 1:15:18]} Nd7
{[%clk 1:27:38]} 8. f4 {[%clk 1:11:34]} O-O {[%clk 1:24:56]} 9. O-O
{[%clk 1:11:48]} exd5 {[%clk 1:20:41]} 10. exd5 {[%clk 1:03:32]} Nf6
{[%clk 1:15:44]} 11. h3 {[%clk 1:00:07]} h5 {[%clk 1:14:28]} 12. Be3
{[%clk 0:56:24]} Bf5 {[%clk 1:12:06]} 13. Bf2 {[%clk 0:56:31]} Qd7
{[%clk 1:11:03]} 14. Kh2 {[%clk 0:56:43]} Rfe8 {[%clk 1:08:39]} 15. Qc2
{[%clk 0:55:39]} a6 {[%clk 1:07:21]} 16. a4 {[%clk 0:55:19]} Bxd3
{[%clk 1:05:51]} 17. Qxd3 {[%clk 0:55:46]} Nf5 {[%clk 1:06:15]} 18. Ng3
{[%clk 0:37:57]} Nh6 {[%clk 1:03:18]} 19. Rfe1 {[%clk 0:31:06]} *

[Event "Copenhagen Chess Challenge 2014"]
[Site "?"]
[Date "2014.05.18"]
[Round "8.3"]
[White "Hansen, Mads"]
[Black "Haub, Thorsten Michael"]
[Result "*"]
[LiveChessVersion "1.4.2"]
[BlackElo "2441"]
[WhiteElo "2358"]
[ECO "B06"]

1. e4 {[%clk 1:30:57]} g6 {[%clk 1:30:59]} 2. d4 {[%clk 1:31:16]} Bg7
{[%clk 1:31:24]} 3. Nf3 {[%clk 1:31:34]} d6 {[%clk 1:31:43]} 4. Bc4
{[%clk 1:31:45]} a6 {[%clk 1:32:01]} 5. O-O {[%clk 1:31:57]} e6 {[%clk 1:30:43]}
6. Bb3 {[%clk 1:32:21]} Ne7 {[%clk 1:31:05]} 7. Re1 {[%clk 1:32:37]} Nd7
{[%clk 1:31:01]} 8. Nbd2 {[%clk 1:33:00]} O-O {[%clk 1:30:17]} 9. Nf1
{[%clk 1:32:44]} c5 {[%clk 1:29:58]} 10. c3 {[%clk 1:32:35]} b5 {[%clk 1:28:52]}
11. h4 {[%clk 1:32:16]} c4 {[%clk 1:23:21]} 12. Bc2 {[%clk 1:32:43]} e5
{[%clk 1:22:12]} 13. Ng3 {[%clk 1:30:31]} Qc7 {[%clk 1:20:22]} 14. Bg5
{[%clk 1:25:07]} Nf6 {[%clk 1:19:49]} 15. Nh2 {[%clk 1:16:58]} Nc6
{[%clk 1:07:09]} 16. Qd2 {[%clk 1:10:18]} Ng4 {[%clk 1:04:48]} 17. d5
{[%clk 0:57:34]} Nd8 {[%clk 1:02:47]} 18. Nxg4 {[%clk 0:55:56]} Bxg4
{[%clk 1:03:11]} 19. a4 {[%clk 0:56:14]} Nb7 {[%clk 1:00:42]} 20. Ra3
{[%clk 0:51:15]} Nc5 {[%clk 0:58:47]} 21. Rea1 {[%clk 0:51:04]} Qb7
{[%clk 0:56:27]} 22. f3 {[%clk 0:44:15]} f6 {[%clk 0:56:49]} 23. Be3
{[%clk 0:41:18]} Bd7 {[%clk 0:57:08]} *

[Event "Copenhagen Chess Challenge 2014"]
[Site "?"]
[Date "2014.05.18"]
[Round "8.4"]
[White "Ochsner, Bjorn Moller"]
[Black "Mikkelsen, Nikolaj"]
[Result "*"]
[LiveChessVersion "1.4.2"]
[BlackElo "2430"]
[WhiteElo "2307"]
[ECO "B76"]

1. e4 {[%clk 1:30:36]} c5 {[%clk 1:30:58]} 2. Nf3 {[%clk 1:31:01]} d6
{[%clk 1:31:23]} 3. d4 {[%clk 1:31:27]} cxd4 {[%clk 1:31:48]} 4. Nxd4
{[%clk 1:31:55]} Nf6 {[%clk 1:32:08]} 5. Nc3 {[%clk 1:32:20]} g6 {[%clk 1:32:16]}
6. Be3 {[%clk 1:32:22]} Bg7 {[%clk 1:30:52]} 7. f3 {[%clk 1:32:10]} O-O
{[%clk 1:31:15]} 8. Qd2 {[%clk 1:32:38]} Nc6 {[%clk 1:31:37]} 9. O-O-O
{[%clk 1:31:46]} d5 {[%clk 1:28:15]} 10. Qe1 {[%clk 1:30:41]} Re8
{[%clk 1:02:32]} 11. Bb5 {[%clk 1:14:40]} Bd7 {[%clk 0:52:03]} 12. exd5
{[%clk 1:12:17]} Nxd4 {[%clk 0:44:17]} 13. Bxd4 {[%clk 1:06:28]} Bxb5
{[%clk 0:43:33]} 14. Nxb5 {[%clk 1:06:19]} Qxd5 {[%clk 0:36:56]} 15. Nc7
{[%clk 0:53:08]} Qxa2 {[%clk 0:37:20]} *

[Event "Copenhagen Chess Challenge 2014"]
[Site "?"]
[Date "2014.05.18"]
[Round "8.5"]
[White "Pedersen, Daniel Vesterbaek"]
[Black "Christensen, Tobias"]
[Result "*"]
[LiveChessVersion "1.4.2"]
[BlackElo "2368"]
[WhiteElo "2244"]
[ECO "B22"]

1. e4 {[%clk 1:30:16]} c5 {[%clk 1:30:57]} 2. c3 {[%clk 1:30:43]} d5
{[%clk 1:31:22]} 3. exd5 {[%clk 1:30:58]} Nf6 {[%clk 1:31:48]} 4. d4
{[%clk 1:30:51]} Nxd5 {[%clk 1:32:11]} 5. dxc5 {[%clk 1:25:25]} e6
{[%clk 1:32:37]} 6. a3 {[%clk 0:57:35]} Bxc5 {[%clk 1:31:12]} 7. c4
{[%clk 0:56:34]} Qa5+ {[%clk 1:22:35]} 8. Nd2 {[%clk 0:51:52]} Nf6
{[%clk 1:22:01]} 9. Bd3 {[%clk 0:50:25]} Qb6 {[%clk 1:13:58]} 10. Qe2
{[%clk 0:49:27]} Bd7 {[%clk 0:43:39]} 11. Ngf3 {[%clk 0:49:34]} Bc6
{[%clk 0:43:30]} 12. b4 {[%clk 0:43:29]} *

[Event "Copenhagen Chess Challenge 2014"]
[Site "?"]
[Date "2014.05.18"]
[Round "8.6"]
[White "Korley, Kassa"]
[Black "Stefansson, Hannes"]
[Result "*"]
[LiveChessVersion "1.4.2"]
[BlackElo "2548"]
[WhiteElo "2390"]
[ECO "A04"]

1. Nf3 {[%clk 1:30:58]} b6 {[%clk 1:29:13]} 2. g3 {[%clk 1:30:43]} Bb7
{[%clk 1:29:08]} 3. Bg2 {[%clk 1:31:12]} e5 {[%clk 1:25:57]} 4. d3
{[%clk 1:30:05]} g6 {[%clk 1:25:22]} 5. O-O {[%clk 1:27:21]} Bg7 {[%clk 1:25:42]}
6. c4 {[%clk 1:26:53]} Ne7 {[%clk 1:25:19]} 7. Nc3 {[%clk 1:24:21]} O-O
{[%clk 1:24:19]} 8. h4 {[%clk 1:18:40]} d5 {[%clk 1:19:03]} 9. Nh2
{[%clk 1:13:43]} Qd7 {[%clk 1:12:05]} 10. cxd5 {[%clk 1:04:24]} Nxd5
{[%clk 1:11:45]} 11. Qb3 {[%clk 1:02:16]} c6 {[%clk 1:10:52]} 12. Bd2
{[%clk 0:54:34]} Na6 {[%clk 1:10:03]} 13. Rac1 {[%clk 0:53:57]} Nc5
{[%clk 1:09:40]} 14. Qc4 {[%clk 0:52:01]} Ne6 {[%clk 1:07:56]} 15. Nf3
{[%clk 0:51:08]} h6 {[%clk 1:04:41]} 16. Qg4 {[%clk 0:50:40]} Rad8
{[%clk 1:00:40]} 17. Qh3 {[%clk 0:46:42]} c5 {[%clk 0:51:11]} 18. a3
{[%clk 0:45:50]} Rfe8 {[%clk 0:50:13]} 19. Rfe1 {[%clk 0:43:34]} *

[Event "Copenhagen Chess Challenge 2014"]
[Site "?"]
[Date "2014.05.18"]
[Round "8.7"]
[White "Sahl, Bjarke"]
[Black "Hector, Jonny"]
[Result "*"]
[LiveChessVersion "1.4.2"]
[BlackElo "2511"]
[WhiteElo "2368"]
[ECO "D12"]

1. d4 {[%clk 1:30:09]} d5 {[%clk 1:30:53]} 2. c4 {[%clk 1:30:29]} c6
{[%clk 1:31:16]} 3. Nf3 {[%clk 1:30:54]} Nf6 {[%clk 1:31:41]} 4. e3
{[%clk 1:31:00]} Bf5 {[%clk 1:32:02]} 5. Nc3 {[%clk 1:31:24]} e6 {[%clk 1:32:26]}
6. Qb3 {[%clk 1:26:06]} Qb6 {[%clk 1:31:35]} 7. Be2 {[%clk 1:02:05]} Qxb3
{[%clk 1:29:52]} 8. axb3 {[%clk 1:02:31]} Nbd7 {[%clk 1:29:53]} 9. O-O
{[%clk 1:01:25]} Be7 {[%clk 1:28:15]} 10. Bd2 {[%clk 0:58:18]} O-O
{[%clk 1:28:01]} 11. Rfc1 {[%clk 0:58:27]} h6 {[%clk 1:26:27]} 12. Na2
{[%clk 0:54:40]} Rfe8 {[%clk 1:16:35]} 13. Bb4 {[%clk 0:52:45]} Bd8
{[%clk 1:15:41]} 14. Nc3 {[%clk 0:50:51]} Bc7 {[%clk 1:13:16]} 15. Ba5
{[%clk 0:38:44]} Bd6 {[%clk 1:08:30]} 16. c5 {[%clk 0:38:33]} Bb8
{[%clk 1:07:03]} 17. b4 {[%clk 0:36:50]} a6 {[%clk 1:04:47]} 18. Na4
{[%clk 0:36:48]} Ba7 {[%clk 0:59:36]} 19. Bc7 {[%clk 0:36:28]} Rac8
{[%clk 0:59:47]} 20. Be5 *

[Event "Copenhagen Chess Challenge 2014"]
[Site "?"]
[Date "2014.05.18"]
[Round "8.8"]
[White "Thorfinnsson, Bragi"]
[Black "Englert, Fabian"]
[Result "*"]
[LiveChessVersion "1.4.2"]
[BlackElo "2310"]
[WhiteElo "2459"]
[ECO "D21"]

1. d4 {[%clk 1:29:34]} d5 {[%clk 1:30:54]} 2. c4 {[%clk 1:28:20]} dxc4
{[%clk 1:31:01]} 3. Nf3 {[%clk 1:27:37]} c6 {[%clk 1:31:16]} 4. Qc2
{[%clk 1:21:45]} b5 {[%clk 1:30:25]} 5. e4 {[%clk 1:20:17]} e6 {[%clk 1:29:32]}
6. b3 {[%clk 1:20:05]} cxb3 {[%clk 1:29:30]} 7. axb3 {[%clk 1:20:32]} Bb7
{[%clk 1:27:58]} 8. Bd3 {[%clk 1:08:52]} Nf6 {[%clk 1:11:07]} 9. O-O
{[%clk 1:07:20]} Be7 {[%clk 1:11:26]} 10. Bd2 {[%clk 1:02:28]} a5 11. Rd1
{[%clk 0:54:13]} h6 {[%clk 1:09:45]} 12. Qc1 {[%clk 0:53:37]} Nbd7
{[%clk 1:06:35]} 13. Nc3 {[%clk 0:51:53]} Qb6 {[%clk 0:47:13]} 14. h3
{[%clk 0:47:46]} g5 {[%clk 0:40:32]} *

[Event "Copenhagen Chess Challenge 2014"]
[Site "?"]
[Date "2014.05.18"]
[Round "8.9"]
[White "Westerinen, Heikki M.J."]
[Black "Hoi, Carsten"]
[Result "1/2-1/2"]
[LiveChessVersion "1.4.2"]
[BlackElo "2397"]
[WhiteElo "2299"]
[ECO "B08"]

1. e4 {[%clk 1:30:52]} g6 {[%clk 1:30:27]} 2. d4 {[%clk 1:30:59]} Bg7
{[%clk 1:30:48]} 3. Nf3 {[%clk 1:25:25]} d6 {[%clk 1:30:54]} 4. Be2
{[%clk 1:22:10]} Nf6 {[%clk 1:30:22]} 5. Nc3 {[%clk 1:22:17]} O-O
{[%clk 1:30:17]} 6. O-O {[%clk 1:22:30]} Bg4 {[%clk 1:28:31]} 7. h3
{[%clk 1:17:28]} Bxf3 {[%clk 1:28:37]} 8. Bxf3 {[%clk 1:17:54]} Nc6
{[%clk 1:28:21]} 9. Be3 {[%clk 1:14:56]} e5 {[%clk 1:23:37]} 10. dxe5
{[%clk 1:11:07]} Nxe5 {[%clk 1:17:11]} 11. Be2 {[%clk 1:11:01]} Re8
{[%clk 1:11:32]} 12. Qd2 {[%clk 1:06:36]} Ned7 {[%clk 1:07:18]} 13. Bf3
{[%clk 0:57:07]} Ne5 {[%clk 0:52:22]} 14. Be2 {[%clk 0:57:19]} 1/2-1/2

[Event "Copenhagen Chess Challenge 2014"]
[Site "?"]
[Date "2014.05.18"]
[Round "8.10"]
[White "Thorhallsson, Throstur"]
[Black "Peder