[Event "Copenhagen Chess Challenge 2014"]
[Site "?"]
[Date "2014.05.18"]
[Round "8.1"]
[White "Ziska, Helgi Dam"]
[Black "Danielsen, Henrik"]
[Result "*"]
[LiveChessVersion "1.4.2"]
[BlackElo "2483"]
[WhiteElo "2491"]

*

[Event "Copenhagen Chess Challenge 2014"]
[Site "?"]
[Date "2014.05.18"]
[Round "8.2"]
[White "Semcesen, Daniel"]
[Black "Fries-Nielsen, Jens Ove"]
[Result "*"]
[LiveChessVersion "1.4.2"]
[BlackElo "2384"]
[WhiteElo "2513"]

*

[Event "Copenhagen Chess Challenge 2014"]
[Site "?"]
[Date "2014.05.18"]
[Round "8.3"]
[White "Hansen, Mads"]
[Black "Haub, Thorsten Michael"]
[Result "*"]
[LiveChessVersion "1.4.2"]
[BlackElo "2441"]
[WhiteElo "2358"]

*

[Event "Copenhagen Chess Challenge 2014"]
[Site "?"]
[Date "2014.05.18"]
[Round "8.4"]
[White "Ochsner, Bjorn Moller"]
[Black "Mikkelsen, Nikolaj"]
[Result "*"]
[LiveChessVersion "1.4.2"]
[BlackElo "2430"]
[WhiteElo "2307"]
[ECO "B00"]

1. e4 *

[Event "Copenhagen Chess Challenge 2014"]
[Site "?"]
[Date "2014.05.18"]
[Round "8.5"]
[White "Pedersen, Daniel Vesterbaek"]
[Black "Christensen, Tobias"]
[Result "*"]
[LiveChessVersion "1.4.2"]
[BlackElo "2368"]
[WhiteElo "2244"]

*

[Event "Copenhagen Chess Challenge 2014"]
[Site "?"]
[Date "2014.05.18"]
[Round "8.6"]
[White "Korley, Kassa"]
[Black "Stefansson, Hannes"]
[Result "*"]
[LiveChessVersion "1.4.2"]
[BlackElo "2548"]
[WhiteElo "2390"]

*

[Event "Copenhagen Chess Challenge 2014"]
[Site "?"]
[Date "2014.05.18"]
[Round "8.7"]
[White "Sahl, Bjarke"]
[Black "Hector, Jonny"]
[Result "*"]
[LiveChessVersion "1.4.2"]
[BlackElo "2511"]
[WhiteElo "2368"]

*

[Event "Copenhagen Chess Challenge 2014"]
[Site "?"]
[Date "2014.05.18"]
[Round "8.8"]
[White "Thorfinnsson, Bragi"]
[Black "Englert, Fabian"]
[Result "*"]
[LiveChessVersion "1.4.2"]
[BlackElo "2310"]
[WhiteElo "2459"]

*

[Event "Copenhagen Chess Challenge 2014"]
[Site "?"]
[Date "2014.05.18"]
[Round "8.9"]
[White "Westerinen, Heikki M.J."]
[Black "Hoi, Carsten"]
[Result "*"]
[LiveChessVersion "1.4.2"]
[BlackElo "2397"]
[WhiteElo "2299"]

*

[Event "Copenhagen Chess Challenge 2014"]
[Site "?"]
[Date "2014.05.18"]
[Round "8.10"]
[White "Thorhallsson, Throstur"]
[Black "Pedersen, Nicolai Kvist Brondt"]
[Result "*"]
[LiveChessVersion "1.4.2"]
[BlackElo "2200"]
[WhiteElo "2437"]
[ECO "B00"]

1. e4 {[%clk 1:30:30]} *

[Event "Copenhagen Chess Challenge 2014"]
[Site "?"]
[Date "2014.05.18"]
[Round "8.11"]
[White "Sylvan, Jacob"]
[Black "De Blecourt, Sandra"]
[Result "*"]
[LiveChessVersion "1.4.2"]
[BlackElo "2121"]
[WhiteElo "2348"]
[ECO "A06"]

1. Nf3 {[%clk 1:30:54]} d5 *

[Event "Copenhagen Chess Challenge 2014"]
[Site "?"]
[Date "2014.05.18"]
[Round "8.12"]
[White "Jorgensen, Dennis"]
[Black "Nordenbaek, Jan"]
[Result "*"]
[LiveChessVersion "1.4.2"]
[BlackElo "2248"]
[WhiteElo "2231"]
[ECO "D00"]

1. d4 {[%clk 1:30:53]} d5 {[%clk 1:30:54]} *

[Event "Copenhagen Chess Challenge 2014"]
[Site "?"]
[Date "2014.05.18"]
[Round "8.13"]
[White "Jacobsen, Mikkel Manosri"]
[Black "Mueller, Reinhold"]
[Result "*"]
[LiveChessVersion "1.4.2"]
[BlackElo "2282"]
[WhiteElo "2113"]
[ECO "A40"]

1. d4 {[%clk 1:30:58]} *

[Event "Copenhagen Chess Challenge 2014"]
[Site "?"]
[Date "2014.05.18"]
[Round "8.14"]
[White "Murtuzov, Rauf Mubariz"]
[Black "Rosenkilde, Alexander"]
[Result "*"]
[LiveChessVersion "1.4.2"]
[BlackElo "2271"]
[WhiteElo "2079"]
[ECO "B00"]

1. e4 {[%clk 1:30:58]} *

[Event "Copenhagen Chess Challenge 2014"]
[Site "?"]
[Date "2014.05.18"]
[Round "8.15"]
[White "Stojanovski, Sandi"]
[Black "Brondal, Paul"]
[Result "*"]
[LiveChessVersion "1.4.2"]
[BlackElo "2078"]
[WhiteElo "2265"]
[ECO "A40"]

1. d4 {[%clk 1:30:46]} *

[Event "Copenhagen Chess Challenge 2014"]
[Site "?"]
[Date "2014.05.18"]
[Round "8.16"]
[White "Thuesen, Mogens"]
[Black "Bjerre, Tavs"]
[Result "*"]
[LiveChessVersion "1.4.2"]
[BlackElo "2067"]
[WhiteElo "2235"]

*

