[Event "Copenhagen Chess Challenge 2014"]
[Site "?"]
[Date "2014.05.18"]
[Round "8.1"]
[White "Ziska, Helgi Dam"]
[Black "Danielsen, Henrik"]
[Result "*"]
[LiveChessVersion "1.4.2"]
[BlackElo "2483"]
[WhiteElo "2491"]
[ECO "B07"]

1. e4 {[%clk 1:30:23]} d6 {[%clk 1:30:51]} 2. d4 {[%clk 1:30:29]} Nf6
{[%clk 1:31:17]} 3. Nc3 {[%clk 1:30:31]} *

[Event "Copenhagen Chess Challenge 2014"]
[Site "?"]
[Date "2014.05.18"]
[Round "8.2"]
[White "Semcesen, Daniel"]
[Black "Fries-Nielsen, Jens Ove"]
[Result "*"]
[LiveChessVersion "1.4.2"]
[BlackElo "2384"]
[WhiteElo "2513"]

*

[Event "Copenhagen Chess Challenge 2014"]
[Site "?"]
[Date "2014.05.18"]
[Round "8.3"]
[White "Hansen, Mads"]
[Black "Haub, Thorsten Michael"]
[Result "*"]
[LiveChessVersion "1.4.2"]
[BlackElo "2441"]
[WhiteElo "2358"]
[ECO "B06"]

1. e4 {[%clk 1:30:57]} g6 {[%clk 1:30:59]} 2. d4 {[%clk 1:31:16]} Bg7
{[%clk 1:31:24]} 3. Nf3 {[%clk 1:31:34]} d6 {[%clk 1:31:43]} 4. Bc4
{[%clk 1:31:45]} a6 {[%clk 1:32:01]} 5. O-O {[%clk 1:31:57]} *

[Event "Copenhagen Chess Challenge 2014"]
[Site "?"]
[Date "2014.05.18"]
[Round "8.4"]
[White "Ochsner, Bjorn Moller"]
[Black "Mikkelsen, Nikolaj"]
[Result "*"]
[LiveChessVersion "1.4.2"]
[BlackElo "2430"]
[WhiteElo "2307"]
[ECO "B72"]

1. e4 {[%clk 1:30:36]} c5 {[%clk 1:30:58]} 2. Nf3 {[%clk 1:31:01]} d6
{[%clk 1:31:23]} 3. d4 {[%clk 1:31:27]} cxd4 {[%clk 1:31:48]} 4. Nxd4
{[%clk 1:31:55]} Nf6 {[%clk 1:32:08]} 5. Nc3 {[%clk 1:32:20]} g6 {[%clk 1:32:16]}
6. Be3 {[%clk 1:32:22]} *

[Event "Copenhagen Chess Challenge 2014"]
[Site "?"]
[Date "2014.05.18"]
[Round "8.5"]
[White "Pedersen, Daniel Vesterbaek"]
[Black "Christensen, Tobias"]
[Result "*"]
[LiveChessVersion "1.4.2"]
[BlackElo "2368"]
[WhiteElo "2244"]
[ECO "B22"]

1. e4 {[%clk 1:30:16]} c5 {[%clk 1:30:57]} 2. c3 {[%clk 1:30:43]} d5
{[%clk 1:31:22]} 3. exd5 {[%clk 1:30:58]} Nf6 {[%clk 1:31:48]} *

[Event "Copenhagen Chess Challenge 2014"]
[Site "?"]
[Date "2014.05.18"]
[Round "8.6"]
[White "Korley, Kassa"]
[Black "Stefansson, Hannes"]
[Result "*"]
[LiveChessVersion "1.4.2"]
[BlackElo "2548"]
[WhiteElo "2390"]
[ECO "A04"]

1. Nf3 {[%clk 1:30:58]} *

[Event "Copenhagen Chess Challenge 2014"]
[Site "?"]
[Date "2014.05.18"]
[Round "8.7"]
[White "Sahl, Bjarke"]
[Black "Hector, Jonny"]
[Result "*"]
[LiveChessVersion "1.4.2"]
[BlackElo "2511"]
[WhiteElo "2368"]
[ECO "D11"]

1. d4 {[%clk 1:30:09]} d5 {[%clk 1:30:53]} 2. c4 {[%clk 1:30:29]} c6
{[%clk 1:31:16]} 3. Nf3 {[%clk 1:30:54]} Nf6 {[%clk 1:31:41]} *

[Event "Copenhagen Chess Challenge 2014"]
[Site "?"]
[Date "2014.05.18"]
[Round "8.8"]
[White "Thorfinnsson, Bragi"]
[Black "Englert, Fabian"]
[Result "*"]
[LiveChessVersion "1.4.2"]
[BlackElo "2310"]
[WhiteElo "2459"]
[ECO "D00"]

1. d4 {[%clk 1:29:34]} d5 {[%clk 1:30:54]} *

[Event "Copenhagen Chess Challenge 2014"]
[Site "?"]
[Date "2014.05.18"]
[Round "8.9"]
[White "Westerinen, Heikki M.J."]
[Black "Hoi, Carsten"]
[Result "*"]
[LiveChessVersion "1.4.2"]
[BlackElo "2397"]
[WhiteElo "2299"]
[ECO "B06"]

1. e4 {[%clk 1:30:52]} g6 {[%clk 1:30:27]} 2. d4 {[%clk 1:30:59]} Bg7
{[%clk 1:30:48]} *

[Event "Copenhagen Chess Challenge 2014"]
[Site "?"]
[Date "2014.05.18"]
[Round "8.10"]
[White "Thorhallsson, Throstur"]
[Black "Pedersen, Nicolai Kvist Brondt"]
[Result "*"]
[LiveChessVersion "1.4.2"]
[BlackElo "2200"]
[WhiteElo "2437"]
[ECO "B10"]

1. e4 {[%clk 1:30:30]} c6 {[%clk 1:30:27]} *

[Event "Copenhagen Chess Challenge 2014"]
[Site "?"]
[Date "2014.05.18"]
[Round "8.11"]
[White "Sylvan, Jacob"]
[Black "De Blecourt, Sandra"]
[Result "*"]
[LiveChessVersion "1.4.2"]
[BlackElo "2121"]
[WhiteElo "2348"]
[ECO "A06"]

1. Nf3 {[%clk 1:30:54]} d5 {[%clk 1:30:51]} 2. c4 {[%clk 1:31:07]} c6
{[%clk 1:31:10]} 3. g3 {[%clk 1:31:23]} Nf6 {[%clk 1:31:21]} 4. Bg2
{[%clk 1:31:48]} Bg4 {[%clk 1:31:14]} *

[Event "Copenhagen Chess Challenge 2014"]
[Site "?"]
[Date "2014.05.18"]
[Round "8.12"]
[White "Jorgensen, Dennis"]
[Black "Nordenbaek, Jan"]
[Result "*"]
[LiveChessVersion "1.4.2"]
[BlackElo "2248"]
[WhiteElo "2231"]
[ECO "D11"]

1. d4 {[%clk 1:30:53]} d5 {[%clk 1:30:54]} 2. c4 {[%clk 1:31:07]} c6
{[%clk 1:31:11]} 3. Nf3 {[%clk 1:30:21]} *

[Event "Copenhagen Chess Challenge 2014"]
[Site "?"]
[Date "2014.05.18"]
[Round "8.13"]
[White "Jacobsen, Mikkel Manosri"]
[Black "Mueller, Reinhold"]
[Result "*"]
[LiveChessVersion "1.4.2"]
[BlackElo "2282"]
[WhiteElo "2113"]
[ECO "A48"]

1. d4 {[%clk 1:30:58]} Nf6 {[%clk 1:30:38]} 2. Nf3 {[%clk 1:31:22]} g6
{[%clk 1:30:24]} 3. Bf4 {[%clk 1:31:42]} Bg7 {[%clk 1:30:44]} 4. e3
{[%clk 1:32:03]} *

[Event "Copenhagen Chess Challenge 2014"]
[Site "?"]
[Date "2014.05.18"]
[Round "8.14"]
[White "Murtuzov, Rauf Mubariz"]
[Black "Rosenkilde, Alexander"]
[Result "*"]
[LiveChessVersion "1.4.2"]
[BlackElo "2271"]
[WhiteElo "2079"]
[ECO "B54"]

1. e4 c5 {[%clk 1:29:37]} 2. Nf3 {[%clk 1:31:26]} d6 {[%clk 1:29:52]} 3. d4
{[%clk 1:31:55]} cxd4 {[%clk 1:30:14]} 4. Nxd4 {[%clk 1:32:22]} *

[Event "Copenhagen Chess Challenge 2014"]
[Site "?"]
[Date "2014.05.18"]
[Round "8.15"]
[White "Stojanovski, Sandi"]
[Black "Brondal, Paul"]
[Result "*"]
[LiveChessVersion "1.4.2"]
[BlackElo "2078"]
[WhiteElo "2265"]
[ECO "E00"]

1. d4 {[%clk 1:30:46]} Nf6 {[%clk 1:30:46]} 2. c4 {[%clk 1:30:36]} e6
{[%clk 1:31:11]} *

[Event "Copenhagen Chess Challenge 2014"]
[Site "?"]
[Date "2014.05.18"]
[Round "8.16"]
[White "Thuesen, Mogens"]
[Black "Bjerre, Tavs"]
[Result "*"]
[LiveChessVersion "1.4.2"]
[BlackElo "2067"]
[WhiteElo "2235"]

*

