[Event "Copenhagen Chess Challenge 2014"]
[Site "?"]
[Date "2014.05.18"]
[Round "8.1"]
[White "Ziska, Helgi Dam"]
[Black "Danielsen, Henrik"]
[Result "1/2-1/2"]
[LiveChessVersion "1.4.2"]
[BlackElo "2483"]
[WhiteElo "2491"]
[ECO "B07"]

1. e4 {[%clk 1:30:23]} d6 {[%clk 1:30:51]} 2. d4 {[%clk 1:30:29]} Nf6
{[%clk 1:31:17]} 3. Nc3 {[%clk 1:30:31]} e5 {[%clk 1:31:38]} 4. dxe5
{[%clk 1:30:15]} dxe5 {[%clk 1:31:58]} 5. Qxd8+ {[%clk 1:30:31]} Kxd8
{[%clk 1:32:22]} 6. Bg5 {[%clk 1:30:36]} Be6 1/2-1/2

[Event "Copenhagen Chess Challenge 2014"]
[Site "?"]
[Date "2014.05.18"]
[Round "8.2"]
[White "Semcesen, Daniel"]
[Black "Fries-Nielsen, Jens Ove"]
[Result "0-1"]
[LiveChessVersion "1.4.2"]
[BlackElo "2384"]
[WhiteElo "2513"]
[ECO "A43"]

1. d4 {[%clk 1:26:56]} c5 {[%clk 1:29:54]} 2. d5 {[%clk 1:26:46]} g6
{[%clk 1:29:46]} 3. e4 {[%clk 1:26:56]} d6 {[%clk 1:29:43]} 4. c4
{[%clk 1:26:50]} Bg7 {[%clk 1:29:46]} 5. Nc3 {[%clk 1:25:28]} e6 {[%clk 1:29:39]}
6. Bd3 {[%clk 1:15:08]} Ne7 {[%clk 1:29:40]} 7. Nge2 {[%clk 1:15:18]} Nd7
{[%clk 1:27:38]} 8. f4 {[%clk 1:11:34]} O-O {[%clk 1:24:56]} 9. O-O
{[%clk 1:11:48]} exd5 {[%clk 1:20:41]} 10. exd5 {[%clk 1:03:32]} Nf6
{[%clk 1:15:44]} 11. h3 {[%clk 1:00:07]} h5 {[%clk 1:14:28]} 12. Be3
{[%clk 0:56:24]} Bf5 {[%clk 1:12:06]} 13. Bf2 {[%clk 0:56:31]} Qd7
{[%clk 1:11:03]} 14. Kh2 {[%clk 0:56:43]} Rfe8 {[%clk 1:08:39]} 15. Qc2
{[%clk 0:55:39]} a6 {[%clk 1:07:21]} 16. a4 {[%clk 0:55:19]} Bxd3
{[%clk 1:05:51]} 17. Qxd3 {[%clk 0:55:46]} Nf5 {[%clk 1:06:15]} 18. Ng3
{[%clk 0:37:57]} Nh6 {[%clk 1:03:18]} 19. Rfe1 {[%clk 0:31:06]} h4
{[%clk 1:00:55]} 20. Nf1 {[%clk 0:30:49]} Nf5 {[%clk 0:57:17]} 21. Ne3
{[%clk 0:29:26]} Nxe3 {[%clk 0:45:04]} 22. Rxe3 {[%clk 0:27:15]} Nh5
{[%clk 0:43:31]} 23. Bxh4 {[%clk 0:25:37]} Nxf4 {[%clk 0:42:27]} 24. Rxe8+
{[%clk 0:23:27]} Rxe8 {[%clk 0:42:47]} 25. Qf3 {[%clk 0:23:51]} Be5
{[%clk 0:31:13]} 26. Bg3 {[%clk 0:20:05]} Qf5 {[%clk 0:30:12]} 27. Rf1
{[%clk 0:19:42]} Nh5 {[%clk 0:30:01]} 28. Bxe5 {[%clk 0:20:00]} Qxe5+
{[%clk 0:30:27]} 29. Kg1 {[%clk 0:20:05]} f5 {[%clk 0:30:10]} 30. Rd1
{[%clk 0:11:28]} Ng3 {[%clk 0:29:39]} 31. Qd3 {[%clk 0:09:43]} Kg7
{[%clk 0:29:04]} 32. a5 {[%clk 0:09:21]} f4 {[%clk 0:25:06]} 33. Qf3
{[%clk 0:08:07]} Re7 {[%clk 0:23:03]} 34. Kh2 {[%clk 0:08:02]} g5
{[%clk 0:22:56]} 35. Qg4 {[%clk 0:07:04]} Kf8 {[%clk 0:21:37]} 36. Nb1
{[%clk 0:05:27]} Nf5 {[%clk 0:18:55]} 37. Kg1 {[%clk 0:04:47]} Ne3
{[%clk 0:19:15]} 0-1

[Event "Copenhagen Chess Challenge 2014"]
[Site "?"]
[Date "2014.05.18"]
[Round "8.3"]
[White "Hansen, Mads"]
[Black "Haub, Thorsten Michael"]
[Result "1/2-1/2"]
[LiveChessVersion "1.4.2"]
[BlackElo "2441"]
[WhiteElo "2358"]
[ECO "B06"]

1. e4 {[%clk 1:30:57]} g6 {[%clk 1:30:59]} 2. d4 {[%clk 1:31:16]} Bg7
{[%clk 1:31:24]} 3. Nf3 {[%clk 1:31:34]} d6 {[%clk 1:31:43]} 4. Bc4
{[%clk 1:31:45]} a6 {[%clk 1:32:01]} 5. O-O {[%clk 1:31:57]} e6 {[%clk 1:30:43]}
6. Bb3 {[%clk 1:32:21]} Ne7 {[%clk 1:31:05]} 7. Re1 {[%clk 1:32:37]} Nd7
{[%clk 1:31:01]} 8. Nbd2 {[%clk 1:33:00]} O-O {[%clk 1:30:17]} 9. Nf1
{[%clk 1:32:44]} c5 {[%clk 1:29:58]} 10. c3 {[%clk 1:32:35]} b5 {[%clk 1:28:52]}
11. h4 {[%clk 1:32:16]} c4 {[%clk 1:23:21]} 12. Bc2 {[%clk 1:32:43]} e5
{[%clk 1:22:12]} 13. Ng3 {[%clk 1:30:31]} Qc7 {[%clk 1:20:22]} 14. Bg5
{[%clk 1:25:07]} Nf6 {[%clk 1:19:49]} 15. Nh2 {[%clk 1:16:58]} Nc6
{[%clk 1:07:09]} 16. Qd2 {[%clk 1:10:18]} Ng4 {[%clk 1:04:48]} 17. d5
{[%clk 0:57:34]} Nd8 {[%clk 1:02:47]} 18. Nxg4 {[%clk 0:55:56]} Bxg4
{[%clk 1:03:11]} 19. a4 {[%clk 0:56:14]} Nb7 {[%clk 1:00:42]} 20. Ra3
{[%clk 0:51:15]} Nc5 {[%clk 0:58:47]} 21. Rea1 {[%clk 0:51:04]} Qb7
{[%clk 0:56:27]} 22. f3 {[%clk 0:44:15]} f6 {[%clk 0:56:49]} 23. Be3
{[%clk 0:41:18]} Bd7 {[%clk 0:57:08]} 24. h5 {[%clk 0:36:21]} Rfb8
{[%clk 0:52:27]} 25. axb5 {[%clk 0:24:26]} axb5 {[%clk 0:52:02]} 26. Qf2
{[%clk 0:22:31]} Rxa3 {[%clk 0:49:38]} 27. Rxa3 {[%clk 0:22:55]} Na4
{[%clk 0:44:09]} 28. Ra2 {[%clk 0:20:24]} Qc8 {[%clk 0:36:06]} 29. f4
{[%clk 0:19:22]} Bh6 {[%clk 0:32:56]} 30. hxg6 {[%clk 0:18:54]} hxg6
{[%clk 0:33:13]} 31. Nf1 {[%clk 0:19:19]} Bxf4 {[%clk 0:29:25]} 32. Bxf4
{[%clk 0:19:34]} exf4 {[%clk 0:29:50]} 33. Qxf4 {[%clk 0:19:31]} Qc5+
{[%clk 0:30:13]} 34. Ne3 {[%clk 0:12:29]} g5 {[%clk 0:27:01]} 35. Qf2
{[%clk 0:12:31]} Nb6 {[%clk 0:23:43]} 36. Ra1 {[%clk 0:11:36]} Ra8
{[%clk 0:22:53]} 37. Rf1 {[%clk 0:11:06]} Rf8 {[%clk 0:22:17]} 38. g3
{[%clk 0:11:30]} b4 {[%clk 0:18:57]} 39. cxb4 {[%clk 0:11:31]} Qxb4
{[%clk 0:18:51]} 40. e5 {[%clk 0:08:36]} dxe5 {[%clk 0:18:39]} 41. Qh2
{[%clk 0:07:55]} e4 {[%clk 0:17:19]} 42. Qh6 {[%clk 0:07:04]} Qe7
{[%clk 0:16:54]} 43. Qg6+ {[%clk 0:07:17]} Qg7 {[%clk 0:16:32]} 44. Qxe4
{[%clk 0:07:36]} f5 {[%clk 0:14:38]} 45. Nxf5 {[%clk 0:07:27]} Bxf5
{[%clk 0:14:52]} 46. Rxf5 {[%clk 0:07:56]} Rxf5 {[%clk 0:15:12]} 47. Qxf5
{[%clk 0:08:24]} Qd4+ {[%clk 0:15:24]} 48. Kh2 {[%clk 0:07:16]} Nxd5
{[%clk 0:15:20]} 49. Qxg5+ {[%clk 0:07:10]} Kf8 {[%clk 0:15:23]} 50. Qf5+
{[%clk 0:06:36]} Ke7 {[%clk 0:11:56]} 51. Qe4+ {[%clk 0:04:58]} 1/2-1/2

[Event "Copenhagen Chess Challenge 2014"]
[Site "?"]
[Date "2014.05.18"]
[Round "8.4"]
[White "Ochsner, Bjorn Moller"]
[Black "Mikkelsen, Nikolaj"]
[Result "*"]
[LiveChessVersion "1.4.2"]
[BlackElo "2430"]
[WhiteElo "2307"]
[ECO "B76"]

1. e4 {[%clk 1:30:36]} c5 {[%clk 1:30:58]} 2. Nf3 {[%clk 1:31:01]} d6
{[%clk 1:31:23]} 3. d4 {[%clk 1:31:27]} cxd4 {[%clk 1:31:48]} 4. Nxd4
{[%clk 1:31:55]} Nf6 {[%clk 1:32:08]} 5. Nc3 {[%clk 1:32:20]} g6 {[%clk 1:32:16]}
6. Be3 {[%clk 1:32:22]} Bg7 {[%clk 1:30:52]} 7. f3 {[%clk 1:32:10]} O-O
{[%clk 1:31:15]} 8. Qd2 {[%clk 1:32:38]} Nc6 {[%clk 1:31:37]} 9. O-O-O
{[%clk 1:31:46]} d5 {[%clk 1:28:15]} 10. Qe1 {[%clk 1:30:41]} Re8
{[%clk 1:02:32]} 11. Bb5 {[%clk 1:14:40]} Bd7 {[%clk 0:52:03]} 12. exd5
{[%clk 1:12:17]} Nxd4 {[%clk 0:44:17]} 13. Bxd4 {[%clk 1:06:28]} Bxb5
{[%clk 0:43:33]} 14. Nxb5 {[%clk 1:06:19]} Qxd5 {[%clk 0:36:56]} 15. Nc7
{[%clk 0:53:08]} Qxa2 {[%clk 0:37:20]} 16. Nxe8 {[%clk 0:46:31]} Rxe8
{[%clk 0:29:04]} 17. Rd3 {[%clk 0:29:22]} Bh6+ {[%clk 0:28:47]} 18. Be3
{[%clk 0:29:20]} Bxe3+ {[%clk 0:29:03]} 19. Rxe3 {[%clk 0:29:44]} Qa1+
{[%clk 0:29:22]} 20. Kd2 {[%clk 0:30:13]} Qxb2 {[%clk 0:29:43]} 21. Rd3
{[%clk 0:29:45]} Qb5 {[%clk 0:27:49]} 22. Kc1 {[%clk 0:18:03]} Kg7
{[%clk 0:15:49]} 23. Rb3 {[%clk 0:17:31]} Qg5+ {[%clk 0:14:23]} 24. Qd2
{[%clk 0:17:41]} Qe5 {[%clk 0:14:20]} 25. Qc3 {[%clk 0:17:28]} Qg5+
{[%clk 0:14:37]} 26. Qd2 {[%clk 0:17:51]} Qe5 {[%clk 0:14:53]} 27. Kb1
{[%clk 0:15:41]} Rc8 {[%clk 0:14:55]} 28. Re1 {[%clk 0:12:55]} Qc5
{[%clk 0:15:10]} 29. Rd1 {[%clk 0:12:15]} b6 {[%clk 0:13:28]} 30. Rb2
{[%clk 0:11:11]} Rc7 {[%clk 0:12:07]} 31. Qb4 {[%clk 0:10:59]} Nd5
{[%clk 0:11:09]} 32. Qd4+ {[%clk 0:08:55]} Qxd4 {[%clk 0:11:33]} 33. Rxd4
{[%clk 0:09:24]} Ne3 {[%clk 0:10:13]} 34. g3 {[%clk 0:08:12]} Nf5
{[%clk 0:10:16]} 35. Rd3 {[%clk 0:07:47]} Nd6 {[%clk 0:10:26]} 36. Kc1
{[%clk 0:07:37]} Kf6 {[%clk 0:09:02]} 37. Rbb3 {[%clk 0:07:24]} Nb7
{[%clk 0:09:11]} 38. Rbc3 {[%clk 0:07:25]} Nc5 {[%clk 0:09:34]} 39. Rd8
{[%clk 0:07:30]} e6 {[%clk 0:08:17]} 40. Ra8 {[%clk 0:07:29]} h5 {[%clk 0:05:07]}
41. Ra3 {[%clk 0:07:16]} a6 {[%clk 0:05:35]} 42. Rb8 {[%clk 0:05:26]} Nd7
{[%clk 0:05:53]} 43. Rd8 {[%clk 0:04:46]} Ke7 {[%clk 0:06:21]} 44. Rh8
{[%clk 0:04:34]} Nc5 {[%clk 0:06:42]} 45. Rb8 {[%clk 0:04:17]} Nd7
{[%clk 0:07:10]} 46. Rh8 {[%clk 0:04:41]} Nc5 {[%clk 0:07:38]} 47. Rb8
{[%clk 0:03:18]} *

[Event "Copenhagen Chess Challenge 2014"]
[Site "?"]
[Date "2014.05.18"]
[Round "8.5"]
[White "Pedersen, Daniel Vesterbaek"]
[Black "Christensen, Tobias"]
[Result "1/2-1/2"]
[LiveChessVersion "1.4.2"]
[BlackElo "2368"]
[WhiteElo "2244"]
[ECO "B22"]

1. e4 {[%clk 1:30:16]} c5 {[%clk 1:30:57]} 2. c3 {[%clk 1:30:43]} d5
{[%clk 1:31:22]} 3. exd5 {[%clk 1:30:58]} Nf6 {[%clk 1:31:48]} 4. d4
{[%clk 1:30:51]} Nxd5 {[%clk 1:32:11]} 5. dxc5 {[%clk 1:25:25]} e6
{[%clk 1:32:37]} 6. a3 {[%clk 0:57:35]} Bxc5 {[%clk 1:31:12]} 7. c4
{[%clk 0:56:34]} Qa5+ {[%clk 1:22:35]} 8. Nd2 {[%clk 0:51:52]} Nf6
{[%clk 1:22:01]} 9. Bd3 {[%clk 0:50:25]} Qb6 {[%clk 1:13:58]} 10. Qe2
{[%clk 0:49:27]} Bd7 {[%clk 0:43:39]} 11. Ngf3 {[%clk 0:49:34]} Bc6
{[%clk 0:43:30]} 12. b4 {[%clk 0:43:29]} Bd4 {[%clk 0:41:10]} 13. Rb1
{[%clk 0:43:14]} Bxf3 {[%clk 0:40:07]} 14. Nxf3 {[%clk 0:36:32]} Bc3+
{[%clk 0:40:32]} 15. Bd2 {[%clk 0:36:24]} Bxd2+ {[%clk 0:40:58]} 16. Nxd2
{[%clk 0:33:43]} O-O {[%clk 0:39:51]} 17. O-O {[%clk 0:33:44]} Nc6
{[%clk 0:36:52]} 18. Ne4 {[%clk 0:32:25]} Nxe4 {[%clk 0:35:30]} 1/2-1/2

[Event "Copenhagen Chess Challenge 2014"]
[Site "?"]
[Date "2014.05.18"]
[Round "8.6"]
[White "Korley, Kassa"]
[Black "Stefansson, Hannes"]
[Result "0-1"]
[LiveChessVersion "1.4.2"]
[BlackElo "2548"]
[WhiteElo "2390"]
[ECO "A04"]

1. Nf3 {[%clk 1:30:58]} b6 {[%clk 1:29:13]} 2. g3 {[%clk 1:30:43]} Bb7
{[%clk 1:29:08]} 3. Bg2 {[%clk 1:31:12]} e5 {[%clk 1:25:57]} 4. d3
{[%clk 1:30:05]} g6 {[%clk 1:25:22]} 5. O-O {[%clk 1:27:21]} Bg7 {[%clk 1:25:42]}
6. c4 {[%clk 1:26:53]} Ne7 {[%clk 1:25:19]} 7. Nc3 {[%clk 1:24:21]} O-O
{[%clk 1:24:19]} 8. h4 {[%clk 1:18:40]} d5 {[%clk 1:19:03]} 9. Nh2
{[%clk 1:13:43]} Qd7 {[%clk 1:12:05]} 10. cxd5 {[%clk 1:04:24]} Nxd5
{[%clk 1:11:45]} 11. Qb3 {[%clk 1:02:16]} c6 {[%clk 1:10:52]} 12. Bd2
{[%clk 0:54:34]} Na6 {[%clk 1:10:03]} 13. Rac1 {[%clk 0:53:57]} Nc5
{[%clk 1:09:40]} 14. Qc4 {[%clk 0:52:01]} Ne6 {[%clk 1:07:56]} 15. Nf3
{[%clk 0:51:08]} h6 {[%clk 1:04:41]} 16. Qg4 {[%clk 0:50:40]} Rad8
{[%clk 1:00:40]} 17. Qh3 {[%clk 0:46:42]} c5 {[%clk 0:51:11]} 18. a3
{[%clk 0:45:50]} Rfe8 {[%clk 0:50:13]} 19. Rfe1 {[%clk 0:43:34]} Re7
{[%clk 0:47:08]} 20. Qh1 {[%clk 0:42:35]} Nxc3 {[%clk 0:42:52]} 21. Bxc3
{[%clk 0:42:49]} Nc7 {[%clk 0:42:27]} 22. Nd2 {[%clk 0:42:08]} Bxg2
{[%clk 0:42:18]} 23. Qxg2 {[%clk 0:42:34]} Nb5 {[%clk 0:39:28]} 24. Nc4
{[%clk 0:41:36]} Nxc3 {[%clk 0:38:16]} 25. bxc3 {[%clk 0:42:01]} e4
{[%clk 0:37:38]} 26. dxe4 {[%clk 0:35:17]} Qe6 {[%clk 0:37:51]} 27. Ne3
{[%clk 0:35:28]} Qxe4 {[%clk 0:38:05]} 28. c4 {[%clk 0:34:44]} Rd2
{[%clk 0:35:10]} 29. Rcd1 {[%clk 0:33:03]} Rxd1 {[%clk 0:34:26]} 30. Rxd1
{[%clk 0:33:27]} Bd4 {[%clk 0:34:24]} 31. Rd3 {[%clk 0:32:45]} Bxe3
{[%clk 0:34:02]} 32. Rxe3 {[%clk 0:32:08]} Qxg2+ {[%clk 0:31:14]} 33. Kxg2
{[%clk 0:32:36]} Rxe3 {[%clk 0:31:36]} 34. fxe3 {[%clk 0:33:04]} Kf8
{[%clk 0:31:43]} 35. Kf3 {[%clk 0:31:49]} Ke7 {[%clk 0:31:45]} 36. Kf4
{[%clk 0:22:53]} Kd6 {[%clk 0:30:18]} 37. h5 {[%clk 0:21:54]} a6 {[%clk 0:29:46]}
38. hxg6 {[%clk 0:16:28]} fxg6 {[%clk 0:30:10]} 39. a4 {[%clk 0:16:56]} Ke6
{[%clk 0:25:58]} 40. g4 {[%clk 0:16:40]} Kf6 {[%clk 0:25:49]} 41. g5+
{[%clk 0:16:30]} hxg5+ {[%clk 0:26:11]} 42. Kg4 {[%clk 0:16:58]} Ke5
{[%clk 0:25:57]} 43. Kxg5 {[%clk 0:17:25]} Ke4 {[%clk 0:26:06]} 44. Kxg6
{[%clk 0:17:51]} Kxe3 {[%clk 0:26:30]} 45. Kf5 {[%clk 0:18:11]} Kxe2
{[%clk 0:26:52]} 46. Ke4 {[%clk 0:13:25]} a5 {[%clk 0:26:32]} 0-1

[Event "Copenhagen Chess Challenge 2014"]
[Site "?"]
[Date "2014.05.18"]
[Round "8.7"]
[White "Sahl, Bjarke"]
[Black "Hector, Jonny"]
[Result "*"]
[LiveChessVersion "1.4.2"]
[BlackElo "2511"]
[WhiteElo "2368"]
[ECO "D12"]

1. d4 {[%clk 1:30:09]} d5 {[%clk 1:30:53]} 2. c4 {[%clk 1:30:29]} c6
{[%clk 1:31:16]} 3. Nf3 {[%clk 1:30:54]} Nf6 {[%clk 1:31:41]} 4. e3
{[%clk 1:31:00]} Bf5 {[%clk 1:32:02]} 5. Nc3 {[%clk 1:31:24]} e6 {[%clk 1:32:26]}
6. Qb3 {[%clk 1:26:06]} Qb6 {[%clk 1:31:35]} 7. Be2 {[%clk 1:02:05]} Qxb3
{[%clk 1:29:52]} 8. axb3 {[%clk 1:02:31]} Nbd7 {[%clk 1:29:53]} 9. O-O
{[%clk 1:01:25]} Be7 {[%clk 1:28:15]} 10. Bd2 {[%clk 0:58:18]} O-O
{[%clk 1:28:01]} 11. Rfc1 {[%clk 0:58:27]} h6 {[%clk 1:26:27]} 12. Na2
{[%clk 0:54:40]} Rfe8 {[%clk 1:16:35]} 13. Bb4 {[%clk 0:52:45]} Bd8
{[%clk 1:15:41]} 14. Nc3 {[%clk 0:50:51]} Bc7 {[%clk 1:13:16]} 15. Ba5
{[%clk 0:38:44]} Bd6 {[%clk 1:08:30]} 16. c5 {[%clk 0:38:33]} Bb8
{[%clk 1:07:03]} 17. b4 {[%clk 0:36:50]} a6 {[%clk 1:04:47]} 18. Na4
{[%clk 0:36:48]} Ba7 {[%clk 0:59:36]} 19. Bc7 {[%clk 0:36:28]} Rac8
{[%clk 0:59:47]} 20. Bg3 {[%clk 0:33:07]} Ne4 {[%clk 0:59:18]} 21. Nc3
{[%clk 0:33:31]} Nxg3 {[%clk 0:59:09]} 22. hxg3 {[%clk 0:33:57]} Bb8
{[%clk 0:59:17]} 23. Nd2 {[%clk 0:34:10]} e5 {[%clk 0:58:12]} 24. Nb3
{[%clk 0:33:31]} Nf8 {[%clk 0:53:49]} 25. dxe5 {[%clk 0:27:14]} Bxe5
{[%clk 0:53:38]} 26. Nd4 {[%clk 0:27:40]} Bd7 {[%clk 0:50:35]} 27. Rd1
{[%clk 0:22:11]} Re7 {[%clk 0:45:22]} 28. Na4 {[%clk 0:20:42]} Bc7
{[%clk 0:45:25]} 29. Bd3 {[%clk 0:19:44]} g6 {[%clk 0:45:30]} 30. Nb3
{[%clk 0:19:29]} Rce8 {[%clk 0:40:03]} 31. Na5 {[%clk 0:19:22]} Bc8
{[%clk 0:39:50]} 32. Nb6 {[%clk 0:19:44]} Bxb6 {[%clk 0:38:59]} 33. cxb6
{[%clk 0:20:09]} Nd7 {[%clk 0:35:10]} 34. Bxa6 {[%clk 0:20:13]} Nxb6
{[%clk 0:35:25]} 35. Bd3 {[%clk 0:19:29]} Nd7 {[%clk 0:35:16]} 36. Nb3
{[%clk 0:18:39]} Ne5 {[%clk 0:35:31]} 37. Nd4 {[%clk 0:17:05]} Bd7
{[%clk 0:33:39]} 38. Be2 {[%clk 0:16:42]} Rb8 {[%clk 0:31:19]} 39. Rdc1
{[%clk 0:12:20]} Kf8 {[%clk 0:27:24]} 40. Ra7 {[%clk 0:11:08]} h5
{[%clk 0:24:34]} 41. f4 {[%clk 0:08:58]} Ng4 {[%clk 0:23:38]} 42. Bxg4
{[%clk 0:09:22]} Bxg4 {[%clk 0:23:27]} 43. Kf2 {[%clk 0:09:49]} Re4
{[%clk 0:20:55]} 44. Rc3 {[%clk 0:09:38]} Bd7 {[%clk 0:20:16]} 45. Rca3
{[%clk 0:09:45]} Ke7 {[%clk 0:20:07]} 46. Ra8 {[%clk 0:06:53]} Rxa8
{[%clk 0:19:55]} 47. Rxa8 {[%clk 0:07:19]} Kd6 {[%clk 0:19:44]} 48. Ke2
{[%clk 0:06:53]} Re8 {[%clk 0:17:45]} 49. Ra7 {[%clk 0:04:42]} Rb8
{[%clk 0:17:47]} 50. Kd2 {[%clk 0:04:53]} Kc7 {[%clk 0:16:01]} 51. Ne2
{[%clk 0:03:24]} Bf5 {[%clk 0:13:16]} 52. Ke1 {[%clk 0:03:02]} *

[Event "Copenhagen Chess Challenge 2014"]
[Site "?"]
[Date "2014.05.18"]
[Round "8.8"]
[White "Thorfinnsson, Bragi"]
[Black "Englert, Fabian"]
[Result "*"]
[LiveChessVersion "1.4.2"]
[BlackElo "2310"]
[WhiteElo "2459"]
[ECO "D21"]

1. d4 {[%clk 1:29:34]} d5 {[%clk 1:30:54]} 2. c4 {[%clk 1:28:20]} dxc4
{[%clk 1:31:01]} 3. Nf3 {[%clk 1:27:37]} c6 {[%clk 1:31:16]} 4. Qc2
{[%clk 1:21:45]} b5 {[%clk 1:30:25]} 5. e4 {[%clk 1:20:17]} e6 {[%clk 1:29:32]}
6. b3 {[%clk 1:20:05]} cxb3 {[%clk 1:29:30]} 7. axb3 {[%clk 1:20:32]} Bb7
{[%clk 1:27:58]} 8. Bd3 {[%clk 1:08:52]} Nf6 {[%clk 1:11:07]} 9. O-O
{[%clk 1:07:20]} Be7 {[%clk 1:11:26]} 10. Bd2 {[%clk 1:02:28]} a5 11. Rd1
{[%clk 0:54:13]} h6 {[%clk 1:09:45]} 12. Qc1 {[%clk 0:53:37]} Nbd7
{[%clk 1:06:35]} 13. Nc3 {[%clk 0:51:53]} Qb6 {[%clk 0:47:13]} 14. h3
{[%clk 0:47:46]} g5 {[%clk 0:40:32]} 15. Be3 {[%clk 0:39:28]} g4 {[%clk 0:40:08]}
16. Ne5 {[%clk 0:39:46]} gxh3 {[%clk 0:38:53]} 17. g3 {[%clk 0:39:30]} Qd8
{[%clk 0:37:26]} 18. Be2 {[%clk 0:31:45]} Rc8 {[%clk 0:30:18]} 19. Nxd7
{[%clk 0:25:57]} Nxd7 {[%clk 0:29:17]} 20. Bxh6 {[%clk 0:25:47]} h2+
{[%clk 0:28:58]} 21. Kg2 {[%clk 0:24:31]} b4 {[%clk 0:28:54]} 22. Na4
{[%clk 0:24:14]} c5 {[%clk 0:27:06]} 23. d5 {[%clk 0:24:15]} exd5
{[%clk 0:24:42]} 24. exd5 {[%clk 0:19:10]} h1=Q+ {[%clk 0:25:03]} 25. Rxh1
{[%clk 0:19:38]} Bxd5+ {[%clk 0:25:19]} 26. f3 {[%clk 0:19:48]} Rc6
{[%clk 0:16:48]} 27. Bf4 {[%clk 0:19:09]} Rg8 {[%clk 0:16:15]} 28. Bb5
{[%clk 0:17:44]} Qa8 {[%clk 0:15:20]} 29. Bxc6 {[%clk 0:16:51]} Qxc6
{[%clk 0:15:48]} 30. Qe3 {[%clk 0:16:35]} Nf8 {[%clk 0:15:58]} 31. Nb2
{[%clk 0:13:18]} Ne6 {[%clk 0:16:26]} 32. Nd3 {[%clk 0:11:45]} Nd4
{[%clk 0:12:50]} 33. Rhe1 {[%clk 0:10:51]} Qe6 {[%clk 0:11:28]} 34. Qe5
{[%clk 0:07:48]} Qxe5 {[%clk 0:09:38]} 35. Rxe5 {[%clk 0:08:15]} Bxf3+
{[%clk 0:09:23]} 36. Kf2 {[%clk 0:08:39]} f6 {[%clk 0:04:19]} 37. Re3
{[%clk 0:04:15]} Nc2 {[%clk 0:04:48]} 38. Rxe7+ {[%clk 0:04:20]} Kxe7
{[%clk 0:05:17]} 39. Rxa5 {[%clk 0:04:44]} Nd4 {[%clk 0:04:01]} 40. Rxc5
{[%clk 0:04:16]} Bg4 {[%clk 0:03:15]} 41. Rc4 {[%clk 0:03:58]} Nxb3
{[%clk 0:02:27]} 42. Rxb4 {[%clk 0:04:20]} Na5 {[%clk 0:02:56]} *

[Event "Copenhagen Chess Challenge 2014"]
[Site "?"]
[Date "2014.05.18"]
[Round "8.9"]
[White "Westerinen, Heikki M.J."]
[Black "Hoi, Carsten"]
[Result "1/2-1/2"]
[LiveChessVersion "1.4.2"]
[BlackElo "2397"]
[WhiteElo "2299"]
[ECO "B08"]

1. e4 {[%clk 1:30:52]} g6 {[%clk 1:30:27]} 2. d4 {[%clk 1:30:59]} Bg7
{[%clk 1:30:48]} 3. Nf3 {[%clk 1:25:25]} d6 {[%clk 1:30:54]} 4. Be2
{[%clk 1:22:10]} Nf6 {[%clk 1:30:22]} 5. Nc3 {[%clk 1:22:17]} O-O
{[%clk 1:30:17]} 6. O-O {[%clk 1:22:30]} Bg4 {[%clk 1:28:31]} 7. h3
{[%clk 1:17:28]} Bxf3 {[%clk 1:28:37]} 8. Bxf3 {[%clk 1:17:54]} Nc6
{[%clk 1:28:21]} 9. Be3 {[%clk 1:14:56]} e5 {[%clk 1:23:37]} 10. dxe5
{[%clk 1:11:07]} Nxe5 {[%clk 1:17:11]} 11. Be2 {[%clk 1:11:01]} Re8
{[%clk 1:11:32]} 12. Qd2 {[%clk 1:06:36]} Ned7 {[%clk 1:07:18]} 13. Bf3
{[%clk 0:57:07]} Ne5 {[%clk 0:52:22]} 14. Be2 {[%clk 0:57:19]} 1/2-1/2

[Event "Copenhagen Chess Challenge 2014"]
[Site "?"]
[Date "2014.05.18"]
[Round "8.10"]
[White "Thorhallsson, Throstur"]
[Black "Pedersen, Nicolai Kvist Brondt"]
[Result "*"]
[LiveChessVersion "1.4.2"]
[BlackElo "2200"]
[WhiteElo "2437"]
[ECO "B10"]

1. e4 {[%clk 1:30:30]} c6 {[%clk 1:30:27]} 2. c4 {[%clk 1:29:16]} d5
{[%clk 1:29:56]} 3. exd5 {[%clk 1:29:39]} cxd5 {[%clk 1:30:25]} 4. cxd5
{[%clk 1:29:30]} Nf6 {[%clk 1:30:42]} 5. Nc3 {[%clk 1:29:40]} Nxd5
{[%clk 1:30:57]} 6. Nf3 {[%clk 1:29:46]} e6 {[%clk 1:29:15]} 7. Bc4
{[%clk 1:27:11]} Be7 {[%clk 1:23:19]} 8. O-O {[%clk 1:27:04]} O-O
{[%clk 1:23:06]} 9. d4 {[%clk 1:27:11]} Nc6 {[%clk 1:18:14]} 10. Re1
{[%clk 1:24:29]} Nxc3 {[%clk 1:10:48]} 11. bxc3 {[%clk 1:24:25]} b6
{[%clk 1:07:42]} 12. Qe2 {[%clk 1:18:12]} Bb7 {[%clk 1:07:22]} 13. Bd3
{[%clk 1:18:20]} Qc7 {[%clk 1:04:32]} 14. Qe4 {[%clk 1:09:06]} g6
{[%clk 1:04:00]} 15. Qg4 {[%clk 1:07:15]} Bf6 {[%clk 0:55:57]} 16. Bf4
{[%clk 1:05:59]} Qd7 {[%clk 0:50:12]} 17. h4 {[%clk 1:05:18]} h5 {[%clk 0:43:45]}
18. Qg3 {[%clk 1:02:52]} Bg7 {[%clk 0:42:57]} 19. Rad1 {[%clk 1:01:08]} Rad8
{[%clk 0:37:27]} 20. Bc2 {[%clk 0:55:06]} Ne7 {[%clk 0:34:37]} 21. Ne5
{[%clk 0:48:24]} Qc8 {[%clk 0:28:56]} 22. Bg5 {[%clk 0:44:45]} Rde8
{[%clk 0:25:40]} 23. Bc1 {[%clk 0:36:15]} Rd8 {[%clk 0:19:20]} 24. Ba3
{[%clk 0:33:37]} Rfe8 {[%clk 0:16:48]} 25. Ba4 {[%clk 0:30:29]} Nc6
{[%clk 0:13:15]} 26. Nf3 {[%clk 0:17:47]} a6 {[%clk 0:11:38]} 27. Bd6
{[%clk 0:12:37]} b5 {[%clk 0:10:08]} 28. Bc2 {[%clk 0:11:29]} Qd7
{[%clk 0:10:01]} 29. Bf4 {[%clk 0:10:55]} Ne7 {[%clk 0:07:24]} 30. Ne5
{[%clk 0:09:46]} Qc8 {[%clk 0:07:18]} 31. Bg5 {[%clk 0:06:42]} Rd5
{[%clk 0:06:16]} 32. Bf4 {[%clk 0:03:57]} Rdd8 {[%clk 0:05:17]} 33. Rd2
{[%clk 0:03:52]} Nd5 {[%clk 0:04:28]} 34. Nxf7 {[%clk 0:02:57]} Nxf4
{[%clk 0:02:17]} 35. Nxd8 {[%clk 0:01:53]} Nxg2 {[%clk 0:01:55]} 36. Nxb7
{[%clk 0:01:19]} Nxe1 {[%clk 0:01:49]} 37. Nd6 {[%clk 0:01:33]} Qc7
{[%clk 0:01:10]} 38. Qxg6 {[%clk 0:00:43]} Nf3+ *

[Event "Copenhagen Chess Challenge 2014"]
[Site "?"]
[Date "2014.05.18"]
[Round "8.11"]
[White "Sylvan, Jacob"]
[Black "De Blecourt, Sandra"]
[Result "1-0"]
[LiveChessVersion "1.4.2"]
[BlackElo "2121"]
[WhiteElo "2348"]
[ECO "A06"]

1. Nf3 {[%clk 1:30:54]} d5 {[%clk 1:30:51]} 2. c4 {[%clk 1:31:07]} c6
{[%clk 1:31:10]} 3. g3 {[%clk 1:31:23]} Nf6 {[%clk 1:31:21]} 4. Bg2
{[%clk 1:31:48]} Bg4 {[%clk 1:31:14]} 5. cxd5 {[%clk 1:32:09]} cxd5
{[%clk 1:30:25]} 6. Ne5 {[%clk 1:31:47]} Bf5 {[%clk 1:21:37]} 7. Nc3
{[%clk 1:31:14]} Nc6 {[%clk 1:15:27]} 8. Nxc6 {[%clk 1:30:59]} bxc6
{[%clk 1:15:48]} 9. O-O {[%clk 1:30:51]} e6 {[%clk 1:13:00]} 10. d3
{[%clk 1:30:53]} Bd6 {[%clk 1:07:28]} 11. Qa4 {[%clk 1:28:54]} Qd7
{[%clk 1:07:12]} 12. e4 {[%clk 1:28:40]} Bg6 {[%clk 0:59:09]} 13. f4
{[%clk 1:24:56]} Bc5+ {[%clk 0:49:34]} 14. d4 {[%clk 1:18:16]} Bb6
{[%clk 0:49:46]} 15. e5 {[%clk 1:03:06]} Ne4 {[%clk 0:48:42]} 16. Nxe4
{[%clk 1:02:02]} Bxe4 {[%clk 0:48:53]} 17. Be3 {[%clk 0:59:57]} O-O
{[%clk 0:39:23]} 18. Rfc1 {[%clk 0:58:42]} Rac8 {[%clk 0:38:41]} 19. Rc3
{[%clk 0:55:59]} Bxg2 {[%clk 0:33:37]} 20. Kxg2 {[%clk 0:56:23]} f6
{[%clk 0:33:59]} 21. exf6 {[%clk 0:49:20]} gxf6 {[%clk 0:33:07]} 22. Rac1
{[%clk 0:48:49]} e5 {[%clk 0:32:56]} 23. dxe5 {[%clk 0:40:37]} d4
{[%clk 0:22:32]} 24. Qc4+ {[%clk 0:40:16]} Kh8 {[%clk 0:22:50]} 25. Rd3
{[%clk 0:40:04]} fxe5 {[%clk 0:22:32]} 26. fxe5 {[%clk 0:38:55]} c5
{[%clk 0:22:17]} 27. Bg5 {[%clk 0:36:43]} h6 {[%clk 0:19:49]} 28. Bf6+
{[%clk 0:36:23]} Kh7 {[%clk 0:20:08]} 29. Rf3 {[%clk 0:36:29]} Qg4
{[%clk 0:18:04]} 30. Rcf1 {[%clk 0:30:09]} Rce8 {[%clk 0:17:13]} 31. Rf4
{[%clk 0: