[Event "Copenhagen Chess Challenge 2014"]
[Site "?"]
[Date "2014.05.18"]
[Round "8.1"]
[White "Ziska, Helgi Dam"]
[Black "Danielsen, Henrik"]
[Result "1/2-1/2"]
[LiveChessVersion "1.4.2"]
[BlackElo "2483"]
[WhiteElo "2491"]
[ECO "B07"]

1. e4 {[%clk 1:30:23]} d6 {[%clk 1:30:51]} 2. d4 {[%clk 1:30:29]} Nf6
{[%clk 1:31:17]} 3. Nc3 {[%clk 1:30:31]} e5 {[%clk 1:31:38]} 4. dxe5
{[%clk 1:30:15]} dxe5 {[%clk 1:31:58]} 5. Qxd8+ {[%clk 1:30:31]} Kxd8
{[%clk 1:32:22]} 6. Bg5 {[%clk 1:30:36]} Be6 1/2-1/2

[Event "Copenhagen Chess Challenge 2014"]
[Site "?"]
[Date "2014.05.18"]
[Round "8.2"]
[White "Semcesen, Daniel"]
[Black "Fries-Nielsen, Jens Ove"]
[Result "*"]
[LiveChessVersion "1.4.2"]
[BlackElo "2384"]
[WhiteElo "2513"]
[ECO "A43"]

1. d4 {[%clk 1:26:56]} c5 {[%clk 1:29:54]} 2. d5 {[%clk 1:26:46]} g6
{[%clk 1:29:46]} 3. e4 {[%clk 1:26:56]} d6 {[%clk 1:29:43]} 4. c4
{[%clk 1:26:50]} Bg7 {[%clk 1:29:46]} 5. Nc3 {[%clk 1:25:28]} e6 {[%clk 1:29:39]}
6. Bd3 {[%clk 1:15:08]} Ne7 {[%clk 1:29:40]} 7. Nge2 {[%clk 1:15:18]} Nd7
{[%clk 1:27:38]} 8. f4 {[%clk 1:11:34]} O-O {[%clk 1:24:56]} 9. O-O
{[%clk 1:11:48]} exd5 {[%clk 1:20:41]} 10. exd5 {[%clk 1:03:32]} Nf6
{[%clk 1:15:44]} 11. h3 {[%clk 1:00:07]} h5 {[%clk 1:14:28]} 12. Be3
{[%clk 0:56:24]} Bf5 {[%clk 1:12:06]} 13. Bf2 {[%clk 0:56:31]} Qd7
{[%clk 1:11:03]} 14. Kh2 {[%clk 0:56:43]} Rfe8 {[%clk 1:08:39]} 15. Qc2
{[%clk 0:55:39]} a6 {[%clk 1:07:21]} 16. a4 {[%clk 0:55:19]} Bxd3
{[%clk 1:05:51]} 17. Qxd3 {[%clk 0:55:46]} Nf5 {[%clk 1:06:15]} 18. Ng3
{[%clk 0:37:57]} Nh6 {[%clk 1:03:18]} 19. Rfe1 {[%clk 0:31:06]} h4
{[%clk 1:00:55]} 20. Nf1 {[%clk 0:30:49]} Nf5 {[%clk 0:57:17]} 21. Ne3
{[%clk 0:29:26]} Nxe3 {[%clk 0:45:04]} 22. Rxe3 {[%clk 0:27:15]} Nh5
{[%clk 0:43:31]} 23. Bxh4 {[%clk 0:25:37]} Nxf4 {[%clk 0:42:27]} 24. Rxe8+
{[%clk 0:23:27]} Rxe8 {[%clk 0:42:47]} 25. Qf3 {[%clk 0:23:51]} Be5
{[%clk 0:31:13]} 26. Bg3 {[%clk 0:20:05]} Qf5 {[%clk 0:30:12]} 27. Rf1
{[%clk 0:19:42]} Nh5 {[%clk 0:30:01]} 28. Bxe5 {[%clk 0:20:00]} Qxe5+
{[%clk 0:30:27]} 29. Kg1 {[%clk 0:20:05]} f5 {[%clk 0:30:10]} *

[Event "Copenhagen Chess Challenge 2014"]
[Site "?"]
[Date "2014.05.18"]
[Round "8.3"]
[White "Hansen, Mads"]
[Black "Haub, Thorsten Michael"]
[Result "*"]
[LiveChessVersion "1.4.2"]
[BlackElo "2441"]
[WhiteElo "2358"]
[ECO "B06"]

1. e4 {[%clk 1:30:57]} g6 {[%clk 1:30:59]} 2. d4 {[%clk 1:31:16]} Bg7
{[%clk 1:31:24]} 3. Nf3 {[%clk 1:31:34]} d6 {[%clk 1:31:43]} 4. Bc4
{[%clk 1:31:45]} a6 {[%clk 1:32:01]} 5. O-O {[%clk 1:31:57]} e6 {[%clk 1:30:43]}
6. Bb3 {[%clk 1:32:21]} Ne7 {[%clk 1:31:05]} 7. Re1 {[%clk 1:32:37]} Nd7
{[%clk 1:31:01]} 8. Nbd2 {[%clk 1:33:00]} O-O {[%clk 1:30:17]} 9. Nf1
{[%clk 1:32:44]} c5 {[%clk 1:29:58]} 10. c3 {[%clk 1:32:35]} b5 {[%clk 1:28:52]}
11. h4 {[%clk 1:32:16]} c4 {[%clk 1:23:21]} 12. Bc2 {[%clk 1:32:43]} e5
{[%clk 1:22:12]} 13. Ng3 {[%clk 1:30:3