[Event "Copenhagen Chess Challenge 2014"]
[Site "?"]
[Date "2014.05.16"]
[Round "5.1"]
[White "Korley, Kassa"]
[Black "Semcesen, Daniel"]
[Result "*"]
[LiveChessVersion "1.4.2"]
[BlackElo "2513"]
[WhiteElo "2390"]
[ECO "C44"]

1. e4 {[%clk 1:30:14]} e5 {[%clk 1:30:50]} 2. Nf3 {[%clk 1:30:40]} Nc6
{[%clk 1:31:12]} *

[Event "Copenhagen Chess Challenge 2014"]
[Site "?"]
[Date "2014.05.16"]
[Round "5.2"]
[White "Hoi, Carsten"]
[Black "Ziska, Helgi Dam"]
[Result "*"]
[LiveChessVersion "1.4.2"]
[BlackElo "2491"]
[WhiteElo "2397"]
[ECO "A40"]

1. d4 {[%clk 1:30:59]} *

[Event "Copenhagen Chess Challenge 2014"]
[Site "?"]
[Date "2014.05.16"]
[Round "5.3"]
[White "Danielsen, Henrik"]
[Black "Fries-Nielsen, Jens Ove"]
[Result "*"]
[LiveChessVersion "1.4.2"]
[BlackElo "2384"]
[WhiteElo "2483"]
[ECO "A13"]

1. c4 {[%clk 1:30:56]} e6 {[%clk 1:30:02]} *

[Event "Copenhagen Chess Challenge 2014"]
[Site "?"]
[Date "2014.05.16"]
[Round "5.4"]
[White "Stefansson, Hannes"]
[Black "Sylvan, Jacob"]
[Result "*"]
[LiveChessVersion "1.4.2"]
[BlackElo "2348"]
[WhiteElo "2548"]
[ECO "A50"]

1. d4 {[%clk 1:30:50]} Nf6 {[%clk 1:30:06]} 2. c4 {[%clk 1:31:05]} g6
{[%clk 1:30:22]} *

[Event "Copenhagen Chess Challenge 2014"]
[Site "?"]
[Date "2014.05.16"]
[Round "5.5"]
[White "Mikkelsen, Nikolaj"]
[Black "Larsen, Tor Ketil"]
[Result "*"]
[LiveChessVersion "1.4.2"]
[BlackElo "2004"]
[WhiteElo "2430"]
[ECO "B01"]

1. e4 {[%clk 1:30:29]} d5 {[%clk 1:29:32]} *

[Event "Copenhagen Chess Challenge 2014"]
[Site "?"]
[Date "2014.05.16"]
[Round "5.6"]
[White "Hansen, Mads"]
[Black "Mueller, Reinhold"]
[Result "*"]
[LiveChessVersion "1.4.2"]
[BlackElo "2282"]
[WhiteElo "2358"]
[ECO "A11"]

1. c4 {[%clk 1:30:54]} c6 {[%clk 1:30:09]} 2. Nf3 {[%clk 1:31:10]} d5
{[%clk 1:30:27]} 3. g3 {[%clk 1:31:32]} *

[Event "Copenhagen Chess Challenge 2014"]
[Site "?"]
[Date "2014.05.16"]
[Round "5.7"]
[White "Westerinen, Heikki M.J."]
[Black "Thorfinnsson, Bragi"]
[Result "*"]
[LiveChessVersion "1.4.2"]
[BlackElo "2459"]
[WhiteElo "2299"]

*

[Event "Copenhagen Chess Challenge 2014"]
[Site "?"]
[Date "2014.05.16"]
[Round "5.8"]
[White "Hector, Jonny"]
[Black "Thuesen, Mogens"]
[Result "*"]
[LiveChessVersion "1.4.2"]
[BlackElo "2235"]
[WhiteElo "2511"]
[ECO "B45"]

1. e4 {[%clk 1:30:39]} c5 {[%clk 1:30:37]} 2. Nf3 {[%clk 1:31:03]} Nc6
{[%clk 1:30:54]} 3. Nc3 {[%clk 1:31:25]} e6 {[%clk 1:30:39]} 4. d4
{[%clk 1:31:44]} cxd4 {[%clk 1:31:03]} 5. Nxd4 *

[Event "Copenhagen Chess Challenge 2014"]
[Site "?"]
[Date "2014.05.16"]
[Round "5.9"]
[White "Haub, Thorsten Michael"]
[Black "Jorgensen, Dennis"]
[Result "*"]
[LiveChessVersion "1.4.2"]
[BlackElo "2231"]
[WhiteElo "2441"]
[ECO "A00"]

1. g3 {[%clk 1:30:58]} d5 {[%clk 1:29:28]} 2. Bg2 {[%clk 1:31:23]} *

[Event "Copenhagen Chess Challenge 2014"]
[Site "?"]
[Date "2014.05.16"]
[Round "5.10"]
[White "Vesterli, Michael E."]
[Black "Thorhallsson, Throstur"]
[Result "*"]
[LiveChessVersion "1.4.2"]
[BlackElo "2437"]
[WhiteElo "2107"]
[ECO "D31"]

1. d4 {[%clk 1:30:57]} d5 {[%clk 1:29:51]} 2. c4 {[%clk 1:31:19]} e6
{[%clk 1:30:07]} 3. Nc3 {[%clk 1:31:43]} Be7 {[%clk 1:30:17]} 4. Nf3
{[%clk 1:32:03]} *

[Event "Copenhagen Chess Challenge 2014"]
[Site "?"]
[Date "2014.05.16"]
[Round "5.11"]
[White "Christensen, Tobias"]
[Black "Sorensen, Per Settergren"]
[Result "*"]
[LiveChessVersion "1.4.2"]
[BlackElo "2021"]
[WhiteElo "2368"]
[ECO "C47"]

1. e4 {[%clk 1:30:59]} e5 {[%clk 1:30:23]} 2. Nf3 {[%clk 1:31:23]} Nc6
{[%clk 1:30:48]} 3. Nc3 {[%clk 1:31:30]} Nf6 {[%clk 1:30:53]} 4. h3
{[%clk 1:31:57]} *

[Event "Copenhagen Chess Challenge 2014"]
[Site "?"]
[Date "2014.05.16"]
[Round "5.12"]
[White "Bjerre, Tavs"]
[Black "Ochsner, Bjorn Moller"]
[Result "*"]
[LiveChessVersion "1.4.2"]
[BlackElo "2307"]
[WhiteElo "2067"]
[ECO "E20"]

1. d4 {[%clk 1:30:33]} Nf6 {[%clk 1:30:59]} 2. c4 {[%clk 1:30:56]} e6
{[%clk 1:31:16]} 3. Nc3 {[%clk 1:30:42]} Bb4 {[%clk 1:31:38]} *

[Event "Copenhagen Chess Challenge 2014"]
[Site "?"]
[Date "2014.05.16"]
[Round "5.13"]
[White "Pedersen, Daniel Vesterbaek"]
[Black "Karlsson, Ulf"]
[Result "*"]
[LiveChessVersion "1.4.2"]
[BlackElo "1959"]
[WhiteElo "2244"]
[ECO "B30"]

1. e4 {[%clk 1:30:55]} c5 {[%clk 1:30:46]} 2. Nf3 {[%clk 1:31:19]} Nc6
{[%clk 1:31:01]} 3. c3 {[%clk 1:31:43]} *

[Event "Copenhagen Chess Challenge 2014"]
[Site "?"]
[Date "2014.05.16"]
[Round "5.14"]
[White "Quernheim, Daniel"]
[Black "Sahl, Bjarke"]
[Result "*"]
[LiveChessVersion "1.4.2"]
[BlackElo "2368"]
[WhiteElo "2032"]
[ECO "A45"]

1. d4 {[%clk 1:30:01]} Nf6 *

[Event "Copenhagen Chess Challenge 2014"]
[Site "?"]
[Date "2014.05.16"]
[Round "5.15"]
[White "Englert, Fabian"]
[Black "Olsen, Miriam F"]
[Result "*"]
[LiveChessVersion "1.4.2"]
[BlackElo "1952"]
[WhiteElo "2310"]
[ECO "B46"]

1. e4 {[%clk 1:30:58]} c5 {[%clk 1:30:54]} 2. Nf3 {[%clk 1:31:22]} e6
{[%clk 1:31:19]} 3. Nc3 {[%clk 1:31:45]} Nc6 {[%clk 1:30:29]} 4. d4
{[%clk 1:32:07]} cxd4 {[%clk 1:30:54]} 5. Nxd4 {[%clk 1:32:33]} a6
{[%clk 1:31:14]} *

[Event "Copenhagen Chess Challenge 2014"]
[Site "?"]
[Date "2014.05.16"]
[Round "5.16"]
[White "Nyland, Thomas"]
[Black "Rydstrom, Tom"]
[Result "*"]
[LiveChessVersion "1.4.2"]
[BlackElo "2190"]
[WhiteElo "2043"]

*

