[Event "Copenhagen Chess Challenge 2014"]
[Site "?"]
[Date "2014.05.16"]
[Round "5.1"]
[White "Korley, Kassa"]
[Black "Semcesen, Daniel"]
[Result "*"]
[LiveChessVersion "1.4.2"]
[BlackElo "2513"]
[WhiteElo "2390"]
[ECO "C68"]

1. e4 {[%clk 1:30:14]} e5 {[%clk 1:30:50]} 2. Nf3 {[%clk 1:30:40]} Nc6
{[%clk 1:31:12]} 3. Bb5 {[%clk 1:29:03]} a6 {[%clk 1:30:23]} 4. Bxc6
{[%clk 1:27:22]} dxc6 {[%clk 1:30:11]} 5. O-O {[%clk 1:27:49]} Qf6
{[%clk 1:30:50]} 6. d3 {[%clk 1:26:12]} Ne7 {[%clk 1:28:42]} *

[Event "Copenhagen Chess Challenge 2014"]
[Site "?"]
[Date "2014.05.16"]
[Round "5.2"]
[White "Hoi, Carsten"]
[Black "Ziska, Helgi Dam"]
[Result "*"]
[LiveChessVersion "1.4.2"]
[BlackElo "2491"]
[WhiteElo "2397"]
[ECO "E81"]

1. d4 {[%clk 1:30:59]} Nf6 {[%clk 1:28:48]} 2. c4 {[%clk 1:30:33]} g6
{[%clk 1:29:05]} 3. Nc3 {[%clk 1:30:57]} Bg7 {[%clk 1:29:22]} 4. e4
{[%clk 1:29:59]} d6 {[%clk 1:27:51]} 5. f3 {[%clk 1:26:22]} O-O {[%clk 1:27:46]}
6. Be3 {[%clk 1:26:48]} c5 {[%clk 1:27:41]} 7. Nge2 {[%clk 1:25:45]} Nc6
{[%clk 1:27:33]} 8. d5 {[%clk 1:21:16]} Na5 {[%clk 1:26:39]} *

[Event "Copenhagen Chess Challenge 2014"]
[Site "?"]
[Date "2014.05.16"]
[Round "5.3"]
[White "Danielsen, Henrik"]
[Black "Fries-Nielsen, Jens Ove"]
[Result "*"]
[LiveChessVersion "1.4.2"]
[BlackElo "2384"]
[WhiteElo "2483"]
[ECO "A13"]

1. c4 {[%clk 1:30:56]} e6 {[%clk 1:30:02]} 2. Nf3 {[%clk 1:28:37]} g6
{[%clk 1:30:03]} 3. g3 {[%clk 1:28:19]} Bg7 {[%clk 1:30:28]} 4. Bg2
{[%clk 1:28:42]} Ne7 {[%clk 1:30:55]} 5. O-O {[%clk 1:29:02]} d6 {[%clk 1:31:19]}
6. d4 {[%clk 1:28:51]} Nd7 {[%clk 1:31:44]} 7. Nc3 {[%clk 1:28:56]} a6
{[%clk 1:32:03]} 8. Re1 {[%clk 1:28:37]} Rb8 {[%clk 1:32:29]} 9. a4
{[%clk 1:23:43]} O-O {[%clk 1:29:26]} 10. Rb1 {[%clk 1:22:11]} h6
{[%clk 1:23:01]} 11. b3 {[%clk 1:22:15]} *

[Event "Copenhagen Chess Challenge 2014"]
[Site "?"]
[Date "2014.05.16"]
[Round "5.4"]
[White "Stefansson, Hannes"]
[Black "Sylvan, Jacob"]
[Result "*"]
[LiveChessVersion "1.4.2"]
[BlackElo "2348"]
[WhiteElo "2548"]
[ECO "E81"]

1. d4 {[%clk 1:30:50]} Nf6 {[%clk 1:30:06]} 2. c4 {[%clk 1:31:05]} g6
{[%clk 1:30:22]} 3. f3 {[%clk 1:29:57]} Bg7 {[%clk 1:24:56]} 4. e4
{[%clk 1:30:14]} d6 {[%clk 1:25:18]} 5. Nc3 {[%clk 1:30:33]} O-O {[%clk 1:25:37]}
6. Nge2 {[%clk 1:30:45]} c5 {[%clk 1:24:43]} 7. d5 {[%clk 1:30:46]} e6
{[%clk 1:23:53]} 8. Ng3 {[%clk 1:30:56]} exd5 {[%clk 1:23:42]} 9. cxd5
{[%clk 1:31:20]} Nbd7 {[%clk 1:18:04]} 10. Be2 {[%clk 1:30:56]} a6
{[%clk 1:16:39]} 11. a4 {[%clk 1:31:03]} Ne5 {[%clk 1:15:31]} *

[Event "Copenhagen Chess Challenge 2014"]
[Site "?"]
[Date "2014.05.16"]
[Round "5.5"]
[White "Mikkelsen, Nikolaj"]
[Black "Larsen, Tor Ketil"]
[Result "*"]
[LiveChessVersion "1.4.2"]
[BlackElo "2004"]
[WhiteElo "2430"]
[ECO "B01"]

1. e4 {[%clk 1:30:29]} d5 {[%clk 1:29:32]} 2. exd5 {[%clk 1:30:09]} Qxd5
{[%clk 1:29:54]} 3. Nc3 {[%clk 1:30:33]} Qd6 {[%clk 1:30:20]} 4. d4
{[%clk 1:30:17]} Nf6 {[%clk 1:30:28]} 5. Nf3 {[%clk 1:29:43]} a6 {[%clk 1:30:50]}
6. g3 {[%clk 1:29:22]} b5 {[%clk 1:26:59]} 7. Bg2 {[%clk 1:24:37]} Bb7
{[%clk 1:27:05]} 8. O-O {[%clk 1:24:27]} e6 {[%clk 1:27:19]} *

[Event "Copenhagen Chess Challenge 2014"]
[Site "?"]
[Date "2014.05.16"]
[Round "5.6"]
[White "Hansen, Mads"]
[Black "Mueller, Reinhold"]
[Result "*"]
[LiveChessVersion "1.4.2"]
[BlackElo "2282"]
[WhiteElo "2358"]
[ECO "A11"]

1. c4 {[%clk 1:30:54]} c6 {[%clk 1:30:09]} 2. Nf3 {[%clk 1:31:10]} d5
{[%clk 1:30:27]} 3. g3 {[%clk 1:31:32]} dxc4 {[%clk 1:29:43]} 4. Bg2
{[%clk 1:31:49]} b5 {[%clk 1:29:08]} 5. a4 {[%clk 1:30:33]} Bb7 {[%clk 1:25:57]}
6. b3 {[%clk 1:27:56]} cxb3 {[%clk 1:25:57]} 7. Qxb3 {[%clk 1:28:05]} a6
{[%clk 1:23:58]} 8. Ba3 {[%clk 1:25:53]} Nd7 {[%clk 1:18:34]} 9. O-O
{[%clk 1:24:39]} *

[Event "Copenhagen Chess Challenge 2014"]
[Site "?"]
[Date "2014.05.16"]
[Round "5.7"]
[White "Westerinen, Heikki M.J."]
[Black "Thorfinnsson, Bragi"]
[Result "*"]
[LiveChessVersion "1.4.2"]
[BlackElo "2459"]
[WhiteElo "2299"]
[ECO "B94"]

1. e4 {[%clk 1:28:49]} c5 {[%clk 1:27:51]} 2. Nf3 {[%clk 1:28:59]} d6
{[%clk 1:26:49]} 3. d4 {[%clk 1:28:55]} cxd4 {[%clk 1:27:01]} 4. Nxd4
{[%clk 1:29:03]} Nf6 {[%clk 1:27:23]} 5. Nc3 {[%clk 1:29:00]} a6 {[%clk 1:27:09]}
6. Bg5 {[%clk 1:28:31]} Nbd7 {[%clk 1:26:09]} 7. Bc4 {[%clk 1:19:39]} *

[Event "Copenhagen Chess Challenge 2014"]
[Site "?"]
[Date "2014.05.16"]
[Round "5.8"]
[White "Hector, Jonny"]
[Black "Thuesen, Mogens"]
[Result "*"]
[LiveChessVersion "1.4.2"]
[BlackElo "2235"]
[WhiteElo "2511"]
[ECO "B45"]

1. e4 {[%clk 1:30:39]} c5 {[%clk 1:30:37]} 2. Nf3 {[%clk 1:31:03]} Nc6
{[%clk 1:30:54]} 3. Nc3 {[%clk 1:31:25]} e6 {[%clk 1:30:39]} 4. d4
{[%clk 1:31:44]} cxd4 {[%clk 1:31:03]} 5. Nxd4 {[%clk 1:32:05]} Nf6
{[%clk 1:31:27]} 6. Nxc6 {[%clk 1:31:48]} bxc6 {[%clk 1:31:49]} 7. e5
{[%clk 1:32:05]} Nd5 {[%clk 1:32:11]} 8. Ne4 {[%clk 1:32:21]} Qc7
{[%clk 1:32:27]} 9. f4 {[%clk 1:31:59]} Qb6 10. c4 {[%clk 1:31:47]} Ne3
{[%clk 1:32:25]} 11. Qd3 {[%clk 1:29:05]} Nf5 {[%clk 1:32:47]} 12. g4
{[%clk 1:18:13]} Nd4 {[%clk 1:33:02]} *

[Event "Copenhagen Chess Challenge 2014"]
[Site "?"]
[Date "2014.05.16"]
[Round "5.9"]
[White "Haub, Thorsten Michael"]
[Black "Jorgensen, Dennis"]
[Result "*"]
[LiveChessVersion "1.4.2"]
[BlackElo "2231"]
[WhiteElo "2441"]
[ECO "A00"]

1. g3 {[%clk 1:30:58]} d5 {[%clk 1:29:28]} 2. Bg2 {[%clk 1:31:23]} Nf6
{[%clk 1:28:52]} 3. d3 {[%clk 1:31:47]} c6 {[%clk 1:23:32]} 4. Nd2
{[%clk 1:32:01]} g6 {[%clk 1:23:00]} 5. e4 {[%clk 1:32:10]} dxe4 {[%clk 1:23:14]}
6. dxe4 {[%clk 1:32:32]} Bg7 {[%clk 1:23:27]} 7. Ngf3 {[%clk 1:32:34]} O-O
{[%clk 1:23:41]} 8. O-O {[%clk 1:32:54]} Na6 {[%clk 1:24:02]} 9. Qe2
{[%clk 1:32:47]} Nc5 {[%clk 1:23:58]} 10. e5 {[%clk 1:31:49]} Nd5
{[%clk 1:23:50]} 11. Nb3 {[%clk 1:30:04]} Nxb3 {[%clk 1:20:41]} 12. axb3
{[%clk 1:30:25]} *

[Event "Copenhagen Chess Challenge 2014"]
[Site "?"]
[Date "2014.05.16"]
[Round "5.10"]
[White "Vesterli, Michael E."]
[Black "Thorhallsson, Throstur"]
[Result "*"]
[LiveChessVersion "1.4.2"]
[BlackElo "2437"]
[WhiteElo "2107"]
[ECO "D31"]

1. d4 {[%clk 1:30:57]} d5 {[%clk 1:29:51]} 2. c4 {[%clk 1:31:19]} e6
{[%clk 1:30:07]} 3. Nc3 {[%clk 1:31:43]} Be7 {[%clk 1:30:17]} 4. Nf3
{[%clk 1:32:03]} Nf6 {[%clk 1:30:28]} 5. Bg5 {[%clk 1:32:05]} c6 {[%clk 1:30:00]}
6. e3 {[%clk 1:32:26]} Nbd7 {[%clk 1:29:51]} 7. Qc2 {[%clk 1:31:42]} O-O
{[%clk 1:29:51]} 8. Rd1 {[%clk 1:31:16]} Re8 {[%clk 1:23:46]} 9. a3
{[%clk 1:29:44]} b6 {[%clk 1:21:26]} 10. cxd5 {[%clk 1:29:52]} exd5
{[%clk 1:21:06]} 11. Be2 {[%clk 1:26:57]} *

[Event "Copenhagen Chess Challenge 2014"]
[Site "?"]
[Date "2014.05.16"]
[Round "5.11"]
[White "Christensen, Tobias"]
[Black "Sorensen, Per Settergren"]
[Result "*"]
[LiveChessVersion "1.4.2"]
[BlackElo "2021"]
[WhiteElo "2368"]
[ECO "C47"]

1. e4 {[%clk 1:30:59]} e5 {[%clk 1:30:23]} 2. Nf3 {[%clk 1:31:23]} Nc6
{[%clk 1:30:48]} 3. Nc3 {[%clk 1:31:30]} Nf6 {[%clk 1:30:53]} 4. h3
{[%clk 1:31:57]} Bb4 {[%clk 1:29:20]} 5. Nd5 {[%clk 1:32:19]} O-O
{[%clk 1:24:31]} 6. Nxb4 {[%clk 1:29:40]} Nxb4 {[%clk 1:24:49]} 7. c3
{[%clk 1:25:03]} Nc6 {[%clk 1:24:36]} 8. d3 {[%clk 1:24:46]} d5 {[%clk 1:23:12]}
9. Qc2 {[%clk 1:24:49]} a5 {[%clk 1:19:00]} *

[Event "Copenhagen Chess Challenge 2014"]
[Site "?"]
[Date "2014.05.16"]
[Round "5.12"]
[White "Bjerre, Tavs"]
[Black "Ochsner, Bjorn Moller"]
[Result "*"]
[LiveChessVersion "1.4.2"]
[BlackElo "2307"]
[WhiteElo "2067"]
[ECO "E58"]

1. d4 {[%clk 1:30:33]} Nf6 {[%clk 1:30:59]} 2. c4 {[%clk 1:30:56]} e6
{[%clk 1:31:16]} 3. Nc3 {[%clk 1:30:42]} Bb4 {[%clk 1:31:38]} 4. e3
{[%clk 1:29:34]} c5 {[%clk 1:31:51]} 5. Bd3 {[%clk 1:29:31]} O-O {[%clk 1:32:09]}
6. Nf3 {[%clk 1:28:24]} d5 {[%clk 1:32:04]} 7. O-O {[%clk 1:28:15]} Nc6
{[%clk 1:32:23]} 8. a3 {[%clk 1:27:39]} Bxc3 {[%clk 1:32:47]} 9. bxc3
{[%clk 1:28:05]} Qc7 {[%clk 1:32:26]} 10. Bb2 {[%clk 1:26:47]} Na5
{[%clk 1:30:49]} 11. cxd5 {[%clk 1:22:44]} exd5 {[%clk 1:31:17]} 12. Ne5
{[%clk 1:21:57]} c4 {[%clk 1:31:05]} 13. Bc2 {[%clk 1:21:34]} Ne4
{[%clk 1:29:39]} *

[Event "Copenhagen Chess Challenge 2014"]
[Site "?"]
[Date "2014.05.16"]
[Round "5.13"]
[White "Pedersen, Daniel Vesterbaek"]
[Black "Karlsson, Ulf"]
[Result "*"]
[LiveChessVersion "1.4.2"]
[BlackElo "1959"]
[WhiteElo "2244"]
[ECO "B30"]

1. e4 {[%clk 1:30:55]} c5 {[%clk 1:30:46]} 2. Nf3 {[%clk 1:31:19]} Nc6
{[%clk 1:31:01]} 3. c3 {[%clk 1:31:43]} d5 {[%clk 1:28:33]} 4. exd5
{[%clk 1:32:07]} Qxd5 {[%clk 1:28:57]} 5. d4 {[%clk 1:32:31]} Bg4
{[%clk 1:21:11]} 6. dxc5 {[%clk 1:32:56]} Qxc5 {[%clk 1:18:50]} 7. Na3
{[%clk 1:30:15]} Rd8 {[%clk 1:13:27]} *

[Event "Copenhagen 