[Event "Copenhagen Chess Challenge 2014"]
[Site "?"]
[Date "2014.05.16"]
[Round "5.1"]
[White "Korley, Kassa"]
[Black "Semcesen, Daniel"]
[Result "1/2-1/2"]
[LiveChessVersion "1.4.2"]
[BlackElo "2513"]
[WhiteElo "2390"]
[ECO "C68"]

1. e4 {[%clk 1:30:14]} e5 {[%clk 1:30:50]} 2. Nf3 {[%clk 1:30:40]} Nc6
{[%clk 1:31:12]} 3. Bb5 {[%clk 1:29:03]} a6 {[%clk 1:30:23]} 4. Bxc6
{[%clk 1:27:22]} dxc6 {[%clk 1:30:11]} 5. O-O {[%clk 1:27:49]} Qf6
{[%clk 1:30:50]} 6. d3 {[%clk 1:26:12]} Ne7 {[%clk 1:28:42]} 7. Nbd2
{[%clk 1:12:02]} Ng6 {[%clk 1:24:03]} 8. Nc4 {[%clk 1:00:13]} Bg4
{[%clk 1:17:28]} 9. h3 {[%clk 1:00:37]} Bxf3 {[%clk 1:17:01]} 10. Qxf3
{[%clk 1:01:04]} Qxf3 {[%clk 1:17:18]} 11. gxf3 {[%clk 1:01:32]} O-O-O
{[%clk 1:16:49]} 12. Kg2 {[%clk 1:01:47]} Be7 {[%clk 1:15:00]} 13. Rg1
{[%clk 1:02:08]} Rhg8 {[%clk 1:06:54]} 14. Kf1 {[%clk 1:02:17]} f6
{[%clk 1:06:12]} 15. Rg4 {[%clk 1:01:41]} Nf8 {[%clk 1:06:03]} 16. f4
{[%clk 1:00:35]} exf4 {[%clk 1:05:56]} 17. Bxf4 {[%clk 1:00:48]} Ne6
{[%clk 1:06:00]} 18. Be3 {[%clk 0:49:09]} Rgf8 {[%clk 0:58:31]} 19. Re1
{[%clk 0:45:58]} g6 {[%clk 0:56:50]} 20. Bh6 {[%clk 0:43:47]} Rf7
{[%clk 0:56:44]} 21. f4 {[%clk 0:43:36]} Bf8 {[%clk 0:36:43]} 1/2-1/2

[Event "Copenhagen Chess Challenge 2014"]
[Site "?"]
[Date "2014.05.16"]
[Round "5.2"]
[White "Hoi, Carsten"]
[Black "Ziska, Helgi Dam"]
[Result "1/2-1/2"]
[LiveChessVersion "1.4.2"]
[BlackElo "2491"]
[WhiteElo "2397"]
[ECO "E81"]

1. d4 {[%clk 1:30:59]} Nf6 {[%clk 1:28:48]} 2. c4 {[%clk 1:30:33]} g6
{[%clk 1:29:05]} 3. Nc3 {[%clk 1:30:57]} Bg7 {[%clk 1:29:22]} 4. e4
{[%clk 1:29:59]} d6 {[%clk 1:27:51]} 5. f3 {[%clk 1:26:22]} O-O {[%clk 1:27:46]}
6. Be3 {[%clk 1:26:48]} c5 {[%clk 1:27:41]} 7. Nge2 {[%clk 1:25:45]} Nc6
{[%clk 1:27:33]} 8. d5 {[%clk 1:21:16]} Na5 {[%clk 1:26:39]} 9. Ng3
{[%clk 1:09:01]} a6 {[%clk 1:22:45]} 10. Qd2 {[%clk 1:03:41]} b5 {[%clk 1:21:51]}
11. Bh6 {[%clk 1:01:40]} e6 {[%clk 0:57:24]} 12. h4 {[%clk 0:55:22]} Bxh6
{[%clk 0:50:57]} 13. Qxh6 {[%clk 0:55:40]} b4 {[%clk 0:50:16]} 14. Nd1
{[%clk 0:53:33]} exd5 {[%clk 0:48:55]} 15. cxd5 {[%clk 0:50:48]} Qe7
{[%clk 0:47:45]} 16. Qg5 {[%clk 0:44:36]} Re8 {[%clk 0:44:12]} 17. Ne3
{[%clk 0:43:22]} Qe5 {[%clk 0:35:28]} 18. Qxe5 {[%clk 0:42:11]} dxe5
{[%clk 0:31:58]} 19. Rc1 {[%clk 0:33:03]} Nb7 {[%clk 0:31:59]} 20. Nc4
{[%clk 0:32:23]} Bd7 {[%clk 0:31:21]} 21. Nb6 {[%clk 0:27:00]} Ra7
{[%clk 0:31:19]} 22. Kd2 {[%clk 0:25:27]} Bb5 {[%clk 0:21:22]} 23. Bd3
{[%clk 0:24:25]} Rb8 {[%clk 0:20:31]} 24. Nf1 {[%clk 0:19:43]} Nd6
{[%clk 0:20:06]} 25. Nc4 {[%clk 0:19:55]} Bxc4 {[%clk 0:20:05]} 26. Bxc4
{[%clk 0:20:23]} a5 {[%clk 0:14:50]} 27. Ne3 {[%clk 0:18:30]} Nd7
{[%clk 0:15:01]} 28. h5 {[%clk 0:16:32]} Kg7 {[%clk 0:09:58]} 29. Bd3
{[%clk 0:12:55]} a4 {[%clk 0:07:19]} 30. g3 {[%clk 0:12:25]} a3 {[%clk 0:07:05]}
31. b3 {[%clk 0:12:36]} Ra5 {[%clk 0:06:55]} 32. Ke2 {[%clk 0:10:47]} Nf6
{[%clk 0:06:45]} 33. g4 {[%clk 0:08:42]} g5 {[%clk 0:04:54]} 34. Rc2
{[%clk 0:04:15]} 1/2-1/2

[Event "Copenhagen Chess Challenge 2014"]
[Site "?"]
[Date "2014.05.16"]
[Round "5.3"]
[White "Danielsen, Henrik"]
[Black "Fries-Nielsen, Jens Ove"]
[Result "0-1"]
[LiveChessVersion "1.4.2"]
[BlackElo "2384"]
[WhiteElo "2483"]
[ECO "A13"]

1. c4 {[%clk 1:30:56]} e6 {[%clk 1:30:02]} 2. Nf3 {[%clk 1:28:37]} g6
{[%clk 1:30:03]} 3. g3 {[%clk 1:28:19]} Bg7 {[%clk 1:30:28]} 4. Bg2
{[%clk 1:28:42]} Ne7 {[%clk 1:30:55]} 5. O-O {[%clk 1:29:02]} d6 {[%clk 1:31:19]}
6. d4 {[%clk 1:28:51]} Nd7 {[%clk 1:31:44]} 7. Nc3 {[%clk 1:28:56]} a6
{[%clk 1:32:03]} 8. Re1 {[%clk 1:28:37]} Rb8 {[%clk 1:32:29]} 9. a4
{[%clk 1:23:43]} O-O {[%clk 1:29:26]} 10. Rb1 {[%clk 1:22:11]} h6
{[%clk 1:23:01]} 11. b3 {[%clk 1:22:15]} b6 {[%clk 1:19:53]} 12. Ba3
{[%clk 1:21:35]} Bb7 {[%clk 1:17:43]} 13. e3 {[%clk 1:20:57]} c5 {[%clk 1:17:48]}
14. Rc1 {[%clk 1:19:04]} Nf5 {[%clk 1:07:06]} 15. d5 {[%clk 1:14:41]} e5
{[%clk 1:07:22]} 16. Nd2 {[%clk 1:11:14]} Ne7 {[%clk 0:58:26]} 17. Nde4
{[%clk 0:59:15]} Nc8 {[%clk 0:58:46]} 18. f4 {[%clk 0:58:54]} f5 {[%clk 0:58:21]}
19. Nf2 {[%clk 0:58:57]} Ne7 {[%clk 0:56:52]} 20. Rc2 {[%clk 0:56:33]} Bc8
{[%clk 0:55:01]} 21. Bc1 {[%clk 0:55:41]} g5 {[%clk 0:54:29]} 22. e4
{[%clk 0:53:21]} exf4 {[%clk 0:53:45]} 23. gxf4 {[%clk 0:53:32]} gxf4
{[%clk 0:51:32]} 24. Bxf4 {[%clk 0:53:01]} Ne5 {[%clk 0:51:44]} 25. Qh5
{[%clk 0:50:35]} N7g6 {[%clk 0:51:12]} 26. Bxh6 {[%clk 0:49:37]} Bxh6
{[%clk 0:46:45]} 27. Qxh6 {[%clk 0:49:37]} f4 {[%clk 0:45:42]} 28. Bh3
{[%clk 0:47:39]} Rb7 {[%clk 0:45:10]} 29. Bxc8 {[%clk 0:46:47]} Qxc8
{[%clk 0:44:16]} 30. Qh5 {[%clk 0:41:47]} Rh7 {[%clk 0:44:10]} 31. Qd1
{[%clk 0:42:04]} Nh4 {[%clk 0:40:35]} 0-1

[Event "Copenhagen Chess Challenge 2014"]
[Site "?"]
[Date "2014.05.16"]
[Round "5.4"]
[White "Stefansson, Hannes"]
[Black "Sylvan, Jacob"]
[Result "1/2-1/2"]
[LiveChessVersion "1.4.2"]
[BlackElo "2348"]
[WhiteElo "2548"]
[ECO "E81"]

1. d4 {[%clk 1:30:50]} Nf6 {[%clk 1:30:06]} 2. c4 {[%clk 1:31:05]} g6
{[%clk 1:30:22]} 3. f3 {[%clk 1:29:57]} Bg7 {[%clk 1:24:56]} 4. e4
{[%clk 1:30:14]} d6 {[%clk 1:25:18]} 5. Nc3 {[%clk 1:30:33]} O-O {[%clk 1:25:37]}
6. Nge2 {[%clk 1:30:45]} c5 {[%clk 1:24:43]} 7. d5 {[%clk 1:30:46]} e6
{[%clk 1:23:53]} 8. Ng3 {[%clk 1:30:56]} exd5 {[%clk 1:23:42]} 9. cxd5
{[%clk 1:31:20]} Nbd7 {[%clk 1:18:04]} 10. Be2 {[%clk 1:30:56]} a6
{[%clk 1:16:39]} 11. a4 {[%clk 1:31:03]} Ne5 {[%clk 1:15:31]} 12. O-O
{[%clk 1:29:12]} Rb8 {[%clk 1:13:50]} 13. Nh1 {[%clk 1:22:26]} Ne8
{[%clk 1:07:58]} 14. Nf2 {[%clk 1:20:36]} f5 {[%clk 1:07:21]} 15. exf5
{[%clk 1:16:39]} gxf5 {[%clk 1:05:53]} 16. Nh3 {[%clk 1:16:03]} Nc7
{[%clk 1:00:35]} 17. a5 {[%clk 1:14:59]} b5 {[%clk 0:58:02]} 18. axb6
{[%clk 1:15:09]} Rxb6 {[%clk 0:58:24]} 19. Bg5 {[%clk 1:14:16]} Qe8
{[%clk 0:56:33]} 20. Qd2 