[Event "Copenhagen Chess Challenge 2014"]
[Site "?"]
[Date "2014.05.16"]
[Round "5.1"]
[White "Korley, Kassa"]
[Black "Semcesen, Daniel"]
[Result "1/2-1/2"]
[LiveChessVersion "1.4.2"]
[BlackElo "2513"]
[WhiteElo "2390"]
[ECO "C68"]

1. e4 {[%clk 1:30:14]} e5 {[%clk 1:30:50]} 2. Nf3 {[%clk 1:30:40]} Nc6
{[%clk 1:31:12]} 3. Bb5 {[%clk 1:29:03]} a6 {[%clk 1:30:23]} 4. Bxc6
{[%clk 1:27:22]} dxc6 {[%clk 1:30:11]} 5. O-O {[%clk 1:27:49]} Qf6
{[%clk 1:30:50]} 6. d3 {[%clk 1:26:12]} Ne7 {[%clk 1:28:42]} 7. Nbd2
{[%clk 1:12:02]} Ng6 {[%clk 1:24:03]} 8. Nc4 {[%clk 1:00:13]} Bg4
{[%clk 1:17:28]} 9. h3 {[%clk 1:00:37]} Bxf3 {[%clk 1:17:01]} 10. Qxf3
{[%clk 1:01:04]} Qxf3 {[%clk 1:17:18]} 11. gxf3 {[%clk 1:01:32]} O-O-O
{[%clk 1:16:49]} 12. Kg2 {[%clk 1:01:47]} Be7 {[%clk 1:15:00]} 13. Rg1
{[%clk 1:02:08]} Rhg8 {[%clk 1:06:54]} 14. Kf1 {[%clk 1:02:17]} f6
{[%clk 1:06:12]} 15. Rg4 {[%clk 1:01:41]} Nf8 {[%clk 1:06:03]} 16. f4
{[%clk 1:00:35]} exf4 {[%clk 1:05:56]} 17. Bxf4 {[%clk 1:00:48]} Ne6
{[%clk 1:06:00]} 18. Be3 {[%clk 0:49:09]} Rgf8 {[%clk 0:58:31]} 19. Re1
{[%clk 0:45:58]} g6 {[%clk 0:56:50]} 20. Bh6 {[%clk 0:43:47]} Rf7
{[%clk 0:56:44]} 21. f4 {[%clk 0:43:36]} Bf8 {[%clk 0:36:43]} 1/2-1/2

[Event "Copenhagen Chess Challenge 2014"]
[Site "?"]
[Date "2014.05.16"]
[Round "5.2"]
[White "Hoi, Carsten"]
[Black "Ziska, Helgi Dam"]
[Result "*"]
[LiveChessVersion "1.4.2"]
[BlackElo "2491"]
[WhiteElo "2397"]
[ECO "E81"]

1. d4 {[%clk 1:30:59]} Nf6 {[%clk 1:28:48]} 2. c4 {[%clk 1:30:33]} g6
{[%clk 1:29:05]} 3. Nc3 {[%clk 1:30:57]} Bg7 {[%clk 1:29:22]} 4. e4
{[%clk 1:29:59]} d6 {[%clk 1:27:51]} 5. f3 {[%clk 1:26:22]} O-O {[%clk 1:27:46]}
6. Be3 {[%clk 1:26:48]} c5 {[%clk 1:27:41]} 7. Nge2 {[%clk 1:25:45]} Nc6
{[%clk 1:27:33]} 8. d5 {[%clk 1:21:16]} Na5 {[%clk 1:26:39]} 9. Ng3
{[%clk 1:09:01]} a6 {[%clk 1:22:45]} 10. Qd2 {[%clk 1:03:41]} b5 {[%clk 1:21:51]}
11. Bh6 {[%clk 1:01:40]} e6 {[%clk 0:57:24]} 12. h4 {[%clk 0:55:22]} Bxh6
{[%clk 0:50:57]} 13. Qxh6 {[%clk 0:55:40]} b4 {[%clk 0:50:16]} 14. Nd1
{[%clk 0:53:33]} exd5 {[%clk 0:48:55]} 15. cxd5 {[%clk 0:50:48]} Qe7
{[%clk 0:47:45]} 16. Qg5 {[%clk 0:44:36]} Re8 {[%clk 0:44:12]} 17. Ne3
{[%clk 0:43:22]} Qe5 {[%clk 0:35:28]} 18. Qxe5 {[%clk 0:42:11]} dxe5
{[%clk 0:31:58]} 19. Rc1 {[%clk 0:33:03]} Nb7 {[%clk 0:31:59]} 20. Nc4
{[%clk 0:32:23]} Bd7 {[%clk 0:31:21]} 21. Nb6 {[%clk 0:27:00]} Ra7
{[%clk 0:31:19]} 22. Kd2 {[%clk 0:25:27]} Bb5 {[%clk 0:21:22]} 23. Bd3
{[%clk 0:24:25]} Rb8 {[%clk 0:20:31]} 24. Nf1 {[%clk 0:19:43]} Nd6
{[%clk 0:20:06]} 25. Nc4 {[%clk 0:19:55]} Bxc4 {[%clk 0:20:05]} 26. Bxc4
{[%clk 0:20:23]} a5 {[%clk 0:14:50]} 27. Ne3 {[%clk 0:18:30]} Nd7
{[%clk 0:15:01]} 28. h5 {[%clk 0:16:32]} Kg7 {[%clk 0:09:58]} 29. Bd3
{[%clk 0:12:55]} a4 {[%clk 0:07:19]} 30. g3 {[%clk 0:12:25]} a3 {[%clk 0:07:05]}
31. b3 {[%clk 0:12:36]} *

[Event "Copenhagen Chess Challenge 2014"]
[Site "?"]
[Date "2014.05.16"]
[Round "5.3"]
[White "Danielsen, Henrik"]
[Black "Fries-Nielsen, Jens Ove"]
[Result "0-1"]
[LiveChessVersion "1.4.2"]
[BlackElo "2384"]
[WhiteElo "2483"]
[ECO "A13"]

1. c4 {[%clk 1:30:56]} e6 {[%clk 1:30:02]} 2. Nf3 {[%clk 1:28:37]} g6
{[%clk 1:30:03]} 3. g3 {[%clk 1:28:19]} Bg7 {[%clk 1:30:28]} 4. Bg2
{[%clk 1:28:42]} Ne7 {[%clk 1:30:55]} 5. O-O {[%clk 1:29:02]} d6 {[%clk 1:31:19]}
6. d4 {[%clk 1:28:51]} Nd7 {[%clk 1:31:44]} 7. Nc3 {[%clk 1:28:56]} a6
{[%clk 1:32:03]} 8. Re1 {[%clk 1:28:37]} Rb8 {[%clk 1:32:29]} 9. a4
{[%clk 1:23:43]} O-O {[%clk 1:29:26]} 10. Rb1 {[%clk 1:22:11]} h6
{[%clk 1:23:01]} 11. b3 {[%clk 1:22:15]} b6 {[%clk 1:19:53]} 12. Ba3
{[%clk 1:21:35]} Bb7 {[%clk 1:17:43]} 13. e3 {[%clk 1:20:57]} c5 {[%clk 1:17:48]}
14. Rc1 {[%clk 1:19:04]} Nf5 {[%clk 1:07:06]} 15. d5 {[%clk 1:14:41]} e5
{[%clk 1:07:22]} 16. Nd2 {[%clk 1:11:14]} Ne7 {[%clk 0:58:26]} 17. Nde4
{[%clk 0:59:15]} Nc8 {[%clk 0:58:46]} 18. f4 {[%clk 0:58:54]} f5 {[%clk 0:58:21]}
19. Nf2 {[%clk 0:58:57]} Ne7 {[%clk 0:56:52]} 20. Rc2 {[%clk 0:56:33]} Bc8
{[%clk 0:55:01]} 21. Bc1 {[%clk 0:55:41]} g5 {[%clk 0:54:29]} 22. e4
{[%clk 0:53:21]} exf4 {[%clk 0:53:45]} 23. gxf4 {[%clk 0:53:32]} gxf4
{[%clk 0:51:32]} 24. Bxf4 {[%clk 0:53:01]} Ne5 {[%clk 0:51:44]} 25. Qh5
{[%clk 0:50:35]} N7g6 {[%clk 0:51:12]} 26. Bxh6 {[%clk 0:49:37]} Bxh6
{[%clk 0:46:45]} 27. Qxh6 {[%clk 0:49:37]} f4 {[%clk 0:45:42]} 28. Bh3
{[%clk 0:47:39]} Rb7 {[%clk 0:45:10]} 29. Bxc8 {[%clk 0:46:47]} Qxc8
{[%clk 0:44:16]} 30. Qh5 {[%clk 0:41:47]} Rh7 {[%clk 0:44:10]} 31. Qd1
{[%clk 0:42:04]} Nh4 {[%clk 0:40:35]} 0-1

[Event "Copenhagen Chess Challenge 2014"]
[Site "?"]
[Date "2014.05.16"]
[Round "5.4"]
[White "Stefansson, Hannes"]
[Black "Sylvan, Jacob"]
[Result "1/2-1/2"]
[LiveChessVersion "1.4.2"]
[BlackElo "2348"]
[WhiteElo "2548"]
[ECO "E81"]

1. d4 {[%clk 1:30:50]} Nf6 {[%clk 1:30:06]} 2. c4 {[%clk 1:31:05]} g6
{[%clk 1:30:22]} 3. f3 {[%clk 1:29:57]} Bg7 {[%clk 1:24:56]} 4. e4
{[%clk 1:30:14]} d6 {[%clk 1:25:18]} 5. Nc3 {[%clk 1:30:33]} O-O {[%clk 1:25:37]}
6. Nge2 {[%clk 1:30:45]} c5 {[%clk 1:24:43]} 7. d5 {[%clk 1:30:46]} e6
{[%clk 1:23:53]} 8. Ng3 {[%clk 1:30:56]} exd5 {[%clk 1:23:42]} 9. cxd5
{[%clk 1:31:20]} Nbd7 {[%clk 1:18:04]} 10. Be2 {[%clk 1:30:56]} a6
{[%clk 1:16:39]} 11. a4 {[%clk 1:31:03]} Ne5 {[%clk 1:15:31]} 12. O-O
{[%clk 1:29:12]} Rb8 {[%clk 1:13:50]} 13. Nh1 {[%clk 1:22:26]} Ne8
{[%clk 1:07:58]} 14. Nf2 {[%clk 1:20:36]} f5 {[%clk 1:07:21]} 15. exf5
{[%clk 1:16:39]} gxf5 {[%clk 1:05:53]} 16. Nh3 {[%clk 1:16:03]} Nc7
{[%clk 1:00:35]} 17. a5 {[%clk 1:14:59]} b5 {[%clk 0:58:02]} 18. axb6
{[%clk 1:15:09]} Rxb6 {[%clk 0:58:24]} 19. Bg5 {[%clk 1:14:16]} Qe8
{[%clk 0:56:33]} 20. Qd2 {[%clk 1:14:28]} Ng6 {[%clk 0:51:51]} 21. Rae1
{[%clk 1:06:19]} Qf7 {[%clk 0:49:43]} 22. Nf4 {[%clk 1:06:29]} h6
{[%clk 0:46:41]} 23. Nxg6 {[%clk 1:06:21]} Qxg6 {[%clk 0:43:04]} 24. Be7
{[%clk 0:55:56]} Re8 {[%clk 0:42:02]} 25. Bc4 {[%clk 0:56:14]} Rb4
{[%clk 0:36:00]} 26. Ba2 {[%clk 0:56:12]} Nb5 {[%clk 0:34:41]} 27. f4
{[%clk 0:50:36]} Kh7 {[%clk 0:25:44]} 28. Bh4 {[%clk 0:46:41]} 1/2-1/2

[Event "Copenhagen Chess Challenge 2014"]
[Site "?"]
[Date "2014.05.16"]
[Round "5.5"]
[White "Mikkelsen, Nikolaj"]
[Black "Larsen, Tor Ketil"]
[Result "1-0"]
[LiveChessVersion "1.4.2"]
[BlackElo "2004"]
[WhiteElo "2430"]
[ECO "B01"]

1. e4 {[%clk 1:30:29]} d5 {[%clk 1:29:32]} 2. exd5 {[%clk 1:30:09]} Qxd5
{[%clk 1:29:54]} 3. Nc3 {[%clk 1:30:33]} Qd6 {[%clk 1:30:20]} 4. d4
{[%clk 1:30:17]} Nf6 {[%clk 1:30:28]} 5. Nf3 {[%clk 1:29:43]} a6 {[%clk 1:30:50]}
6. g3 {[%clk 1:29:22]} b5 {[%clk 1:26:59]} 7. Bg2 {[%clk 1:24:37]} Bb7
{[%clk 1:27:05]} 8. O-O {[%clk 1:24:27]} e6 {[%clk 1:27:19]} 9. a4
{[%clk 1:10:18]} b4 {[%clk 1:25:25]} 10. Ne2 {[%clk 1:10:41]} a5 {[%clk 1:24:58]}
11. c4 {[%clk 1:09:27]} c5 {[%clk 1:21:04]} 12. Be3 {[%clk 1:05:38]} Qb6
{[%clk 1:17:29]} 13. d5 {[%clk 0:53:27]} exd5 {[%clk 1:17:12]} 14. cxd5
{[%clk 0:53:49]} Nxd5 {[%clk 1:12:45]} 15. Nf4 {[%clk 0:52:54]} Nxe3
{[%clk 1:10:13]} 16. Re1 {[%clk 0:52:51]} Be7 {[%clk 1:09:22]} 17. Rxe3
{[%clk 0:53:02]} Ra7 {[%clk 1:08:18]} 18. Qe2 {[%clk 0:48:26]} Ba6
{[%clk 0:56:43]} 19. Rxe7+ {[%clk 0:48:19]} Rxe7 {[%clk 0:56:20]} 20. Qxe7+
{[%clk 0:48:44]} Kxe7 {[%clk 0:56:48]} 21. Nd5+ {[%clk 0:49:07]} Kd6
{[%clk 0:57:12]} 22. Nxb6 {[%clk 0:49:32]} Kc6 {[%clk 0:57:33]} 23. Nc4
{[%clk 0:49:58]} Kd5 {[%clk 0:54:42]} 24. Rc1 {[%clk 0:44:31]} Bxc4
{[%clk 0:53:40]} 25. Nd2+ {[%clk 0:44:54]} Kd4 {[%clk 0:53:58]} 26. Nxc4
{[%clk 0:45:01]} f5 {[%clk 0:51:46]} 27. Rd1+ {[%clk 0:45:04]} Kxc4
{[%clk 0:51:50]} 28. Bd5# {[%clk 0:45:29]} 1-0

[Event "Copenhagen Chess Challenge 2014"]
[Site "?"]
[Date "2014.05.16"]
[Round "5.6"]
[White "Hansen, Mads"]
[Black "Mueller, Reinhold"]
[Result "1-0"]
[LiveChessVersion "1.4.2"]
[BlackElo "2282"]
[WhiteElo "2358"]
[ECO "A11"]

1. c4 {[%clk 1:30:54]} c6 {[%clk 1:30:09]} 2. Nf3 {[%clk 1:31:10]} d5
{[%clk 1:30:27]} 3. g3 {[%clk 1:31:32]} dxc4 {[%clk 1:29:43]} 4. Bg2
{[%clk 1:31:49]} b5 {[%clk 1:29:08]} 5. a4 {[%clk 1:30:33]} Bb7 {[%clk 1:25:57]}
6. b3 {[%clk 1:27:56]} cxb3 {[%clk 1:25:57]} 7. Qxb3 {[%clk 1:28:05]} a6
{[%clk 1:23:58]} 8. Ba3 {[%clk 1:25:53]} Nd7 {[%clk 1:18:34]} 9. O-O
{[%clk 1:24:39]} e6 {[%clk 1:17:09]} 10. Bxf8 {[%clk 1:24:25]} Nxf8
{[%clk 1:17:13]} 11. Nc3 {[%clk 1:04:30]} Nf6 {[%clk 1:14:46]} 12. Ne5
{[%clk 1:04:10]} Qb6 {[%clk 0:56:23]} 13. Nc4 {[%clk 0:50:55]} Qc5
{[%clk 0:29:31]} 14. Na5 {[%clk 0:51:06]} Rb8 {[%clk 0:28:49]} 15. Rfc1
{[%clk 0:49:43]} Qb6 {[%clk 0:17:26]} 16. axb5 {[%clk 0:49:24]} axb5
{[%clk 0:15:28]} 17. Nxb7 {[%clk 0:41:00]} Rxb7 {[%clk 0:15:36]} 18. Nxb5
{[%clk 0:40:31]} cxb5 {[%clk 0:14:07]} 19. Rc8+ {[%clk 0:40:52]} Kd7
{[%clk 0:13:50]} 20. Bxb7 {[%clk 0:40:42]} Qxb7 {[%clk 0:14:01]} 21. Rca8
{[%clk 0:34:53]} Qd5 {[%clk 0:10:50]} 22. R1a7+ {[%clk 0:35:09]} Kc6
{[%clk 0:10:31]} 23. Qc3+ {[%clk 0:35:20]} Qc4 {[%clk 0:10:36]} 24. Rc8+
{[%clk 0:35:34]} 1-0

[Event "Copenhagen Chess Challenge 2014"]
[Site "?"]
[Date "2014.05.16"]
[Round "5.7"]
[White "Westerinen, Heikki M.J."]
[Black "Thorfinnsson, Bragi"]
[Result "*"]
[LiveChessVersion "1.4.2"]
[BlackElo "2459"]
[WhiteElo "2299"]
[ECO "B94"]

1. e4 {[%clk 1:28:49]} c5 {[%clk 1:27:51]} 2. Nf3 {[%clk 1:28:59]} d6
{[%clk 1:26:49]} 3. d4 {[%clk 1:28:55]} cxd4 {[%clk 1:27:01]} 4. Nxd4
{[%clk 1:29:03]} Nf6 {[%clk 1:27:23]} 5. Nc3 {[%clk 1:29:00]} a6 {[%clk 1:27:09]}
6. Bg5 {[%clk 1:28:31]} Nbd7 {[%clk 1:26:09]} 7. Bc4 {[%clk 1:19:39]} Qa5
{[%clk 1:19:01]} 8. Qd2 {[%clk 1:14:06]} h6 {[%clk 1:01:25]} 9. Nd5
{[%clk 1:06:17]} Qc5 {[%clk 0:51:19]} 10. Bxf6 {[%clk 1:05:49]} Nxf6
{[%clk 0:50:36]} 11. Qd3 {[%clk 0:50:52]} Nxd5 {[%clk 0:44:12]} 12. exd5
{[%clk 0:50:48]} b5 {[%clk 0:42:15]} 13. Bb3 {[%clk 0:50:45]} g6 {[%clk 0:40:48]}
14. O-O {[%clk 0:44:54]} Bg7 {[%clk 0:39:48]} 15. Ne6 {[%clk 0:39:26]} Bxe6
{[%clk 0:37:53]} 16. dxe6 {[%clk 0:39:51]} f5 {[%clk 0:38:09]} 17. Qg3
{[%clk 0:30:10]} g5 {[%clk 0:37:33]} 18. c3 {[%clk 0:28:54]} O-O {[%clk 0:31:38]}
19. Rad1 {[%clk 0:26:57]} Qe5 {[%clk 0:27:12]} 20. f4 {[%clk 0:20:55]} gxf4
{[%clk 0:25:39]} 21. Rxf4 {[%clk 0:20:44]} Kh8 {[%clk 0:25:42]} 22. Qf3
{[%clk 0:15:51]} a5 {[%clk 0:20:57]} 23. Rf1 {[%clk 0:15:03]} b4 {[%clk 0:15:36]}
24. cxb4 {[%clk 0:07:31]} axb4 {[%clk 0:15:51]} 25. Qb7 {[%clk 0:07:04]} Qc5+
{[%clk 0:11:08]} 26. Kh1 {[%clk 0:07:22]} Ra7 {[%clk 0:10:13]} 27. Qxb4
{[%clk 0:07:01]} Qxb4 {[%clk 0:10:04]} 28. Rxb4 {[%clk 0:07:28]} Bxb2
{[%clk 0:10:23]} *

[Event "Copenhagen Chess Challenge 2014"]
[Site "?"]
[Date "2014.05.16"]
[Round "5.8"]
[White "Hector, Jonny"]
[Black "Thuesen, Mogens"]
[Result "1-0"]
[LiveChessVersion "1.4.2"]
[BlackElo "2235"]
[WhiteElo "2511"]
[ECO "B45"]

1. e4 {[%clk 1:30:39]} c5 {[%clk 1:30:37]} 2. Nf3 {[%clk 1:31:03]} Nc6
{[%clk 1:30:54]} 3. Nc3 {[%clk 1:31:25]} e6 {[%clk 1:30:39]} 4. d4
{[%clk 1:31:44]} cxd4 {[%clk 1:31:03]} 5. Nxd4 {[%clk 1:32:05]} Nf6
{[%clk 1:31:27]} 6. Nxc6 {[%clk 1:31:48]} bxc6 {[%clk 1:31:49]} 7. e5
{[%clk 1:32:05]} Nd5 {[%clk 1:32:11]} 8. Ne4 {[%clk 1:32:21]} Qc7
{[%clk 1:32:27]} 9. f4 {[%clk 1:31:59]} Qb6 10. c4 {[%clk 1:31:47]} Ne3
{[%clk 1:32:25]} 11. Qd3 {[%clk 1:29:05]} Nf5 {[%clk 1:32:47]} 12. g4
{[%clk 1:18:13]} Nd4 {[%clk 1:33:02]} 13. Be2 {[%clk 1:08:33]} c5
{[%clk 1:22:20]} 14. Be3 {[%clk 0:55:40]} Qxb2 {[%clk 1:03:11]} 15. Rb1
{[%clk 0:54:03]} Qxe2+ {[%clk 1:03:06]} 16. Qxe2 {[%clk 0:54:25]} Nxe2
{[%clk 1:03:32]} 17. Kxe2 {[%clk 0:54:41]} Ba6 {[%clk 1:03:42]} 18. Kd3
{[%clk 0:51:42]} Rc8 {[%clk 0:56:22]} 19. Kc3 {[%clk 0:51:30]} Be7
{[%clk 0:56:19]} 20. Rhd1 {[%clk 0:51:35]} Rc7 {[%clk 0:52:58]} 21. Rb8+
{[%clk 0:49:43]} Bc8 {[%clk 0:53:04]} 22. f5 {[%clk 0:44:41]} O-O
{[%clk 0:34:24]} 23. f6 {[%clk 0:44:26]} gxf6 {[%clk 0:32:05]} 24. exf6
{[%clk 0:44:44]} Bd8 {[%clk 0:32:17]} 25. Bxc5 {[%clk 0:40:58]} Re8
{[%clk 0:28:15]} 26. Be7 {[%clk 0:35:48]} Rc6 {[%clk 0:17:26]} 27. Nd6
{[%clk 0:29:33]} Bc7 {[%clk 0:17:33]} 28. Rxc8 {[%clk 0:25:04]} Rxc8
{[%clk 0:17:43]} 29. Nxc8 {[%clk 0:25:26]} d5 {[%clk 0:14:07]} 30. Nxa7
{[%clk 0:23:38]} Rxc4+ {[%clk 0:14:31]} 31. Kb3 {[%clk 0:23:29]} Rxg4
{[%clk 0:14:11]} 32. Rc1 {[%clk 0:23:30]} 1-0

[Event "Copenhagen Chess Challenge 2014"]
[Site "?"]
[Date "2014.05.16"]
[Round "5.9"]
[White "Haub, Thorsten Michael"]
[Black "Jorgensen, Dennis"]
[Result "*"]
[LiveChessVersion "1.4.2"]
[BlackElo "2231"]
[WhiteElo "2441"]
[ECO "A00"]

1. g3 {[%clk 1:30:58]} d5 {[%clk 1:29:28]} 2. Bg2 {[%clk 1:31:23]} Nf6
{[%clk 1:28:52]} 3. d3 {[%clk 1:31:47]} c6 {[%clk 1:23:32]} 4. Nd2
{[%clk 1:32:01]} g6 {[%clk 1:23:00]} 5. e4 {[%clk 1:32:10]} dxe4 {[%clk 1:23:14]}
6. dxe4 {[%clk 1:32:32]} Bg7 {[%clk 1:23:27]} 7. Ngf3 {[%clk 1:32:34]} O-O
{[%clk 1:23:41]} 8. O-O {[%clk 1:32:54]} Na6 {[%clk 1:24:02]} 9. Qe2
{[%clk 1:32:47]} Nc5 {[%clk 1:23:58]} 10. e5 {[%clk 1:31:49]} Nd5
{[%clk 1:23:50]} 11. Nb3 {[%clk 1:30:04]} Nxb3 {[%clk 1:20:41]} 12. axb3
{[%clk 1:30:25]} Bg4 {[%clk 1:14:55]} 13. h3 {[%clk 1:29:41]} Be6
{[%clk 1:10:53]} 14. Bd2 {[%clk 1:24:00]} Qc8 {[%clk 1:09:55]} 15. Kh2
{[%clk 1:24:10]} Nc7 {[%clk 1:08:26]} 16. c4 {[%clk 1:22:53]} Rd8
{[%clk 1:04:24]} 17. Bc3 {[%clk 1:21:42]} Na6 {[%clk 1:00:43]} 18. Nd4
{[%clk 1:20:18]} Nc7 {[%clk 0:54:57]} 19. f4 {[%clk 1:16:54]} f5 {[%clk 0:54:17]}
20. Qe3 {[%clk 1:15:59]} Bf7 {[%clk 0:52:30]} 21. Rfe1 {[%clk 1:10:32]} e6
{[%clk 0:52:40]} 22. g4 {[%clk 1:09:46]} Kh8 {[%clk 0:49:37]} 23. Rg1
{[%clk 1:09:13]} Qd7 {[%clk 0:49:12]} 24. Bf3 {[%clk 1:07:32]} Qe7
{[%clk 0:49:09]} 25. Rg3 {[%clk 1:05:10]} Rg8 {[%clk 0:41:57]} 26. Rag1
{[%clk 0:57:41]} c5 {[%clk 0:39:36]} 27. Nxf5 {[%clk 0:52:00]} exf5
{[%clk 0:35:00]} 28. gxf5 {[%clk 0:52:14]} Rae8 {[%clk 0:33:58]} 29. fxg6
{[%clk 0:48:23]} Bxg6 {[%clk 0:32:45]} 30. Be4 {[%clk 0:47:51]} Bxe4
{[%clk 0:31:12]} 31. Qxe4 {[%clk 0:48:05]} Ne6 {[%clk 0:31:32]} 32. f5
{[%clk 0:28:25]} Nd4 {[%clk 0:31:51]} 33. Rxg7 {[%clk 0:28:29]} Rxg7
{[%clk 0:31:08]} 34. f6 {[%clk 0:28:53]} Rxg1 {[%clk 0:19:48]} 35. fxe7
{[%clk 0:29:14]} Rg7 {[%clk 0:19:54]} 36. b4 {[%clk 0:28:46]} Ne6
{[%clk 0:12:04]} 37. Qxb7 {[%clk 0:27:46]} Rexe7 {[%clk 0:11:18]} 38. Qd5
{[%clk 0:23:23]} cxb4 {[%clk 0:11:36]} 39. Bxb4 {[%clk 0:23:26]} Ref7
{[%clk 0:11:43]} 40. Be1 {[%clk 0:23:03]} Ng5 {[%clk 0:11:27]} 41. Bg3
{[%clk 0:20:25]} Nf3+ {[%clk 0:11:47]} 42. Kg2 {[%clk 0:20:49]} *

[Event "Copenhagen Chess Challenge 2014"]
[Site "?"]
[Date "2014.05.16"]
[Round "5.10"]
[White "Vesterli, Michael E."]
[Black "Thorhallsson, Throstur"]
[Result "*"]
[LiveChessVersion "1.4.2"]
[BlackElo "2437"]
[WhiteElo "2107"]
[ECO "D31"]

1. d4 {[%clk 1:30:57]} d5 {[%clk 1:29:51]} 2. c4 {[%clk 1:31:19]} e6
{[%clk 1:30:07]} 3. Nc3 {[%clk 1:31:43]} Be7 {[%clk 1:30:17]} 4. Nf3
{[%clk 1:32:03]} Nf6 {[%clk 1:30:28]} 5. Bg5 {[%clk 1:32:05]} c6 {[%clk 1:30:00]}
6. e3 {[%clk 1:32:26]} Nbd7 {[%clk 1:29:51]} 7. Qc2 {[%clk 1:31:42]} O-O
{[%clk 1:29:51]} 8. Rd1 {[%clk 1:31:16]} Re8 {[%clk 1:23:46]} 9. a3
{[%clk 1:29:44]} b6 {[%clk 1:21:26]} 10. cxd5 {[%clk 1:29:52]} exd5
{[%clk 1:21:06]} 11. Be2 {[%clk 1:26:57]} Bb7 {[%clk 1:17:12]} 12. O-O
{[%clk 1:26:59]} Ne4 {[%clk 1:12:40]} 13. Bxe7 {[%clk 1:25:17]} Qxe7
{[%clk 1:12:56]} 14. Nxe4 {[%clk 1:21:18]} dxe4 {[%clk 1:13:15]} 15. Nd2
{[%clk 1:21:40]} c5 {[%clk 1:08:57]} 16. dxc5 {[%clk 1:15:59]} Nxc5
{[%clk 1:08:37]} 17. b4 {[%clk 1:15:18]} Nd7 {[%clk 0:50:35]} 18. Qc7
{[%clk 1:04:53]} Ne5 {[%clk 0:47:56]} 19. Rc1 {[%clk 1:04:58]} Kf8
{[%clk 0:37:40]} 20. Qxe7+ {[%clk 0:39:30]} Rxe7 {[%clk 0:37:53]} 21. Rc3
{[%clk 0:39:05]} a5 {[%clk 0:30:00]} 22. bxa5 {[%clk 0:36:24]} Rxa5
{[%clk 0:30:19]} 23. Rb1 {[%clk 0:35:39]} Rd7 {[%clk 0:24:52]} 24. Nf1
{[%clk 0:30:16]} Rd6 {[%clk 0:23:32]} 25. Ng3 {[%clk 0:29:00]} g6
{[%clk 0:23:16]} 26. Rcb3 {[%clk 0:23:15]} Nd7 {[%clk 0:21:22]} 27. h3
{[%clk 0:21:52]} Rd2 {[%clk 0:19:15]} 28. Rc3 {[%clk 0:18:42]} f5
{[%clk 0:14:20]} 29. Rc7 {[%clk 0:18:38]} Ba6 {[%clk 0:14:29]} 30. Bxa6
{[%clk 0:08:42]} Rxa6 {[%clk 0:14:50]} 31. Rb3 {[%clk 0:07:43]} Ke7
{[%clk 0:12:44]} 32. Rc8 {[%clk 0:07:51]} *

[Event "Copenhagen Chess Challenge 2014"]
[Site "?"]
[Date "2014.05.16"]
[Round "5.11"]
[White "Christensen, Tobias"]
[Black "Sorensen, Per Settergren"]
[Result "1/2-1/2"]
[LiveChessVersion "1.4.2"]
[BlackElo "2021"]
[WhiteElo "2368"]
[ECO "C47"]

1. e4 {[%clk 1:30:59]} e5 {[%clk 1:30:23]} 2. Nf3 {[%clk 1:31:23]} Nc6
{[%clk 1:30:48]} 3. Nc3 {[%clk 1:31:30]} Nf6 {[%clk 1:30:53]} 4. h3
{[%clk 1:31:57]} Bb4 {[%clk 1:29:20]} 5. Nd5 {[%clk 1:32:19]} O-O
{[%clk 1:24:31]} 6. Nxb4 {[%clk 1:29:40]} Nxb4 {[%clk 1:24:49]} 7. c3
{[%clk 1:25:03]} Nc6 {[%clk 1:24:36]} 8. d3 {[%clk 1:24:46]} d5 {[%clk 1:23:12]}
9. Qc2 {[%clk 1:24:49]} a5 {[%clk 1:19:00]} 10. Bg5 {[%clk 1:16:19]} Be6
{[%clk 1:13:04]} 11. Be2 {[%clk 1:14:44]} h6 {[%clk 1:09:49]} 12. Bh4
{[%clk 1:14:18]} Qe7 {[%clk 1:09:41]} 13. O-O {[%clk 1:13:51]} Rfd8
{[%clk 1:07:30]} 14. Rfe1 {[%clk 0:57:26]} dxe4 {[%clk 0:58:30]} 15. dxe4
{[%clk 0:57:39]} Rd6 {[%clk 0:58:28]} 16. Nxe5 {[%clk 0:51:02]} Nxe5
{[%clk 0:56:01]} 17. f4 {[%clk 0:51:26]} Ng6 {[%clk 0:55:27]} 18. Bxf6
{[%clk 0:41:17]} Qxf6 {[%clk 0:52:44]} 19. e5 {[%clk 0:38:29]} Nxe5
{[%clk 0:51:20]} 20. fxe5 {[%clk 0:36:28]} Qxe5 {[%clk 0:51:46]} 21. Bf3
{[%clk 0:29:09]} Qg5 {[%clk 0:50:19]} 22. Rad1 {[%clk 0:28:14]} Rad8
{[%clk 0:46:26]} 23. Rxd6 {[%clk 0:28:21]} Rxd6 {[%clk 0:46:47]} 24. Bxb7
{[%clk 0:26:29]} Rd2 {[%clk 0:45:08]} 25. Qa4 {[%clk 0:26:10]} Bxh3
{[%clk 0:36:40]} 26. Qe8+ {[%clk 0:25:17]} Kh7 {[%clk 0:35:31]} 27. Re2
{[%clk 0:25:26]} Rd1+ {[%clk 0:29:00]} 28. Re1 {[%clk 0:23:16]} Rd2
{[%clk 0:28:30]} 29. Re2 {[%clk 0:23:26]} Qc5+ {[%clk 0:23:31]} 30. Kh2
{[%clk 0:18:26]} Bd7 {[%clk 0:17:28]} 31. Qe5 {[%clk 0:11:57]} Qxe5+
{[%clk 0:16:25]} 1/2-1/2

[Event "Copenhagen Chess Challenge 2014"]
[Site "?"]
[Date "2014.05.16"]
[Round "5.12"]
[White "Bjerre, Tavs"]
[Black "Ochsner, Bjorn Moller"]
[Result "0-1"]
[LiveChessVersion "1.4.2"]
[BlackElo "2307"]
[WhiteElo "2067"]
[ECO "E58"]

1. d4 {[%clk 1:30:33]} Nf6 {[%clk 1:30:59]} 2. c4 {[%clk 1:30:56]} e6
{[%clk 1:31:16]} 3. Nc3 {[%clk 1:30:42]} Bb4 {[%clk 1:31:38]} 4. e3
{[%clk 1:29:34]} c5 {[%clk 1:31:51]} 5. Bd3 {[%clk 1:29:31]} O-O {[%clk 1:32:09]}
6. Nf3 {[%clk 1:28:24]} d5 {[%clk 1:32:04]} 7. O-O {[%clk 1:28:15]} Nc6
{[%clk 1:32:23]} 8. a3 {[%clk 1:27:39]} Bxc3 {[%clk 1:32:47]} 9. bxc3
{[%clk 1:28:05]} Qc7 {[%clk 1:32:26]} 10. Bb2 {[%clk 1:26:47]} Na5
{[%clk 1:30:49]} 11. cxd5 {[%clk 1:22:44]} exd5 {[%clk 1:31:17]} 12. Ne5
{[%clk 1:21:57]} c4 {[%clk 1:31:05]} 13. Bc2 {[%clk 1:21:34]} Ne4
{[%clk 1:29:39]} 14. Nf3 {[%clk 1:07:08]} Bg4 {[%clk 1:28:03]} 15. h3
{[%clk 1:00:08]} Bxf3 {[%clk 1:28:06]} 16. gxf3 {[%clk 0:59:55]} Nf6
{[%clk 1:24:17]} 17. e4 {[%clk 0:51:06]} Qf4 {[%clk 1:23:32]} 18. e5
{[%clk 0:42:10]} Nh5 {[%clk 1:22:14]} 19. Bc1 {[%clk 0:41:00]} Qh4
{[%clk 1:22:31]} 20. Kg2 {[%clk 0:35:05]} Rae8 {[%clk 1:12:09]} 21. Qd2
{[%clk 0:29:53]} f6 {[%clk 1:10:44]} 22. exf6 {[%clk 0:27:53]} Qxf6
{[%clk 1:09:31]} 23. Qg5 {[%clk 0:19:19]} Qxf3+ {[%clk 1:08:44]} 24. Kg1
{[%clk 0:19:24]} Nf6 {[%clk 1:06:14]} 25. Qg3 {[%clk 0:14:00]} Ne4
{[%clk 1:01:41]} 26. Qxf3 {[%clk 0:08:31]} Rxf3 {[%clk 1:02:09]} 27. Bxe4
{[%clk 0:08:49]} Rxe4 {[%clk 1:02:25]} 28. Kg2 {[%clk 0:09:11]} Rd3
{[%clk 1:02:20]} 0-1

[Event "Copenhagen Chess Challenge 2014"]
[Site "?"]
[Date "2014.05.16"]
[Round "5.13"]
[White "Pedersen, Daniel Vesterbaek"]
[Black "Karlsson, Ulf"]
[Result "*"]
[LiveChessVersion "1.4.2"]
[BlackElo "1959"]
[WhiteElo "2244"]
[ECO "B30"]

1. e4 {[%clk 1:30:55]} c5 {[%clk 1:30:46]} 2. Nf3 {[%clk 1:31:19]} Nc6
{[%clk 1:31:01]} 3. c3 {[%clk 1:31:43]} d5 {[%clk 1:28:33]} 4. exd5
{[%clk 1:32:07]} Qxd5 {[%clk 1:28:57]} 5. d4 {[%clk 1:32:31]} Bg4
{[%clk 1:21:11]} 6. dxc5 {[%clk 1:32:56]} Qxc5 {[%clk 1:18:50]} 7. Na3
{[%clk 1:30:15]} Rd8 {[%clk 1:13:27]} 8. Qb3 {[%clk 1:25:41]} Bxf3
{[%clk 1:12:09]} 9. gxf3 {[%clk 1:26:06]} Qd5 {[%clk 1:12:30]} 10. Qxd5
{[%clk 1:22:30]} Rxd5 {[%clk 1:12:58]} 11. Nb5 {[%clk 1:22:51]} Rd7
{[%clk 1:06:32]} 12. Nd4 {[%clk 1:13:28]} Nxd4 {[%clk 1:03:26]} 13. cxd4
{[%clk 1:13:53]} a6 {[%clk 1:03:46]} 14. b4 {[%clk 1:14:06]} e6 {[%clk 1:03:56]}
15. Bd2 {[%clk 1:13:53]} Nf6 {[%clk 0:59:27]} 16. b5 {[%clk 1:08:18]} Rxd4
{[%clk 0:58:53]} 17. bxa6 {[%clk 1:01:41]} bxa6 {[%clk 0:59:16]} 18. Rb1
{[%clk 1:02:01]} Bd6 {[%clk 0:57:20]} 19. Bxa6 {[%clk 0:53:05]} O-O
{[%clk 0:55:51]} 20. Bb5 {[%clk 0:49:59]} Nd5 {[%clk 0:55:12]} 21. a4
{[%clk 0:48:16]} Rb8 {[%clk 0:49:54]} 22. Rb3 {[%clk 0:31:53]} Bb4
{[%clk 0:34:02]} 23. Bxb4 {[%clk 0:27:26]} Nxb4 {[%clk 0:29:14]} 24. O-O
{[%clk 0:27:42]} Nc6 {[%clk 0:27:47]} 25. Rc1 {[%clk 0:26:39]} Na5
{[%clk 0:25:42]} 26. Rbc3 {[%clk 0:26:58]} g6 {[%clk 0:26:06]} 27. Kf1
{[%clk 0:20:24]} Kg7 {[%clk 0:24:57]} 28. Ke2 {[%clk 0:20:40]} Nb7
{[%clk 0:24:58]} 29. Rd3 {[%clk 0:18:38]} Rb4 {[%clk 0:23:55]} 30. Rc7
{[%clk 0:13:42]} Na5 {[%clk 0:24:08]} 31. Ke3 {[%clk 0:13:35]} R4xb5
{[%clk 0:23:22]} 32. axb5 {[%clk 0:13:49]} Rxb5 33. Kd4 {[%clk 0:10:50]} Rb4+
{[%clk 0:13:13]} 34. Kc5 {[%clk 0:09:13]} Rc4+ {[%clk 0:13:18]} *

[Event "Copenhagen Chess Challenge 2014"]
[Site "?"]
[Date "2014.05.16"]
[Round "5.14"]
[White "Quernheim, Daniel"]
[Black "Sahl, Bjarke"]
[Result "*"]
[LiveChessVersion "1.4.2"]
[BlackElo "2368"]
[WhiteElo "2032"]
[ECO "E46"]

1. d4 {[%clk 1:30:01]} Nf6 {[%clk 1:30:11]} 2. c4 {[%clk 1:30:22]} e6
{[%clk 1:29:07]} 3. Nc3 {[%clk 1:30:44]} Bb4 {[%clk 1:29:21]} 4. e3
{[%clk 1:31:05]} O-O {[%clk 1:29:45]} 5. Nge2 {[%clk 1:31:31]} b6
{[%clk 1:28:33]} 6. a3 {[%clk 1:31:28]} Be7 {[%clk 1:28:50]} 7. Ng3
{[%clk 1:29:34]} d5 {[%clk 1:28:41]} 8. Be2 {[%clk 1:29:13]} Bb7 {[%clk 1:28:23]}
9. Bf3 {[%clk 1:28:52]} a5 {[%clk 1:25:29]} 10. O-O {[%clk 1:28:29]} Ba6
{[%clk 1:24:40]} 11. b3 {[%clk 1:27:15]} c6 {[%clk 1:24:54]} 12. Be2
{[%clk 1:26:23]} Ra7 {[%clk 1:22:41]} 13. Na4 {[%clk 1:19:43]} Re8
{[%clk 1:21:03]} 14. Qc2 {[%clk 1:14:04]} Nbd7 {[%clk 1:10:17]} 15. Bb2
{[%clk 1:11:18]} Rc7 {[%clk 1:06:43]} 16. e4 {[%clk 1:01:49]} dxe4
{[%clk 0:59:50]} 17. Nxe4 {[%clk 1:01:31]} Nxe4 {[%clk 1:00:12]} 18. Qxe4
{[%clk 1:01:54]} Bf6 {[%clk 1:00:39]} 19. Rfd1 {[%clk 0:49:59]} Rc8
{[%clk 0:54:53]} 20. Bd3 {[%clk 0:46:00]} g6 {[%clk 0:54:52]} 21. Qf3
{[%clk 0:39:03]} Bg7 {[%clk 0:54:45]} 22. Be4 {[%clk 0:38:02]} Bb7
{[%clk 0:44:32]} 23. b4 {[%clk 0:35:05]} Qc7 {[%clk 0:41:06]} 24. d5
{[%clk 0:33:07]} cxd5 {[%clk 0:35:58]} 25. cxd5 {[%clk 0:33:09]} Ne5
{[%clk 0:34:44]} 26. Qb3 {[%clk 0:28:55]} exd5 {[%clk 0:33:47]} 27. Bxd5
{[%clk 0:29:08]} Bxd5 {[%clk 0:27:13]} 28. Rxd5 {[%clk 0:23:39]} Ng4
{[%clk 0:23:12]} 29. g3 {[%clk 0:21:46]} Bxb2 {[%clk 0:18:40]} 30. Qxb2
{[%clk 0:18:37]} Qc6 {[%clk 0:16:18]} 31. Qb3 {[%clk 0:14:51]} Nxf2
{[%clk 0:11:20]} 32. Rf1 {[%clk 0:12:11]} Nh3+ {[%clk 0:11:15]} 33. Kg2
{[%clk 0:12:38]} Re2+ {[%clk 0:10:56]} *

[Event "Copenhagen Chess Challenge 2014"]
[Site "?"]
[Date "2014.05.16"]
[Round "5.15"]
[White "Englert, Fabian"]
[Black "Olsen, Miriam F"]
[Result "1/2-1/2"]
[LiveChessVersion "1.4.2"]
[BlackElo "1952"]
[WhiteElo "2310"]
[ECO "B46"]

1. e4 {[%clk 1:30:58]} c5 {[%clk 1:30:54]} 2. Nf3 {[%clk 1:31:22]} e6
{[%clk 1:31:19]} 3. Nc3 {[%clk 1:31:45]} Nc6 {[%clk 1:30:29]} 4. d4
{[%clk 1:32:07]} cxd4 {[%clk 1:30:54]} 5. Nxd4 {[%clk 1:32:33]} a6
{[%clk 1:31:14]} 6. g3 {[%clk 1:32:49]} Qc7 {[%clk 1:30:05]} 7. Bg2
{[%clk 1:33:11]} Nf6 {[%clk 1:29:20]} 8. O-O {[%clk 1:33:26]} Nxd4
{[%clk 1:26:33]} 9. Qxd4 {[%clk 1:33:53]} Bc5 {[%clk 1:25:55]} 10. Bf4
{[%clk 1:33:56]} d6 {[%clk 1:10:06]} 11. Qd2 {[%clk 1:34:10]} O-O
{[%clk 1:09:11]} 12. Rad1 {[%clk 1:33:47]} Ne8 {[%clk 1:08:03]} 13. Rfe1
{[%clk 1:16:25]} Bb4 {[%clk 0:59:25]} 14. a3 {[%clk 1:12:33]} Bxc3
{[%clk 0:59:26]} 15. bxc3 {[%clk 1:12:08]} e5 {[%clk 0:59:43]} 16. Be3
{[%clk 1:11:42]} Be6 {[%clk 0:56:24]} 17. a4 {[%clk 1:05:29]} b5 {[%clk 0:51:09]}
18. axb5 {[%clk 1:04:11]} axb5 {[%clk 0:51:34]} 19. Bf1 {[%clk 1:02:35]} Ra3
{[%clk 0:46:28]} 20. Bxb5 {[%clk 1:02:35]} Rxc3 {[%clk 0:46:49]} 21. Bd3
{[%clk 1:00:39]} Nf6 {[%clk 0:37:06]} 22. Bb6 {[%clk 0:52:12]} Qc6
{[%clk 0:34:30]} 23. Ba5 {[%clk 0:51:04]} Ra3 {[%clk 0:34:56]} 24. Qb4
{[%clk 0:33:57]} Ra4 {[%clk 0:28:21]} 25. Qc3 1/2-1/2

[Event "Copenhagen Chess Challenge 2014"]
[Site "?"]
[Date "2014.05.16"]
[Round "5.16"]
[White "Nyland, Thomas"]
[Black "Rydstrom, Tom"]
[Result "*"]
[LiveChessVersion "1.4.2"]
[BlackElo "2190"]
[WhiteElo "2043"]
[ECO "C84"]

1. e4 {[%clk 1:21:22]} e5 {[%clk 1:30:33]} 2. Nf3 {[%clk 1:21:42]} Nc6
{[%clk 1:30:59]} 3. Bb5 {[%clk 1:22:05]} a6 {[%clk 1:31:06]} 4. Ba4
{[%clk 1:22:27]} Nf6 {[%clk 1:30:48]} 5. O-O {[%clk 1:21:58]} Be7
{[%clk 1:31:07]} 6. d3 {[%clk 1:21:44]} b5 {[%clk 1:31:31]} 7. Bb3
{[%clk 1:22:09]} d6 {[%clk 1:31:14]} 8. Re1 {[%clk 1:21:16]} Na5 {[%clk 1:31:07]}
9. Nbd2 {[%clk 1:20:31]} O-O {[%clk 1:31:21]} 10. Nf1 {[%clk 1:20:35]} c5
{[%clk 1:29:14]} 11. c3 {[%clk 1:20:15]} Nxb3 {[%clk 1:29:32]} 12. axb3
{[%clk 1:20:30]} Qc7 {[%clk 1:27:58]} 13. Ne3 {[%clk 1:18:42]} g6
{[%clk 1:23:09]} 14. Bd2 {[%clk 1:12:48]} Bb7 {[%clk 1:15:49]} 15. c4
{[%clk 1:12:24]} Nh5 {[%clk 1:13:36]} 16. Nd5 {[%clk 1:11:27]} Bxd5
{[%clk 1:12:08]} 17. exd5 {[%clk 1:11:19]} f5 {[%clk 1:11:59]} 18. Ng5
{[%clk 1:04:04]} Bxg5 {[%clk 1:07:53]} 19. Bxg5 {[%clk 1:04:29]} f4
{[%clk 1:02:33]} 20. Qg4 {[%clk 1:00:10]} Qf7 {[%clk 0:58:55]} 21. Ra2
{[%clk 0:47:39]} Kg7 {[%clk 0:52:09]} 22. f3 {[%clk 0:42:17]} h6 {[%clk 0:48:46]}
23. Bh4 {[%clk 0:42:38]} g5 {[%clk 0:47:26]} 24. Bf2 {[%clk 0:42:58]} Kg6
{[%clk 0:46:39]} 25. Rea1 {[%clk 0:41:21]} Qb7 {[%clk 0:41:12]} 26. h4
{[%clk 0:38:11]} Rf5 {[%clk 0:39:47]} 27. Ra5 {[%clk 0:27:51]} bxc4
{[%clk 0:38:39]} 28. dxc4 {[%clk 0:27:17]} Rf6 {[%clk 0:31:49]} 29. R1a3
{[%clk 0:24:09]} Ng7 {[%clk 0:31:15]} 30. Be1 {[%clk 0:20:43]} Nf5
{[%clk 0:29:57]} 31. h5+ {[%clk 0:17:28]} Kf7 {[%clk 0:29:29]} 32. Bc3
{[%clk 0:13:11]} Ng3 {[%clk 0:19:07]} 33. R5a4 {[%clk 0:09:11]} Kg8
{[%clk 0:16:52]} 34. b4 {[%clk 0:08:32]} cxb4 {[%clk 0:15:18]} 35. Bxb4
{[%clk 0:08:17]} *

