[Event "Copenhagen Chess Challenge 2014"]
[Site "?"]
[Date "2014.05.16"]
[Round "5.1"]
[White "Korley, Kassa"]
[Black "Semcesen, Daniel"]
[Result "1/2-1/2"]
[LiveChessVersion "1.4.2"]
[BlackElo "2513"]
[WhiteElo "2390"]
[ECO "C68"]

1. e4 {[%clk 1:30:14]} e5 {[%clk 1:30:50]} 2. Nf3 {[%clk 1:30:40]} Nc6
{[%clk 1:31:12]} 3. Bb5 {[%clk 1:29:03]} a6 {[%clk 1:30:23]} 4. Bxc6
{[%clk 1:27:22]} dxc6 {[%clk 1:30:11]} 5. O-O {[%clk 1:27:49]} Qf6
{[%clk 1:30:50]} 6. d3 {[%clk 1:26:12]} Ne7 {[%clk 1:28:42]} 7. Nbd2
{[%clk 1:12:02]} Ng6 {[%clk 1:24:03]} 8. Nc4 {[%clk 1:00:13]} Bg4
{[%clk 1:17:28]} 9. h3 {[%clk 1:00:37]} Bxf3 {[%clk 1:17:01]} 10. Qxf3
{[%clk 1:01:04]} Qxf3 {[%clk 1:17:18]} 11. gxf3 {[%clk 1:01:32]} O-O-O
{[%clk 1:16:49]} 12. Kg2 {[%clk 1:01:47]} Be7 {[%clk 1:15:00]} 13. Rg1
{[%clk 1:02:08]} Rhg8 {[%clk 1:06:54]} 14. Kf1 {[%clk 1:02:17]} f6
{[%clk 1:06:12]} 15. Rg4 {[%clk 1:01:41]} Nf8 {[%clk 1:06:03]} 16. f4
{[%clk 1:00:35]} exf4 {[%clk 1:05:56]} 17. Bxf4 {[%clk 1:00:48]} Ne6
{[%clk 1:06:00]} 18. Be3 {[%clk 0:49:09]} Rgf8 {[%clk 0:58:31]} 19. Re1
{[%clk 0:45:58]} g6 {[%clk 0:56:50]} 20. Bh6 {[%clk 0:43:47]} Rf7
{[%clk 0:56:44]} 21. f4 {[%clk 0:43:36]} Bf8 {[%clk 0:36:43]} 1/2-1/2

[Event "Copenhagen Chess Challenge 2014"]
[Site "?"]
[Date "2014.05.16"]
[Round "5.2"]
[White "Hoi, Carsten"]
[Black "Ziska, Helgi Dam"]
[Result "*"]
[LiveChessVersion "1.4.2"]
[BlackElo "2491"]
[WhiteElo "2397"]
[ECO "E81"]

1. d4 {[%clk 1:30:59]} Nf6 {[%clk 1:28:48]} 2. c4 {[%clk 1:30:33]} g6
{[%clk 1:29:05]} 3. Nc3 {[%clk 1:30:57]} Bg7 {[%clk 1:29:22]} 4. e4
{[%clk 1:29:59]} d6 {[%clk 1:27:51]} 5. f3 {[%clk 1:26:22]} O-O {[%clk 1:27:46]}
6. Be3 {[%clk 1:26:48]} c5 {[%clk 1:27:41]} 7. Nge2 {[%clk 1:25:45]} Nc6
{[%clk 1:27:33]} 8. d5 {[%clk 1:21:16]} Na5 {[%clk 1:26:39]} 9. Ng3
{[%clk 1:09:01]} a6 {[%clk 1:22:45]} 10. Qd2 {[%clk 1:03:41]} b5 {[%clk 1:21:51]}
11. Bh6 {[%clk 1:01:40]} e6 {[%clk 0:57:24]} 12. h4 {[%clk 0:55:22]} Bxh6
{[%clk 0:50:57]} 13. Qxh6 {[%clk 0:55:40]} b4 {[%clk 0:50:16]} 14. Nd1
{[%clk 0:53:33]} exd5 {[%clk 0:48:55]} 15. cxd5 {[%clk 0:50:48]} Qe7
{[%clk 0:47:45]} 16. Qg5 {[%clk 0:44:36]} Re8 {[%clk 0:44:12]} 17. Ne3
{[%clk 0:43:22]} Qe5 {[%clk 0:35:28]} 18. Qxe5 {[%clk 0:42:11]} dxe5
{[%clk 0:31:58]} *

[Event "Copenhagen Chess Challenge 2014"]
[Site "?"]
[Date "2014.05.16"]
[Round "5.3"]
[White "Danielsen, Henrik"]
[Black "Fries-Nielsen, Jens Ove"]
[Result "*"]
[LiveChessVersion "1.4.2"]
[BlackElo "2384"]
[WhiteElo "2483"]
[ECO "A13"]

1. c4 {[%clk 1:30:56]} e6 {[%clk 1:30:02]} 2. Nf3 {[%clk 1:28:37]} g6
{[%clk 1:30:03]} 3. g3 {[%clk 1:28:19]} Bg7 {[%clk 1:30:28]} 4. Bg2
{[%clk 1:28:42]} Ne7 {[%clk 1:30:55]} 5. O-O {[%clk 1:29:02]} d6 {[%clk 1:31:19]}
6. d4 {[%clk 1:28:51]} Nd7 {[%clk 1:31:44]} 7. Nc3 {[%clk 1:28:56]} a6
{[%clk 1:32:03]} 8. Re1 {[%clk 1:28:37]} Rb8 {[%clk 1:32:29]} 9. a4
{[%clk 1:23:43]} O-O {[%clk 1:29:26]} 10. Rb1 {[%clk 1:22:11]} h6
{[%clk 1:23:01]} 11. b3 {[%clk 1:22:15]} b6 {[%clk 1:19:53]} 12. Ba3
{[%clk 1:21:35]} Bb7 {[%clk 1:17:43]} 13. e3 {[%clk 1:20:57]} c5 {[%clk 1:17:48]}
14. Rc1 {[%clk 1:19:04]} Nf5 {[%clk 1:07:06]} 15. d5 {[%clk 1:14:41]} e5
{[%clk 1:07:22]} 16. Nd2 {[%clk 1:11:14]} Ne7 {[%clk 0:58:26]} 17. Nde4
{[%clk 0:59:15]} Nc8 {[%clk 0:58:46]} 18. f4 {[%clk 0:58:54]} f5 {[%clk 0:58:21]}
19. Nf2 {[%clk 0:58:57]} Ne7 {[%clk 0:56:52]} 20. Rc2 {[%clk 0:56:33]} Bc8
{[%clk 0:55:01]} 21. Bc1 {[%clk 0:55:41]} g5 {[%clk 0:54:29]} 22. e4
{[%clk 0:53:21]} exf4 {[%clk 0:53:45]} 23. gxf4 {[%clk 0:53:32]} gxf4
{[%clk 0:51:32]} 24. Bxf4 {[%clk 0:53:01]} Ne5 {[%clk 0:51:44]} 25. Qh5
{[%clk 0:50:35]} N7g6 {[%clk 0:51:12]} 26. Bxh6 {[%clk 0:49:37]} Bxh6
{[%clk 0:46:45]} 27. Qxh6 {[%clk 0:49:37]} f4 {[%clk 0:45:42]} 28. Bh3
{[%clk 0:47:39]} Rb7 {[%clk 0:45:10]} 29. Bxc8 {[%clk 0:46:47]} Qxc8
{[%clk 0:44:16]} 30. Qh5 {[%clk 0:41:47]} Rh7 {[%clk 0:44:10]} 31. Qd1 *

[Event "Copenhagen Chess Challenge 2014"]
[Site "?"]
[Date "2014.05.16"]
[Round "5.4"]
[White "Stefansson, Hannes"]
[Black "Sylvan, Jacob"]
[Result "*"]
[LiveChessVersion "1.4.2"]
[BlackElo "2348"]
[WhiteElo "2548"]
[ECO "E81"]

1. d4 {[%clk 1:30:50]} Nf6 {[%clk 1:30:06]} 2. c4 {[%clk 1:31:05]} g6
{[%clk 1:30:22]} 3. f3 {[%clk 1:29:57]} Bg7 {[%clk 1:24:56]} 4. e4
{[%clk 1:30:14]} d6 {[%clk 1:25:18]} 5. Nc3 {[%clk 1:30:33]} O-O {[%clk 1:25:37]}
6. Nge2 {[%clk 1:30:45]} c5 {[%clk 1:24:43]} 7. d5 {[%clk 1:30:46]} e6
{[%clk 1:23:53]} 8. Ng3 {[%clk 1:30:56]} exd5 {[%clk 1:23:42]} 9. cxd5
{[%clk 1:31:20]} Nbd7 {[%clk 1:18:04]} 10. Be2 {[%clk 1:30:56]} a6
{[%clk 1:16:39]} 11. a4 {[%clk 1:31:03]} Ne5 {[%clk 1:15:31]} 12. O-O
{[%clk 1:29:12]} Rb8 {[%clk 1:13:50]} 13. Nh1 {[%clk 1:22:26]} Ne8
{[%clk 1:07:58]} 14. Nf2 {[%clk 1:20:36]} f5 {[%clk 1:07:21]} 15. exf5
{[%clk 1:16:39]} gxf5 {[%clk 1:05:53]} 16. Nh3 {[%clk 1:16:03]} Nc7
{[%clk 1:00:35]} 17. a5 {[%clk 1:14:59]} b5 {[%clk 0:58:02]} 18. axb6
{[%clk 1:15:09]} Rxb6 {[%clk 0:58:24]} 19. Bg5 {[%clk 1:14:16]} Qe8
{[%clk 0:56:33]} 20. Qd2 {[%clk 1:14:28]} Ng6 {[%clk 0:51:51]} 21. Rae1
{[%clk 1:06:19]} Qf7 {[%clk 0:49:43]} 22. Nf4 {[%clk 1:06:29]} h6
{[%clk 0:46:41]} 23. Nxg6 {[%clk 1:06:21]} Qxg6 {[%clk 0:43:04]} 24. Be7
{[%clk 0:55:56]} Re8 {[%clk 0:42:02]} 25. Bc4 {[%clk 0:56:14]} Rb4
{[%clk 0:36:00]} 26. Ba2 {[%clk 0:56:12]} Nb5 {[%clk 0:34:41]} 27. f4
{[%clk 0:50:36]} *

[Event "Copenhagen Chess Challenge 2014"]
[Site "?"]
[Date "2014.05.16"]
[Round "5.5"]
[White "Mikkelsen, Nikolaj"]
[Black "Larsen, Tor Ketil"]
[Result "1-0"]
[LiveChessVersion "1.4.2"]
[BlackElo "2004"]
[WhiteElo "2430"]
[ECO "B01"]

1. e4 {[%clk 1:30:29]} d5 {[%clk 1:29:32]} 2. exd5 {[%clk 1:30:09]} Qxd5
{[%clk 1:29:54]} 3. Nc3 {[%clk 1:30:33]} Qd6 {[%clk 1:30:20]} 4. d4
{[%clk 1:30:17]} Nf6 {[%clk 1:30:28]} 5. Nf3 {[%clk 1:29:43]} a6 {[%clk 1:30:50]}
6. g3 {[%clk 1:29:22]} b5 {[%clk 1:26:59]} 7. Bg2 {[%clk 1:24:37]} Bb7
{[%clk 1:27:05]} 8. O-O {[%clk 1:24:27]} e6 {[%clk 1:27:19]} 9. a4
{[%clk 1:10:18]} b4 {[%clk 1:25:25]} 10. Ne2 {[%clk 1:10:41]} a5 {[%clk 1:24:58]}
11. c4 {[%clk 1:09:27]} c5 {[%clk 1:21:04]} 12. Be3 {[%clk 1:05:38]} Qb6
{[%clk 1:17:29]} 13. d5 {[%clk 0:53:27]} exd5 {[%clk 1:17:12]} 14. cxd5
{[%clk 0:53:49]} Nxd5 {[%clk 1:12:45]} 15. Nf4 {[%clk 0:52:54]} Nxe3
{[%clk 1:10:13]} 16. Re1 {[%clk 0:52:51]} Be7 {[%clk 1:09:22]} 17. Rxe3
{[%clk 0:53:02]} Ra7 {[%clk 1:08:18]} 18. Qe2 {[%clk 0:48:26]} Ba6
{[%clk 0:56:43]} 19. Rxe7+ {[%clk 0:48:19]} Rxe7 {[%clk 0:56:20]} 20. Qxe7+
{[%clk 0:48:44]} Kxe7 {[%clk 0:56:48]} 21. Nd5+ {[%clk 0:49:07]} Kd6
{[%clk 0:57:12]} 22. Nxb6 {[%clk 0:49:32]} Kc6 {[%clk 0:57:33]} 23. Nc4
{[%clk 0:49:58]} Kd5 {[%clk 0:54:42]} 24. Rc1 {[%clk 0:44:31]} Bxc4
{[%clk 0:53:40]} 25. Nd2+ {[%clk 0:44:54]} Kd4 {[%clk 0:53:58]} 26. Nxc4
{[%clk 0:45:01]} f5 {[%clk 0:51:46]} 27. Rd1+ {[%clk 0:45:04]} Kxc4
{[%clk 0:51:50]} 28. Bd5# {[%clk 0:45:29]} 1-0

[Event "Copenhagen Chess Challenge 2014"]
[Site "?"]
[Date "2014.05.16"]
[Round "5.6"]
[White "Hansen, Mads"]
[Black "Mueller, Reinhold"]
[Result "*"]
[LiveChessVersion "1.4.2"]
[BlackElo "2282"]
[WhiteElo "2358"]
[ECO "A11"]

1. c4 {[%clk 1:30:54]} c6 {[%clk 1:30:09]} 2. Nf3 {[%clk 1:31:10]} d5
{[%clk 1:30:27]} 3. g3 {[%clk 1:31:32]} dxc4 {[%clk 1:29:43]} 4. Bg2
{[%clk 1:31:49]} b5 {[%clk 1:29:08]} 5. a4 {[%clk 1:30:33]} Bb7 {[%clk 1:25:57]}
6. b3 {[%clk 1:27:56]} cxb3 {[%clk 1:25:57]} 7. Qxb3 {[%clk 1:28:05]} a6
{[%clk 1:23:58]} 8. Ba3 {[%clk 1:25:53]} Nd7 {[%clk 1:18:34]} 9. O-O
{[%clk 1:24:39]} e6 {[%clk 1:17:09]} 10. Bxf8 {[%clk 1:24:25]} Nxf8
{[%clk 1:17:13]} 11. Nc3 {[%clk 1:04:30]} Nf6 {[%clk 1:14:46]} 12. Ne5
{[%clk 1:04:10]} Qb6 {[%clk 0:56:23]} 13. Nc4 {[%clk 0:50:55]} Qc5
{[%clk 0:29:31]} 14. Na5 {[%clk 0:51:06]} Rb8 {[%clk 0:28:49]} 15. Rfc1
{[%clk 0:49:43]} *

[Event "Copenhagen Chess Challenge 2014"]
[Site "?"]
[Date "2014.05.16"]
[Round "5.7"]
[White "Westerinen, Heikki M.J."]
[Black "Thorfinnsson, Bragi"]
[Result "*"]
[LiveChessVersion "1.4.2"]
[BlackElo "2459"]
[WhiteElo "2299"]
[ECO "B94"]

1. e4 {[%clk 1:28:49]} c5 {[%clk 1:27:51]} 2. Nf3 {[%clk 1:28:59]} d6
{[%clk 1:26:49]} 3. d4 {[%clk 1:28:55]} cxd4 {[%clk 1:27:01]} 4. Nxd4
{[%clk 1:29:03]} Nf6 {[%clk 1:27:23]} 5. Nc3 {[%clk 1:29:00]} a6 {[%clk 1:27:09]}
6. Bg5 {[%clk 1:28:31]} Nbd7 {[%clk 1:26:09]} 7. Bc4 {[%clk 1:19:39]} Qa5
{[%clk 1:19:01]} 8. Qd2 {[%clk 1:14:06]} h6 {[%clk 1:01:25]} 9. Nd5
{[%clk 1:06:17]} Qc5 {[%clk 0:51:19]} 10. Bxf6 {[%clk 1:05:49]} Nxf6
{[%clk 0:50:36]} 11. Qd3 {[%clk 0:50:52]} Nxd5 {[%clk 0:44:12]} 12. exd5
{[%clk 0:50:48]} b5 {[%clk 0:42:15]} 13. Bb3 {[%clk 0:50:45]} g6 {[%clk 0:40:48]}
14. O-O {[%clk 0:44:54]} Bg7 {[%clk 0:39:48]} 15. Ne6 {[