[Event "No Logo Norway Chess 2014"]
[Site "?"]
[Date "2014.06.07"]
[Round "4.1"]
[White "Caruana, Fabiano"]
[Black "Giri, Anish"]
[Result "*"]
[LiveChessVersion "1.4.2"]
[BlackElo "2752"]
[WhiteElo "2791"]
[ECO "A29"]

1. c4 {[%clk 1:59:57]} e5 {[%clk 1:59:55]} 2. Nc3 {[%clk 1:59:36]} Nf6
{[%clk 1:59:50]} 3. Nf3 {[%clk 1:59:29]} Nc6 {[%clk 1:59:47]} 4. g3
{[%clk 1:59:19]} d5 {[%clk 1:59:42]} 5. cxd5 {[%clk 1:59:14]} Nxd5
{[%clk 1:59:39]} 6. Bg2 {[%clk 1:59:04]} Nb6 {[%clk 1:59:01]} 7. O-O
{[%clk 1:58:30]} Be7 {[%clk 1:58:57]} 8. d3 {[%clk 1:56:35]} O-O {[%clk 1:58:48]}
9. a3 {[%clk 1:55:30]} Be6 {[%clk 1:58:35]} 10. Be3 {[%clk 1:54:36]} f5
{[%clk 1:56:35]} 11. Rc1 {[%clk 1:47:31]} Kh8 {[%clk 1:55:41]} 12. b4
{[%clk 1:39:46]} a6 {[%clk 1:52:47]} 13. Bc5 {[%clk 1:21:58]} Bg8
{[%clk 1:26:39]} 14. e3 {[%clk 1:00:55]} Bxc5 {[%clk 1:14:15]} 15. bxc5
{[%clk 1:00:49]} Nd5 {[%clk 1:14:13]} 16. Qd2 {[%clk 0:57:08]} Qe7
{[%clk 1:09:27]} 17. Ne2 {[%clk 0:47:45]} Rab8 {[%clk 1:02:37]} 18. Nh4
{[%clk 0:44:18]} Qf6 {[%clk 0:59:26]} 19. Qb2 {[%clk 0:36:47]} g5
{[%clk 0:54:10]} 20. Nf3 {[%clk 0:30:46]} Nde7 {[%clk 0:50:32]} 21. Rcd1
{[%clk 0:16:07]} Qg7 {[%clk 0:38:52]} 22. Nd2 {[%clk 0:11:58]} Bd5
{[%clk 0:35:14]} 23. e4 {[%clk 0:07:11]} Be6 {[%clk 0:32:44]} 24. exf5
{[%clk 0:06:49]} Nxf5 {[%clk 0:29:00]} 25. Rde1 {[%clk 0:06:47]} *

[Event "No Logo Norway Chess 2014"]
[Site "?"]
[Date "2014.06.07"]
[Round "4.2"]
[White "Karjakin, Sergey"]
[Black "Grischuk, Alexander"]
[Result "*"]
[LiveChessVersion "1.4.2"]
[BlackElo "2792"]
[WhiteElo "2771"]
[ECO "D85"]

1. d4 {[%clk 1:59:57]} Nf6 {[%clk 1:59:06]} 2. c4 {[%clk 1:59:52]} g6
{[%clk 1:57:29]} 3. Nc3 {[%clk 1:59:46]} d5 {[%clk 1:55:20]} 4. cxd5
{[%clk 1:59:39]} Nxd5 {[%clk 1:55:17]} 5. e4 {[%clk 1:59:32]} Nxc3
{[%clk 1:55:13]} 6. bxc3 {[%clk 1:59:27]} Bg7 {[%clk 1:55:09]} 7. Be3
{[%clk 1:58:33]} c5 {[%clk 1:54:06]} 8. Rc1 {[%clk 1:58:26]} Qa5 {[%clk 1:48:20]}
9. Qd2 {[%clk 1:58:18]} O-O {[%clk 1:48:05]} 10. Nf3 {[%clk 1:58:12]} Bg4
{[%clk 1:42:50]} 11. Ng5 {[%clk 1:39:15]} Na6 {[%clk 1:35:31]} 12. h3
{[%clk 1:14:26]} Bd7 {[%clk 1:35:02]} 13. Bd3 {[%clk 1:00:21]} Rac8
{[%clk 1:26:38]} 14. d5 {[%clk 0:56:57]} c4 {[%clk 1:25:07]} 15. Bb1
{[%clk 0:56:51]} Nc5 {[%clk 1:25:02]} 16. Bd4 {[%clk 0:53:34]} Bxd4
{[%clk 1:09:07]} 17. cxd4 {[%clk 0:45:56]} c3 {[%clk 1:07:35]} 18. Rxc3
{[%clk 0:45:47]} Nd3+ {[%clk 1:07:16]} 19. Rxd3 {[%clk 0:42:59]} Rc1+
{[%clk 1:05:38]} 20. Ke2 {[%clk 0:42:55]} Qxd2+ {[%clk 1:05:30]} 21. Kxd2
{[%clk 0:42:43]} Rxh1 {[%clk 1:05:21]} 22. Rb3 {[%clk 0:42:41]} b5
{[%clk 0:49:11]} 23. Nf3 {[%clk 0:38:42]} f6 {[%clk 0:31:07]} 24. Ne1
{[%clk 0:32:42]} a5 {[%clk 0:24:19]} 25. Rc3 {[%clk 0:28:47]} Rc8
{[%clk 0:15:00]} 26. Rc5 {[%clk 0:28:25]} b4 {[%clk 0:14:55]} 27. Bd3
{[%clk 0:24:58]} a4 {[%clk 0:14:23]} 28. Ra5 {[%clk 0:24:54]} *

[Event "No Logo Norway Chess 2014"]
[Site "?"]
[Date "2014.06.07"]
[Round "4.3"]
[White "Agdestein, Simen"]
[Black "Kramnik, Vladimir"]
[Result "*"]
[LiveChessVersion "1.4.2"]
[BlackElo "2783"]
[WhiteElo "2628"]
[ECO "E54"]

1. d4 {[%clk 1:59:56]} Nf6 {[%clk 1:59:55]} 2. c4 {[%clk 1:59:53]} e6
{[%clk 1:59:51]} 3. Nc3 {[%clk 1:59:48]} Bb4 {[%clk 1:59:28]} 4. e3
{[%clk 1:59:42]} O-O {[%clk 1:59:11]} 5. Bd3 {[%clk 1:59:33]} d5 {[%clk 1:59:05]}
6. Nf3 {[%clk 1:59:26]} dxc4 {[%clk 1:58:30]} 7. Bxc4 {[%clk 1:59:21]} c5
{[%clk 1:58:26]} 8. O-O {[%clk 1:59:01]} cxd4 {[%clk 1:58:24]} 9. exd4
{[%clk 1:58:41]} b6 {[%clk 1:58:07]} 10. Qe2 {[%clk 1:58:20]} Bb7
{[%clk 1:58:01]} 11. Rd1 {[%clk 1:58:07]} h6 {[%clk 1:57:47]} 12. Bb3
{[%clk 1:39:31]} Nc6 {[%clk 1:55:25]} 13. d5 {[%clk 1:32:42]} exd5
{[%clk 1:54:34]} 14. Nxd5 {[%clk 1:31:22]} Nxd5 {[%clk 1:52:18]} 15. Bxd5
{[%clk 1:29:07]} Qf6 {[%clk 1:52:08]} 16. Be3 {[%clk 1:21:31]} Rfd8
{[%clk 1:51:11]} 17. a3 {[%clk 1:15:29]} Bf8 {[%clk 1:49:35]} 18. Rd2
{[%clk 1:09:09]} Rd6 {[%clk 1:35:58]} 19. Rad1 {[%clk 1:06:55]} Rad8
{[%clk 1:33:06]} 20. h3 {[%clk 0:48:01]} Rxd5 {[%clk 1:27:36]} 21. Rxd5
{[%clk 0:47:56]} Rxd5 {[%clk 1:27:32]} 22. Rxd5 {[%clk 0:47:52]} Ne5
{[%clk 1:27:28]} 23. Rxe5 {[%clk 0:43:10]} Bxf3 {[%clk 1:27:13]} 24. Qxf3
{[%clk 0:40:39]} Qxe5 {[%clk 1:26:23]} 25. Qe2 {[%clk 0:40:00]} g6
{[%clk 1:15:20]} 26. Qd2 {[%clk 0:32:04]} Bg7 {[%clk 1:05:34]} 27. Qd8+
{[%clk 0:20:05]} Kh7 {[%clk 1:05:25]} 28. Qd7 {[%clk 0:17:38]} a5
{[%clk 1:04:41]} 29. Bxb6 {[%clk 0:13:30]} Qxb2 {[%clk 1:04:18]} 30. Bc7
{[%clk 0:07:49]} Qxa3 {[%clk 0:41:15]} 31. Qxf7 {[%clk 0:07:47]} Qc5
{[%clk 0:40:56]} 32. Kh2 {[%clk 0:07:42]} a4 {[%clk 0:40:31]} 33. f4
{[%clk 0:06:53]} Qf8 {[%clk 0:40:00]} 34. Qd7 {[%clk 0:05:28]} a3
{[%clk 0:39:22]} 35. Be5 {[%clk 0:04:43]} Kh8 {[%clk 0:37:57]} 36. Qa4
{[%clk 0:01:38]} h5 {[%clk 0:36:06]} 37. Qa7 {[%clk 0:00:36]} Bxe5 38. fxe5 *

[Event "No Logo Norway Chess 2014"]
[Site "?"]
[Date "2014.06.07"]
[Round "4.4"]
[White "Topalov, Veselin"]
[Black "Carlsen, Magnus"]
[Result "1/2-1/2"]
[LiveChessVersion "1.4.2"]
[BlackElo "2881"]
[WhiteElo "2772"]
[ECO "E21"]

1. d4 {[%clk 1:59:55]} Nf6 {[%clk 1:59:50]} 2. c4 {[%clk 1:59:51]} e6
{[%clk 1:59:42]} 3. Nc3 {[%clk 1:59:45]} Bb4 {[%clk 1:59:36]} 4. Nf3
{[%clk 1:59:40]} d5 {[%clk 1:59:07]} 5. cxd5 {[%clk 1:59:31]} exd5
{[%clk 1:58:58]} 6. Bg5 {[%clk 1:59:24]} h6 {[%clk 1:58:39]} 7. Bh4
{[%clk 1:58:48]} c5 {[%clk 1:58:34]} 8. dxc5 {[%clk 1:55:08]} Nbd7
{[%clk 1:58:18]} 9. e3 {[%clk 1:52:58]} Qa5 {[%clk 1:58:13]} 10. Nd2
{[%clk 1:52:51]} Bxc3 {[%clk 1:57:57]} 11. bxc3 {[%clk 1:52:45]} Qxc5
{[%clk 1:57:49]} 12. Rc1 {[%clk 1:48:10]} O-O {[%clk 1:57:35]} 13. Be2
{[%clk 1:47:39]} Qa3 {[%clk 1:49:17]} 14. O-O {[%clk 1:41:11]} Qxa2
{[%clk 1:46:59]} 15. c4 {[%clk 1:39:58]} Ne4 {[%clk 1:41:28]} 16. Nxe4
{[%clk 1:24:53]} dxe4 {[%clk 1:41:27]} 17. Be7 {[%clk 1:20:22]} Re8
{[%clk 1:41:20]} 18. Bd6 {[%clk 1:20:02]} Nf6 {[%clk 1:20:31]} 19. Ra1
{[%clk 1:18:33]} Qb2 {[%clk 1:19:02]} 20. c5 {[%clk 1:18:11]} a5 {[%clk 1:16:17]}
21. Rb1 {[%clk 1:04:59]} Qa2 {[%clk 1:15:49]} 22. Bb5 {[%clk 1:03:38]} Rd8
{[%clk 1:14:32]} 23. Qc1 {[%clk 0:55:31]} Qe6 {[%clk 1:06:15]} 24. Bc7
{[%clk 0:40:30]} Rf8 {[%clk 1:05:53]} 25. Bd6 {[%clk 0:32:56]} Rd8
{[%clk 1:05:46]} 26. Bc7 {[%clk 0:32:14]} Rf8 {[%clk 1:04:17]} 27. Bd6
{[%clk 0:27:33]} Rd8 {[%clk 1:04:10]} 28. Bc7 1/2-1/2

[Event "No Logo Norway Chess 2014"]
[Site "?"]
[Date "2014.06.07"]
[Round "4.5"]
[White "Aronian, Levon"]
[Black "Svidler, Peter"]
[Result "1/2-1/2"]
[LiveChessVersion "1.4.2"]
[BlackElo "2753"]
[WhiteElo "2815"]
[ECO "D85"]

1. d4 {[%clk 1:59:56]} Nf6 {[%clk 1:59:55]} 2. c4 {[%clk 1:59:46]} g6
{[%clk 1:59:50]} 3. Nc3 {[%clk 1:59:40]} d5 {[%clk 1:59:46]} 4. Nf3
{[%clk 1:59:33]} Bg7 {[%clk 1:59:41]} 5. cxd5 {[%clk 1:59:28]} Nxd5
{[%clk 1:59:38]} 6. e4 {[%clk 1:59:20]} Nxc3 {[%clk 1:59:35]} 7. bxc3
{[%clk 1:59:16]} c5 {[%clk 1:59:25]} 8. Rb1 {[%clk 1:59:12]} O-O {[%clk 1:59:19]}
9. Be2 {[%clk 1:59:07]} cxd4 {[%clk 1:56:54]} 10. cxd4 {[%clk 1:58:54]} Qa5+
{[%clk 1:56:51]} 11. Bd2 {[%clk 1:58:46]} Qxa2 {[%clk 1:56:48]} 12. O-O
{[%clk 1:58:38]} Bg4 {[%clk 1:56:40]} 13. Rxb7 {[%clk 1:55:21]} Bxf3
{[%clk 1:56:18]} 14. Bxf3 {[%clk 1:55:17]} Bxd4 {[%clk 1:56:12]} 15. Bg5
{[%clk 1:55:12]} Rd8 {[%clk 1:30:38]} 16. Qc1 {[%clk 1:54:27]} Na6
{[%clk 1:27:06]} 17. Bxe7 {[%clk 1:53:52]} Rac8 {[%clk 1:25:20]} 18. Qf4
{[%clk 1:53:47]} Nc5 {[%clk 1:19:19]} 19. Bxd8 {[%clk 1:52:36]} Nxb7
{[%clk 1:18:20]} 20. Bf6 {[%clk 1:52:34]} Bxf6 {[%clk 1:17:41]} 21. Qxf6
{[%clk 1:52:30]} Nc5 {[%clk 1:12:58]} 22. h4 {[%clk 1:49:48]} Qe6
{[%clk 1:08:31]} 23. Qa1 {[%clk 1:49:32]} Nxe4 {[%clk 0:47:33]} 24. Re1
{[%clk 1:49:24]} f5 {[%clk 0:47:29]} 25. Bxe4 {[%clk 1:48:23]} fxe4
{[%clk 0:46:04]} 26. Qxa7 {[%clk 1:48:20]} Re8 {[%clk 0:41:56]} 27. Qa4
{[%clk 1:47:07]} Re7 {[%clk 0:39:57]} 28. Re3 {[%clk 1:45:44]} Qd5
{[%clk 0:30:08]} 29. Qc2 {[%clk 1:41:09]} Kf7 {[%clk 0:28:12]} 30. Qe2
{[%clk 1:39:09]} Re6 {[%clk 0:27:04]} 31. Ra3 {[%clk 1:35:27]} Re7
{[%clk 0:25:04]} 32. Qg4 {[%clk 1:34:50]} Qf5 {[%clk 0:15:58]} 33. Qd1
{[%clk 1:33:34]} Qe5 {[%clk 0:14:44]} 34. Qd8 {[%clk 1:30:21]} Qc5
{[%clk 0:12:49]} 35. Re3 {[%clk 1:26:54]} Qc1+ {[%clk 0:12:16]} 36. Kh2
{[%clk 1:26:50]} Qc7+ {[%clk 0:10:09]} 37. Qxc7 {[%clk 1:26:46]} Rxc7
{[%clk 0:10:04]} 38. g4 {[%clk 1:24:08]} Rc4 {[%clk 0:09:07]} 39. Kg3
{[%clk 1:23:53]} h6 {[%clk 0:07:24]} 40. Ra3 {[%clk 2:21:39]} g5 {[%clk 1:06:46]}
41. Ra7+ {[%clk 2:21:34]} Kf6 {[%clk 1:06:17]} 1/2-1/2

