[Event "No Logo Norway Chess 2014 Blitz"]
[Site "?"]
[Date "2014.06.02"]
[Round "9.1"]
[White "Aronian, Levon"]
[Black "Kramnik, Vladimir"]
[Result "*"]
[LiveChessVersion "1.4.2"]
[BlackElo "2783"]
[WhiteElo "2815"]
[ECO "D37"]

1. d4 {[%clk 0:04:03]} d5 {[%clk 0:04:03]} 2. c4 {[%clk 0:04:05]} e6
{[%clk 0:04:05]} 3. Nf3 {[%clk 0:04:05]} Nf6 {[%clk 0:04:04]} 4. Nc3
{[%clk 0:04:06]} Nbd7 {[%clk 0:04:03]} 5. Bf4 {[%clk 0:04:00]} c6
{[%clk 0:03:55]} 6. e3 {[%clk 0:03:57]} Nh5 {[%clk 0:03:56]} *

[Event "No Logo Norway Chess 2014 Blitz"]
[Site "?"]
[Date "2014.06.02"]
[Round "9.2"]
[White "Karjakin, Sergey"]
[Black "Topalov, Veselin"]
[Result "*"]
[LiveChessVersion "1.4.2"]
[BlackElo "2772"]
[WhiteElo "2771"]
[ECO "A06"]

1. Nf3 {[%clk 0:04:03]} d5 {[%clk 0:04:03]} 2. g3 {[%clk 0:04:04]} c6
{[%clk 0:03:59]} 3. Bg2 {[%clk 0:04:05]} Bf5 {[%clk 0:03:56]} 4. d3
{[%clk 0:04:03]} e6 {[%clk 0:03:57]} 5. Nbd2 {[%clk 0:03:59]} h6 {[%clk 0:03:54]}
*

[Event "No Logo Norway Chess 2014 Blitz"]
[Site "?"]
[Date "2014.06.02"]
[Round "9.3"]
[White "Svidler, Peter"]
[Black "Grischuk, Alexander"]
[Result "*"]
[LiveChessVersion "1.4.2"]
[BlackElo "2792"]
[WhiteElo "2753"]
[ECO "A30"]

1. c4 {[%clk 0:04:02]} c5 {[%clk 0:03:58]} 2. Nf3 {[%clk 0:04:02]} Nc6
{[%clk 0:03:59]} 3. Nc3 {[%clk 0:03:58]} e5 {[%clk 0:03:59]} 4. g3
{[%clk 0:03:57]} g6 {[%clk 0:04:00]} 5. Bg2 {[%clk 0:03:58]} Bg7 {[%clk 0:04:01]}
6. O-O {[%clk 0:03:58]} Nge7 {[%clk 0:04:01]} *

[Event "No Logo Norway Chess 2014 Blitz"]
[Site "?"]
[Date "2014.06.02"]
[Round "9.4"]
[White "Carlsen, Magnus"]
[Black "Agdestein, Simen"]
[Result "*"]
[LiveChessVersion "1.4.2"]
[BlackElo "2628"]
[WhiteElo "2881"]
[ECO "B42"]

1. e4 {[%clk 0:04:03]} c5 {[%clk 0:04:03]} 2. Nf3 {[%clk 0:04:03]} e6
{[%clk 0:04:04]} 3. d4 {[%clk 0:04:04]} cxd4 {[%clk 0:04:06]} 4. Nxd4
{[%clk 0:04:05]} a6 {[%clk 0:04:07]} 5. Bd3 {[%clk 0:04:06]} Nf6 {[%clk 0:04:07]}
6. Qe2 {[%clk 0:04:03]} e5 {[%clk 0:04:00]} *

[Event "No Logo Norway Chess 2014 Blitz"]
[Site "?"]
[Date "2014.06.02"]
[Round "9.5"]
[White "Caruana, Fabiano"]
[Black "Giri, Anish"]
[Result "*"]
[LiveChessVersion "1.4.2"]
[BlackElo "2752"]
[WhiteElo "2791"]
[ECO "A05"]

1. Nf3 {[%clk 0:04:02]} Nf6 {[%clk 0:04:04]} 2. g3 {[%clk 0:04:02]} g6
{[%clk 0:04:04]} 3. Bg2 {[%clk 0:04:03]} Bg7 {[%clk 0:04:05]} 4. O-O
{[%clk 0:04:01]} O-O {[%clk 0:04:05]} 5. b3 {[%clk 0:03:51]} d6 {[%clk 0:03:58]}
*

