[Event "No Logo Norway Chess 2014 Blitz"]
[Site "?"]
[Date "2014.06.02"]
[Round "9.1"]
[White "Aronian, Levon"]
[Black "Kramnik, Vladimir"]
[Result "*"]
[LiveChessVersion "1.4.2"]
[BlackElo "2783"]
[WhiteElo "2815"]
[ECO "D37"]

1. d4 {[%clk 0:04:03]} d5 {[%clk 0:04:03]} 2. c4 {[%clk 0:04:05]} e6
{[%clk 0:04:05]} 3. Nf3 {[%clk 0:04:05]} Nf6 {[%clk 0:04:04]} 4. Nc3
{[%clk 0:04:06]} Nbd7 {[%clk 0:04:03]} 5. Bf4 {[%clk 0:04:00]} c6
{[%clk 0:03:55]} 6. e3 {[%clk 0:03:57]} Nh5 {[%clk 0:03:56]} 7. Bg5
{[%clk 0:03:55]} Be7 {[%clk 0:03:57]} 8. Bxe7 {[%clk 0:03:55]} Qxe7
{[%clk 0:03:58]} 9. Be2 {[%clk 0:03:48]} Nhf6 {[%clk 0:03:56]} 10. O-O
{[%clk 0:03:48]} O-O {[%clk 0:03:56]} 11. Rc1 {[%clk 0:03:41]} Rd8
{[%clk 0:03:47]} 12. Qb3 {[%clk 0:03:33]} b6 {[%clk 0:03:35]} 13. Rfd1
{[%clk 0:03:30]} Bb7 {[%clk 0:03:33]} 14. cxd5 {[%clk 0:03:12]} exd5
{[%clk 0:03:34]} 15. a3 {[%clk 0:03:13]} Nf8 {[%clk 0:03:20]} 16. Qb4
{[%clk 0:02:38]} c5 {[%clk 0:03:16]} 17. dxc5 {[%clk 0:02:39]} bxc5
{[%clk 0:03:17]} 18. Qa5 {[%clk 0:02:40]} Ne6 {[%clk 0:03:07]} 19. Na4
{[%clk 0:02:37]} *

[Event "No Logo Norway Chess 2014 Blitz"]
[Site "?"]
[Date "2014.06.02"]
[Round "9.2"]
[White "Karjakin, Sergey"]
[Black "Topalov, Veselin"]
[Result "*"]
[LiveChessVersion "1.4.2"]
[BlackElo "2772"]
[WhiteElo "2771"]
[ECO "A06"]

1. Nf3 {[%clk 0:04:03]} d5 {[%clk 0:04:03]} 2. g3 {[%clk 0:04:04]} c6
{[%clk 0:03:59]} 3. Bg2 {[%clk 0:04:05]} Bf5 {[%clk 0:03:56]} 4. d3
{[%clk 0:04:03]} e6 {[%clk 0:03:57]} 5. Nbd2 {[%clk 0:03:59]} h6 {[%clk 0:03:54]}
6. e4 {[%clk 0:03:56]} Bh7 {[%clk 0:03:55]} 7. O-O {[%clk 0:03:56]} Bd6
{[%clk 0:03:56]} 8. Qe2 {[%clk 0:03:44]} Ne7 {[%clk 0:03:57]} 9. Nh4
{[%clk 0:03:44]} g5 {[%clk 0:03:52]} 10. Nhf3 {[%clk 0:03:45]} Nd7
{[%clk 0:03:53]} 11. b4 {[%clk 0:03:25]} Qc7 {[%clk 0:03:40]} 12. Rb1
{[%clk 0:03:21]} O-O-O {[%clk 0:03:35]} 13. c4 {[%clk 0:03:12]} g4
{[%clk 0:03:20]} 14. Ne1 {[%clk 0:03:07]} h5 {[%clk 0:03:18]} 15. Nc2
{[%clk 0:03:02]} Be5 {[%clk 0:03:14]} 16. d4 {[%clk 0:02:58]} Bg7
{[%clk 0:03:13]} 17. Nb3 {[%clk 0:02:48]} e5 {[%clk 0:02:49]} *

[Event "No Logo Norway Chess 2014 Blitz"]
[Site "?"]
[Date "2014.06.02"]
[Round "9.3"]
[White "Svidler, Peter"]
[Black "Grischuk, Alexander"]
[Result "*"]
[LiveChessVersion "1.4.2"]
[BlackElo "2792"]
[WhiteElo "2753"]
[ECO "A30"]

1. c4 {[%clk 0:04:02]} c5 {[%clk 0:03:58]} 2. Nf3 {[%clk 0:04:02]} Nc6
{[%clk 0:03:59]} 3. Nc3 {[%clk 0:03:58]} e5 {[%clk 0:03:59]} 4. g3
{[%clk 0:03:57]} g6 {[%clk 0:04:00]} 5. Bg2 {[%clk 0:03:58]} Bg7 {[%clk 0:04:01]}
6. O-O {[%clk 0:03:58]} Nge7 {[%clk 0:04:01]} 7. a3 {[%clk 0:03:51]} O-O
{[%clk 0:04:01]} 8. Ne1 {[%clk 0:03:38]} d6 {[%clk 0:03:48]} 9. Nc2
{[%clk 0:03:33]} Be6 {[%clk 0:03:47]} 10. d3 {[%clk 0:03:35]} d5 {[%clk 0:03:34]}
11. cxd5 {[%clk 0:03:29]} Nxd5 {[%clk 0:03:35]} 12. Bd2 {[%clk 0:03:26]} Nd4
{[%clk 0:02:54]} 13. Nxd5 {[%clk 0:02:42]} Bxd5 {[%clk 0:02:54]} 14. Bxd5
{[%clk 0:02:42]} Qxd5 {[%clk 0:02:53]} 15. e4 {[%clk 0:02:43]} Qd7
{[%clk 0:02:37]} 16. Nxd4 {[%clk 0:02:44]} *

[Event "No Logo Norway Chess 2014 Blitz"]
[Site "?"]
[Date "2014.06.02"]
[Round "9.4"]
[White "Carlsen, Magnus"]
[Black "Agdestein, Simen"]
[Result "*"]
[LiveChessVersion "1.4.2"]
[BlackElo "2628"]
[WhiteElo "2881"]
[ECO "B42"]

1. e4 {[%clk 0:04:03]} c5 {[%clk 0:04:03]} 2. Nf3 {[%clk 0:04:03]} e6
{[%clk 0:04:04]} 3. d4 {[%clk 0:04:04]} cxd4 {[%clk 0:04:06]} 4. Nxd4
{[%clk 0:04:05]} a6 {[%clk 0:04:07]} 5. Bd3 {[%clk 0:04:06]} Nf6 {[%clk 0:04:07]}
6. Qe2 {[%clk 0:04:03]} e5 {[%clk 0:04:00]} 7. Nf5 {[%clk 0:03:29]} Nc6
{[%clk 0:04:01]} 8. O-O {[%clk 0:03:17]} g6 {[%clk 0:03:21]} 9. Ne3
{[%clk 0:03:16]} Bg7 {[%clk 0:02:42]} 10. Nc3 {[%clk 0:03:17]} O-O
{[%clk 0:02:37]} 11. Ned5 {[%clk 0:03:15]} Nxd5 {[%clk 0:02:32]} 12. Nxd5
{[%clk 0:03:16]} d6 {[%clk 0:02:29]} 13. Be3 {[%clk 0:03:06]} Be6
{[%clk 0:02:29]} 14. Bc4 {[%clk 0:03:06]} b5 {[%clk 0:02:12]} 15. Bb3
{[%clk 0:03:07]} Nd4 {[%clk 0:02:11]} 16. Bxd4 {[%clk 0:03:07]} exd4
{[%clk 0:02:12]} *

[Event "No Logo Norway Chess 2014 Blitz"]
[Site "?"]
[Date "2014.06.02"]
[Round "9.5"]
[White "Caruana, Fabiano"]
[Black "Giri, Anish"]
[Result "*"]
[LiveChessVersion "1.4.2"]
[BlackElo "2752"]
[WhiteElo "2791"]
[ECO "A05"]

1. Nf3 {[%clk 0:04:02]} Nf6 {[%clk 0:04:04]} 2. g3 {[%clk 0:04:02]} g6
{[%clk 0:04:04]} 3. Bg2 {[%clk 0:04:03]} Bg7 {[%clk 0:04:05]} 4. O-O
{[%clk 0:04:01]} O-O {[%clk 0:04:05]} 5. b3 {[%clk 0:03:51]} d6 {[%clk 0:03:58]}
6. Bb2 {[%clk 0:03:51]} e5 {[%clk 0:03:51]} 7. c4 {[%clk 0:03:51]} c6
{[%clk 0:03:48]} 8. d3 {[%clk 0:03:49]} Re8 {[%clk 0:03:48]} 9. e4
{[%clk 0:03:31]} Nbd7 {[%clk 0:03:45]} 10. Nc3 {[%clk 0:03:30]} a5
{[%clk 0:03:39]} 11. Qc2 {[%clk 0:03:19]} Nc5 {[%clk 0:03:39]} 12. h3
{[%clk 0:03:11]} Ne6 {[%clk 0:03:29]} 13. Rad1 {[%clk 0:02:58]} Nh5
{[%clk 0:03:20]} 14. Ne2 {[%clk 0:02:52]} c5 {[%clk 0:03:20]} 15. Nc3
{[%clk 0:02:40]} Bd7 {[%clk 0:03:12]} 16. Nd5 {[%clk 0:02:35]} b5
{[%clk 0:03:05]} *

