[Event "No Logo Norway Chess 2014 Blitz"]
[Site "?"]
[Date "2014.06.02"]
[Round "8.1"]
[White "Giri, Anish"]
[Black "Svidler, Peter"]
[Result "0-1"]
[LiveChessVersion "1.4.2"]
[BlackElo "2753"]
[WhiteElo "2752"]
[ECO "B40"]

1. e4 {[%clk 0:04:02]} c5 {[%clk 0:03:47]} 2. Nf3 {[%clk 0:04:03]} e6
{[%clk 0:03:48]} 3. g3 {[%clk 0:04:03]} Nc6 {[%clk 0:03:46]} 4. Bg2
{[%clk 0:04:04]} Nf6 {[%clk 0:03:47]} 5. d3 {[%clk 0:04:03]} g6 {[%clk 0:03:48]}
6. O-O {[%clk 0:04:02]} Bg7 {[%clk 0:03:50]} 7. Re1 {[%clk 0:04:02]} d5
{[%clk 0:03:47]} 8. Nbd2 {[%clk 0:03:43]} O-O 9. c3 a5 {[%clk 0:03:46]} 10. e5
{[%clk 0:03:41]} Nd7 {[%clk 0:03:46]} 11. d4 {[%clk 0:03:42]} cxd4
{[%clk 0:03:36]} 12. cxd4 {[%clk 0:03:43]} f6 {[%clk 0:03:37]} 13. exf6
{[%clk 0:03:41]} Qxf6 {[%clk 0:03:38]} 14. Qe2 {[%clk 0:02:59]} Re8
{[%clk 0:02:59]} 15. b3 {[%clk 0:02:13]} Nxd4 {[%clk 0:02:48]} 16. Nxd4
{[%clk 0:02:15]} Qxd4 {[%clk 0:02:49]} 17. Rb1 {[%clk 0:02:16]} Qc5
{[%clk 0:01:57]} 18. Nf3 {[%clk 0:02:15]} e5 {[%clk 0:01:51]} 19. Be3
{[%clk 0:01:54]} Qd6 {[%clk 0:01:48]} 20. Rbd1 {[%clk 0:01:07]} Nf6
{[%clk 0:01:48]} 21. Bg5 {[%clk 0:00:58]} e4 {[%clk 0:01:47]} 22. Bf4
{[%clk 0:00:19]} Qf8 {[%clk 0:01:36]} 23. Ne5 {[%clk 0:00:07]} g5
{[%clk 0:01:34]} 24. Bxg5 {[%clk 0:00:07]} Rxe5 {[%clk 0:01:35]} 25. f4
{[%clk 0:00:06]} Qc5+ {[%clk 0:01:07]} 26. Kh1 {[%clk 0:00:05]} Bg4
{[%clk 0:01:07]} 27. Qd2 {[%clk 0:00:03]} e3 {[%clk 0:00:58]} 28. Qd3
{[%clk 0:00:04]} Re7 {[%clk 0:00:49]} 29. Rc1 {[%clk 0:00:04]} Qb6
{[%clk 0:00:42]} 30. f5 {[%clk 0:00:05]} Rae8 {[%clk 0:00:36]} 31. h3
{[%clk 0:00:06]} Bh5 {[%clk 0:00:37]} 32. g4 {[%clk 0:00:05]} Bf7
{[%clk 0:00:38]} 33. Bh4 {[%clk 0:00:05]} h6 {[%clk 0:00:38]} 0-1

[Event "No Logo Norway Chess 2014 Blitz"]
[Site "?"]
[Date "2014.06.02"]
[Round "8.2"]
[White "Agdestein, Simen"]
[Black "Karjakin, Sergey"]
[Result "0-1"]
[LiveChessVersion "1.4.2"]
[BlackElo "2771"]
[WhiteElo "2628"]
[ECO "E58"]

1. d4 {[%clk 0:04:03]} Nf6 {[%clk 0:04:03]} 2. c4 {[%clk 0:04:04]} e6
{[%clk 0:04:04]} 3. Nc3 {[%clk 0:04:05]} Bb4 {[%clk 0:04:05]} 4. e3
{[%clk 0:04:07]} O-O {[%clk 0:04:02]} 5. Bd3 {[%clk 0:04:07]} d5 {[%clk 0:04:02]}
6. Nf3 {[%clk 0:04:02]} c5 {[%clk 0:04:02]} 7. O-O {[%clk 0:04:01]} Nc6
{[%clk 0:03:59]} 8. a3 {[%clk 0:03:55]} Bxc3 {[%clk 0:03:59]} 9. bxc3
{[%clk 0:03:56]} Qc7 {[%clk 0:03:49]} 10. Bb2 {[%clk 0:03:33]} dxc4
{[%clk 0:03:41]} 11. Bxc4 {[%clk 0:03:35]} e5 {[%clk 0:03:42]} 12. h3
{[%clk 0:03:30]} Bf5 {[%clk 0:03:43]} 13. Ba2 {[%clk 0:03:07]} Rad8
{[%clk 0:03:41]} 14. Rc1 {[%clk 0:02:59]} Bg6 {[%clk 0:03:26]} 15. Qe2
{[%clk 0:01:40]} Bh5 {[%clk 0:03:25]} 16. g4 {[%clk 0:01:35]} Nxg4
{[%clk 0:03:17]} 17. hxg4 {[%clk 0:01:35]} Bxg4 {[%clk 0:03:18]} 18. e4
{[%clk 0:01:31]} Rd6 {[%clk 0:03:13]} 19. Qe3 {[%clk 0:01:15]} exd4
{[%clk 0:03:09]} 20. Nxd4 {[%clk 0:00:46]} cxd4 {[%clk 0:03:07]} 21. cxd4
{[%clk 0:00:2