[Event "No Logo Norway Chess 2014 Blitz"]
[Site "?"]
[Date "2014.06.02"]
[Round "8.1"]
[White "Giri, Anish"]
[Black "Svidler, Peter"]
[Result "*"]
[LiveChessVersion "1.4.2"]
[BlackElo "2753"]
[WhiteElo "2752"]

*

[Event "No Logo Norway Chess 2014 Blitz"]
[Site "?"]
[Date "2014.06.02"]
[Round "8.2"]
[White "Agdestein, Simen"]
[Black "Karjakin, Sergey"]
[Result "*"]
[LiveChessVersion "1.4.2"]
[BlackElo "2771"]
[WhiteElo "2628"]

*

[Event "No Logo Norway Chess 2014 Blitz"]
[Site "?"]
[Date "2014.06.02"]
[Round "8.3"]
[White "Kramnik, Vladimir"]
[Black "Carlsen, Magnus"]
[Result "*"]
[LiveChessVersion "1.4.2"]
[BlackElo "2881"]
[WhiteElo "2783"]

*

[Event "No Logo Norway Chess 2014 Blitz"]
[Site "?"]
[Date "2014.06.02"]
[Round "8.4"]
[White "Grischuk, Alexander"]
[Black "Aronian, Levon"]
[Result "*"]
[LiveChessVersion "1.4.2"]
[BlackElo "2815"]
[WhiteElo "2792"]

*

[Event "No Logo Norway Chess 2014 Blitz"]
[Site "?"]
[Date "2014.06.02"]
[Round "8.5"]
[White "Topalov, Veselin"]
[Black "Caruana, Fabiano"]
[Result "*"]
[LiveChessVersion "1.4.2"]
[BlackElo "2791"]
[WhiteElo "2772"]

*

