[Event "No Logo Norway Chess 2014 Blitz"]
[Site "?"]
[Date "2014.06.02"]
[Round "8.1"]
[White "Giri, Anish"]
[Black "Svidler, Peter"]
[Result "*"]
[LiveChessVersion "1.4.2"]
[BlackElo "2753"]
[WhiteElo "2752"]
[ECO "B40"]

1. e4 {[%clk 0:04:02]} c5 {[%clk 0:03:47]} 2. Nf3 {[%clk 0:04:03]} e6
{[%clk 0:03:48]} 3. g3 {[%clk 0:04:03]} Nc6 {[%clk 0:03:46]} 4. Bg2
{[%clk 0:04:04]} Nf6 {[%clk 0:03:47]} 5. d3 {[%clk 0:04:03]} g6 {[%clk 0:03:48]}
6. O-O {[%clk 0:04:02]} Bg7 {[%clk 0:03:50]} 7. Re1 {[%clk 0:04:02]} d5
{[%clk 0:03:47]} 8. Nbd2 {[%clk 0:03:43]} O-O 9. c3 a5 {[%clk 0:03:46]} 10. e5
{[%clk 0:03:41]} Nd7 {[%clk 0:03:46]} 11. d4 {[%clk 0:03:42]} cxd4
{[%clk 0:03:36]} 12. cxd4 {[%clk 0:03:43]} f6 {[%clk 0:03:37]} 13. exf6
{[%clk 0:03:41]} Qxf6 {[%clk 0:03:38]} 14. Qe2 {[%clk 0:02:59]} Re8
{[%clk 0:02:59]} 15. b3 {[%clk 0:02:13]} Nxd4 {[%clk 0:02:48]} 16. Nxd4
{[%clk 0:02:15]} Qxd4 {[%clk 0:02:49]} 17. Rb1 {[%clk 0:02:16]} Qc5
{[%clk 0:01:57]} 18. Nf3 {[%clk 0:02:15]} e5 {[%clk 0:01:51]} 19. Be3
{[%clk 0:01:54]} Qd6 {[%clk 0:01:48]} 20. Rbd1 {[%clk 0:01:07]} Nf6
{[%clk 0:01:48]} 21. Bg5 {[%clk 0:00:58]} e4 {[%clk 0:01:47]} 22. Bf4
{[%clk 0:00:19]} *

[Event "No Logo Norway Chess 2014 Blitz"]
[Site "?"]
[Date "2014.06.02"]
[Round "8.2"]
[White "Agdestein, Simen"]
[Black "Karjakin, Sergey"]
[Result "*"]
[LiveChessVersion "1.4.2"]
[BlackElo "2771"]
[WhiteElo "2628"]
[ECO "E58"]

1. d4 {[%clk 0:04:03]} Nf6 {[%clk 0:04:03]} 2. c4 {[%clk 0:04:04]} e6
{[%clk 0:04:04]} 3. Nc3 {[%clk 0:04:05]} Bb4 {[%clk 0:04:05]} 4. e3
{[%clk 0:04:07]} O-O {[%clk 0:04:02]} 5. Bd3 {[%clk 0:04:07]} d5 {[%clk 0:04:02]}
6. Nf3 {[%clk 0:04:02]} c5 {[%clk 0:04:02]} 7. O-O {[%clk 0:04:01]} Nc6
{[%clk 0:03:59]} 8. a3 {[%clk 0:03:55]} Bxc3 {[%clk 0:03:59]} 9. bxc3
{[%clk 0:03:56]} Qc7 {[%clk 0:03:49]} 10. Bb2 {[%clk 0:03:33]} dxc4
{[%clk 0:03:41]} 11. Bxc4 {[%clk 0:03:35]} e5 {[%clk 0:03:42]} 12. h3
{[%clk 0:03:30]} Bf5 {[%clk 0:03:43]} 13. Ba2 {[%clk 0:03:07]} Rad8
{[%clk 0:03:41]} 14. Rc1 {[%clk 0:02:59]} Bg6 {[%clk 0:03:26]} 15. Qe2
{[%clk 0:01:40]} Bh5 {[%clk 0:03:25]} 16. g4 {[%clk 0:01:35]} Nxg4
{[%clk 0:03:17]} 17. hxg4 {[%clk 0:01:35]} Bxg4 {[%clk 0:03:18]} 18. e4
{[%clk 0:01:31]} Rd6 {[%clk 0:03:13]} 19. Qe3 {[%clk 0:01:15]} exd4
{[%clk 0:03:09]} 20. Nxd4 {[%clk 0:00:46]} cxd4 {[%clk 0:03:07]} 21. cxd4
{[%clk 0:00:29]} Rg6 {[%clk 0:02:50]} 22. f4 {[%clk 0:00:30]} Bh3+
{[%clk 0:02:29]} 23. Kh2 {[%clk 0:00:23]} Bxf1 {[%clk 0:02:29]} 24. Rxf1
{[%clk 0:00:23]} Qb6 {[%clk 0:02:23]} 25. Rf2 {[%clk 0:00:19]} Rg4
{[%clk 0:02:20]} 26. Qf3 {[%clk 0:00:11]} Ne5 *

[Event "No Logo Norway Chess 2014 Blitz"]
[Site "?"]
[Date "2014.06.02"]
[Round "8.3"]
[White "Kramnik, Vladimir"]
[Black "Carlsen, Magnus"]
[Result "*"]
[LiveChessVersion "1.4.2"]
[BlackElo "2881"]
[WhiteElo "2783"]
[ECO "E32"]

1. d4 {[%clk 0:04:03]} Nf6 {[%clk 0:04:03]} 2. c4 {[%clk 0:04:04]} e6
{[%clk 0:04:04]} 3. Nc3 {[%clk 0:04:05]} Bb4 {[%clk 0:04:05]} 4. Qc2
{[%clk 0:04:06]} d6 {[%clk 0:04:00]} 5. Nf3 {[%clk 0:04:05]} Nbd7
{[%clk 0:04:01]} 6. g3 {[%clk 0:04:05]} d5 {[%clk 0:03:23]} 7. Bg2
{[%clk 0:04:02]} dxc4 {[%clk 0:03:24]} 8. O-O {[%clk 0:04:01]} O-O
{[%clk 0:03:20]} 9. Rd1 {[%clk 0:03:58]} Qe7 {[%clk 0:02:57]} 10. Bg5
{[%clk 0:03:47]} h6 {[%clk 0:02:27]} 11. Bxf6 {[%clk 0:03:42]} Nxf6
{[%clk 0:02:27]} 12. Ne5 {[%clk 0:03:41]} c5 {[%clk 0:02:19]} 13. a3
{[%clk 0:03:33]} Ba5 {[%clk 0:02:00]} 14. Nxc4 {[%clk 0:03:30]} Bc7
{[%clk 0:02:00]} 15. Nb5 {[%clk 0:02:58]} cxd4 {[%clk 0:01:33]} 16. Nxd4
{[%clk 0:02:49]} e5 {[%clk 0:01:28]} 17. Nf5 {[%clk 0:02:47]} Bxf5
{[%clk 0:01:29]} 18. Qxf5 {[%clk 0:02:48]} e4 {[%clk 0:01:29]} 19. Qb5
{[%clk 0:02:17]} Rab8 {[%clk 0:01:30]} 20. Rac1 {[%clk 0:02:14]} Rfd8
{[%clk 0:01:13]} 21. Rxd8+ {[%clk 0:01:49]} Qxd8 {[%clk 0:01:14]} 22. e3
{[%clk 0:01:26]} a6 {[%clk 0:01:14]} 23. Qb3 {[%clk 0:01:14]} b5 {[%clk 0:01:15]}
24. Rd1 {[%clk 0:01:15]} Qe7 {[%clk 0:01:16]} 25. Nd2 {[%clk 0:01:16]} Rd8
{[%clk 0:01:15]} *

[Event "No Logo Norway Chess 2014 Blitz"]
[Site "?"]
[Date "2014.06.02"]
[Round "8.4"]
[White "Grischuk, Alexander"]
[Black "Aronian, Levon"]
[Result "*"]
[LiveChessVersion "1.4.2"]
[BlackElo "2815"]
[WhiteElo "2792"]
[ECO "C24"]

1. e4 {[%clk 0:04:03]} e5 {[%clk 0:04:04]} 2. Bc4 {[%clk 0:04:04]} Nf6
{[%clk 0:04:03]} 3. d3 {[%clk 0:04:05]} c6 {[%clk 0:04:03]} 4. Nf3
{[%clk 0:04:05]} Be7 {[%clk 0:04:04]} 5. O-O {[%clk 0:04:03]} d6 {[%clk 0:04:06]}
6. Re1 {[%clk 0:04:00]} O-O {[%clk 0:04:06]} 7. Nbd2 {[%clk 0:03:58]} Nbd7
{[%clk 0:04:06]} 8. a3 {[%clk 0:03:52]} Nc5 {[%clk 0:03:55]} 9. Ba2
{[%clk 0:03:36]} Be6 {[%clk 0:03:52]} 10. Nc4 {[%clk 0:03:20]} b5
{[%clk 0:03:47]} 11. Ne3 {[%clk 0:03:20]} Bxa2 {[%clk 0:03:48]} 12. Rxa2
{[%clk 0:03:21]} g6 {[%clk 0:03:48]} 13. Bd2 {[%clk 0:02:44]} Re8
{[%clk 0:03:48]} 14. b4 {[%clk 0:02:37]} Na4 {[%clk 0:03:46]} 15. c4
{[%clk 0:02:38]} Bf8 {[%clk 0:03:44]} 16. Qb3 {[%clk 0:02:38]} a6
{[%clk 0:03:02]} 17. Rc2 {[%clk 0:02:38]} Ra7 {[%clk 0:02:53]} 18. cxb5
{[%clk 0:02:19]} cxb5 {[%clk 0:02:54]} 19. Nd5 {[%clk 0:02:18]} Nxd5
{[%clk 0:02:49]} 20. Qxd5 {[%clk 0:02:18]} Qa8 {[%clk 0:02:21]} 21. Rc6
{[%clk 0:01:54]} Rc8 {[%clk 0:02:19]} 22. Rec1 {[%clk 0:01:52]} Rxc6
{[%clk 0:02:19]} 23. Rxc6 {[%clk 0:01:23]} Rd7 {[%clk 0:02:13]} 24. Nxe5
{[%clk 0:00:56]} Nb6 {[%clk 0:02:14]} 25. Rxb6 {[%clk 0:00:39]} Qxd5
{[%clk 0:02:15]} 26. exd5 {[%clk 0:00:40]} dxe5 {[%clk 0:02:16]} 27. Rxa6
{[%clk 0:00:16]} Rxd5 {[%clk 0:02:17]} 28. Kf1 {[%clk 0:00:17]} e4
{[%clk 0:02:12]} *

[Event "No Logo Norway Chess 2014 Blitz"]
[Site "?"]
[Date "2014.06.02"]
[Round "8.5"]
[White "Topalov, Veselin"]
[Black "Caruana, Fabiano"]
[Result "*"]
[LiveChessVersion "1.4.2"]
[BlackElo "2791"]
[WhiteElo "2772"]
[ECO "A08"]

1. e4 {[%clk 0:04:02]} c5 {[%clk 0:04:03]} 2. Nf3 {[%clk 0:04:03]} e6
{[%clk 0:04:04]} 3. g3 {[%clk 0:04:04]} Nc6 {[%clk 0:04:00]} 4. Bg2
{[%clk 0:04:04]} Nf6 {[%clk 0:04:01]} 5. d3 {[%clk 0:04:02]} d5 {[%clk 0:03:54]}
6. Nbd2 {[%clk 0:04:02]} Be7 {[%clk 0:03:52]} 7. O-O {[%clk 0:04:02]} O-O
{[%clk 0:03:47]} 8. Re1 {[%clk 0:04:03]} b5 {[%clk 0:03:43]} 9. exd5
{[%clk 0:04:04]} exd5 {[%clk 0:03:30]} 10. d4 {[%clk 0:04:05]} Bg4
{[%clk 0:03:19]} 11. h3 {[%clk 0:03:57]} Bh5 {[%clk 0:03:18]} 12. dxc5
{[%clk 0:03:47]} Bxc5 {[%clk 0:03:18]} 13. Nb3 {[%clk 0:03:47]} Bb6
{[%clk 0:03:17]} 14. a4 {[%clk 0:03:37]} bxa4 {[%clk 0:02:37]} 15. Rxa4
{[%clk 0:03:38]} Re8 {[%clk 0:02:32]} 16. Bg5 {[%clk 0:03:12]} Rxe1+
{[%clk 0:02:23]} 17. Qxe1 {[%clk 0:03:14]} h6 {[%clk 0:02:21]} 18. Be3
{[%clk 0:03:11]} Bg6 {[%clk 0:02:06]} 19. c3 {[%clk 0:03:03]} Bc2
{[%clk 0:01:57]} 20. Ra3 {[%clk 0:03:01]} Rb8 {[%clk 0:01:52]} 21. Nfd4
{[%clk 0:01:54]} Bxd4 {[%clk 0:01:45]} 22. Nxd4 {[%clk 0:01:54]} Nxd4
{[%clk 0:01:45]} 23. Bxd4 {[%clk 0:01:55]} Rxb2 {[%clk 0:01:45]} 24. Kh2
{[%clk 0:01:55]} Be4 {[%clk 0:01:32]} 25. Rxa7 {[%clk 0:01:54]} Bxg2
{[%clk 0:01:14]} 26. Kxg2 {[%clk 0:01:54]} Ne4 {[%clk 0:01:01]} 27. Qa1
{[%clk 0:01:54]} Rb8 {[%clk 0:01:02]} 28. Qa5 {[%clk 0:01:47]} Qxa5
{[%clk 0:00:57]} 29. Rxa5 {[%clk 0:01:48]} Rc8 {[%clk 0:00:52]} 30. Rxd5
{[%clk 0:01:44]} Nxc3 {[%clk 0:00:53]} 31. Bxc3 {[%clk 0:01:45]} Rxc3
{[%clk 0:00:54]} *

