[Event "No Logo Norway Chess 2014 Blitz"]
[Site "?"]
[Date "2014.06.02"]
[Round "8.1"]
[White "Giri, Anish"]
[Black "Svidler, Peter"]
[Result "*"]
[LiveChessVersion "1.4.2"]
[BlackElo "2753"]
[WhiteElo "2752"]
[ECO "B00"]

1. e4 {[%clk 0:04:02]} *

[Event "No Logo Norway Chess 2014 Blitz"]
[Site "?"]
[Date "2014.06.02"]
[Round "8.2"]
[White "Agdestein, Simen"]
[Black "Karjakin, Sergey"]
[Result "*"]
[LiveChessVersion "1.4.2"]
[BlackElo "2771"]
[WhiteElo "2628"]
[ECO "E47"]

1. d4 {[%clk 0:04:03]} Nf6 {[%clk 0:04:03]} 2. c4 {[%clk 0:04:04]} e6
{[%clk 0:04:04]} 3. Nc3 {[%clk 0:04:05]} Bb4 {[%clk 0:04:05]} 4. e3
{[%clk 0:04:07]} O-O {[%clk 0:04:02]} 5. Bd3 *

[Event "No Logo Norway Chess 2014 Blitz"]
[Site "?"]
[Date "2014.06.02"]
[Round "8.3"]
[White "Kramnik, Vladimir"]
[Black "Carlsen, Magnus"]
[Result "*"]
[LiveChessVersion "1.4.2"]
[BlackElo "2881"]
[WhiteElo "2783"]
[ECO "E32"]

1. d4 {[%clk 0:04:03]} Nf6 {[%clk 0:04:03]} 2. c4 {[%clk 0:04:04]} e6
{[%clk 0:04:04]} 3. Nc3 {[%clk 0:04:05]} Bb4 {[%clk 0:04:05]} 4. Qc2
{[%clk 0:04:06]} d6 {[%clk 0:04:00]} *

[Event "No Logo Norway Chess 2014 Blitz"]
[Site "?"]
[Date "2014.06.02"]
[Round "8.4"]
[White "Grischuk, Alexander"]
[Black "Aronian, Levon"]
[Result "*"]
[LiveChessVersion "1.4.2"]
[BlackElo "2815"]
[WhiteElo "2792"]
[ECO "C24"]

1. e4 {[%clk 0:04:03]} e5 {[%clk 0:04:04]} 2. Bc4 {[%clk 0:04:04]} Nf6
{[%clk 0:04:03]} 3. d3 {[%clk 0:04:05]} c6 {[%clk 0:04:03]} 4. Nf3
{[%clk 0:04:05]} Be7 {[%clk 0:04:04]} 5. O-O *

[Event "No Logo Norway Chess 2014 Blitz"]
[Site "?"]
[Date "2014.06.02"]
[Round "8.5"]
[White "Topalov, Veselin"]
[Black "Caruana, Fabiano"]
[Result "*"]
[LiveChessVersion "1.4.2"]
[BlackElo "2791"]
[WhiteElo "2772"]
[ECO "B40"]

1. e4 {[%clk 0:04:02]} c5 {[%clk 0:04:03]} 2. Nf3 {[%clk 0:04:03]} e6
{[%clk 0:04:04]} 3. g3 {[%clk 0:04:04]} Nc6 {[%clk 0:04:00]} *

