[Event "No Logo Norway Chess 2014 Blitz"]
[Site "?"]
[Date "2014.06.02"]
[Round "8.1"]
[White "Giri, Anish"]
[Black "Svidler, Peter"]
[Result "*"]
[LiveChessVersion "1.4.2"]
[BlackElo "2753"]
[WhiteElo "2752"]
[ECO "B40"]

1. e4 {[%clk 0:04:02]} c5 {[%clk 0:03:47]} 2. Nf3 {[%clk 0:04:03]} e6
{[%clk 0:03:48]} 3. g3 {[%clk 0:04:03]} Nc6 {[%clk 0:03:46]} 4. Bg2
{[%clk 0:04:04]} Nf6 {[%clk 0:03:47]} 5. d3 {[%clk 0:04:03]} g6 {[%clk 0:03:48]}
6. O-O {[%clk 0:04:02]} Bg7 {[%clk 0:03:50]} 7. Re1 {[%clk 0:04:02]} d5
{[%clk 0:03:47]} 8. Nbd2 {[%clk 0:03:43]} O-O 9. c3 a5 {[%clk 0:03:46]} 10. e5
{[%clk 0:03:41]} Nd7 {[%clk 0:03:46]} 11. d4 {[%clk 0:03:42]} cxd4
{[%clk 0:03:36]} 12. cxd4 {[%clk 0:03:43]} f6 {[%clk 0:03:37]} 13. exf6
{[%clk 0:03:41]} Qxf6 {[%clk 0:03:38]} 14. Qe2 {[%clk 0:02:59]} Re8
{[%clk 0:02:59]} *

[Event "No Logo Norway Chess 2014 Blitz"]
[Site "?"]
[Date "2014.06.02"]
[Round "8.2"]
[White "Agdestein, Simen"]
[Black "Karjakin, Sergey"]
[Result "*"]
[LiveChessVersion "1.4.2"]
[BlackElo "2771"]
[WhiteElo "2628"]
[ECO "E58"]

1. d4 {[%clk 0:04:03]} Nf6 {[%clk 0:04:03]} 2. c4 {[%clk 0:04:04]} e6
{[%clk 0:04:04]} 3. Nc3 {[%clk 0:04:05]} Bb4 {[%clk 0:04:05]} 4. e3
{[%clk 0:04:07]} O-O {[%clk 0:04:02]} 5. Bd3 {[%clk 0:04:07]} d5 {[%clk 0:04:02]}
6. Nf3 {[%clk 0:04:02]} c5 {[%clk 0:04:02]} 7. O-O {[%clk 0:04:01]} Nc6
{[%clk 0:03:59]} 8. a3 {[%clk 0:03:55]} Bxc3 {[%clk 0:03:59]} 9. bxc3
{[%clk 0:03:56]} Qc7 {[%clk 0:03:49]} 10. Bb2 {[%clk 0:03:33]} dxc4
{[%clk 0:03:41]} 11. Bxc4 {[%clk 0:03:35]} e5 {[%clk 0:03:42]} 12. h3
{[%clk 0:03:30]} Bf5 {[%clk 0:03:43]} 13. Ba2 {[%clk 0:03:07]} Rad8
{[%clk 0:03:41]} 14. Rc1 {[%clk 0:02:59]} Bg6 {[%clk 0:03:26]} *

[Event "No Logo Norway Chess 2014 Blitz"]
[Site "?"]
[Date "2014.06.02"]
[Round "8.3"]
[White "Kramnik, Vladimir"]
[Black "Carlsen, Magnus"]
[Result "*"]
[LiveChessVersion "1.4.2"]
[BlackElo "2881"]
[WhiteElo "2783"]
[ECO "E32"]

1. d4 {[%clk 0:04:03]} Nf6 {[%clk 0:04:03]} 2. c4 {[%clk 0:04:04]} e6
{[%clk 0:04:04]} 3. Nc3 {[%clk 0:04:05]} Bb4 {[%clk 0:04:05]} 4. Qc2
{[%clk 0:04:06]} d6 {[%clk 0:04:00]} 5. Nf3 {[%clk 0:04:05]} Nbd7
{[%clk 0:04:01]} 6. g3 {[%clk 0:04:05]} d5 {[%clk 0:03:23]} 7. Bg2
{[%clk 0:04:02]} dxc4 {[%clk 0:03:24]} 8. O-O {[%clk 0:04:01]} O-O
{[%clk 0:03:20]} 9. Rd1 {[%clk 0:03:58]} Qe7 {[%clk 0:02:57]} 10. Bg5
{[%clk 0:03:47]} h6 {[%clk 0:02:27]} 11. Bxf6 {[%clk 0:03:42]} Nxf6
{[%clk 0:02:27]} 12. Ne5 {[%clk 0:03:41]} c5 {[%clk 0:02:19]} 13. a3
{[%clk 0:03:33]} *

[Event "No Logo Norway Chess 2014 Blitz"]
[Site "?"]
[Date "2014.06.02"]
[Round "8.4"]
[White "Grischuk, Alexander"]
[Black "Aronian, Levon"]
[Result "*"]
[LiveChessVersion "1.4.2"]
[BlackElo "2815"]
[WhiteElo "2792"]
[ECO "C24"]

1. e4 {[%clk 0:04:03]} e5 {[%clk 0:04:04]} 2. Bc4 {[%clk 0:04:04]} Nf6
{[%clk 0:04:03]} 3. d3 {[%clk 0:04:05]} c6 {[%clk 0:04:03]} 4. Nf3
{[%clk 0:04:05]} Be7 {[%clk 0:04:04]} 5. O-O {[%clk 0:04:03]} d6 {[%clk 0:04:06]}
6. Re1 {[%clk 0:04:00]} O-O {[%clk 0:04:06]} 7. Nbd2 {[%clk 0:03:58]} Nbd7
{[%clk 0:04:06]} 8. a3 {[%clk 0:03:52]} Nc5 {[%clk 0:03:55]} 9. Ba2
{[%clk 0:03:36]} Be6 {[%clk 0:03:52]} 10. Nc4 {[%clk 0:03:20]} b5
{[%clk 0:03:47]} 11. Ne3 {[%clk 0:03:20]} Bxa2 {[%clk 0:03:48]} 12. Rxa2
{[%clk 0:03:21]} g6 {[%clk 0:03:48]} 13. Bd2 {[%clk 0:02:44]} Re8
{[%clk 0:03:48]} 14. b4 {[%clk 0:02:37]} Na4 {[%clk 0:03:46]} 15. c4
{[%clk 0:02:38]} Bf8 {[%clk 0:03:44]} 16. Qb3 {[%clk 0:02:38]} *

[Event "No Logo Norway Chess 2014 Blitz"]
[Site "?"]
[Date "2014.06.02"]
[Round "8.5"]
[White "Topalov, Veselin"]
[Black "Caruana, Fabiano"]
[Result "*"]
[LiveChessVersion "1.4.2"]
[BlackElo "2791"]
[WhiteElo "2772"]
[ECO "A08"]

1. e4 {[%clk 0:04:02]} c5 {[%clk 0:04:03]} 2. Nf3 {[%clk 0:04:03]} e6
{[%clk 0:04:04]} 3. g3 {[%clk 0:04:04]} Nc6 {[%clk 0:04:00]} 4. Bg2
{[%clk 0:04:04]} Nf6 {[%clk 0:04:01]} 5. d3 {[%clk 0:04:02]} d5 {[%clk 0:03:54]}
6. Nbd2 {[%clk 0:04:02]} Be7 {[%clk 0:03:52]} 7. O-O {[%clk 0:04:02]} O-O
{[%clk 0:03:47]} 8. Re1 {[%clk 0:04:03]} b5 {[%clk 0:03:43]} 9. exd5
{[%clk 0:04:04]} exd5 {[%clk 0:03:30]} 10. d4 {[%clk 0:04:05]} Bg4
{[%clk 0:03:19]} 11. h3 {[%clk 0:03:57]} Bh5 {[%clk 0:03:18]} 12. dxc5
{[%clk 0:03:47]} Bxc5 {[%clk 0:03:18]} 13. Nb3 {[%clk 0:03:47]} Bb6
{[%clk 0:03:17]} 14. a4 {[%clk 0:03:37]} bxa4 {[%clk 0:02:37]} 15. Rxa4
{[%clk 0:03:38]} Re8 {[%clk 0:02:32]} *

